%!PS-Adobe-3.0 EPSF-3.0 
%%BoundingBox: 0 0 284 170
%%Pages: 0
%%Creator: LibreOffice 5.3
%%Title: none
%%CreationDate: none
%%LanguageLevel: 2
%%EndComments
%%BeginProlog
%%BeginResource: procset SDRes-Prolog 1.0 0
/b4_inc_state save def
/dict_count countdictstack def
/op_count count 1 sub def
userdict begin
0 setgray 0 setlinecap 1 setlinewidth 0 setlinejoin 10 setmiterlimit[] 0 setdash newpath
/languagelevel where {pop languagelevel 1 ne {false setstrokeadjust false setoverprint} if} if
/bdef {bind def} bind def
/c {setgray} bdef
/l {neg lineto} bdef
/rl {neg rlineto} bdef
/lc {setlinecap} bdef
/lj {setlinejoin} bdef
/lw {setlinewidth} bdef
/ml {setmiterlimit} bdef
/ld {setdash} bdef
/m {neg moveto} bdef
/ct {6 2 roll neg 6 2 roll neg 6 2 roll neg curveto} bdef
/r {rotate} bdef
/t {neg translate} bdef
/s {scale} bdef
/sw {show} bdef
/gs {gsave} bdef
/gr {grestore} bdef
/f {findfont dup length dict begin
{1 index /FID ne {def} {pop pop} ifelse} forall /Encoding ISOLatin1Encoding def
currentdict end /NFont exch definefont pop /NFont findfont} bdef
/p {closepath} bdef
/sf {scalefont setfont} bdef
/ef {eofill}bdef
/pc {closepath stroke}bdef
/ps {stroke}bdef
/pum {matrix currentmatrix}bdef
/pom {setmatrix}bdef
/bs {/aString exch def /nXOfs exch def /nWidth exch def currentpoint nXOfs 0 rmoveto pum nWidth aString stringwidth pop div 1 scale aString show pom moveto} bdef
%%EndResource
%%EndProlog
%%BeginSetup
%%EndSetup
%%Page: 1 1
%%BeginPageSetup
%%EndPageSetup
pum
0.02839 0.02832 s 
0 -6001 t
/tm matrix currentmatrix def
tm setmatrix
-5198 -7696 t 
1 1 s 
0.996 c 5649 10497 m  5199 10497 l  5199 9097 l  6099 9097 l  6099 10497 l 
5649 10497 l  p ef
0 lw 1 lj 0.000 c 5648 10496 m  5198 10496 l  5198 9096 l  6098 9096 l  6098 10496 l 
5648 10496 l  pc
pum
5474 9962 t
128 6 m  95 6 69 -3 52 -21 ct 35 -38 27 -63 27 -94 ct 27 -129 38 -155 61 -174 ct 
84 -192 121 -202 172 -204 ct 247 -205 l  247 -223 l  247 -250 241 -270 230 -282 ct 
218 -294 200 -299 175 -299 ct 150 -299 132 -295 121 -287 ct 109 -278 102 -265 100 -246 ct 
42 -251 l  51 -312 96 -342 176 -342 ct 219 -342 250 -332 272 -313 ct 293 -294 304 -266 304 -229 ct 
304 -85 l  304 -68 306 -55 310 -47 ct 314 -39 323 -35 335 -35 ct 340 -35 346 -35 353 -37 ct 
353 -2 l  339 1 325 3 310 3 ct 289 3 274 -2 265 -13 ct 256 -24 250 -41 249 -64 ct 
247 -64 l  233 -39 216 -21 197 -10 ct 178 1 155 6 128 6 ct p
141 -36 m  162 -36 180 -41 196 -50 ct 212 -59 224 -72 233 -88 ct 243 -104 247 -121 247 -138 ct 
247 -166 l  186 -165 l  160 -164 140 -161 126 -157 ct 113 -152 102 -144 95 -134 ct 
88 -123 84 -110 84 -93 ct 84 -75 89 -61 99 -51 ct 109 -41 123 -36 141 -36 ct p ef
pom
0.996 c 6549 10497 m  6099 10497 l  6099 9097 l  6999 9097 l  6999 10497 l 
6549 10497 l  p ef
0.000 c 6548 10496 m  6098 10496 l  6098 9096 l  6998 9096 l  6998 10496 l 
6548 10496 l  pc
pum
6374 9962 t
326 -169 m  326 -52 285 7 203 7 ct 178 7 157 2 140 -7 ct 123 -16 109 -31 99 -51 ct 
98 -51 l  98 -45 98 -35 97 -22 ct 96 -9 95 -1 95 1 ct 41 1 l  42 -10 43 -33 43 -68 ct 
43 -460 l  99 -460 l  99 -328 l  99 -315 98 -299 97 -281 ct 99 -281 l  109 -302 123 -318 140 -327 ct 
157 -336 178 -341 203 -341 ct 245 -341 277 -327 297 -298 ct 317 -270 326 -227 326 -169 ct 
p
268 -167 m  268 -214 262 -247 249 -268 ct 237 -288 217 -298 189 -298 ct 157 -298 135 -287 120 -266 ct 
106 -244 99 -210 99 -163 ct 99 -119 106 -87 120 -66 ct 134 -45 157 -34 188 -34 ct 
216 -34 237 -45 249 -65 ct 262 -86 268 -120 268 -167 ct p ef
pom
0.996 c 7449 10497 m  6999 10497 l  6999 9097 l  7898 9097 l  7898 10497 l 
7449 10497 l  p ef
0.000 c 7448 10496 m  6998 10496 l  6998 9096 l  7898 9096 l  7898 10496 l 
7448 10496 l  pc
pum
7274 9962 t
128 6 m  95 6 69 -3 52 -21 ct 35 -38 27 -63 27 -94 ct 27 -129 38 -155 61 -174 ct 
84 -192 121 -202 172 -204 ct 247 -205 l  247 -223 l  247 -250 241 -270 230 -282 ct 
218 -294 200 -299 175 -299 ct 150 -299 132 -295 121 -287 ct 109 -278 102 -265 100 -246 ct 
42 -251 l  51 -312 96 -342 176 -342 ct 219 -342 250 -332 272 -313 ct 293 -294 304 -266 304 -229 ct 
304 -85 l  304 -68 306 -55 310 -47 ct 314 -39 323 -35 335 -35 ct 340 -35 346 -35 353 -37 ct 
353 -2 l  339 1 325 3 310 3 ct 289 3 274 -2 265 -13 ct 256 -24 250 -41 249 -64 ct 
247 -64 l  233 -39 216 -21 197 -10 ct 178 1 155 6 128 6 ct p
141 -36 m  162 -36 180 -41 196 -50 ct 212 -59 224 -72 233 -88 ct 243 -104 247 -121 247 -138 ct 
247 -166 l  186 -165 l  160 -164 140 -161 126 -157 ct 113 -152 102 -144 95 -134 ct 
88 -123 84 -110 84 -93 ct 84 -75 89 -61 99 -51 ct 109 -41 123 -36 141 -36 ct p ef
pom
0.996 c 8348 10497 m  7898 10497 l  7898 9097 l  8798 9097 l  8798 10497 l 
8348 10497 l  p ef
0.000 c 8348 10496 m  7898 10496 l  7898 9096 l  8798 9096 l  8798 10496 l 
8348 10496 l  pc
pum
8173 9962 t
128 6 m  95 6 69 -3 52 -21 ct 35 -38 27 -63 27 -94 ct 27 -129 38 -155 61 -174 ct 
84 -192 121 -202 172 -204 ct 247 -205 l  247 -223 l  247 -250 241 -270 230 -282 ct 
218 -294 200 -299 175 -299 ct 150 -299 132 -295 121 -287 ct 109 -278 102 -265 100 -246 ct 
42 -251 l  51 -312 96 -342 176 -342 ct 219 -342 250 -332 272 -313 ct 293 -294 304 -266 304 -229 ct 
304 -85 l  304 -68 306 -55 310 -47 ct 314 -39 323 -35 335 -35 ct 340 -35 346 -35 353 -37 ct 
353 -2 l  339 1 325 3 310 3 ct 289 3 274 -2 265 -13 ct 256 -24 250 -41 249 -64 ct 
247 -64 l  233 -39 216 -21 197 -10 ct 178 1 155 6 128 6 ct p
141 -36 m  162 -36 180 -41 196 -50 ct 212 -59 224 -72 233 -88 ct 243 -104 247 -121 247 -138 ct 
247 -166 l  186 -165 l  160 -164 140 -161 126 -157 ct 113 -152 102 -144 95 -134 ct 
88 -123 84 -110 84 -93 ct 84 -75 89 -61 99 -51 ct 109 -41 123 -36 141 -36 ct p ef
pom
0.996 c 9248 10497 m  8798 10497 l  8798 9097 l  9698 9097 l  9698 10497 l 
9248 10497 l  p ef
0.000 c 9248 10496 m  8798 10496 l  8798 9096 l  9698 9096 l  9698 10496 l 
9248 10496 l  pc
pum
9073 9962 t
128 6 m  95 6 69 -3 52 -21 ct 35 -38 27 -63 27 -94 ct 27 -129 38 -155 61 -174 ct 
84 -192 121 -202 172 -204 ct 247 -205 l  247 -223 l  247 -250 241 -270 230 -282 ct 
218 -294 200 -299 175 -299 ct 150 -299 132 -295 121 -287 ct 109 -278 102 -265 100 -246 ct 
42 -251 l  51 -312 96 -342 176 -342 ct 219 -342 250 -332 272 -313 ct 293 -294 304 -266 304 -229 ct 
304 -85 l  304 -68 306 -55 310 -47 ct 314 -39 323 -35 335 -35 ct 340 -35 346 -35 353 -37 ct 
353 -2 l  339 1 325 3 310 3 ct 289 3 274 -2 265 -13 ct 256 -24 250 -41 249 -64 ct 
247 -64 l  233 -39 216 -21 197 -10 ct 178 1 155 6 128 6 ct p
141 -36 m  162 -36 180 -41 196 -50 ct 212 -59 224 -72 233 -88 ct 243 -104 247 -121 247 -138 ct 
247 -166 l  186 -165 l  160 -164 140 -161 126 -157 ct 113 -152 102 -144 95 -134 ct 
88 -123 84 -110 84 -93 ct 84 -75 89 -61 99 -51 ct 109 -41 123 -36 141 -36 ct p ef
pom
0.996 c 10148 10497 m  9698 10497 l  9698 9097 l  10598 9097 l  10598 10497 l 
10148 10497 l  p ef
0.000 c 10147 10496 m  9698 10496 l  9698 9096 l  10597 9096 l  10597 10496 l 
10147 10496 l  pc
pum
9973 9962 t
326 -169 m  326 -52 285 7 203 7 ct 178 7 157 2 140 -7 ct 123 -16 109 -31 99 -51 ct 
98 -51 l  98 -45 98 -35 97 -22 ct 96 -9 95 -1 95 1 ct 41 1 l  42 -10 43 -33 43 -68 ct 
43 -460 l  99 -460 l  99 -328 l  99 -315 98 -299 97 -281 ct 99 -281 l  109 -302 123 -318 140 -327 ct 
157 -336 178 -341 203 -341 ct 245 -341 277 -327 297 -298 ct 317 -270 326 -227 326 -169 ct 
p
268 -167 m  268 -214 262 -247 249 -268 ct 237 -288 217 -298 189 -298 ct 157 -298 135 -287 120 -266 ct 
106 -244 99 -210 99 -163 ct 99 -119 106 -87 120 -66 ct 134 -45 157 -34 188 -34 ct 
216 -34 237 -45 249 -65 ct 262 -86 268 -120 268 -167 ct p ef
pom
0.996 c 11048 10497 m  10598 10497 l  10598 9097 l  11498 9097 l  11498 10497 l 
11048 10497 l  p ef
0.000 c 11047 10496 m  10597 10496 l  10597 9096 l  11497 9096 l  11497 10496 l 
11047 10496 l  pc
pum
10873 9962 t
128 6 m  95 6 69 -3 52 -21 ct 35 -38 27 -63 27 -94 ct 27 -129 38 -155 61 -174 ct 
84 -192 121 -202 172 -204 ct 247 -205 l  247 -223 l  247 -250 241 -270 230 -282 ct 
218 -294 200 -299 175 -299 ct 150 -299 132 -295 121 -287 ct 109 -278 102 -265 100 -246 ct 
42 -251 l  51 -312 96 -342 176 -342 ct 219 -342 250 -332 272 -313 ct 293 -294 304 -266 304 -229 ct 
304 -85 l  304 -68 306 -55 310 -47 ct 314 -39 323 -35 335 -35 ct 340 -35 346 -35 353 -37 ct 
353 -2 l  339 1 325 3 310 3 ct 289 3 274 -2 265 -13 ct 256 -24 250 -41 249 -64 ct 
247 -64 l  233 -39 216 -21 197 -10 ct 178 1 155 6 128 6 ct p
141 -36 m  162 -36 180 -41 196 -50 ct 212 -59 224 -72 233 -88 ct 243 -104 247 -121 247 -138 ct 
247 -166 l  186 -165 l  160 -164 140 -161 126 -157 ct 113 -152 102 -144 95 -134 ct 
88 -123 84 -110 84 -93 ct 84 -75 89 -61 99 -51 ct 109 -41 123 -36 141 -36 ct p ef
pom
0.996 c 11948 10497 m  11498 10497 l  11498 9097 l  12398 9097 l  12398 10497 l 
11948 10497 l  p ef
0.000 c 11947 10496 m  11497 10496 l  11497 9096 l  12397 9096 l  12397 10496 l 
11947 10496 l  pc
pum
11773 9962 t
326 -169 m  326 -52 285 7 203 7 ct 178 7 157 2 140 -7 ct 123 -16 109 -31 99 -51 ct 
98 -51 l  98 -45 98 -35 97 -22 ct 96 -9 95 -1 95 1 ct 41 1 l  42 -10 43 -33 43 -68 ct 
43 -460 l  99 -460 l  99 -328 l  99 -315 98 -299 97 -281 ct 99 -281 l  109 -302 123 -318 140 -327 ct 
157 -336 178 -341 203 -341 ct 245 -341 277 -327 297 -298 ct 317 -270 326 -227 326 -169 ct 
p
268 -167 m  268 -214 262 -247 249 -268 ct 237 -288 217 -298 189 -298 ct 157 -298 135 -287 120 -266 ct 
106 -244 99 -210 99 -163 ct 99 -119 106 -87 120 -66 ct 134 -45 157 -34 188 -34 ct 
216 -34 237 -45 249 -65 ct 262 -86 268 -120 268 -167 ct p ef
pom
0.996 c 12847 10497 m  12398 10497 l  12398 9097 l  13297 9097 l  13297 10497 l 
12847 10497 l  p ef
0.000 c 12847 10496 m  12397 10496 l  12397 9096 l  13297 9096 l  13297 10496 l 
12847 10496 l  pc
pum
12672 9962 t
326 -169 m  326 -52 285 7 203 7 ct 178 7 157 2 140 -7 ct 123 -16 109 -31 99 -51 ct 
98 -51 l  98 -45 98 -35 97 -22 ct 96 -9 95 -1 95 1 ct 41 1 l  42 -10 43 -33 43 -68 ct 
43 -460 l  99 -460 l  99 -328 l  99 -315 98 -299 97 -281 ct 99 -281 l  109 -302 123 -318 140 -327 ct 
157 -336 178 -341 203 -341 ct 245 -341 277 -327 297 -298 ct 317 -270 326 -227 326 -169 ct 
p
268 -167 m  268 -214 262 -247 249 -268 ct 237 -288 217 -298 189 -298 ct 157 -298 135 -287 120 -266 ct 
106 -244 99 -210 99 -163 ct 99 -119 106 -87 120 -66 ct 134 -45 157 -34 188 -34 ct 
216 -34 237 -45 249 -65 ct 262 -86 268 -120 268 -167 ct p ef
pom
5449 11697 m  5449 10871 l  5299 10871 l  5599 10596 l  5900 10871 l  5749 10871 l 
5749 11697 l  5449 11697 l  p
5299 10596 m  5299 10596 l  p
5900 11697 m  5900 11697 l  p ef
5448 11697 m  5448 10871 l  5298 10871 l  5598 10596 l  5899 10871 l  5748 10871 l 
5748 11697 l  5448 11697 l  pc
5298 10596 m  5298 10596 l  pc
5899 11697 m  5899 11697 l  pc
0.996 c 12230 7697 m  12114 7697 11998 7755 11998 7813 ct 11998 7900 l  11998 7988 l 
11998 8106 l  11998 8194 l  11998 8281 l  11998 8339 12114 8398 12230 8398 ct 
12112 8940 l  12578 8398 l  12816 8398 l  12990 8398 l  13165 8398 l  13281 8398 13397 8339 13397 8281 ct 
13397 8194 l  13397 8106 l  13397 7988 l  13397 7900 l  13397 7813 l  13397 7755 13281 7697 13165 7697 ct 
12990 7697 l  12816 7697 l  12578 7697 l  12405 7697 l  12230 7697 l  p
11998 7697 m  11998 7697 l  p
13398 8398 m  13398 8398 l  p ef
0.000 c 12229 7697 m  12113 7697 11997 7755 11997 7813 ct 11997 7900 l  11997 7988 l 
11997 8106 l  11997 8194 l  11997 8281 l  11997 8339 12113 8398 12229 8398 ct 
12111 8940 l  12578 8398 l  12816 8398 l  12990 8398 l  13165 8398 l  13281 8398 13397 8339 13397 8281 ct 
13397 8194 l  13397 8106 l  13397 7988 l  13397 7900 l  13397 7813 l  13397 7755 13281 7697 13165 7697 ct 
12990 7697 l  12816 7697 l  12578 7697 l  12404 7697 l  12229 7697 l  pc
11997 7697 m  11997 7697 l  pc
13398 8398 m  13398 8398 l  pc
pum
12285 8176 t
87 -302 m  87 -176 l  276 -176 l  276 -138 l  87 -138 l  87 0 l  41 0 l 
41 -340 l  282 -340 l  282 -302 l  87 -302 l  p ef
334 -316 m  334 -358 l  377 -358 l  377 -316 l  334 -316 l  p
334 0 m  334 -261 l  377 -261 l  377 0 l  334 0 l  p ef
545 -2 m  530 2 516 4 501 4 ct 466 4 449 -16 449 -55 ct 449 -229 l  418 -229 l 
418 -261 l  450 -261 l  463 -320 l  492 -320 l  492 -261 l  540 -261 l 
540 -229 l  492 -229 l  492 -65 l  492 -52 494 -43 498 -38 ct 502 -33 509 -31 520 -31 ct 
525 -31 534 -32 545 -34 ct 545 -2 l  p ef
650 5 m  624 5 604 -2 591 -16 ct 578 -30 571 -49 571 -73 ct 571 -100 580 -121 598 -135 ct 
615 -150 644 -157 684 -158 ct 742 -159 l  742 -174 l  742 -195 738 -210 729 -219 ct 
720 -228 706 -233 686 -233 ct 667 -233 653 -230 644 -223 ct 635 -216 630 -206 628 -191 ct 
583 -196 l  590 -243 625 -266 687 -266 ct 720 -266 745 -258 761 -243 ct 778 -228 786 -207 786 -178 ct 
786 -66 l  786 -53 788 -43 791 -37 ct 795 -30 801 -27 811 -27 ct 815 -27 819 -27 825 -28 ct 
825 -2 l  814 1 803 2 791 2 ct 775 2 763 -2 756 -10 ct 749 -19 745 -32 744 -50 ct 
742 -50 l  731 -30 718 -16 704 -7 ct 689 1 671 5 650 5 ct p
660 -28 m  676 -28 690 -31 702 -38 ct 715 -46 724 -56 732 -68 ct 739 -81 742 -94 742 -107 ct 
742 -129 l  695 -128 l  674 -128 659 -125 648 -122 ct 638 -118 630 -112 624 -104 ct 
618 -96 616 -85 616 -72 ct 616 -58 619 -47 627 -39 ct 635 -31 646 -28 660 -28 ct 
p ef
pom
0.996 c 6748 11696 m  6573 11696 6399 11812 6399 11928 ct 5808 11385 l  6399 12277 l 
6399 12515 l  6399 12689 l  6399 12864 l  6399 12980 6573 13096 6748 13096 ct 
7009 13096 l  7271 13096 l  7626 13096 l  7888 13096 l  8149 13096 l  8324 13096 8499 12980 8499 12864 ct 
8499 12689 l  8499 12515 l  8499 12277 l  8499 12103 l  8499 11928 l  8499 11812 8324 11696 8149 11696 ct 
7888 11696 l  7626 11696 l  7271 11696 l  7009 11696 l  6748 11696 l  p
6399 11696 m  6399 11696 l  p
8499 13097 m  8499 13097 l  p ef
0.000 c 6747 11696 m  6572 11696 6398 11812 6398 11928 ct 5807 11385 l  6398 12276 l 
6398 12514 l  6398 12688 l  6398 12863 l  6398 12979 6572 13095 6747 13095 ct 
7008 13095 l  7270 13095 l  7626 13095 l  7888 13095 l  8149 13095 l  8324 13095 8499 12979 8499 12863 ct 
8499 12688 l  8499 12514 l  8499 12276 l  8499 12102 l  8499 11928 l  8499 11812 8324 11696 8149 11696 ct 
7888 11696 l  7626 11696 l  7270 11696 l  7008 11696 l  6747 11696 l  pc
6398 11696 m  6398 11696 l  pc
8499 13096 m  8499 13096 l  pc
pum
6513 12525 t
191 -307 m  153 -307 124 -295 103 -271 ct 82 -247 72 -214 72 -171 ct 72 -130 83 -96 105 -71 ct 
126 -46 156 -33 193 -33 ct 241 -33 276 -56 300 -104 ct 338 -85 l  324 -56 304 -33 279 -18 ct 
254 -3 224 5 191 5 ct 157 5 127 -2 102 -16 ct 77 -31 58 -51 45 -77 ct 32 -104 25 -135 25 -171 ct 
25 -226 40 -268 69 -299 ct 98 -330 139 -345 191 -345 ct 227 -345 257 -338 281 -324 ct 
306 -310 323 -289 335 -261 ct 291 -246 l  283 -266 271 -281 253 -292 ct 236 -302 215 -307 191 -307 ct 
p ef
610 -131 m  610 -85 600 -51 580 -29 ct 560 -6 531 5 492 5 ct 454 5 425 -7 406 -30 ct 
386 -53 377 -87 377 -131 ct 377 -221 416 -266 494 -266 ct 534 -266 563 -255 582 -233 ct 
601 -211 610 -177 610 -131 ct p
564 -131 m  564 -167 559 -193 548 -209 ct 538 -226 520 -234 494 -234 ct 469 -234 451 -226 439 -209 ct 
428 -192 422 -166 422 -131 ct 422 -96 428 -70 439 -53 ct 450 -36 468 -27 492 -27 ct 
518 -27 536 -35 548 -52 ct 559 -69 564 -95 564 -131 ct p ef
830 0 m  830 -166 l  830 -183 828 -196 825 -206 ct 822 -215 816 -222 809 -226 ct 
801 -230 791 -232 776 -232 ct 755 -232 739 -225 727 -211 ct 715 -197 709 -177 709 -151 ct 
709 0 l  665 0 l  665 -205 l  665 -236 665 -254 664 -261 ct 705 -261 l  705 -260 705 -258 705 -255 ct 
705 -251 706 -247 706 -242 ct 706 -238 706 -229 707 -217 ct 707 -217 l  717 -235 729 -247 742 -255 ct 
755 -262 771 -266 791 -266 ct 820 -266 840 -259 854 -245 ct 867 -230 874 -207 874 -174 ct 
874 0 l  830 0 l  p ef
1040 -2 m  1025 2 1011 4 996 4 ct 961 4 944 -16 944 -55 ct 944 -229 l  913 -229 l 
913 -261 l  945 -261 l  958 -320 l  987 -320 l  987 -261 l  1035 -261 l 
1035 -229 l  987 -229 l  987 -65 l  987 -52 989 -43 993 -38 ct 997 -33 1004 -31 1015 -31 ct 
1020 -31 1029 -32 1040 -34 ct 1040 -2 l  p ef
1080 0 m  1080 -200 l  1080 -219 1080 -239 1079 -261 ct 1120 -261 l  1121 -232 1122 -214 1122 -208 ct 
1123 -208 l  1130 -230 1138 -245 1147 -254 ct 1156 -262 1168 -266 1185 -266 ct 
1190 -266 1196 -265 1202 -264 ct 1202 -224 l  1197 -225 1189 -226 1179 -226 ct 
1161 -226 1147 -218 1138 -203 ct 1128 -187 1124 -165 1124 -136 ct 1124 0 l  1080 0 l 
p ef
1465 -131 m  1465 -85 1455 -51 1435 -29 ct 1415 -6 1386 5 1347 5 ct 1309 5 1280 -7 1261 -30 ct 
1241 -53 1232 -87 1232 -131 ct 1232 -221 1271 -266 1349 -266 ct 1389 -266 1418 -255 1437 -233 ct 
1456 -211 1465 -177 1465 -131 ct p
1419 -131 m  1419 -167 1414 -193 1403 -209 ct 1393 -226 1375 -234 1349 -234 ct 
1324 -234 1306 -226 1294 -209 ct 1283 -192 1277 -166 1277 -131 ct 1277 -96 1283 -70 1294 -53 ct 
1305 -36 1323 -27 1347 -27 ct 1373 -27 1391 -35 1403 -52 ct 1414 -69 1419 -95 1419 -131 ct 
p ef
1519 0 m  1519 -358 l  1563 -358 l  1563 0 l  1519 0 l  p ef
1663 -121 m  1663 -91 1669 -68 1681 -52 ct 1694 -36 1712 -28 1735 -28 ct 1754 -28 1769 -31 1781 -39 ct 
1792 -46 1800 -56 1804 -68 ct 1842 -57 l  1826 -16 1791 5 1735 5 ct 1697 5 1667 -7 1647 -30 ct 
1627 -53 1617 -87 1617 -132 ct 1617 -175 1627 -208 1647 -231 ct 1667 -254 1696 -266 1734 -266 ct 
1810 -266 1849 -220 1849 -127 ct 1849 -121 l  1663 -121 l  p
1804 -154 m  1802 -182 1795 -202 1783 -215 ct 1771 -228 1755 -234 1733 -234 ct 
1712 -234 1695 -227 1683 -213 ct 1671 -199 1664 -179 1663 -154 ct 1804 -154 l 
p ef
pom
0.996 c 12947 12796 m  12498 12796 l  12498 11896 l  13397 11896 l  13397 12796 l 
12947 12796 l  p ef
0.000 c 12947 12795 m  12497 12795 l  12497 11896 l  13397 11896 l  13397 12795 l 
12947 12795 l  pc
pum
12772 12511 t
326 -169 m  326 -52 285 7 203 7 ct 178 7 157 2 140 -7 ct 123 -16 109 -31 99 -51 ct 
98 -51 l  98 -45 98 -35 97 -22 ct 96 -9 95 -1 95 1 ct 41 1 l  42 -10 43 -33 43 -68 ct 
43 -460 l  99 -460 l  99 -328 l  99 -315 98 -299 97 -281 ct 99 -281 l  109 -302 123 -318 140 -327 ct 
157 -336 178 -341 203 -341 ct 245 -341 277 -327 297 -298 ct 317 -270 326 -227 326 -169 ct 
p
268 -167 m  268 -214 262 -247 249 -268 ct 237 -288 217 -298 189 -298 ct 157 -298 135 -287 120 -266 ct 
106 -244 99 -210 99 -163 ct 99 -119 106 -87 120 -66 ct 134 -45 157 -34 188 -34 ct 
216 -34 237 -45 249 -65 ct 262 -86 268 -120 268 -167 ct p ef
pom
0.996 c 12947 11896 m  12498 11896 l  12498 10996 l  13397 10996 l  13397 11896 l 
12947 11896 l  p ef
0.000 c 12947 11896 m  12497 11896 l  12497 10996 l  13397 10996 l  13397 11896 l 
12947 11896 l  pc
pum
12772 11611 t
326 -169 m  326 -52 285 7 203 7 ct 178 7 157 2 140 -7 ct 123 -16 109 -31 99 -51 ct 
98 -51 l  98 -45 98 -35 97 -22 ct 96 -9 95 -1 95 1 ct 41 1 l  42 -10 43 -33 43 -68 ct 
43 -460 l  99 -460 l  99 -328 l  99 -315 98 -299 97 -281 ct 99 -281 l  109 -302 123 -318 140 -327 ct 
157 -336 178 -341 203 -341 ct 245 -341 277 -327 297 -298 ct 317 -270 326 -227 326 -169 ct 
p
268 -167 m  268 -214 262 -247 249 -268 ct 237 -288 217 -298 189 -298 ct 157 -298 135 -287 120 -266 ct 
106 -244 99 -210 99 -163 ct 99 -119 106 -87 120 -66 ct 134 -45 157 -34 188 -34 ct 
216 -34 237 -45 249 -65 ct 262 -86 268 -120 268 -167 ct p ef
pom
0.996 c 12947 13695 m  12498 13695 l  12498 12796 l  13397 12796 l  13397 13695 l 
12947 13695 l  p ef
0.000 c 12947 13695 m  12497 13695 l  12497 12795 l  13397 12795 l  13397 13695 l 
12947 13695 l  pc
pum
12772 13411 t
128 6 m  95 6 69 -3 52 -21 ct 35 -38 27 -63 27 -94 ct 27 -129 38 -155 61 -174 ct 
84 -192 121 -202 172 -204 ct 247 -205 l  247 -223 l  247 -250 241 -270 230 -282 ct 
218 -294 200 -299 175 -299 ct 150 -299 132 -295 121 -287 ct 109 -278 102 -265 100 -246 ct 
42 -251 l  51 -312 96 -342 176 -342 ct 219 -342 250 -332 272 -313 ct 293 -294 304 -266 304 -229 ct 
304 -85 l  304 -68 306 -55 310 -47 ct 314 -39 323 -35 335 -35 ct 340 -35 346 -35 353 -37 ct 
353 -2 l  339 1 325 3 310 3 ct 289 3 274 -2 265 -13 ct 256 -24 250 -41 249 -64 ct 
247 -64 l  233 -39 216 -21 197 -10 ct 178 1 155 6 128 6 ct p
141 -36 m  162 -36 180 -41 196 -50 ct 212 -59 224 -72 233 -88 ct 243 -104 247 -121 247 -138 ct 
247 -166 l  186 -165 l  160 -164 140 -161 126 -157 ct 113 -152 102 -144 95 -134 ct 
88 -123 84 -110 84 -93 ct 84 -75 89 -61 99 -51 ct 109 -41 123 -36 141 -36 ct p ef
pom
10698 11321 m  11973 11321 l  11973 11196 l  12399 11446 l  11973 11697 l 
11973 11571 l  10698 11571 l  10698 11321 l  p
10698 11196 m  10698 11196 l  p
12399 11697 m  12399 11697 l  p ef
10697 11321 m  11972 11321 l  11972 11196 l  12398 11446 l  11972 11697 l 
11972 11571 l  10697 11571 l  10697 11321 l  pc
10697 11196 m  10697 11196 l  pc
12398 11697 m  12398 11697 l  pc
0.996 c 10552 12041 m  10377 12041 10203 12157 10203 12273 ct 10203 12448 l 
10203 12622 l  10203 12860 l  10203 13034 l  10203 13209 l  10203 13325 10377 13441 10552 13441 ct 
10813 13441 l  11075 13441 l  11431 13441 l  11693 13441 l  11954 13441 l 
12129 13441 12304 13325 12304 13209 ct 12304 13034 l  12304 12860 l  12304 12622 l 
12304 12448 l  12304 12273 l  12304 12157 12129 12041 11954 12041 ct 11693 12041 l 
11431 12041 l  11075 12041 l  11129 11628 l  10552 12041 l  p
10203 12041 m  10203 12041 l  p
12304 13442 m  12304 13442 l  p ef
0.000 c 10551 12040 m  10376 12040 10202 12156 10202 12272 ct 10202 12447 l 
10202 12621 l  10202 12859 l  10202 13033 l  10202 13208 l  10202 13324 10376 13440 10551 13440 ct 
10812 13440 l  11074 13440 l  11430 13440 l  11692 13440 l  11953 13440 l 
12128 13440 12303 13324 12303 13208 ct 12303 13033 l  12303 12859 l  12303 12621 l 
12303 12447 l  12303 12272 l  12303 12156 12128 12040 11953 12040 ct 11692 12040 l 
11430 12040 l  11074 12040 l  11128 11628 l  10551 12040 l  pc
10202 12040 m  10202 12040 l  pc
12303 13441 m  12303 13441 l  pc
pum
10317 12870 t
191 -307 m  153 -307 124 -295 103 -271 ct 82 -247 72 -214 72 -171 ct 72 -130 83 -96 105 -71 ct 
126 -46 156 -33 193 -33 ct 241 -33 276 -56 300 -104 ct 338 -85 l  324 -56 304 -33 279 -18 ct 
254 -3 224 5 191 5 ct 157 5 127 -2 102 -16 ct 77 -31 58 -51 45 -77 ct 32 -104 25 -135 25 -171 ct 
25 -226 40 -268 69 -299 ct 98 -330 139 -345 191 -345 ct 227 -345 257 -338 281 -324 ct 
306 -310 323 -289 335 -261 ct 291 -246 l  283 -266 271 -281 253 -292 ct 236 -302 215 -307 191 -307 ct 
p ef
610 -131 m  610 -85 600 -51 580 -29 ct 560 -6 531 5 492 5 ct 454 5 425 -7 406 -30 ct 
386 -53 377 -87 377 -131 ct 377 -221 416 -266 494 -266 ct 534 -266 563 -255 582 -233 ct 
601 -211 610 -177 610 -131 ct p
564 -131 m  564 -167 559 -193 548 -209 ct 538 -226 520 -234 494 -234 ct 469 -234 451 -226 439 -209 ct 
428 -192 422 -166 422 -131 ct 422 -96 428 -70 439 -53 ct 450 -36 468 -27 492 -27 ct 
518 -27 536 -35 548 -52 ct 559 -69 564 -95 564 -131 ct p ef
830 0 m  830 -166 l  830 -183 828 -196 825 -206 ct 822 -215 816 -222 809 -226 ct 
801 -230 791 -232 776 -232 ct 755 -232 739 -225 727 -211 ct 715 -197 709 -177 709 -151 ct 
709 0 l  665 0 l  665 -205 l  665 -236 665 -254 664 -261 ct 705 -261 l  705 -260 705 -258 705 -255 ct 
705 -251 706 -247 706 -242 ct 706 -238 706 -229 707 -217 ct 707 -217 l  717 -235 729 -247 742 -255 ct 
755 -262 771 -266 791 -266 ct 820 -266 840 -259 854 -245 ct 867 -230 874 -207 874 -174 ct 
874 0 l  830 0 l  p ef
1040 -2 m  1025 2 1011 4 996 4 ct 961 4 944 -16 944 -55 ct 944 -229 l  913 -229 l 
913 -261 l  945 -261 l  958 -320 l  987 -320 l  987 -261 l  1035 -261 l 
1035 -229 l  987 -229 l  987 -65 l  987 -52 989 -43 993 -38 ct 997 -33 1004 -31 1015 -31 ct 
1020 -31 1029 -32 1040 -34 ct 1040 -2 l  p ef
1080 0 m  1080 -200 l  1080 -219 1080 -239 1079 -261 ct 1120 -261 l  1121 -232 1122 -214 1122 -208 ct 
1123 -208 l  1130 -230 1138 -245 1147 -254 ct 1156 -262 1168 -266 1185 -266 ct 
1190 -266 1196 -265 1202 -264 ct 1202 -224 l  1197 -225 1189 -226 1179 -226 ct 
1161 -226 1147 -218 1138 -203 ct 1128 -187 1124 -165 1124 -136 ct 1124 0 l  1080 0 l 
p ef
1465 -131 m  1465 -85 1455 -51 1435 -29 ct 1415 -6 1386 5 1347 5 ct 1309 5 1280 -7 1261 -30 ct 
1241 -53 1232 -87 1232 -131 ct 1232 -221 1271 -266 1349 -266 ct 1389 -266 1418 -255 1437 -233 ct 
1456 -211 1465 -177 1465 -131 ct p
1419 -131 m  1419 -167 1414 -193 1403 -209 ct 1393 -226 1375 -234 1349 -234 ct 
1324 -234 1306 -226 1294 -209 ct 1283 -192 1277 -166 1277 -131 ct 1277 -96 1283 -70 1294 -53 ct 
1305 -36 1323 -27 1347 -27 ct 1373 -27 1391 -35 1403 -52 ct 1414 -69 1419 -95 1419 -131 ct 
p ef
1519 0 m  1519 -358 l  1563 -358 l  1563 0 l  1519 0 l  p ef
1663 -121 m  1663 -91 1669 -68 1681 -52 ct 1694 -36 1712 -28 1735 -28 ct 1754 -28 1769 -31 1781 -39 ct 
1792 -46 1800 -56 1804 -68 ct 1842 -57 l  1826 -16 1791 5 1735 5 ct 1697 5 1667 -7 1647 -30 ct 
1627 -53 1617 -87 1617 -132 ct 1617 -175 1627 -208 1647 -231 ct 1667 -254 1696 -266 1734 -266 ct 
1810 -266 1849 -220 1849 -127 ct 1849 -121 l  1663 -121 l  p
1804 -154 m  1802 -182 1795 -202 1783 -215 ct 1771 -228 1755 -234 1733 -234 ct 
1712 -234 1695 -227 1683 -213 ct 1671 -199 1664 -179 1663 -154 ct 1804 -154 l 
p ef
pom
0.996 c 14029 11596 m  13913 11596 13797 11654 13797 11712 ct 13426 11745 l 
13797 11887 l  13797 12005 l  13797 12093 l  13797 12180 l  13797 12238 13913 12297 14029 12297 ct 
14204 12297 l  14378 12297 l  14616 12297 l  14790 12297 l  14965 12297 l 
15081 12297 15197 12238 15197 12180 ct 15197 12093 l  15197 12005 l  15197 11887 l 
15197 11799 l  15197 11712 l  15197 11654 15081 11596 14965 11596 ct 14790 11596 l 
14616 11596 l  14378 11596 l  14204 11596 l  14029 11596 l  p
13797 11596 m  13797 11596 l  p
15198 12297 m  15198 12297 l  p ef
0.000 c 14029 11596 m  13913 11596 13797 11654 13797 11712 ct 13426 11745 l 
13797 11887 l  13797 12004 l  13797 12092 l  13797 12179 l  13797 12237 13913 12296 14029 12296 ct 
14204 12296 l  14378 12296 l  14616 12296 l  14790 12296 l  14965 12296 l 
15080 12296 15196 12237 15196 12179 ct 15196 12092 l  15196 12004 l  15196 11887 l 
15196 11799 l  15196 11712 l  15196 11654 15080 11596 14965 11596 ct 14790 11596 l 
14616 11596 l  14378 11596 l  14204 11596 l  14029 11596 l  pc
13797 11596 m  13797 11596 l  pc
15197 12296 m  15197 12296 l  pc
pum
13946 12075 t
303 -238 m  303 -206 293 -181 272 -162 ct 251 -143 222 -133 186 -133 ct 87 -133 l 
87 -1 l  41 -1 l  41 -341 l  184 -341 l  222 -341 251 -332 272 -314 ct 293 -296 303 -271 303 -238 ct 
p
257 -238 m  257 -282 231 -304 178 -304 ct 87 -304 l  87 -169 l  180 -169 l 
231 -169 257 -192 257 -238 ct p ef
363 -316 m  363 -358 l  406 -358 l  406 -316 l  363 -316 l  p
363 0 m  363 -261 l  406 -261 l  406 0 l  363 0 l  p ef
473 0 m  473 -358 l  517 -358 l  517 0 l  473 0 l  p ef
626 -217 m  636 -234 647 -246 660 -254 ct 673 -262 690 -266 710 -266 ct 738 -266 759 -259 773 -245 ct 
786 -231 793 -207 793 -174 ct 793 0 l  749 0 l  749 -166 l  749 -184 747 -198 744 -207 ct 
741 -215 735 -222 727 -226 ct 720 -230 709 -232 695 -232 ct 675 -232 658 -225 646 -211 ct 
634 -197 628 -178 628 -154 ct 628 0 l  584 0 l  584 -358 l  628 -358 l  628 -265 l 
628 -255 627 -245 627 -235 ct 626 -224 626 -218 626 -217 ct 626 -217 l  p ef
926 5 m  900 5 880 -2 867 -16 ct 854 -30 847 -49 847 -73 ct 847 -100 856 -121 874 -135 ct 
891 -150 920 -157 960 -158 ct 1018 -159 l  1018 -174 l  1018 -195 1014 -210 1005 -219 ct 
996 -228 982 -233 962 -233 ct 943 -233 929 -230 920 -223 ct 911 -216 906 -206 904 -191 ct 
859 -196 l  866 -243 901 -266 963 -266 ct 996 -266 1021 -258 1037 -243 ct 1054 -228 1062 -207 1062 -178 ct 
1062 -66 l  1062 -53 1064 -43 1067 -37 ct 1071 -30 1077 -27 1087 -27 ct 1091 -27 1095 -27 1101 -28 ct 
1101 -2 l  1090 1 1079 2 1067 2 ct 1051 2 1039 -2 1032 -10 ct 1025 -19 1021 -32 1020 -50 ct 
1018 -50 l  1007 -30 994 -16 980 -7 ct 965 1 947 5 926 5 ct p
936 -28 m  952 -28 966 -31 978 -38 ct 991 -46 1000 -56 1008 -68 ct 1015 -81 1018 -94 1018 -107 ct 
1018 -129 l  971 -128 l  950 -128 935 -125 924 -122 ct 914 -118 906 -112 900 -104 ct 
894 -96 892 -85 892 -72 ct 892 -58 895 -47 903 -39 ct 911 -31 922 -28 936 -28 ct 
p ef
pom
0 6001 t 
pom
count op_count sub {pop} repeat countdictstack dict_count sub {end} repeat b4_inc_state restore
%%PageTrailer
%%Trailer
%%EOF
