%!PS-Adobe-3.0 EPSF-3.0 
%%BoundingBox: 0 0 300 95
%%Pages: 0
%%Creator: LibreOffice 5.3
%%Title: none
%%CreationDate: none
%%LanguageLevel: 2
%%EndComments
%%BeginProlog
%%BeginResource: procset SDRes-Prolog 1.0 0
/b4_inc_state save def
/dict_count countdictstack def
/op_count count 1 sub def
userdict begin
0 setgray 0 setlinecap 1 setlinewidth 0 setlinejoin 10 setmiterlimit[] 0 setdash newpath
/languagelevel where {pop languagelevel 1 ne {false setstrokeadjust false setoverprint} if} if
/bdef {bind def} bind def
/c {setgray} bdef
/l {neg lineto} bdef
/rl {neg rlineto} bdef
/lc {setlinecap} bdef
/lj {setlinejoin} bdef
/lw {setlinewidth} bdef
/ml {setmiterlimit} bdef
/ld {setdash} bdef
/m {neg moveto} bdef
/ct {6 2 roll neg 6 2 roll neg 6 2 roll neg curveto} bdef
/r {rotate} bdef
/t {neg translate} bdef
/s {scale} bdef
/sw {show} bdef
/gs {gsave} bdef
/gr {grestore} bdef
/f {findfont dup length dict begin
{1 index /FID ne {def} {pop pop} ifelse} forall /Encoding ISOLatin1Encoding def
currentdict end /NFont exch definefont pop /NFont findfont} bdef
/p {closepath} bdef
/sf {scalefont setfont} bdef
/ef {eofill}bdef
/pc {closepath stroke}bdef
/ps {stroke}bdef
/pum {matrix currentmatrix}bdef
/pom {setmatrix}bdef
/bs {/aString exch def /nXOfs exch def /nWidth exch def currentpoint nXOfs 0 rmoveto pum nWidth aString stringwidth pop div 1 scale aString show pom moveto} bdef
%%EndResource
%%EndProlog
%%BeginSetup
%%EndSetup
%%Page: 1 1
%%BeginPageSetup
%%EndPageSetup
pum
0.02837 0.0284 s 
0 -3344 t
/tm matrix currentmatrix def
tm setmatrix
-3384 -11996 t 
1 1 s 
0.996 c 5099 12196 m  5439 12196 5699 12456 5699 12796 ct 5699 13136 5439 13396 5099 13396 ct 
4759 13396 4499 13136 4499 12796 ct 4499 12456 4759 12196 5099 12196 ct p
4499 12196 m  4499 12196 l  p
5700 13397 m  5700 13397 l  p ef
0 lw 1 lj 0.000 c 5099 12196 m  5438 12196 5698 12456 5698 12796 ct 5698 13136 5438 13395 5099 13395 ct 
4759 13395 4499 13136 4499 12796 ct 4499 12456 4759 12196 5099 12196 ct pc
4499 12196 m  4499 12196 l  pc
5699 13396 m  5699 13396 l  pc
pum
4822 12856 t
150 6 m  107 6 76 -8 56 -37 ct 37 -66 27 -109 27 -166 ct 27 -283 68 -342 150 -342 ct 
175 -342 196 -338 213 -329 ct 230 -320 243 -305 255 -284 ct 255 -284 l  255 -290 256 -301 256 -316 ct 
257 -332 258 -339 259 -339 ct 313 -339 l  311 -327 310 -297 310 -248 ct 310 132 l 
255 132 l  255 -4 l  256 -55 l  255 -55 l  244 -33 230 -17 214 -8 ct 198 1 176 6 150 6 ct 
p
255 -172 m  255 -216 247 -248 233 -269 ct 219 -290 196 -301 165 -301 ct 137 -301 116 -290 104 -269 ct 
91 -248 85 -214 85 -168 ct 85 -121 92 -88 104 -67 ct 117 -47 137 -37 164 -37 ct 
196 -37 219 -48 233 -71 ct 247 -93 255 -127 255 -172 ct p ef
pom
pum
5173 13123 t
190 -126 m  190 -84 183 -52 168 -29 ct 153 -7 131 4 102 4 ct 73 4 51 -7 36 -29 ct 
22 -51 14 -84 14 -126 ct 14 -170 21 -202 36 -224 ct 50 -245 72 -256 103 -256 ct 
133 -256 155 -245 169 -223 ct 183 -202 190 -169 190 -126 ct p
157 -126 m  157 -163 153 -189 145 -205 ct 136 -222 122 -230 103 -230 ct 83 -230 69 -222 60 -206 ct 
51 -190 47 -163 47 -126 ct 47 -90 51 -64 60 -47 ct 69 -31 83 -22 102 -22 ct 121 -22 135 -31 144 -48 ct 
153 -65 157 -91 157 -126 ct p ef
pom
0.996 c 9098 12196 m  9438 12196 9698 12456 9698 12796 ct 9698 13136 9438 13396 9098 13396 ct 
8758 13396 8498 13136 8498 12796 ct 8498 12456 8758 12196 9098 12196 ct p
8498 12196 m  8498 12196 l  p
9699 13397 m  9699 13397 l  p ef
0.000 c 9098 12196 m  9438 12196 9698 12456 9698 12796 ct 9698 13136 9438 13395 9098 13395 ct 
8758 13395 8498 13136 8498 12796 ct 8498 12456 8758 12196 9098 12196 ct pc
8498 12196 m  8498 12196 l  pc
9699 13396 m  9699 13396 l  pc
pum
8821 12856 t
150 6 m  107 6 76 -8 56 -37 ct 37 -66 27 -109 27 -166 ct 27 -283 68 -342 150 -342 ct 
175 -342 196 -338 213 -329 ct 230 -320 243 -305 255 -284 ct 255 -284 l  255 -290 256 -301 256 -316 ct 
257 -332 258 -339 259 -339 ct 313 -339 l  311 -327 310 -297 310 -248 ct 310 132 l 
255 132 l  255 -4 l  256 -55 l  255 -55 l  244 -33 230 -17 214 -8 ct 198 1 176 6 150 6 ct 
p
255 -172 m  255 -216 247 -248 233 -269 ct 219 -290 196 -301 165 -301 ct 137 -301 116 -290 104 -269 ct 
91 -248 85 -214 85 -168 ct 85 -121 92 -88 104 -67 ct 117 -47 137 -37 164 -37 ct 
196 -37 219 -48 233 -71 ct 247 -93 255 -127 255 -172 ct p ef
pom
pum
9172 13123 t
28 0 m  28 -27 l  93 -27 l  93 -222 l  35 -181 l  35 -212 l  95 -253 l 
125 -253 l  125 -27 l  187 -27 l  187 0 l  28 0 l  p ef
pom
1 lw 5699 12796 m  8068 12796 l  ps
8498 12796 m  8048 12646 l  8048 12946 l  8498 12796 l  p ef
8673 13221 m  8673 13898 l  9523 13898 l  9523 13651 l  ps
9523 13221 m  9373 13671 l  9673 13671 l  9523 13221 l  p ef
pum
4153 14382 t
39 -165 m  39 -224 49 -278 67 -326 ct 86 -373 115 -418 154 -460 ct 208 -460 l 
169 -417 141 -371 123 -323 ct 105 -274 96 -222 96 -164 ct 96 -107 104 -54 122 -6 ct 
140 42 169 88 208 132 ct 154 132 l  115 90 86 45 67 -3 ct 49 -50 39 -104 39 -163 ct 
39 -165 l  p ef
340 6 m  307 6 281 -3 264 -21 ct 247 -38 239 -63 239 -94 ct 239 -129 250 -155 273 -174 ct 
296 -192 333 -202 384 -204 ct 459 -205 l  459 -223 l  459 -250 453 -270 442 -282 ct 
430 -294 412 -299 387 -299 ct 362 -299 344 -295 333 -287 ct 321 -278 314 -265 312 -246 ct 
254 -251 l  263 -312 308 -342 388 -342 ct 431 -342 462 -332 484 -313 ct 505 -294 516 -266 516 -229 ct 
516 -85 l  516 -68 518 -55 522 -47 ct 526 -39 535 -35 547 -35 ct 552 -35 558 -35 565 -37 ct 
565 -2 l  551 1 537 3 522 3 ct 501 3 486 -2 477 -13 ct 468 -24 462 -41 461 -64 ct 
459 -64 l  445 -39 428 -21 409 -10 ct 390 1 367 6 340 6 ct p
353 -36 m  374 -36 392 -41 408 -50 ct 424 -59 436 -72 445 -88 ct 455 -104 459 -121 459 -138 ct 
459 -166 l  398 -165 l  372 -164 352 -161 338 -157 ct 325 -152 314 -144 307 -134 ct 
300 -123 296 -110 296 -93 ct 296 -75 301 -61 311 -51 ct 321 -41 335 -36 353 -36 ct 
p ef
682 -68 m  682 -16 l  682 6 680 25 676 39 ct 673 54 666 68 658 82 ct 620 82 l 
639 53 649 26 649 0 ct 622 0 l  622 -68 l  682 -68 l  p ef
pom
pum
5072 14382 t
141 -36 m  159 -36 177 -40 194 -49 ct 212 -59 226 -71 238 -86 ct 271 -55 l  254 -34 235 -19 212 -9 ct 
190 1 165 6 138 6 ct 100 6 72 -3 52 -20 ct 32 -37 22 -61 22 -92 ct 22 -115 29 -134 45 -149 ct 
60 -164 80 -173 104 -175 ct 104 -176 l  82 -179 64 -187 51 -201 ct 38 -215 32 -232 32 -253 ct 
32 -279 42 -301 63 -317 ct 84 -334 112 -342 146 -342 ct 198 -342 237 -323 263 -285 ct 
223 -257 l  204 -286 178 -300 146 -300 ct 128 -300 113 -296 103 -287 ct 93 -279 88 -267 88 -251 ct 
88 -233 96 -219 113 -210 ct 129 -201 158 -197 199 -197 ct 199 -155 l  168 -155 144 -153 128 -149 ct 
113 -145 101 -138 92 -130 ct 84 -121 80 -108 80 -93 ct 80 -75 85 -61 96 -51 ct 
107 -41 122 -36 141 -36 ct p ef
403 -68 m  403 -16 l  403 6 401 25 397 39 ct 394 54 387 68 379 82 ct 341 82 l 
360 53 370 26 370 0 ct 343 0 l  343 -68 l  403 -68 l  p ef
767 6 m  734 6 708 -3 691 -21 ct 674 -38 666 -63 666 -94 ct 666 -129 677 -155 700 -174 ct 
723 -192 760 -202 811 -204 ct 886 -205 l  886 -223 l  886 -250 880 -270 869 -282 ct 
857 -294 839 -299 814 -299 ct 789 -299 771 -295 760 -287 ct 748 -278 741 -265 739 -246 ct 
681 -251 l  690 -312 735 -342 815 -342 ct 858 -342 889 -332 911 -313 ct 932 -294 943 -266 943 -229 ct 
943 -85 l  943 -68 945 -55 949 -47 ct 953 -39 962 -35 974 -35 ct 979 -35 985 -35 992 -37 ct 
992 -2 l  978 1 964 3 949 3 ct 928 3 913 -2 904 -13 ct 895 -24 889 -41 888 -64 ct 
886 -64 l  872 -39 855 -21 836 -10 ct 817 1 794 6 767 6 ct p
780 -36 m  801 -36 819 -41 835 -50 ct 851 -59 863 -72 872 -88 ct 882 -104 886 -121 886 -138 ct 
886 -166 l  825 -165 l  799 -164 779 -161 765 -157 ct 752 -152 741 -144 734 -134 ct 
727 -123 723 -110 723 -93 ct 723 -75 728 -61 738 -51 ct 748 -41 762 -36 780 -36 ct 
p ef
pom
pum
6063 14382 t
172 -163 m  172 -104 163 -50 144 -2 ct 125 45 97 90 58 132 ct 4 132 l  43 89 71 43 89 -5 ct 
107 -53 116 -106 116 -164 ct 116 -222 107 -275 89 -323 ct 71 -371 42 -417 4 -460 ct 
58 -460 l  97 -418 126 -373 144 -325 ct 163 -278 172 -224 172 -165 ct 172 -163 l 
p ef
pom
pum
5949 12582 t
39 -165 m  39 -224 49 -278 67 -326 ct 86 -373 115 -418 154 -460 ct 208 -460 l 
169 -417 141 -371 123 -323 ct 105 -274 96 -222 96 -164 ct 96 -107 104 -54 122 -6 ct 
140 42 169 88 208 132 ct 154 132 l  115 90 86 45 67 -3 ct 49 -50 39 -104 39 -163 ct 
39 -165 l  p ef
pom
pum
6161 12582 t
141 -36 m  159 -36 177 -40 194 -49 ct 212 -59 226 -71 238 -86 ct 271 -55 l  254 -34 235 -19 212 -9 ct 
190 1 165 6 138 6 ct 100 6 72 -3 52 -20 ct 32 -37 22 -61 22 -92 ct 22 -115 29 -134 45 -149 ct 
60 -164 80 -173 104 -175 ct 104 -176 l  82 -179 64 -187 51 -201 ct 38 -215 32 -232 32 -253 ct 
32 -279 42 -301 63 -317 ct 84 -334 112 -342 146 -342 ct 198 -342 237 -323 263 -285 ct 
223 -257 l  204 -286 178 -300 146 -300 ct 128 -300 113 -296 103 -287 ct 93 -279 88 -267 88 -251 ct 
88 -233 96 -219 113 -210 ct 129 -201 158 -197 199 -197 ct 199 -155 l  168 -155 144 -153 128 -149 ct 
113 -145 101 -138 92 -130 ct 84 -121 80 -108 80 -93 ct 80 -75 85 -61 96 -51 ct 
107 -41 122 -36 141 -36 ct p ef
pom
pum
6445 12582 t
119 -68 m  119 -16 l  119 6 117 25 113 39 ct 110 54 103 68 95 82 ct 57 82 l 
76 53 86 26 86 0 ct 59 0 l  59 -68 l  119 -68 l  p ef
pom
pum
6801 12582 t
141 -36 m  159 -36 177 -40 194 -49 ct 212 -59 226 -71 238 -86 ct 271 -55 l  254 -34 235 -19 212 -9 ct 
190 1 165 6 138 6 ct 100 6 72 -3 52 -20 ct 32 -37 22 -61 22 -92 ct 22 -115 29 -134 45 -149 ct 
60 -164 80 -173 104 -175 ct 104 -176 l  82 -179 64 -187 51 -201 ct 38 -215 32 -232 32 -253 ct 
32 -279 42 -301 63 -317 ct 84 -334 112 -342 146 -342 ct 198 -342 237 -323 263 -285 ct 
223 -257 l  204 -286 178 -300 146 -300 ct 128 -300 113 -296 103 -287 ct 93 -279 88 -267 88 -251 ct 
88 -233 96 -219 113 -210 ct 129 -201 158 -197 199 -197 ct 199 -155 l  168 -155 144 -153 128 -149 ct 
113 -145 101 -138 92 -130 ct 84 -121 80 -108 80 -93 ct 80 -75 85 -61 96 -51 ct 
107 -41 122 -36 141 -36 ct p ef
pom
pum
7085 12582 t
119 -68 m  119 -16 l  119 6 117 25 113 39 ct 110 54 103 68 95 82 ct 57 82 l 
76 53 86 26 86 0 ct 59 0 l  59 -68 l  119 -68 l  p ef
pom
pum
7441 12582 t
141 -36 m  159 -36 177 -40 194 -49 ct 212 -59 226 -71 238 -86 ct 271 -55 l  254 -34 235 -19 212 -9 ct 
190 1 165 6 138 6 ct 100 6 72 -3 52 -20 ct 32 -37 22 -61 22 -92 ct 22 -115 29 -134 45 -149 ct 
60 -164 80 -173 104 -175 ct 104 -176 l  82 -179 64 -187 51 -201 ct 38 -215 32 -232 32 -253 ct 
32 -279 42 -301 63 -317 ct 84 -334 112 -342 146 -342 ct 198 -342 237 -323 263 -285 ct 
223 -257 l  204 -286 178 -300 146 -300 ct 128 -300 113 -296 103 -287 ct 93 -279 88 -267 88 -251 ct 
88 -233 96 -219 113 -210 ct 129 -201 158 -197 199 -197 ct 199 -155 l  168 -155 144 -153 128 -149 ct 
113 -145 101 -138 92 -130 ct 84 -121 80 -108 80 -93 ct 80 -75 85 -61 96 -51 ct 
107 -41 122 -36 141 -36 ct p ef
pom
pum
7725 12582 t
172 -163 m  172 -104 163 -50 144 -2 ct 125 45 97 90 58 132 ct 4 132 l  43 89 71 43 89 -5 ct 
107 -53 116 -106 116 -164 ct 116 -222 107 -275 89 -323 ct 71 -371 42 -417 4 -460 ct 
58 -460 l  97 -418 126 -373 144 -325 ct 163 -278 172 -224 172 -165 ct 172 -163 l 
p ef
pom
0.996 c 13298 12197 m  13638 12197 13898 12457 13898 12797 ct 13898 13137 13638 13397 13298 13397 ct 
12959 13397 12699 13137 12699 12797 ct 12699 12457 12959 12197 13298 12197 ct 
p
12699 12197 m  12699 12197 l  p
13899 13398 m  13899 13398 l  p ef
109.97315 lw 0.000 c 13298 12197 m  13638 12197 13898 12457 13898 12797 ct 
13898 13137 13638 13396 13298 13396 ct 12958 13396 12698 13137 12698 12797 ct 
12698 12457 12958 12197 13298 12197 ct pc
12698 12197 m  12698 12197 l  pc
13899 13397 m  13899 13397 l  pc
pum
13072 12857 t
150 6 m  107 6 76 -8 56 -37 ct 37 -66 27 -109 27 -166 ct 27 -283 68 -342 150 -342 ct 
175 -342 196 -338 213 -329 ct 230 -320 243 -305 255 -284 ct 255 -284 l  255 -290 256 -301 256 -316 ct 
257 -332 258 -339 259 -339 ct 313 -339 l  311 -327 310 -297 310 -248 ct 310 132 l 
255 132 l  255 -4 l  256 -55 l  255 -55 l  244 -33 230 -17 214 -8 ct 198 1 176 6 150 6 ct 
p
255 -172 m  255 -216 247 -248 233 -269 ct 219 -290 196 -301 165 -301 ct 137 -301 116 -290 104 -269 ct 
91 -248 85 -214 85 -168 ct 85 -121 92 -88 104 -67 ct 117 -47 137 -37 164 -37 ct 
196 -37 219 -48 233 -71 ct 247 -93 255 -127 255 -172 ct p ef
pom
pum
13422 13124 t
65 -170 m  65 0 l  33 0 l  33 -170 l  5 -170 l  5 -194 l  33 -194 l  33 -216 l 
33 -234 36 -247 44 -254 ct 52 -262 64 -266 80 -266 ct 89 -266 97 -265 103 -264 ct 
103 -239 l  97 -240 93 -241 88 -241 ct 80 -241 74 -239 70 -234 ct 67 -230 65 -223 65 -211 ct 
65 -194 l  103 -194 l  103 -170 l  65 -170 l  p ef
pom
1 lw 9698 12796 m  12269 12797 l  ps
12699 12797 m  12249 12647 l  12249 12947 l  12699 12797 l  p ef
4674 13221 m  4674 13898 l  5524 13898 l  5524 13651 l  ps
5524 13221 m  5374 13671 l  5674 13671 l  5524 13221 l  p ef
3385 12790 m  4069 12794 l  ps
4499 12796 m  4050 12644 l  4048 12944 l  4499 12796 l  p ef
pum
4153 15081 t
39 -165 m  39 -224 49 -278 67 -326 ct 86 -373 115 -418 154 -460 ct 208 -460 l 
169 -417 141 -371 123 -323 ct 105 -274 96 -222 96 -164 ct 96 -107 104 -54 122 -6 ct 
140 42 169 88 208 132 ct 154 132 l  115 90 86 45 67 -3 ct 49 -50 39 -104 39 -163 ct 
39 -165 l  p ef
538 -169 m  538 -52 497 7 415 7 ct 390 7 369 2 352 -7 ct 335 -16 321 -31 311 -51 ct 
310 -51 l  310 -45 310 -35 309 -22 ct 308 -9 307 -1 307 1 ct 253 1 l  254 -10 255 -33 255 -68 ct 
255 -460 l  311 -460 l  311 -328 l  311 -315 310 -299 309 -281 ct 311 -281 l 
321 -302 335 -318 352 -327 ct 369 -336 390 -341 415 -341 ct 457 -341 489 -327 509 -298 ct 
529 -270 538 -227 538 -169 ct p
480 -167 m  480 -214 474 -247 461 -268 ct 449 -288 429 -298 401 -298 ct 369 -298 347 -287 332 -266 ct 
318 -244 311 -210 311 -163 ct 311 -119 318 -87 332 -66 ct 346 -45 369 -34 400 -34 ct 
428 -34 449 -45 461 -65 ct 474 -86 480 -120 480 -167 ct p ef
682 -68 m  682 -16 l  682 6 680 25 676 39 ct 673 54 666 68 658 82 ct 620 82 l 
639 53 649 26 649 0 ct 622 0 l  622 -68 l  682 -68 l  p ef
pom
pum
5072 15081 t
141 -36 m  159 -36 177 -40 194 -49 ct 212 -59 226 -71 238 -86 ct 271 -55 l  254 -34 235 -19 212 -9 ct 
190 1 165 6 138 6 ct 100 6 72 -3 52 -20 ct 32 -37 22 -61 22 -92 ct 22 -115 29 -134 45 -149 ct 
60 -164 80 -173 104 -175 ct 104 -176 l  82 -179 64 -187 51 -201 ct 38 -215 32 -232 32 -253 ct 
32 -279 42 -301 63 -317 ct 84 -334 112 -342 146 -342 ct 198 -342 237 -323 263 -285 ct 
223 -257 l  204 -286 178 -300 146 -300 ct 128 -300 113 -296 103 -287 ct 93 -279 88 -267 88 -251 ct 
88 -233 96 -219 113 -210 ct 129 -201 158 -197 199 -197 ct 199 -155 l  168 -155 144 -153 128 -149 ct 
113 -145 101 -138 92 -130 ct 84 -121 80 -108 80 -93 ct 80 -75 85 -61 96 -51 ct 
107 -41 122 -36 141 -36 ct p ef
403 -68 m  403 -16 l  403 6 401 25 397 39 ct 394 54 387 68 379 82 ct 341 82 l 
360 53 370 26 370 0 ct 343 0 l  343 -68 l  403 -68 l  p ef
965 -169 m  965 -52 924 7 842 7 ct 817 7 796 2 779 -7 ct 762 -16 748 -31 738 -51 ct 
737 -51 l  737 -45 737 -35 736 -22 ct 735 -9 734 -1 734 1 ct 680 1 l  681 -10 682 -33 682 -68 ct 
682 -460 l  738 -460 l  738 -328 l  738 -315 737 -299 736 -281 ct 738 -281 l 
748 -302 762 -318 779 -327 ct 796 -336 817 -341 842 -341 ct 884 -341 916 -327 936 -298 ct 
956 -270 965 -227 965 -169 ct p
907 -167 m  907 -214 901 -247 888 -268 ct 876 -288 856 -298 828 -298 ct 796 -298 774 -287 759 -266 ct 
745 -244 738 -210 738 -163 ct 738 -119 745 -87 759 -66 ct 773 -45 796 -34 827 -34 ct 
855 -34 876 -45 888 -65 ct 901 -86 907 -120 907 -167 ct p ef
pom
pum
6063 15081 t
172 -163 m  172 -104 163 -50 144 -2 ct 125 45 97 90 58 132 ct 4 132 l  43 89 71 43 89 -5 ct 
107 -53 116 -106 116 -164 ct 116 -222 107 -275 89 -323 ct 71 -371 42 -417 4 -460 ct 
58 -460 l  97 -418 126 -373 144 -325 ct 163 -278 172 -224 172 -165 ct 172 -163 l 
p ef
pom
pum
9948 12582 t
39 -165 m  39 -224 49 -278 67 -326 ct 86 -373 115 -418 154 -460 ct 208 -460 l 
169 -417 141 -371 123 -323 ct 105 -274 96 -222 96 -164 ct 96 -107 104 -54 122 -6 ct 
140 42 169 88 208 132 ct 154 132 l  115 90 86 45 67 -3 ct 49 -50 39 -104 39 -163 ct 
39 -165 l  p ef
pom
pum
10160 12582 t
330 -320 m  330 -305 327 -291 323 -279 ct 318 -266 312 -255 303 -245 ct 295 -234 281 -222 262 -208 ct 
237 -190 l  222 -179 211 -168 204 -156 ct 196 -144 193 -131 193 -117 ct 138 -117 l 
139 -131 141 -144 145 -155 ct 149 -165 154 -175 161 -183 ct 167 -191 174 -199 182 -205 ct 
190 -212 199 -218 207 -224 ct 215 -230 223 -236 231 -242 ct 239 -247 246 -254 252 -261 ct 
259 -268 264 -277 267 -286 ct 271 -295 273 -305 273 -318 ct 273 -341 265 -360 249 -374 ct 
233 -387 211 -394 182 -394 ct 153 -394 130 -387 113 -372 ct 96 -358 86 -338 83 -313 ct 
26 -316 l  31 -357 48 -389 74 -411 ct 101 -433 137 -444 181 -444 ct 227 -444 263 -433 290 -411 ct 
316 -389 330 -359 330 -320 ct p
136 0 m  136 -62 l  196 -62 l  196 0 l  136 0 l  p ef
pom
pum
10511 12582 t
119 -68 m  119 -16 l  119 6 117 25 113 39 ct 110 54 103 68 95 82 ct 57 82 l 
76 53 86 26 86 0 ct 59 0 l  59 -68 l  119 -68 l  p ef
pom
pum
10867 12582 t
330 -320 m  330 -305 327 -291 323 -279 ct 318 -266 312 -255 303 -245 ct 295 -234 281 -222 262 -208 ct 
237 -190 l  222 -179 211 -168 204 -156 ct 196 -144 193 -131 193 -117 ct 138 -117 l 
139 -131 141 -144 145 -155 ct 149 -165 154 -175 161 -183 ct 167 -191 174 -199 182 -205 ct 
190 -212 199 -218 207 -224 ct 215 -230 223 -236 231 -242 ct 239 -247 246 -254 252 -261 ct 
259 -268 264 -277 267 -286 ct 271 -295 273 -305 273 -318 ct 273 -341 265 -360 249 -374 ct 
233 -387 211 -394 182 -394 ct 153 -394 130 -387 113 -372 ct 96 -358 86 -338 83 -313 ct 
26 -316 l  31 -357 48 -389 74 -411 ct 101 -433 137 -444 181 -444 ct 227 -444 263 -433 290 -411 ct 
316 -389 330 -359 330 -320 ct p
136 0 m  136 -62 l  196 -62 l  196 0 l  136 0 l  p ef
pom
pum
11218 12582 t
119 -68 m  119 -16 l  119 6 117 25 113 39 ct 110 54 103 68 95 82 ct 57 82 l 
76 53 86 26 86 0 ct 59 0 l  59 -68 l  119 -68 l  p ef
pom
pum
11574 12582 t
141 -36 m  159 -36 177 -40 194 -49 ct 212 -59 226 -71 238 -86 ct 271 -55 l  254 -34 235 -19 212 -9 ct 
190 1 165 6 138 6 ct 100 6 72 -3 52 -20 ct 32 -37 22 -61 22 -92 ct 22 -115 29 -134 45 -149 ct 
60 -164 80 -173 104 -175 ct 104 -176 l  82 -179 64 -187 51 -201 ct 38 -215 32 -232 32 -253 ct 
32 -279 42 -301 63 -317 ct 84 -334 112 -342 146 -342 ct 198 -342 237 -323 263 -285 ct 
223 -257 l  204 -286 178 -300 146 -300 ct 128 -300 113 -296 103 -287 ct 93 -279 88 -267 88 -251 ct 
88 -233 96 -219 113 -210 ct 129 -201 158 -197 199 -197 ct 199 -155 l  168 -155 144 -153 128 -149 ct 
113 -145 101 -138 92 -130 ct 84 -121 80 -108 80 -93 ct 80 -75 85 -61 96 -51 ct 
107 -41 122 -36 141 -36 ct p ef
pom
pum
11858 12582 t
172 -163 m  172 -104 163 -50 144 -2 ct 125 45 97 90 58 132 ct 4 132 l  43 89 71 43 89 -5 ct 
107 -53 116 -106 116 -164 ct 116 -222 107 -275 89 -323 ct 71 -371 42 -417 4 -460 ct 
58 -460 l  97 -418 126 -373 144 -325 ct 163 -278 172 -224 172 -165 ct 172 -163 l 
p ef
pom
pum
8152 14382 t
39 -165 m  39 -224 49 -278 67 -326 ct 86 -373 115 -418 154 -460 ct 208 -460 l 
169 -417 141 -371 123 -323 ct 105 -274 96 -222 96 -164 ct 96 -107 104 -54 122 -6 ct 
140 42 169 88 208 132 ct 154 132 l  115 90 86 45 67 -3 ct 49 -50 39 -104 39 -163 ct 
39 -165 l  p ef
340 6 m  307 6 281 -3 264 -21 ct 247 -38 239 -63 239 -94 ct 239 -129 250 -155 273 -174 ct 
296 -192 333 -202 384 -204 ct 459 -205 l  459 -223 l  459 -250 453 -270 442 -282 ct 
430 -294 412 -299 387 -299 ct 362 -299 344 -295 333 -287 ct 321 -278 314 -265 312 -246 ct 
254 -251 l  263 -312 308 -342 388 -342 ct 431 -342 462 -332 484 -313 ct 505 -294 516 -266 516 -229 ct 
516 -85 l  516 -68 518 -55 522 -47 ct 526 -39 535 -35 547 -35 ct 552 -35 558 -35 565 -37 ct 
565 -2 l  551 1 537 3 522 3 ct 501 3 486 -2 477 -13 ct 468 -24 462 -41 461 -64 ct 
459 -64 l  445 -39 428 -21 409 -10 ct 390 1 367 6 340 6 ct p
353 -36 m  374 -36 392 -41 408 -50 ct 424 -59 436 -72 445 -88 ct 455 -104 459 -121 459 -138 ct 
459 -166 l  398 -165 l  372 -164 352 -161 338 -157 ct 325 -152 314 -144 307 -134 ct 
300 -123 296 -110 296 -93 ct 296 -75 301 -61 311 -51 ct 321 -41 335 -36 353 -36 ct 
p ef
682 -68 m  682 -16 l  682 6 680 25 676 39 ct 673 54 666 68 658 82 ct 620 82 l 
639 53 649 26 649 0 ct 622 0 l  622 -68 l  682 -68 l  p ef
1047 6 m  1014 6 988 -3 971 -21 ct 954 -38 946 -63 946 -94 ct 946 -129 957 -155 980 -174 ct 
1003 -192 1040 -202 1091 -204 ct 1166 -205 l  1166 -223 l  1166 -250 1160 -270 1149 -282 ct 
1137 -294 1119 -299 1094 -299 ct 1069 -299 1051 -295 1040 -287 ct 1028 -278 1021 -265 1019 -246 ct 
961 -251 l  970 -312 1015 -342 1095 -342 ct 1138 -342 1169 -332 1191 -313 ct 
1212 -294 1223 -266 1223 -229 ct 1223 -85 l  1223 -68 1225 -55 1229 -47 ct 1233 -39 1242 -35 1254 -35 ct 
1259 -35 1265 -35 1272 -37 ct 1272 -2 l  1258 1 1244 3 1229 3 ct 1208 3 1193 -2 1184 -13 ct 
1175 -24 1169 -41 1168 -64 ct 1166 -64 l  1152 -39 1135 -21 1116 -10 ct 1097 1 1074 6 1047 6 ct 
p
1060 -36 m  1081 -36 1099 -41 1115 -50 ct 1131 -59 1143 -72 1152 -88 ct 1162 -104 1166 -121 1166 -138 ct 
1166 -166 l  1105 -165 l  1079 -164 1059 -161 1045 -157 ct 1032 -152 1021 -144 1014 -134 ct 
1007 -123 1003 -110 1003 -93 ct 1003 -75 1008 -61 1018 -51 ct 1028 -41 1042 -36 1060 -36 ct 
p ef
pom
pum
9422 14382 t
119 -68 m  119 -16 l  119 6 117 25 113 39 ct 110 54 103 68 95 82 ct 57 82 l 
76 53 86 26 86 0 ct 59 0 l  59 -68 l  119 -68 l  p ef
pom
pum
9778 14382 t
141 -36 m  159 -36 177 -40 194 -49 ct 212 -59 226 -71 238 -86 ct 271 -55 l  254 -34 235 -19 212 -9 ct 
190 1 165 6 138 6 ct 100 6 72 -3 52 -20 ct 32 -37 22 -61 22 -92 ct 22 -115 29 -134 45 -149 ct 
60 -164 80 -173 104 -175 ct 104 -176 l  82 -179 64 -187 51 -201 ct 38 -215 32 -232 32 -253 ct 
32 -279 42 -301 63 -317 ct 84 -334 112 -342 146 -342 ct 198 -342 237 -323 263 -285 ct 
223 -257 l  204 -286 178 -300 146 -300 ct 128 -300 113 -296 103 -287 ct 93 -279 88 -267 88 -251 ct 
88 -233 96 -219 113 -210 ct 129 -201 158 -197 199 -197 ct 199 -155 l  168 -155 144 -153 128 -149 ct 
113 -145 101 -138 92 -130 ct 84 -121 80 -108 80 -93 ct 80 -75 85 -61 96 -51 ct 
107 -41 122 -36 141 -36 ct p ef
pom
pum
10062 14382 t
172 -163 m  172 -104 163 -50 144 -2 ct 125 45 97 90 58 132 ct 4 132 l  43 89 71 43 89 -5 ct 
107 -53 116 -106 116 -164 ct 116 -222 107 -275 89 -323 ct 71 -371 42 -417 4 -460 ct 
58 -460 l  97 -418 126 -373 144 -325 ct 163 -278 172 -224 172 -165 ct 172 -163 l 
p ef
pom
pum
8152 15081 t
39 -165 m  39 -224 49 -278 67 -326 ct 86 -373 115 -418 154 -460 ct 208 -460 l 
169 -417 141 -371 123 -323 ct 105 -274 96 -222 96 -164 ct 96 -107 104 -54 122 -6 ct 
140 42 169 88 208 132 ct 154 132 l  115 90 86 45 67 -3 ct 49 -50 39 -104 39 -163 ct 
39 -165 l  p ef
538 -169 m  538 -52 497 7 415 7 ct 390 7 369 2 352 -7 ct 335 -16 321 -31 311 -51 ct 
310 -51 l  310 -45 310 -35 309 -22 ct 308 -9 307 -1 307 1 ct 253 1 l  254 -10 255 -33 255 -68 ct 
255 -460 l  311 -460 l  311 -328 l  311 -315 310 -299 309 -281 ct 311 -281 l 
321 -302 335 -318 352 -327 ct 369 -336 390 -341 415 -341 ct 457 -341 489 -327 509 -298 ct 
529 -270 538 -227 538 -169 ct p
480 -167 m  480 -214 474 -247 461 -268 ct 449 -288 429 -298 401 -298 ct 369 -298 347 -287 332 -266 ct 
318 -244 311 -210 311 -163 ct 311 -119 318 -87 332 -66 ct 346 -45 369 -34 400 -34 ct 
428 -34 449 -45 461 -65 ct 474 -86 480 -120 480 -167 ct p ef
682 -68 m  682 -16 l  682 6 680 25 676 39 ct 673 54 666 68 658 82 ct 620 82 l 
639 53 649 26 649 0 ct 622 0 l  622 -68 l  682 -68 l  p ef
1245 -169 m  1245 -52 1204 7 1122 7 ct 1097 7 1076 2 1059 -7 ct 1042 -16 1028 -31 1018 -51 ct 
1017 -51 l  1017 -45 1017 -35 1016 -22 ct 1015 -9 1014 -1 1014 1 ct 960 1 l 
961 -10 962 -33 962 -68 ct 962 -460 l  1018 -460 l  1018 -328 l  1018 -315 1017 -299 1016 -281 ct 
1018 -281 l  1028 -302 1042 -318 1059 -327 ct 1076 -336 1097 -341 1122 -341 ct 
1164 -341 1196 -327 1216 -298 ct 1236 -270 1245 -227 1245 -169 ct p
1187 -167 m  1187 -214 1181 -247 1168 -268 ct 1156 -288 1136 -298 1108 -298 ct 
1076 -298 1054 -287 1039 -266 ct 1025 -244 1018 -210 1018 -163 ct 1018 -119 1025 -87 1039 -66 ct 
1053 -45 1076 -34 1107 -34 ct 1135 -34 1156 -45 1168 -65 ct 1181 -86 1187 -120 1187 -167 ct 
p ef
pom
pum
9422 15081 t
119 -68 m  119 -16 l  119 6 117 25 113 39 ct 110 54 103 68 95 82 ct 57 82 l 
76 53 86 26 86 0 ct 59 0 l  59 -68 l  119 -68 l  p ef
pom
pum
9778 15081 t
141 -36 m  159 -36 177 -40 194 -49 ct 212 -59 226 -71 238 -86 ct 271 -55 l  254 -34 235 -19 212 -9 ct 
190 1 165 6 138 6 ct 100 6 72 -3 52 -20 ct 32 -37 22 -61 22 -92 ct 22 -115 29 -134 45 -149 ct 
60 -164 80 -173 104 -175 ct 104 -176 l  82 -179 64 -187 51 -201 ct 38 -215 32 -232 32 -253 ct 
32 -279 42 -301 63 -317 ct 84 -334 112 -342 146 -342 ct 198 -342 237 -323 263 -285 ct 
223 -257 l  204 -286 178 -300 146 -300 ct 128 -300 113 -296 103 -287 ct 93 -279 88 -267 88 -251 ct 
88 -233 96 -219 113 -210 ct 129 -201 158 -197 199 -197 ct 199 -155 l  168 -155 144 -153 128 -149 ct 
113 -145 101 -138 92 -130 ct 84 -121 80 -108 80 -93 ct 80 -75 85 -61 96 -51 ct 
107 -41 122 -36 141 -36 ct p ef
pom
pum
10062 15081 t
172 -163 m  172 -104 163 -50 144 -2 ct 125 45 97 90 58 132 ct 4 132 l  43 89 71 43 89 -5 ct 
107 -53 116 -106 116 -164 ct 116 -222 107 -275 89 -323 ct 71 -371 42 -417 4 -460 ct 
58 -460 l  97 -418 126 -373 144 -325 ct 163 -278 172 -224 172 -165 ct 172 -163 l 
p ef
pom
0 3344 t 
pom
count op_count sub {pop} repeat countdictstack dict_count sub {end} repeat b4_inc_state restore
%%PageTrailer
%%Trailer
%%EOF
