%!PS-Adobe-3.0 EPSF-3.0 
%%BoundingBox: 0 0 210 130
%%Pages: 0
%%Creator: LibreOffice 5.3
%%Title: none
%%CreationDate: none
%%LanguageLevel: 2
%%EndComments
%%BeginProlog
%%BeginResource: procset SDRes-Prolog 1.0 0
/b4_inc_state save def
/dict_count countdictstack def
/op_count count 1 sub def
userdict begin
0 setgray 0 setlinecap 1 setlinewidth 0 setlinejoin 10 setmiterlimit[] 0 setdash newpath
/languagelevel where {pop languagelevel 1 ne {false setstrokeadjust false setoverprint} if} if
/bdef {bind def} bind def
/c {setgray} bdef
/l {neg lineto} bdef
/rl {neg rlineto} bdef
/lc {setlinecap} bdef
/lj {setlinejoin} bdef
/lw {setlinewidth} bdef
/ml {setmiterlimit} bdef
/ld {setdash} bdef
/m {neg moveto} bdef
/ct {6 2 roll neg 6 2 roll neg 6 2 roll neg curveto} bdef
/r {rotate} bdef
/t {neg translate} bdef
/s {scale} bdef
/sw {show} bdef
/gs {gsave} bdef
/gr {grestore} bdef
/f {findfont dup length dict begin
{1 index /FID ne {def} {pop pop} ifelse} forall /Encoding ISOLatin1Encoding def
currentdict end /NFont exch definefont pop /NFont findfont} bdef
/p {closepath} bdef
/sf {scalefont setfont} bdef
/ef {eofill}bdef
/pc {closepath stroke}bdef
/ps {stroke}bdef
/pum {matrix currentmatrix}bdef
/pom {setmatrix}bdef
/bs {/aString exch def /nXOfs exch def /nWidth exch def currentpoint nXOfs 0 rmoveto pum nWidth aString stringwidth pop div 1 scale aString show pom moveto} bdef
%%EndResource
%%EndProlog
%%BeginSetup
%%EndSetup
%%Page: 1 1
%%BeginPageSetup
%%EndPageSetup
pum
0.02837 0.02824 s 
0 -4602 t
/tm matrix currentmatrix def
tm setmatrix
-6397 -11426 t 
1 1 s 
0.996 c 7799 13195 m  8139 13195 8399 13455 8399 13795 ct 8399 14135 8139 14395 7799 14395 ct 
7459 14395 7199 14135 7199 13795 ct 7199 13455 7459 13195 7799 13195 ct p
7199 13195 m  7199 13195 l  p
8400 14396 m  8400 14396 l  p ef
0 lw 1 lj 0.000 c 7798 13195 m  8138 13195 8398 13455 8398 13795 ct 8398 14134 8138 14394 7798 14394 ct 
7458 14394 7199 14134 7199 13795 ct 7199 13455 7458 13195 7798 13195 ct pc
7199 13195 m  7199 13195 l  pc
8399 14395 m  8399 14395 l  pc
pum
7623 13960 t
326 -170 m  326 -52 285 6 203 6 ct 151 6 117 -13 99 -52 ct 97 -52 l  98 -50 99 -33 99 1 ct 
99 132 l  43 132 l  43 -267 l  43 -302 42 -325 41 -336 ct 95 -336 l  95 -335 95 -332 96 -327 ct 
96 -322 97 -314 97 -304 ct 98 -293 98 -286 98 -282 ct 99 -282 l  109 -303 122 -318 139 -328 ct 
155 -337 176 -342 203 -342 ct 244 -342 275 -328 296 -300 ct 316 -273 326 -229 326 -170 ct 
p
268 -168 m  268 -215 262 -249 249 -269 ct 236 -289 216 -299 189 -299 ct 167 -299 149 -294 137 -285 ct 
124 -276 115 -261 108 -241 ct 102 -221 99 -196 99 -164 ct 99 -120 106 -87 120 -66 ct 
134 -45 157 -35 188 -35 ct 216 -35 236 -45 249 -66 ct 262 -86 268 -120 268 -168 ct 
p ef
pom
0.996 c 12698 13195 m  13037 13195 13297 13455 13297 13795 ct 13297 14135 13037 14395 12698 14395 ct 
12358 14395 12098 14135 12098 13795 ct 12098 13455 12358 13195 12698 13195 ct 
p
12098 13195 m  12098 13195 l  p
13298 14396 m  13298 14396 l  p ef
0.000 c 12697 13195 m  13037 13195 13297 13455 13297 13795 ct 13297 14134 13037 14394 12697 14394 ct 
12357 14394 12097 14134 12097 13795 ct 12097 13455 12357 13195 12697 13195 ct 
pc
12097 13195 m  12097 13195 l  pc
13298 14395 m  13298 14395 l  pc
pum
12522 13960 t
150 6 m  107 6 76 -8 56 -37 ct 37 -66 27 -109 27 -166 ct 27 -283 68 -342 150 -342 ct 
175 -342 196 -338 213 -329 ct 230 -320 243 -305 255 -284 ct 255 -284 l  255 -290 256 -301 256 -316 ct 
257 -332 258 -339 259 -339 ct 313 -339 l  311 -327 310 -297 310 -248 ct 310 132 l 
255 132 l  255 -4 l  256 -55 l  255 -55 l  244 -33 230 -17 214 -8 ct 198 1 176 6 150 6 ct 
p
255 -172 m  255 -216 247 -248 233 -269 ct 219 -290 196 -301 165 -301 ct 137 -301 116 -290 104 -269 ct 
91 -248 85 -214 85 -168 ct 85 -121 92 -88 104 -67 ct 117 -47 137 -37 164 -37 ct 
196 -37 219 -48 233 -71 ct 247 -93 255 -127 255 -172 ct p ef
pom
1 lw 8399 13795 m  11668 13795 l  ps
12098 13795 m  11648 13645 l  11648 13945 l  12098 13795 l  p ef
pum
9048 13580 t
39 -165 m  39 -224 49 -278 67 -326 ct 86 -373 115 -418 154 -460 ct 208 -460 l 
169 -417 141 -371 123 -323 ct 105 -274 96 -222 96 -164 ct 96 -107 104 -54 122 -6 ct 
140 42 169 88 208 132 ct 154 132 l  115 90 86 45 67 -3 ct 49 -50 39 -104 39 -163 ct 
39 -165 l  p ef
340 6 m  307 6 281 -3 264 -21 ct 247 -38 239 -63 239 -94 ct 239 -129 250 -155 273 -174 ct 
296 -192 333 -202 384 -204 ct 459 -205 l  459 -223 l  459 -250 453 -270 442 -282 ct 
430 -294 412 -299 387 -299 ct 362 -299 344 -295 333 -287 ct 321 -278 314 -265 312 -246 ct 
254 -251 l  263 -312 308 -342 388 -342 ct 431 -342 462 -332 484 -313 ct 505 -294 516 -266 516 -229 ct 
516 -85 l  516 -68 518 -55 522 -47 ct 526 -39 535 -35 547 -35 ct 552 -35 558 -35 565 -37 ct 
565 -2 l  551 1 537 3 522 3 ct 501 3 486 -2 477 -13 ct 468 -24 462 -41 461 -64 ct 
459 -64 l  445 -39 428 -21 409 -10 ct 390 1 367 6 340 6 ct p
353 -36 m  374 -36 392 -41 408 -50 ct 424 -59 436 -72 445 -88 ct 455 -104 459 -121 459 -138 ct 
459 -166 l  398 -165 l  372 -164 352 -161 338 -157 ct 325 -152 314 -144 307 -134 ct 
300 -123 296 -110 296 -93 ct 296 -75 301 -61 311 -51 ct 321 -41 335 -36 353 -36 ct 
p ef
682 -68 m  682 -16 l  682 6 680 25 676 39 ct 673 54 666 68 658 82 ct 620 82 l 
639 53 649 26 649 0 ct 622 0 l  622 -68 l  682 -68 l  p ef
1245 -169 m  1245 -52 1204 7 1122 7 ct 1097 7 1076 2 1059 -7 ct 1042 -16 1028 -31 1018 -51 ct 
1017 -51 l  1017 -45 1017 -35 1016 -22 ct 1015 -9 1014 -1 1014 1 ct 960 1 l 
961 -10 962 -33 962 -68 ct 962 -460 l  1018 -460 l  1018 -328 l  1018 -315 1017 -299 1016 -281 ct 
1018 -281 l  1028 -302 1042 -318 1059 -327 ct 1076 -336 1097 -341 1122 -341 ct 
1164 -341 1196 -327 1216 -298 ct 1236 -270 1245 -227 1245 -169 ct p
1187 -167 m  1187 -214 1181 -247 1168 -268 ct 1156 -288 1136 -298 1108 -298 ct 
1076 -298 1054 -287 1039 -266 ct 1025 -244 1018 -210 1018 -163 ct 1018 -119 1025 -87 1039 -66 ct 
1053 -45 1076 -34 1107 -34 ct 1135 -34 1156 -45 1168 -65 ct 1181 -86 1187 -120 1187 -167 ct 
p ef
1389 -68 m  1389 -16 l  1389 6 1387 25 1383 39 ct 1380 54 1373 68 1365 82 ct 
1327 82 l  1346 53 1356 26 1356 0 ct 1329 0 l  1329 -68 l  1389 -68 l  p ef
1952 -169 m  1952 -52 1911 7 1829 7 ct 1804 7 1783 2 1766 -7 ct 1749 -16 1735 -31 1725 -51 ct 
1724 -51 l  1724 -45 1724 -35 1723 -22 ct 1722 -9 1721 -1 1721 1 ct 1667 1 l 
1668 -10 1669 -33 1669 -68 ct 1669 -460 l  1725 -460 l  1725 -328 l  1725 -315 1724 -299 1723 -281 ct 
1725 -281 l  1735 -302 1749 -318 1766 -327 ct 1783 -336 1804 -341 1829 -341 ct 
1871 -341 1903 -327 1923 -298 ct 1943 -270 1952 -227 1952 -169 ct p
1894 -167 m  1894 -214 1888 -247 1875 -268 ct 1863 -288 1843 -298 1815 -298 ct 
1783 -298 1761 -287 1746 -266 ct 1732 -244 1725 -210 1725 -163 ct 1725 -119 1732 -87 1746 -66 ct 
1760 -45 1783 -34 1814 -34 ct 1842 -34 1863 -45 1875 -65 ct 1888 -86 1894 -120 1894 -167 ct 
p ef
2148 -163 m  2148 -104 2139 -50 2120 -2 ct 2101 45 2073 90 2034 132 ct 1980 132 l 
2019 89 2047 43 2065 -5 ct 2083 -53 2092 -106 2092 -164 ct 2092 -222 2083 -275 2065 -323 ct 
2047 -371 2018 -417 1980 -460 ct 2034 -460 l  2073 -418 2102 -373 2120 -325 ct 
2139 -278 2148 -224 2148 -165 ct 2148 -163 l  p ef
pom
0.996 c 6930 14594 m  6664 14594 6398 14693 6398 14793 ct 6398 14943 l  6398 15091 l 
6398 15295 l  6398 15444 l  6398 15594 l  6398 15694 6664 15794 6930 15794 ct 
7328 15794 l  7727 15794 l  8269 15794 l  8668 15794 l  9066 15794 l  9331 15794 9598 15694 9598 15594 ct 
9598 15444 l  9598 15295 l  9598 15091 l  9598 14943 l  9598 14793 l  9598 14693 9331 14594 9066 14594 ct 
9250 13656 l  8269 14594 l  7727 14594 l  7328 14594 l  6930 14594 l  p
6398 14594 m  6398 14594 l  p
9598 15794 m  9598 15794 l  p ef
0 lw 0.000 c 6930 14593 m  6664 14593 6398 14692 6398 14792 ct 6398 14942 l 
6398 15091 l  6398 15295 l  6398 15444 l  6398 15594 l  6398 15694 6664 15794 6930 15794 ct 
7328 15794 l  7726 15794 l  8268 15794 l  8667 15794 l  9065 15794 l  9331 15794 9598 15694 9598 15594 ct 
9598 15444 l  9598 15295 l  9598 15091 l  9598 14942 l  9598 14792 l  9598 14692 9331 14593 9065 14593 ct 
9249 13656 l  8268 14593 l  7726 14593 l  7328 14593 l  6930 14593 l  pc
6398 14593 m  6398 14593 l  pc
9598 15794 m  9598 15794 l  pc
pum
6641 15091 t
306 -93 m  306 -62 294 -38 269 -21 ct 245 -4 211 5 166 5 ct 83 5 36 -24 22 -81 ct 
67 -90 l  72 -70 83 -55 100 -45 ct 116 -36 139 -31 168 -31 ct 197 -31 220 -36 237 -46 ct 
253 -56 261 -71 261 -91 ct 261 -102 258 -111 253 -118 ct 248 -125 241 -130 232 -135 ct 
223 -139 212 -143 199 -146 ct 186 -149 172 -153 157 -156 ct 130 -162 110 -168 96 -174 ct 
82 -180 71 -186 63 -194 ct 55 -201 49 -210 45 -219 ct 40 -229 38 -240 38 -253 ct 
38 -282 49 -304 72 -320 ct 94 -336 126 -344 167 -344 ct 206 -344 235 -338 255 -326 ct 
276 -314 290 -294 298 -266 ct 253 -258 l  248 -276 239 -289 225 -297 ct 211 -305 191 -309 167 -309 ct 
139 -309 119 -305 104 -296 ct 90 -287 83 -273 83 -255 ct 83 -245 86 -236 91 -230 ct 
97 -223 105 -217 115 -212 ct 126 -208 147 -202 178 -195 ct 188 -192 198 -190 209 -187 ct 
219 -185 229 -182 239 -179 ct 248 -175 257 -171 265 -166 ct 273 -162 281 -156 287 -149 ct 
293 -143 298 -135 301 -126 ct 304 -116 306 -106 306 -93 ct p ef
373 0 m  373 -260 l  416 -260 l  416 0 l  373 0 l  p
359 -289 m  359 -294 l  411 -363 l  461 -363 l  461 -356 l  381 -289 l 
359 -289 l  p ef
646 0 m  646 -165 l  646 -190 642 -208 636 -217 ct 629 -227 616 -232 598 -232 ct 
580 -232 565 -225 554 -210 ct 544 -196 538 -176 538 -151 ct 538 0 l  495 0 l 
495 -205 l  495 -235 495 -253 494 -260 ct 535 -260 l  535 -259 535 -257 535 -254 ct 
535 -250 536 -246 536 -242 ct 536 -237 536 -228 537 -216 ct 537 -216 l  547 -234 557 -247 569 -254 ct 
581 -261 596 -265 613 -265 ct 633 -265 649 -261 660 -253 ct 672 -245 680 -233 684 -216 ct 
685 -216 l  694 -233 705 -246 717 -253 ct 730 -261 746 -265 764 -265 ct 790 -265 809 -258 821 -244 ct 
833 -229 839 -206 839 -173 ct 839 0 l  796 0 l  796 -165 l  796 -190 793 -208 786 -217 ct 
779 -227 767 -232 749 -232 ct 730 -232 715 -225 704 -211 ct 694 -197 689 -177 689 -151 ct 
689 0 l  646 0 l  p ef
1125 -131 m  1125 -40 1094 5 1030 5 ct 1010 5 994 1 980 -6 ct 967 -13 957 -24 949 -40 ct 
948 -40 l  948 -35 948 -28 947 -18 ct 946 -7 946 -1 946 0 ct 904 0 l  905 -9 905 -26 905 -54 ct 
905 -357 l  949 -357 l  949 -255 l  949 -245 948 -232 948 -218 ct 949 -218 l 
957 -235 967 -247 980 -254 ct 994 -261 1010 -265 1030 -265 ct 1063 -265 1087 -254 1102 -232 ct 
1118 -210 1125 -176 1125 -131 ct p
1080 -130 m  1080 -166 1075 -192 1066 -208 ct 1056 -224 1040 -232 1019 -232 ct 
994 -232 976 -223 965 -207 ct 954 -190 949 -163 949 -127 ct 949 -93 954 -68 965 -51 ct 
976 -35 994 -27 1018 -27 ct 1040 -27 1056 -35 1065 -51 ct 1075 -67 1080 -94 1080 -130 ct 
p ef
1400 -130 m  1400 -85 1390 -51 1370 -28 ct 1350 -6 1321 5 1283 5 ct 1245 5 1216 -7 1197 -30 ct 
1177 -53 1168 -86 1168 -130 ct 1168 -220 1207 -265 1284 -265 ct 1324 -265 1354 -254 1372 -232 ct 
1391 -210 1400 -176 1400 -130 ct p
1355 -130 m  1355 -166 1350 -192 1339 -209 ct 1328 -225 1310 -233 1285 -233 ct 
1260 -233 1241 -225 1230 -208 ct 1219 -191 1213 -166 1213 -130 ct 1213 -96 1219 -70 1230 -53 ct 
1241 -36 1259 -27 1283 -27 ct 1309 -27 1327 -35 1338 -52 ct 1349 -69 1355 -95 1355 -130 ct 
p ef
1455 0 m  1455 -357 l  1499 -357 l  1499 0 l  1455 0 l  p ef
1785 -130 m  1785 -85 1775 -51 1755 -28 ct 1735 -6 1706 5 1668 5 ct 1630 5 1601 -7 1582 -30 ct 
1562 -53 1553 -86 1553 -130 ct 1553 -220 1592 -265 1669 -265 ct 1709 -265 1739 -254 1757 -232 ct 
1776 -210 1785 -176 1785 -130 ct p
1740 -130 m  1740 -166 1735 -192 1724 -209 ct 1713 -225 1695 -233 1670 -233 ct 
1645 -233 1626 -225 1615 -208 ct 1604 -191 1598 -166 1598 -130 ct 1598 -96 1604 -70 1615 -53 ct 
1626 -36 1644 -27 1668 -27 ct 1694 -27 1712 -35 1723 -52 ct 1734 -69 1740 -95 1740 -130 ct 
p ef
1975 0 m  1975 -357 l  2019 -357 l  2019 0 l  1975 0 l  p ef
2085 -316 m  2085 -357 l  2128 -357 l  2128 -316 l  2085 -316 l  p
2085 0 m  2085 -260 l  2128 -260 l  2128 0 l  2085 0 l  p ef
2360 -42 m  2352 -26 2341 -14 2328 -6 ct 2315 1 2298 4 2279 4 ct 2246 4 2221 -7 2206 -29 ct 
2190 -51 2183 -84 2183 -129 ct 2183 -220 2215 -265 2279 -265 ct 2298 -265 2315 -261 2328 -254 ct 
2341 -247 2352 -236 2360 -220 ct 2360 -220 l  2360 -249 l  2360 -357 l  2403 -357 l 
2403 -54 l  2403 -27 2403 -9 2404 0 ct 2363 0 l  2363 -3 2362 -9 2361 -18 ct 
2361 -27 2361 -35 2361 -42 ct 2360 -42 l  p
2228 -131 m  2228 -94 2233 -68 2243 -53 ct 2252 -37 2268 -29 2290 -29 ct 2314 -29 2332 -37 2343 -54 ct 
2354 -71 2360 -98 2360 -133 ct 2360 -168 2354 -193 2343 -209 ct 2332 -225 2314 -233 2290 -233 ct 
2268 -233 2252 -225 2243 -209 ct 2233 -193 2228 -167 2228 -131 ct p ef
2690 -130 m  2690 -85 2680 -51 2660 -28 ct 2640 -6 2611 5 2573 5 ct 2535 5 2506 -7 2487 -30 ct 
2467 -53 2458 -86 2458 -130 ct 2458 -220 2497 -265 2574 -265 ct 2614 -265 2644 -254 2662 -232 ct 
2681 -210 2690 -176 2690 -130 ct p
2645 -130 m  2645 -166 2640 -192 2629 -209 ct 2618 -225 2600 -233 2575 -233 ct 
2550 -233 2531 -225 2520 -208 ct 2509 -191 2503 -166 2503 -130 ct 2503 -96 2509 -70 2520 -53 ct 
2531 -36 2549 -27 2573 -27 ct 2599 -27 2617 -35 2628 -52 ct 2639 -69 2645 -95 2645 -130 ct 
p ef
pom
pum
6845 15549 t
198 -42 m  190 -26 179 -14 166 -6 ct 153 1 136 4 117 4 ct 84 4 59 -7 44 -29 ct 
28 -51 21 -84 21 -129 ct 21 -220 53 -265 117 -265 ct 136 -265 153 -261 166 -254 ct 
179 -247 190 -236 198 -220 ct 198 -220 l  198 -249 l  198 -357 l  241 -357 l 
241 -54 l  241 -27 241 -9 242 0 ct 201 0 l  201 -3 200 -9 199 -18 ct 199 -27 199 -35 199 -42 ct 
198 -42 l  p
66 -131 m  66 -94 71 -68 81 -53 ct 90 -37 106 -29 128 -29 ct 152 -29 170 -37 181 -54 ct 
192 -71 198 -98 198 -133 ct 198 -168 192 -193 181 -209 ct 170 -225 152 -233 128 -233 ct 
106 -233 90 -225 81 -209 ct 71 -193 66 -167 66 -131 ct p ef
375 5 m  349 5 329 -2 316 -16 ct 303 -29 296 -48 296 -72 ct 296 -99 305 -120 323 -135 ct 
340 -149 369 -157 408 -158 ct 467 -159 l  467 -173 l  467 -194 462 -209 453 -218 ct 
444 -227 430 -232 411 -232 ct 392 -232 377 -229 369 -222 ct 360 -216 355 -205 353 -191 ct 
308 -195 l  315 -242 350 -265 412 -265 ct 445 -265 469 -257 486 -242 ct 502 -227 511 -206 511 -177 ct 
511 -65 l  511 -52 512 -42 516 -36 ct 519 -29 526 -26 535 -26 ct 539 -26 544 -27 549 -28 ct 
549 -1 l  538 2 527 3 516 3 ct 500 3 488 -1 481 -10 ct 473 -18 469 -32 468 -50 ct 
467 -50 l  456 -30 443 -16 428 -7 ct 414 1 396 5 375 5 ct p
385 -27 m  400 -27 415 -31 427 -38 ct 439 -46 449 -55 456 -68 ct 463 -81 467 -94 467 -107 ct 
467 -128 l  419 -127 l  399 -127 384 -125 373 -121 ct 363 -117 355 -111 349 -103 ct 
343 -95 340 -85 340 -72 ct 340 -58 344 -47 352 -39 ct 360 -31 370 -27 385 -27 ct 
p ef
939 -131 m  939 -40 908 5 844 5 ct 804 5 777 -10 763 -40 ct 762 -40 l  762 -39 763 -25 763 1 ct 
763 102 l  719 102 l  719 -207 l  719 -234 719 -252 718 -260 ct 760 -260 l 
760 -260 760 -258 760 -254 ct 761 -250 761 -244 761 -235 ct 762 -227 762 -222 762 -219 ct 
763 -219 l  771 -235 781 -246 794 -254 ct 806 -261 823 -265 844 -265 ct 876 -265 900 -254 916 -233 ct 
932 -211 939 -177 939 -131 ct p
894 -130 m  894 -167 889 -193 879 -208 ct 870 -224 854 -232 833 -232 ct 815 -232 802 -228 792 -221 ct 
783 -214 775 -202 770 -187 ct 765 -172 763 -152 763 -127 ct 763 -93 768 -68 779 -51 ct 
790 -35 808 -27 832 -27 ct 854 -27 869 -35 879 -51 ct 889 -67 894 -93 894 -130 ct 
p ef
1061 5 m  1035 5 1015 -2 1002 -16 ct 989 -29 982 -48 982 -72 ct 982 -99 991 -120 1009 -135 ct 
1026 -149 1055 -157 1094 -158 ct 1153 -159 l  1153 -173 l  1153 -194 1148 -209 1139 -218 ct 
1130 -227 1116 -232 1097 -232 ct 1078 -232 1063 -229 1055 -222 ct 1046 -216 1041 -205 1039 -191 ct 
994 -195 l  1001 -242 1036 -265 1098 -265 ct 1131 -265 1155 -257 1172 -242 ct 
1188 -227 1197 -206 1197 -177 ct 1197 -65 l  1197 -52 1198 -42 1202 -36 ct 1205 -29 1212 -26 1221 -26 ct 
1225 -26 1230 -27 1235 -28 ct 1235 -1 l  1224 2 1213 3 1202 3 ct 1186 3 1174 -1 1167 -10 ct 
1159 -18 1155 -32 1154 -50 ct 1153 -50 l  1142 -30 1129 -16 1114 -7 ct 1100 1 1082 5 1061 5 ct 
p
1071 -27 m  1086 -27 1101 -31 1113 -38 ct 1125 -46 1135 -55 1142 -68 ct 1149 -81 1153 -94 1153 -107 ct 
1153 -128 l  1105 -127 l  1085 -127 1070 -125 1059 -121 ct 1049 -117 1041 -111 1035 -103 ct 
1029 -95 1026 -85 1026 -72 ct 1026 -58 1030 -47 1038 -39 ct 1046 -31 1056 -27 1071 -27 ct 
p ef
1269 0 m  1269 -357 l  1313 -357 l  1313 0 l  1269 0 l  p ef
1446 5 m  1420 5 1400 -2 1387 -16 ct 1374 -29 1367 -48 1367 -72 ct 1367 -99 1376 -120 1394 -135 ct 
1411 -149 1440 -157 1479 -158 ct 1538 -159 l  1538 -173 l  1538 -194 1533 -209 1524 -218 ct 
1515 -227 1501 -232 1482 -232 ct 1463 -232 1448 -229 1440 -222 ct 1431 -216 1426 -205 1424 -191 ct 
1379 -195 l  1386 -242 1421 -265 1483 -265 ct 1516 -265 1540 -257 1557 -242 ct 
1573 -227 1582 -206 1582 -177 ct 1582 -65 l  1582 -52 1583 -42 1587 -36 ct 1590 -29 1597 -26 1606 -26 ct 
1610 -26 1615 -27 1620 -28 ct 1620 -1 l  1609 2 1598 3 1587 3 ct 1571 3 1559 -1 1552 -10 ct 
1544 -18 1540 -32 1539 -50 ct 1538 -50 l  1527 -30 1514 -16 1499 -7 ct 1485 1 1467 5 1446 5 ct 
p
1456 -27 m  1471 -27 1486 -31 1498 -38 ct 1510 -46 1520 -55 1527 -68 ct 1534 -81 1538 -94 1538 -107 ct 
1538 -128 l  1490 -127 l  1470 -127 1455 -125 1444 -121 ct 1434 -117 1426 -111 1420 -103 ct 
1414 -95 1411 -85 1411 -72 ct 1411 -58 1415 -47 1423 -39 ct 1431 -31 1441 -27 1456 -27 ct 
p ef
1769 0 m  1717 0 l  1623 -260 l  1669 -260 l  1726 -91 l  1728 -84 1734 -65 1743 -34 ct 
1751 -62 l  1761 -90 l  1820 -260 l  1866 -260 l  1769 0 l  p ef
1900 0 m  1900 -200 l  1900 -218 1900 -238 1899 -260 ct 1940 -260 l  1941 -231 1942 -213 1942 -207 ct 
1943 -207 l  1949 -229 1957 -245 1966 -253 ct 1975 -261 1988 -265 2004 -265 ct 
2010 -265 2016 -264 2022 -263 ct 2022 -223 l  2016 -225 2009 -225 1999 -225 ct 
1981 -225 1967 -218 1958 -202 ct 1948 -187 1944 -164 1944 -136 ct 1944 0 l  1900 0 l 
p ef
2131 5 m  2105 5 2085 -2 2072 -16 ct 2059 -29 2052 -48 2052 -72 ct 2052 -99 2061 -120 2079 -135 ct 
2096 -149 2125 -157 2164 -158 ct 2223 -159 l  2223 -173 l  2223 -194 2218 -209 2209 -218 ct 
2200 -227 2186 -232 2167 -232 ct 2148 -232 2133 -229 2125 -222 ct 2116 -216 2111 -205 2109 -191 ct 
2064 -195 l  2071 -242 2106 -265 2168 -265 ct 2201 -265 2225 -257 2242 -242 ct 
2258 -227 2267 -206 2267 -177 ct 2267 -65 l  2267 -52 2268 -42 2272 -36 ct 2275 -29 2282 -26 2291 -26 ct 
2295 -26 2300 -27 2305 -28 ct 2305 -1 l  2294 2 2283 3 2272 3 ct 2256 3 2244 -1 2237 -10 ct 
2229 -18 2225 -32 2224 -50 ct 2223 -50 l  2212 -30 2199 -16 2184 -7 ct 2170 1 2152 5 2131 5 ct 
p
2141 -27 m  2156 -27 2171 -31 2183 -38 ct 2195 -46 2205 -55 2212 -68 ct 2219 -81 2223 -94 2223 -107 ct 
2223 -128 l  2175 -127 l  2155 -127 2140 -125 2129 -121 ct 2119 -117 2111 -111 2105 -103 ct 
2099 -95 2096 -85 2096 -72 ct 2096 -58 2100 -47 2108 -39 ct 2116 -31 2126 -27 2141 -27 ct 
p ef
pom
0.996 c 6931 11427 m  6665 11427 6399 11526 6399 11626 ct 6399 11776 l  6399 11925 l 
6399 12129 l  6399 12278 l  6399 12428 l  6399 12528 6665 12628 6931 12628 ct 
7329 12628 l  7728 12628 l  8270 12628 l  9998 13091 l  9067 12628 l  9332 12628 9599 12528 9599 12428 ct 
9599 12278 l  9599 12129 l  9599 11925 l  9599 11776 l  9599 11626 l  9599 11526 9332 11427 9067 11427 ct 
8669 11427 l  8270 11427 l  7728 11427 l  7329 11427 l  6931 11427 l  p
6399 11427 m  6399 11427 l  p
9599 12628 m  9599 12628 l  p ef
0.000 c 6931 11427 m  6665 11427 6399 11525 6399 11625 ct 6399 11775 l  6399 11924 l 
6399 12128 l  6399 12277 l  6399 12427 l  6399 12527 6665 12627 6931 12627 ct 
7329 12627 l  7727 12627 l  8269 12627 l  9998 13091 l  9066 12627 l  9332 12627 9599 12527 9599 12427 ct 
9599 12277 l  9599 12128 l  9599 11924 l  9599 11775 l  9599 11625 l  9599 11525 9332 11427 9066 11427 ct 
8668 11427 l  8269 11427 l  7727 11427 l  7329 11427 l  6931 11427 l  pc
6399 11427 m  6399 11427 l  pc
9599 12627 m  9599 12627 l  pc
pum
6642 11925 t
306 -93 m  306 -62 294 -38 269 -21 ct 245 -4 211 5 166 5 ct 83 5 36 -24 22 -81 ct 
67 -90 l  72 -70 83 -55 100 -45 ct 116 -36 139 -31 168 -31 ct 197 -31 220 -36 237 -46 ct 
253 -56 261 -71 261 -91 ct 261 -102 258 -111 253 -118 ct 248 -125 241 -130 232 -135 ct 
223 -139 212 -143 199 -146 ct 186 -149 172 -153 157 -156 ct 130 -162 110 -168 96 -174 ct 
82 -180 71 -186 63 -194 ct 55 -201 49 -210 45 -219 ct 40 -229 38 -240 38 -253 ct 
38 -282 49 -304 72 -320 ct 94 -336 126 -344 167 -344 ct 206 -344 235 -338 255 -326 ct 
276 -314 290 -294 298 -266 ct 253 -258 l  248 -276 239 -289 225 -297 ct 211 -305 191 -309 167 -309 ct 
139 -309 119 -305 104 -296 ct 90 -287 83 -273 83 -255 ct 83 -245 86 -236 91 -230 ct 
97 -223 105 -217 115 -212 ct 126 -208 147 -202 178 -195 ct 188 -192 198 -190 209 -187 ct 
219 -185 229 -182 239 -179 ct 248 -175 257 -171 265 -166 ct 273 -162 281 -156 287 -149 ct 
293 -143 298 -135 301 -126 ct 304 -116 306 -106 306 -93 ct p ef
373 0 m  373 -260 l  416 -260 l  416 0 l  373 0 l  p
359 -289 m  359 -294 l  411 -363 l  461 -363 l  461 -356 l  381 -289 l 
359 -289 l  p ef
646 0 m  646 -165 l  646 -190 642 -208 636 -217 ct 629 -227 616 -232 598 -232 ct 
580 -232 565 -225 554 -210 ct 544 -196 538 -176 538 -151 ct 538 0 l  495 0 l 
495 -205 l  495 -235 495 -253 494 -260 ct 535 -260 l  535 -259 535 -257 535 -254 ct 
535 -250 536 -246 536 -242 ct 536 -237 536 -228 537 -216 ct 537 -216 l  547 -234 557 -247 569 -254 ct 
581 -261 596 -265 613 -265 ct 633 -265 649 -261 660 -253 ct 672 -245 680 -233 684 -216 ct 
685 -216 l  694 -233 705 -246 717 -253 ct 730 -261 746 -265 764 -265 ct 790 -265 809 -258 821 -244 ct 
833 -229 839 -206 839 -173 ct 839 0 l  796 0 l  796 -165 l  796 -190 793 -208 786 -217 ct 
779 -227 767 -232 749 -232 ct 730 -232 715 -225 704 -211 ct 694 -197 689 -177 689 -151 ct 
689 0 l  646 0 l  p ef
1125 -131 m  1125 -40 1094 5 1030 5 ct 1010 5 994 1 980 -6 ct 967 -13 957 -24 949 -40 ct 
948 -40 l  948 -35 948 -28 947 -18 ct 946 -7 946 -1 946 0 ct 904 0 l  905 -9 905 -26 905 -54 ct 
905 -357 l  949 -357 l  949 -255 l  949 -245 948 -232 948 -218 ct 949 -218 l 
957 -235 967 -247 980 -254 ct 994 -261 1010 -265 1030 -265 ct 1063 -265 1087 -254 1102 -232 ct 
1118 -210 1125 -176 1125 -131 ct p
1080 -130 m  1080 -166 1075 -192 1066 -208 ct 1056 -224 1040 -232 1019 -232 ct 
994 -232 976 -223 965 -207 ct 954 -190 949 -163 949 -127 ct 949 -93 954 -68 965 -51 ct 
976 -35 994 -27 1018 -27 ct 1040 -27 1056 -35 1065 -51 ct 1075 -67 1080 -94 1080 -130 ct 
p ef
1400 -130 m  1400 -85 1390 -51 1370 -28 ct 1350 -6 1321 5 1283 5 ct 1245 5 1216 -7 1197 -30 ct 
1177 -53 1168 -86 1168 -130 ct 1168 -220 1207 -265 1284 -265 ct 1324 -265 1354 -254 1372 -232 ct 
1391 -210 1400 -176 1400 -130 ct p
1355 -130 m  1355 -166 1350 -192 1339 -209 ct 1328 -225 1310 -233 1285 -233 ct 
1260 -233 1241 -225 1230 -208 ct 1219 -191 1213 -166 1213 -130 ct 1213 -96 1219 -70 1230 -53 ct 
1241 -36 1259 -27 1283 -27 ct 1309 -27 1327 -35 1338 -52 ct 1349 -69 1355 -95 1355 -130 ct 
p ef
1455 0 m  1455 -357 l  1499 -357 l  1499 0 l  1455 0 l  p ef
1785 -130 m  1785 -85 1775 -51 1755 -28 ct 1735 -6 1706 5 1668 5 ct 1630 5 1601 -7 1582 -30 ct 
1562 -53 1553 -86 1553 -130 ct 1553 -220 1592 -265 1669 -265 ct 1709 -265 1739 -254 1757 -232 ct 
1776 -210 1785 -176 1785 -130 ct p
1740 -130 m  1740 -166 1735 -192 1724 -209 ct 1713 -225 1695 -233 1670 -233 ct 
1645 -233 1626 -225 1615 -208 ct 1604 -191 1598 -166 1598 -130 ct 1598 -96 1604 -70 1615 -53 ct 
1626 -36 1644 -27 1668 -27 ct 1694 -27 1712 -35 1723 -52 ct 1734 -69 1740 -95 1740 -130 ct 
p ef
1975 0 m  1975 -357 l  2019 -357 l  2019 0 l  1975 0 l  p ef
2085 -316 m  2085 -357 l  2128 -357 l  2128 -316 l  2085 -316 l  p
2085 0 m  2085 -260 l  2128 -260 l  2128 0 l  2085 0 l  p ef
2360 -42 m  2352 -26 2341 -14 2328 -6 ct 2315 1 2298 4 2279 4 ct 2246 4 2221 -7 2206 -29 ct 
2190 -51 2183 -84 2183 -129 ct 2183 -220 2215 -265 2279 -265 ct 2298 -265 2315 -261 2328 -254 ct 
2341 -247 2352 -236 2360 -220 ct 2360 -220 l  2360 -249 l  2360 -357 l  2403 -357 l 
2403 -54 l  2403 -27 2403 -9 2404 0 ct 2363 0 l  2363 -3 2362 -9 2361 -18 ct 
2361 -27 2361 -35 2361 -42 ct 2360 -42 l  p
2228 -131 m  2228 -94 2233 -68 2243 -53 ct 2252 -37 2268 -29 2290 -29 ct 2314 -29 2332 -37 2343 -54 ct 
2354 -71 2360 -98 2360 -133 ct 2360 -168 2354 -193 2343 -209 ct 2332 -225 2314 -233 2290 -233 ct 
2268 -233 2252 -225 2243 -209 ct 2233 -193 2228 -167 2228 -131 ct p ef
2690 -130 m  2690 -85 2680 -51 2660 -28 ct 2640 -6 2611 5 2573 5 ct 2535 5 2506 -7 2487 -30 ct 
2467 -53 2458 -86 2458 -130 ct 2458 -220 2497 -265 2574 -265 ct 2614 -265 2644 -254 2662 -232 ct 
2681 -210 2690 -176 2690 -130 ct p
2645 -130 m  2645 -166 2640 -192 2629 -209 ct 2618 -225 2600 -233 2575 -233 ct 
2550 -233 2531 -225 2520 -208 ct 2509 -191 2503 -166 2503 -130 ct 2503 -96 2509 -70 2520 -53 ct 
2531 -36 2549 -27 2573 -27 ct 2599 -27 2617 -35 2628 -52 ct 2639 -69 2645 -95 2645 -130 ct 
p ef
pom
pum
7134 12383 t
198 -42 m  190 -26 179 -14 166 -6 ct 153 1 136 4 117 4 ct 84 4 59 -7 44 -29 ct 
28 -51 21 -84 21 -129 ct 21 -220 53 -265 117 -265 ct 136 -265 153 -261 166 -254 ct 
179 -247 190 -236 198 -220 ct 198 -220 l  198 -249 l  198 -357 l  241 -357 l 
241 -54 l  241 -27 241 -9 242 0 ct 201 0 l  201 -3 200 -9 199 -18 ct 199 -27 199 -35 199 -42 ct 
198 -42 l  p
66 -131 m  66 -94 71 -68 81 -53 ct 90 -37 106 -29 128 -29 ct 152 -29 170 -37 181 -54 ct 
192 -71 198 -98 198 -133 ct 198 -168 192 -193 181 -209 ct 170 -225 152 -233 128 -233 ct 
106 -233 90 -225 81 -209 ct 71 -193 66 -167 66 -131 ct p ef
375 5 m  349 5 329 -2 316 -16 ct 303 -29 296 -48 296 -72 ct 296 -99 305 -120 323 -135 ct 
340 -149 369 -157 408 -158 ct 467 -159 l  467 -173 l  467 -194 462 -209 453 -218 ct 
444 -227 430 -232 411 -232 ct 392 -232 377 -229 369 -222 ct 360 -216 355 -205 353 -191 ct 
308 -195 l  315 -242 350 -265 412 -265 ct 445 -265 469 -257 486 -242 ct 502 -227 511 -206 511 -177 ct 
511 -65 l  511 -52 512 -42 516 -36 ct 519 -29 526 -26 535 -26 ct 539 -26 544 -27 549 -28 ct 
549 -1 l  538 2 527 3 516 3 ct 500 3 488 -1 481 -10 ct 473 -18 469 -32 468 -50 ct 
467 -50 l  456 -30 443 -16 428 -7 ct 414 1 396 5 375 5 ct p
385 -27 m  400 -27 415 -31 427 -38 ct 439 -46 449 -55 456 -68 ct 463 -81 467 -94 467 -107 ct 
467 -128 l  419 -127 l  399 -127 384 -125 373 -121 ct 363 -117 355 -111 349 -103 ct 
343 -95 340 -85 340 -72 ct 340 -58 344 -47 352 -39 ct 360 -31 370 -27 385 -27 ct 
p ef
939 -131 m  939 -40 908 5 844 5 ct 804 5 777 -10 763 -40 ct 762 -40 l  762 -39 763 -25 763 1 ct 
763 102 l  719 102 l  719 -207 l  719 -234 719 -252 718 -260 ct 760 -260 l 
760 -260 760 -258 760 -254 ct 761 -250 761 -244 761 -235 ct 762 -227 762 -222 762 -219 ct 
763 -219 l  771 -235 781 -246 794 -254 ct 806 -261 823 -265 844 -265 ct 876 -265 900 -254 916 -233 ct 
932 -211 939 -177 939 -131 ct p
894 -130 m  894 -167 889 -193 879 -208 ct 870 -224 854 -232 833 -232 ct 815 -232 802 -228 792 -221 ct 
783 -214 775 -202 770 -187 ct 765 -172 763 -152 763 -127 ct 763 -93 768 -68 779 -51 ct 
790 -35 808 -27 832 -27 ct 854 -27 869 -35 879 -51 ct 889 -67 894 -93 894 -130 ct 
p ef
994 -316 m  994 -357 l  1037 -357 l  1037 -316 l  994 -316 l  p
994 0 m  994 -260 l  1037 -260 l  1037 0 l  994 0 l  p ef
1104 0 m  1104 -357 l  1148 -357 l  1148 0 l  1104 0 l  p ef
1257 -216 m  1267 -233 1278 -245 1291 -253 ct 1304 -261 1321 -265 1341 -265 ct 
1369 -265 1390 -258 1403 -244 ct 1416 -230 1423 -206 1423 -173 ct 1423 0 l  1380 0 l 
1380 -165 l  1380 -183 1378 -197 1375 -206 ct 1371 -215 1366 -221 1358 -225 ct 
1350 -229 1340 -232 1326 -232 ct 1306 -232 1289 -225 1277 -210 ct 1265 -196 1259 -177 1259 -153 ct 
1259 0 l  1215 0 l  1215 -357 l  1259 -357 l  1259 -264 l  1259 -254 1258 -244 1258 -234 ct 
1257 -223 1257 -217 1257 -216 ct 1257 -216 l  p ef
1556 5 m  1530 5 1510 -2 1497 -16 ct 1484 -29 1477 -48 1477 -72 ct 1477 -99 1486 -120 1504 -135 ct 
1521 -149 1550 -157 1589 -158 ct 1648 -159 l  1648 -173 l  1648 -194 1643 -209 1634 -218 ct 
1625 -227 1611 -232 1592 -232 ct 1573 -232 1558 -229 1550 -222 ct 1541 -216 1536 -205 1534 -191 ct 
1489 -195 l  1496 -242 1531 -265 1593 -265 ct 1626 -265 1650 -257 1667 -242 ct 
1683 -227 1692 -206 1692 -177 ct 1692 -65 l  1692 -52 1693 -42 1697 -36 ct 1700 -29 1707 -26 1716 -26 ct 
1720 -26 1725 -27 1730 -28 ct 1730 -1 l  1719 2 1708 3 1697 3 ct 1681 3 1669 -1 1662 -10 ct 
1654 -18 1650 -32 1649 -50 ct 1648 -50 l  1637 -30 1624 -16 1609 -7 ct 1595 1 1577 5 1556 5 ct 
p
1566 -27 m  1581 -27 1596 -31 1608 -38 ct 1620 -46 1630 -55 1637 -68 ct 1644 -81 1648 -94 1648 -107 ct 
1648 -128 l  1600 -127 l  1580 -127 1565 -125 1554 -121 ct 1544 -117 1536 -111 1530 -103 ct 
1524 -95 1521 -85 1521 -72 ct 1521 -58 1525 -47 1533 -39 ct 1541 -31 1551 -27 1566 -27 ct 
p ef
pom
0.996 c 10794 14694 m  10495 14694 10196 14804 10196 14915 ct 10196 15080 l 
10196 15246 l  10196 15472 l  10196 15638 l  10196 15804 l  10196 15915 10495 16026 10794 16026 ct 
11243 16026 l  11691 16026 l  12302 16026 l  12750 16026 l  13198 16026 l 
13497 16026 13796 15915 13796 15804 ct 13796 15638 l  13796 15472 l  13796 15246 l 
13796 15080 l  13796 14915 l  13796 14804 13497 14694 13198 14694 ct 12750 14694 l 
12302 14694 l  11691 14694 l  10896 13656 l  10794 14694 l  p
10196 14694 m  10196 14694 l  p
13797 16026 m  13797 16026 l  p ef
0.000 c 10794 14693 m  10495 14693 10196 14803 10196 14914 ct 10196 15080 l 
10196 15246 l  10196 15472 l  10196 15638 l  10196 15804 l  10196 15915 10495 16026 10794 16026 ct 
11242 16026 l  11690 16026 l  12301 16026 l  12749 16026 l  13198 16026 l 
13497 16026 13796 15915 13796 15804 ct 13796 15638 l  13796 15472 l  13796 15246 l 
13796 15080 l  13796 14914 l  13796 14803 13497 14693 13198 14693 ct 12749 14693 l 
12301 14693 l  11690 14693 l  10896 13656 l  10794 14693 l  pc
10196 14693 m  10196 14693 l  pc
13797 16026 m  13797 16026 l  pc
pum
10299 15257 t
306 -93 m  306 -62 294 -38 269 -21 ct 245 -4 211 5 166 5 ct 83 5 36 -24 22 -81 ct 
67 -90 l  72 -70 83 -55 100 -45 ct 116 -36 139 -31 168 -31 ct 197 -31 220 -36 237 -46 ct 
253 -56 261 -71 261 -91 ct 261 -102 258 -111 253 -118 ct 248 -125 241 -130 232 -135 ct 
223 -139 212 -143 199 -146 ct 186 -149 172 -153 157 -156 ct 130 -162 110 -168 96 -174 ct 
82 -180 71 -186 63 -194 ct 55 -201 49 -210 45 -219 ct 40 -229 38 -240 38 -253 ct 
38 -282 49 -304 72 -320 ct 94 -336 126 -344 167 -344 ct 206 -344 235 -338 255 -326 ct 
276 -314 290 -294 298 -266 ct 253 -258 l  248 -276 239 -289 225 -297 ct 211 -305 191 -309 167 -309 ct 
139 -309 119 -305 104 -296 ct 90 -287 83 -273 83 -255 ct 83 -245 86 -236 91 -230 ct 
97 -223 105 -217 115 -212 ct 126 -208 147 -202 178 -195 ct 188 -192 198 -190 209 -187 ct 
219 -185 229 -182 239 -179 ct 248 -175 257 -171 265 -166 ct 273 -162 281 -156 287 -149 ct 
293 -143 298 -135 301 -126 ct 304 -116 306 -106 306 -93 ct p ef
373 0 m  373 -260 l  416 -260 l  416 0 l  373 0 l  p
359 -289 m  359 -294 l  411 -363 l  461 -363 l  461 -356 l  381 -289 l 
359 -289 l  p ef
646 0 m  646 -165 l  646 -190 642 -208 636 -217 ct 629 -227 616 -232 598 -232 ct 
580 -232 565 -225 554 -210 ct 544 -196 538 -176 538 -151 ct 538 0 l  495 0 l 
495 -205 l  495 -235 495 -253 494 -260 ct 535 -260 l  535 -259 535 -257 535 -254 ct 
535 -250 536 -246 536 -242 ct 536 -237 536 -228 537 -216 ct 537 -216 l  547 -234 557 -247 569 -254 ct 
581 -261 596 -265 613 -265 ct 633 -265 649 -261 660 -253 ct 672 -245 680 -233 684 -216 ct 
685 -216 l  694 -233 705 -246 717 -253 ct 730 -261 746 -265 764 -265 ct 790 -265 809 -258 821 -244 ct 
833 -229 839 -206 839 -173 ct 839 0 l  796 0 l  796 -165 l  796 -190 793 -208 786 -217 ct 
779 -227 767 -232 749 -232 ct 730 -232 715 -225 704 -211 ct 694 -197 689 -177 689 -151 ct 
689 0 l  646 0 l  p ef
1125 -131 m  1125 -40 1094 5 1030 5 ct 1010 5 994 1 980 -6 ct 967 -13 957 -24 949 -40 ct 
948 -40 l  948 -35 948 -28 947 -18 ct 946 -7 946 -1 946 0 ct 904 0 l  905 -9 905 -26 905 -54 ct 
905 -357 l  949 -357 l  949 -255 l  949 -245 948 -232 948 -218 ct 949 -218 l 
957 -235 967 -247 980 -254 ct 994 -261 1010 -265 1030 -265 ct 1063 -265 1087 -254 1102 -232 ct 
1118 -210 1125 -176 1125 -131 ct p
1080 -130 m  1080 -166 1075 -192 1066 -208 ct 1056 -224 1040 -232 1019 -232 ct 
994 -232 976 -223 965 -207 ct 954 -190 949 -163 949 -127 ct 949 -93 954 -68 965 -51 ct 
976 -35 994 -27 1018 -27 ct 1040 -27 1056 -35 1065 -51 ct 1075 -67 1080 -94 1080 -130 ct 
p ef
1400 -130 m  1400 -85 1390 -51 1370 -28 ct 1350 -6 1321 5 1283 5 ct 1245 5 1216 -7 1197 -30 ct 
1177 -53 1168 -86 1168 -130 ct 1168 -220 1207 -265 1284 -265 ct 1324 -265 1354 -254 1372 -232 ct 
1391 -210 1400 -176 1400 -130 ct p
1355 -130 m  1355 -166 1350 -192 1339 -209 ct 1328 -225 1310 -233 1285 -233 ct 
1260 -233 1241 -225 1230 -208 ct 1219 -191 1213 -166 1213 -130 ct 1213 -96 1219 -70 1230 -53 ct 
1241 -36 1259 -27 1283 -27 ct 1309 -27 1327 -35 1338 -52 ct 1349 -69 1355 -95 1355 -130 ct 
p ef
1455 0 m  1455 -357 l  1499 -357 l  1499 0 l  1455 0 l  p ef
1785 -130 m  1785 -85 1775 -51 1755 -28 ct 1735 -6 1706 5 1668 5 ct 1630 5 1601 -7 1582 -30 ct 
1562 -53 1553 -86 1553 -130 ct 1553 -220 1592 -265 1669 -265 ct 1709 -265 1739 -254 1757 -232 ct 
1776 -210 1785 -176 1785 -130 ct p
1740 -130 m  1740 -166 1735 -192 1724 -209 ct 1713 -225 1695 -233 1670 -233 ct 
1645 -233 1626 -225 1615 -208 ct 1604 -191 1598 -166 1598 -130 ct 1598 -96 1604 -70 1615 -53 ct 
1626 -36 1644 -27 1668 -27 ct 1694 -27 1712 -35 1723 -52 ct 1734 -69 1740 -95 1740 -130 ct 
p ef
2008 -121 m  2008 -91 2015 -68 2027 -52 ct 2039 -36 2057 -27 2081 -27 ct 2100 -27 2115 -31 2126 -39 ct 
2138 -46 2145 -56 2149 -67 ct 2187 -57 l  2172 -16 2136 5 2081 5 ct 2043 5 2013 -6 1993 -29 ct 
1973 -52 1963 -86 1963 -132 ct 1963 -175 1973 -208 1993 -231 ct 2013 -254 2042 -265 2079 -265 ct 
2156 -265 2194 -219 2194 -127 ct 2194 -121 l  2008 -121 l  p
2150 -154 m  2147 -181 2140 -201 2129 -214 ct 2117 -227 2100 -233 2079 -233 ct 
2058 -233 2041 -226 2029 -212 ct 2017 -198 2010 -179 2009 -154 ct 2150 -154 l 
p ef
2446 -72 m  2446 -47 2436 -28 2418 -15 ct 2399 -2 2373 5 2340 5 ct 2308 5 2283 0 2265 -11 ct 
2247 -22 2236 -38 2231 -61 ct 2269 -68 l  2273 -54 2280 -44 2292 -38 ct 2303 -31 2319 -28 2340 -28 ct 
2362 -28 2378 -31 2388 -38 ct 2398 -45 2404 -55 2404 -68 ct 2404 -79 2400 -87 2393 -93 ct 
2386 -100 2375 -105 2359 -109 ct 2328 -117 l  2303 -124 2285 -130 2275 -136 ct 
2264 -142 2256 -150 2250 -159 ct 2244 -168 2241 -178 2241 -191 ct 2241 -215 2250 -233 2266 -245 ct 
2283 -258 2308 -264 2340 -264 ct 2369 -264 2392 -259 2409 -249 ct 2426 -239 2437 -223 2441 -200 ct 
2402 -195 l  2400 -207 2393 -216 2383 -222 ct 2372 -228 2358 -231 2340 -231 ct 
2321 -231 2306 -228 2297 -222 ct 2288 -216 2283 -207 2283 -195 ct 2283 -188 2285 -182 2289 -177 ct 
2293 -172 2299 -168 2306 -165 ct 2314 -162 2330 -157 2354 -151 ct 2377 -145 2393 -140 2403 -135 ct 
2413 -130 2421 -125 2427 -119 ct 2433 -113 2438 -106 2441 -98 ct 2444 -90 2446 -82 2446 -72 ct 
p ef
2529 -131 m  2529 -97 2535 -71 2546 -54 ct 2556 -38 2573 -29 2595 -29 ct 2610 -29 2623 -33 2634 -42 ct 
2644 -50 2650 -63 2653 -80 ct 2697 -77 l  2693 -52 2682 -32 2664 -17 ct 2647 -2 2624 5 2596 5 ct 
2560 5 2532 -7 2513 -30 ct 2494 -53 2484 -86 2484 -130 ct 2484 -174 2494 -207 2513 -230 ct 
2532 -253 2560 -265 2596 -265 ct 2622 -265 2644 -258 2662 -244 ct 2680 -230 2691 -211 2695 -187 ct 
2651 -184 l  2648 -198 2643 -210 2633 -218 ct 2624 -227 2611 -231 2594 -231 ct 
2571 -231 2555 -223 2545 -208 ct 2534 -193 2529 -167 2529 -131 ct p ef
2742 0 m  2742 -200 l  2742 -218 2742 -238 2741 -260 ct 2782 -260 l  2783 -231 2784 -213 2784 -207 ct 
2785 -207 l  2791 -229 2799 -245 2808 -253 ct 2817 -261 2830 -265 2846 -265 ct 
2852 -265 2858 -264 2864 -263 ct 2864 -223 l  2858 -225 2851 -225 2841 -225 ct 
2823 -225 2809 -218 2800 -202 ct 2790 -187 2786 -164 2786 -136 ct 2786 0 l  2742 0 l 
p ef
2906 -316 m  2906 -357 l  2949 -357 l  2949 -316 l  2906 -316 l  p
2906 0 m  2906 -260 l  2949 -260 l  2949 0 l  2906 0 l  p ef
3117 -2 m  3103 2 3088 4 3074 4 ct 3039 4 3022 -16 3022 -55 ct 3022 -229 l  2991 -229 l 
2991 -260 l  3023 -260 l  3036 -318 l  3065 -318 l  3065 -260 l  3113 -260 l 
3113 -229 l  3065 -229 l  3065 -64 l  3065 -52 3067 -43 3071 -38 ct 3075 -33 3082 -30 3092 -30 ct 
3098 -30 3106 -32 3117 -34 ct 3117 -2 l  p ef
3372 -130 m  3372 -85 3362 -51 3342 -28 ct 3322 -6 3293 5 3255 5 ct 3217 5 3188 -7 3169 -30 ct 
3149 -53 3140 -86 3140 -130 ct 3140 -220 3179 -265 3256 -265 ct 3296 -265 3326 -254 3344 -232 ct 
3363 -210 3372 -176 3372 -130 ct p
3327 -130 m  3327 -166 3322 -192 3311 -209 ct 3300 -225 3282 -233 3257 -233 ct 
3232 -233 3213 -225 3202 -208 ct 3191 -191 3185 -166 3185 -130 ct 3185 -96 3191 -70 3202 -53 ct 
3213 -36 3231 -27 3255 -27 ct 3281 -27 3299 -35 3310 -52 ct 3321 -69 3327 -95 3327 -130 ct 
p ef
pom
pum
11131 15715 t
199 0 m  199 -165 l  199 -182 197 -195 194 -205 ct 190 -214 185 -221 177 -225 ct 
170 -229 159 -232 145 -232 ct 124 -232 108 -224 96 -210 ct 84 -196 78 -176 78 -151 ct 
78 0 l  34 0 l  34 -205 l  34 -235 34 -253 33 -260 ct 74 -260 l  74 -259 74 -257 74 -254 ct 
74 -250 75 -246 75 -242 ct 75 -237 75 -228 76 -216 ct 76 -216 l  86 -234 98 -246 111 -254 ct 
124 -261 140 -265 160 -265 ct 188 -265 209 -258 222 -244 ct 236 -230 242 -206 242 -173 ct 
242 0 l  199 0 l  p ef
375 5 m  349 5 329 -2 316 -16 ct 303 -29 296 -48 296 -72 ct 296 -99 305 -120 323 -135 ct 
340 -149 369 -157 408 -158 ct 467 -159 l  467 -173 l  467 -194 462 -209 453 -218 ct 
444 -227 430 -232 411 -232 ct 392 -232 377 -229 369 -222 ct 360 -216 355 -205 353 -191 ct 
308 -195 l  315 -242 350 -265 412 -265 ct 445 -265 469 -257 486 -242 ct 502 -227 511 -206 511 -177 ct 
511 -65 l  511 -52 512 -42 516 -36 ct 519 -29 526 -26 535 -26 ct 539 -26 544 -27 549 -28 ct 
549 -1 l  538 2 527 3 516 3 ct 500 3 488 -1 481 -10 ct 473 -18 469 -32 468 -50 ct 
467 -50 l  456 -30 443 -16 428 -7 ct 414 1 396 5 375 5 ct p
385 -27 m  400 -27 415 -31 427 -38 ct 439 -46 449 -55 456 -68 ct 463 -81 467 -94 467 -107 ct 
467 -128 l  419 -127 l  399 -127 384 -125 373 -121 ct 363 -117 355 -111 349 -103 ct 
343 -95 340 -85 340 -72 ct 340 -58 344 -47 352 -39 ct 360 -31 370 -27 385 -27 ct 
p ef
939 -131 m  939 -40 908 5 844 5 ct 804 5 777 -10 763 -40 ct 762 -40 l  762 -39 763 -25 763 1 ct 
763 102 l  719 102 l  719 -207 l  719 -234 719 -252 718 -260 ct 760 -260 l 
760 -260 760 -258 760 -254 ct 761 -250 761 -244 761 -235 ct 762 -227 762 -222 762 -219 ct 
763 -219 l  771 -235 781 -246 794 -254 ct 806 -261 823 -265 844 -265 ct 876 -265 900 -254 916 -233 ct 
932 -211 939 -177 939 -131 ct p
894 -130 m  894 -167 889 -193 879 -208 ct 870 -224 854 -232 833 -232 ct 815 -232 802 -228 792 -221 ct 
783 -214 775 -202 770 -187 ct 765 -172 763 -152 763 -127 ct 763 -93 768 -68 779 -51 ct 
790 -35 808 -27 832 -27 ct 854 -27 869 -35 879 -51 ct 889 -67 894 -93 894 -130 ct 
p ef
994 -316 m  994 -357 l  1037 -357 l  1037 -316 l  994 -316 l  p
994 0 m  994 -260 l  1037 -260 l  1037 0 l  994 0 l  p ef
1104 0 m  1104 -357 l  1148 -357 l  1148 0 l  1104 0 l  p ef
1257 -216 m  1267 -233 1278 -245 1291 -253 ct 1304 -261 1321 -265 1341 -265 ct 
1369 -265 1390 -258 1403 -244 ct 1416 -230 1423 -206 1423 -173 ct 1423 0 l  1380 0 l 
1380 -165 l  1380 -183 1378 -197 1375 -206 ct 1371 -215 1366 -221 1358 -225 ct 
1350 -229 1340 -232 1326 -232 ct 1306 -232 1289 -225 1277 -210 ct 1265 -196 1259 -177 1259 -153 ct 
1259 0 l  1215 0 l  1215 -357 l  1259 -357 l  1259 -264 l  1259 -254 1258 -244 1258 -234 ct 
1257 -223 1257 -217 1257 -216 ct 1257 -216 l  p ef
1556 5 m  1530 5 1510 -2 1497 -16 ct 1484 -29 1477 -48 1477 -72 ct 1477 -99 1486 -120 1504 -135 ct 
1521 -149 1550 -157 1589 -158 ct 1648 -159 l  1648 -173 l  1648 -194 1643 -209 1634 -218 ct 
1625 -227 1611 -232 1592 -232 ct 1573 -232 1558 -229 1550 -222 ct 1541 -216 1536 -205 1534 -191 ct 
1489 -195 l  1496 -242 1531 -265 1593 -265 ct 1626 -265 1650 -257 1667 -242 ct 
1683 -227 1692 -206 1692 -177 ct 1692 -65 l  1692 -52 1693 -42 1697 -36 ct 1700 -29 1707 -26 1716 -26 ct 
1720 -26 1725 -27 1730 -28 ct 1730 -1 l  1719 2 1708 3 1697 3 ct 1681 3 1669 -1 1662 -10 ct 
1654 -18 1650 -32 1649 -50 ct 1648 -50 l  1637 -30 1624 -16 1609 -7 ct 1595 1 1577 5 1556 5 ct 
p
1566 -27 m  1581 -27 1596 -31 1608 -38 ct 1620 -46 1630 -55 1637 -68 ct 1644 -81 1648 -94 1648 -107 ct 
1648 -128 l  1600 -127 l  1580 -127 1565 -125 1554 -121 ct 1544 -117 1536 -111 1530 -103 ct 
1524 -95 1521 -85 1521 -72 ct 1521 -58 1525 -47 1533 -39 ct 1541 -31 1551 -27 1566 -27 ct 
p ef
pom
0 4602 t 
pom
count op_count sub {pop} repeat countdictstack dict_count sub {end} repeat b4_inc_state restore
%%PageTrailer
%%Trailer
%%EOF
