%!PS-Adobe-3.0 EPSF-3.0 
%%BoundingBox: 0 0 448 164
%%Pages: 0
%%Creator: LibreOffice 5.3
%%Title: none
%%CreationDate: none
%%LanguageLevel: 2
%%EndComments
%%BeginProlog
%%BeginResource: procset SDRes-Prolog 1.0 0
/b4_inc_state save def
/dict_count countdictstack def
/op_count count 1 sub def
userdict begin
0 setgray 0 setlinecap 1 setlinewidth 0 setlinejoin 10 setmiterlimit[] 0 setdash newpath
/languagelevel where {pop languagelevel 1 ne {false setstrokeadjust false setoverprint} if} if
/bdef {bind def} bind def
/c {setrgbcolor} bdef
/l {neg lineto} bdef
/rl {neg rlineto} bdef
/lc {setlinecap} bdef
/lj {setlinejoin} bdef
/lw {setlinewidth} bdef
/ml {setmiterlimit} bdef
/ld {setdash} bdef
/m {neg moveto} bdef
/ct {6 2 roll neg 6 2 roll neg 6 2 roll neg curveto} bdef
/r {rotate} bdef
/t {neg translate} bdef
/s {scale} bdef
/sw {show} bdef
/gs {gsave} bdef
/gr {grestore} bdef
/f {findfont dup length dict begin
{1 index /FID ne {def} {pop pop} ifelse} forall /Encoding ISOLatin1Encoding def
currentdict end /NFont exch definefont pop /NFont findfont} bdef
/p {closepath} bdef
/sf {scalefont setfont} bdef
/ef {eofill}bdef
/pc {closepath stroke}bdef
/ps {stroke}bdef
/pum {matrix currentmatrix}bdef
/pom {setmatrix}bdef
/bs {/aString exch def /nXOfs exch def /nWidth exch def currentpoint nXOfs 0 rmoveto pum nWidth aString stringwidth pop div 1 scale aString show pom moveto} bdef
%%EndResource
%%EndProlog
%%BeginSetup
%%EndSetup
%%Page: 1 1
%%BeginPageSetup
%%EndPageSetup
pum
0.02834 0.02826 s 
0 -5803 t
/tm matrix currentmatrix def
tm setmatrix
-2899 -11395 t 
1 1 s 
0 lw 1 lj 0.003 0.003 0.003 c 7899 11396 m  10733 11396 12898 12651 12898 14295 ct 
12898 15938 10733 17194 7899 17194 ct 5064 17194 2899 15938 2899 14295 ct 2899 12651 5064 11396 7899 11396 ct 
pc
2899 11396 m  2899 11396 l  pc
12899 17195 m  12899 17195 l  pc
13699 11397 m  16533 11397 18698 12652 18698 14296 ct 18698 15939 16533 17195 13699 17195 ct 
10864 17195 8699 15939 8699 14296 ct 8699 12652 10864 11397 13699 11397 ct pc
8699 11397 m  8699 11397 l  pc
18699 17196 m  18699 17196 l  pc
pum
6649 12938 t
335 0 m  102 -373 l  103 -343 l  105 -291 l  105 0 l  52 0 l  52 -438 l 
121 -438 l  357 -62 l  355 -103 353 -132 353 -151 ct 353 -438 l  407 -438 l 
407 0 l  335 0 l  p ef
847 -305 m  847 -264 834 -231 807 -207 ct 780 -182 743 -170 697 -170 ct 568 -170 l 
568 1 l  509 1 l  509 -437 l  693 -437 l  742 -437 780 -426 807 -403 ct 834 -380 847 -347 847 -305 ct 
p
788 -305 m  788 -361 754 -390 686 -390 ct 568 -390 l  568 -217 l  688 -217 l 
754 -217 788 -246 788 -305 ct p ef
pom
pum
14251 15681 t
335 0 m  102 -373 l  103 -343 l  105 -291 l  105 0 l  52 0 l  52 -438 l 
121 -438 l  357 -62 l  355 -103 353 -132 353 -151 ct 353 -438 l  407 -438 l 
407 0 l  335 0 l  p ef
847 -305 m  847 -264 834 -231 807 -207 ct 780 -182 743 -170 697 -170 ct 568 -170 l 
568 1 l  509 1 l  509 -437 l  693 -437 l  742 -437 780 -426 807 -403 ct 834 -380 847 -347 847 -305 ct 
p
788 -305 m  788 -361 754 -390 686 -390 ct 568 -390 l  568 -217 l  688 -217 l 
754 -217 788 -246 788 -305 ct p ef
1474 -223 m  1474 -178 1465 -139 1448 -105 ct 1430 -71 1405 -45 1373 -27 ct 
1341 -9 1304 0 1261 0 ct 1098 0 l  1098 -437 l  1243 -437 l  1317 -437 1374 -419 1414 -382 ct 
1454 -345 1474 -292 1474 -223 ct p
1415 -223 m  1415 -277 1400 -319 1370 -347 ct 1341 -376 1298 -390 1241 -390 ct 
1157 -390 l  1157 -47 l  1255 -47 l  1287 -47 1315 -55 1339 -69 ct 1363 -83 1382 -103 1395 -129 ct 
1408 -156 1415 -187 1415 -223 ct p ef
1545 -407 m  1545 -460 l  1601 -460 l  1601 -407 l  1545 -407 l  p
1545 1 m  1545 -335 l  1601 -335 l  1601 1 l  1545 1 l  p ef
1755 -295 m  1755 0 l  1699 0 l  1699 -295 l  1652 -295 l  1652 -336 l 
1699 -336 l  1699 -374 l  1699 -404 1706 -426 1719 -440 ct 1733 -453 1753 -460 1781 -460 ct 
1796 -460 1810 -459 1820 -456 ct 1820 -414 l  1811 -415 1803 -416 1796 -416 ct 
1781 -416 1771 -413 1765 -405 ct 1758 -398 1755 -385 1755 -366 ct 1755 -336 l 
1820 -336 l  1820 -295 l  1755 -295 l  p ef
1880 0 m  1880 -336 l  1936 -336 l  1936 0 l  1880 0 l  p
1862 -373 m  1862 -379 l  1929 -468 l  1993 -468 l  1993 -459 l  1891 -373 l 
1862 -373 l  p ef
2083 -170 m  2083 -125 2090 -92 2104 -70 ct 2118 -49 2140 -38 2168 -38 ct 2188 -38 2204 -43 2218 -54 ct 
2231 -65 2239 -81 2242 -104 ct 2299 -100 l  2294 -68 2281 -42 2258 -23 ct 2234 -4 2205 6 2169 6 ct 
2123 6 2087 -9 2062 -39 ct 2037 -68 2025 -111 2025 -168 ct 2025 -225 2037 -268 2062 -297 ct 
2087 -327 2123 -342 2169 -342 ct 2203 -342 2232 -333 2254 -315 ct 2277 -298 2291 -273 2297 -242 ct 
2240 -237 l  2237 -256 2229 -271 2218 -282 ct 2206 -293 2189 -298 2167 -298 ct 
2138 -298 2116 -288 2103 -269 ct 2090 -249 2083 -216 2083 -170 ct p ef
2358 -407 m  2358 -460 l  2414 -460 l  2414 -407 l  2358 -407 l  p
2358 1 m  2358 -335 l  2414 -335 l  2414 1 l  2358 1 l  p ef
2498 1 m  2498 -460 l  2554 -460 l  2554 1 l  2498 1 l  p ef
pom
pum
8949 14581 t
335 0 m  102 -373 l  103 -343 l  105 -291 l  105 0 l  52 0 l  52 -438 l 
121 -438 l  357 -62 l  355 -103 353 -132 353 -151 ct 353 -438 l  407 -438 l 
407 0 l  335 0 l  p ef
847 -305 m  847 -264 834 -231 807 -207 ct 780 -182 743 -170 697 -170 ct 568 -170 l 
568 1 l  509 1 l  509 -437 l  693 -437 l  742 -437 780 -426 807 -403 ct 834 -380 847 -347 847 -305 ct 
p
788 -305 m  788 -361 754 -390 686 -390 ct 568 -390 l  568 -217 l  688 -217 l 
754 -217 788 -246 788 -305 ct p ef
1292 -396 m  1243 -396 1206 -380 1179 -349 ct 1152 -318 1138 -275 1138 -221 ct 
1138 -167 1152 -124 1180 -92 ct 1208 -59 1246 -43 1294 -43 ct 1355 -43 1401 -73 1432 -134 ct 
1480 -109 l  1462 -72 1437 -43 1405 -23 ct 1372 -4 1334 6 1291 6 ct 1247 6 1209 -3 1177 -21 ct 
1145 -40 1120 -66 1104 -100 ct 1087 -134 1078 -174 1078 -221 ct 1078 -291 1097 -345 1135 -385 ct 
1172 -424 1224 -444 1291 -444 ct 1337 -444 1376 -435 1408 -417 ct 1439 -398 1462 -371 1476 -336 ct 
1420 -317 l  1410 -343 1394 -362 1371 -375 ct 1349 -389 1322 -396 1292 -396 ct 
p ef
1829 -168 m  1829 -110 1817 -66 1791 -37 ct 1765 -8 1727 6 1678 6 ct 1629 6 1592 -9 1567 -39 ct 
1542 -69 1530 -112 1530 -168 ct 1530 -284 1580 -342 1680 -342 ct 1731 -342 1769 -328 1793 -300 ct 
1817 -272 1829 -228 1829 -168 ct p
1771 -168 m  1771 -215 1764 -248 1750 -269 ct 1737 -291 1713 -301 1681 -301 ct 
1648 -301 1625 -290 1610 -269 ct 1596 -247 1588 -214 1588 -168 ct 1588 -124 1595 -91 1610 -69 ct 
1624 -46 1647 -35 1678 -35 ct 1711 -35 1735 -46 1749 -68 ct 1764 -89 1771 -123 1771 -168 ct 
p ef
2092 0 m  2092 -213 l  2092 -245 2088 -268 2079 -280 ct 2070 -293 2054 -299 2031 -299 ct 
2007 -299 1988 -290 1974 -272 ct 1960 -253 1954 -228 1954 -195 ct 1954 0 l  1898 0 l 
1898 -264 l  1898 -303 1897 -327 1896 -336 ct 1949 -336 l  1949 -335 1949 -332 1950 -327 ct 
1950 -323 1950 -318 1950 -312 ct 1951 -306 1951 -295 1951 -278 ct 1952 -278 l 
1964 -302 1978 -319 1994 -328 ct 2009 -337 2028 -342 2050 -342 ct 2076 -342 2096 -337 2111 -327 ct 
2125 -317 2136 -301 2141 -278 ct 2142 -278 l  2154 -301 2168 -317 2184 -327 ct 
2201 -337 2221 -342 2244 -342 ct 2278 -342 2303 -333 2318 -314 ct 2333 -296 2341 -266 2341 -224 ct 
2341 0 l  2286 0 l  2286 -213 l  2286 -245 2281 -268 2273 -280 ct 2264 -293 2248 -299 2225 -299 ct 
2200 -299 2181 -290 2168 -272 ct 2154 -254 2147 -228 2147 -195 ct 2147 0 l  2092 0 l 
p ef
2709 -170 m  2709 -52 2668 6 2586 6 ct 2534 6 2500 -13 2482 -52 ct 2480 -52 l 
2481 -50 2482 -33 2482 1 ct 2482 132 l  2426 132 l  2426 -267 l  2426 -302 2425 -325 2424 -336 ct 
2478 -336 l  2478 -335 2478 -332 2479 -327 ct 2479 -322 2480 -314 2480 -304 ct 
2481 -293 2481 -286 2481 -282 ct 2482 -282 l  2492 -303 2505 -318 2522 -328 ct 
2538 -337 2559 -342 2586 -342 ct 2627 -342 2658 -328 2679 -300 ct 2699 -273 2709 -229 2709 -170 ct 
p
2651 -168 m  2651 -215 2645 -249 2632 -269 ct 2619 -289 2599 -299 2572 -299 ct 
2550 -299 2532 -294 2520 -285 ct 2507 -276 2498 -261 2491 -241 ct 2485 -221 2482 -196 2482 -164 ct 
2482 -120 2489 -87 2503 -66 ct 2517 -45 2540 -35 2571 -35 ct 2599 -35 2619 -45 2632 -66 ct 
2645 -86 2651 -120 2651 -168 ct p ef
2778 1 m  2778 -460 l  2834 -460 l  2834 1 l  2778 1 l  p ef
2960 -156 m  2960 -118 2968 -88 2983 -67 ct 2999 -46 3023 -36 3053 -36 ct 3077 -36 3097 -41 3111 -50 ct 
3126 -60 3136 -72 3141 -87 ct 3190 -73 l  3170 -20 3124 6 3053 6 ct 3004 6 2966 -9 2940 -38 ct 
2914 -68 2901 -112 2901 -170 ct 2901 -226 2914 -268 2940 -298 ct 2966 -327 3003 -342 3051 -342 ct 
3150 -342 3199 -283 3199 -164 ct 3199 -156 l  2960 -156 l  p
3141 -199 m  3138 -234 3129 -260 3114 -277 ct 3099 -293 3078 -301 3050 -301 ct 
3023 -301 3002 -292 2986 -274 ct 2970 -256 2961 -231 2960 -199 ct 3141 -199 l 
p ef
3398 -2 m  3379 3 3361 5 3341 5 ct 3297 5 3274 -20 3274 -71 ct 3274 -295 l  3236 -295 l 
3236 -336 l  3277 -336 l  3293 -411 l  3330 -411 l  3330 -336 l  3392 -336 l 
3392 -295 l  3330 -295 l  3330 -83 l  3330 -67 3333 -56 3338 -49 ct 3343 -43 3353 -39 3366 -39 ct 
3373 -39 3384 -41 3398 -44 ct 3398 -2 l  p ef
3730 -168 m  3730 -110 3718 -66 3692 -37 ct 3666 -8 3628 6 3579 6 ct 3530 6 3493 -9 3468 -39 ct 
3443 -69 3431 -112 3431 -168 ct 3431 -284 3481 -342 3581 -342 ct 3632 -342 3670 -328 3694 -300 ct 
3718 -272 3730 -228 3730 -168 ct p
3672 -168 m  3672 -215 3665 -248 3651 -269 ct 3638 -291 3614 -301 3582 -301 ct 
3549 -301 3526 -290 3511 -269 ct 3497 -247 3489 -214 3489 -168 ct 3489 -124 3496 -91 3511 -69 ct 
3525 -46 3548 -35 3579 -35 ct 3612 -35 3636 -46 3650 -68 ct 3665 -89 3672 -123 3672 -168 ct 
p ef
pom
5549 13895 m  6314 13895 6899 14436 6899 15144 ct 6899 15853 6314 16394 5549 16394 ct 
4784 16394 4199 15853 4199 15144 ct 4199 14436 4784 13895 5549 13895 ct pc
4199 13895 m  4199 13895 l  pc
6900 16395 m  6900 16395 l  pc
pum
5324 15281 t
390 -305 m  390 -264 377 -231 350 -207 ct 323 -182 286 -170 240 -170 ct 111 -170 l 
111 1 l  52 1 l  52 -437 l  236 -437 l  285 -437 323 -426 350 -403 ct 377 -380 390 -347 390 -305 ct 
p
331 -305 m  331 -361 297 -390 229 -390 ct 111 -390 l  111 -217 l  231 -217 l 
297 -217 331 -246 331 -305 ct p ef
pom
0 5803 t 
pom
count op_count sub {pop} repeat countdictstack dict_count sub {end} repeat b4_inc_state restore
%%PageTrailer
%%Trailer
%%EOF
