%!PS-Adobe-3.0 EPSF-3.0 
%%BoundingBox: 0 0 354 156
%%Pages: 0
%%Creator: LibreOffice 5.4
%%Title: none
%%CreationDate: none
%%LanguageLevel: 2
%%EndComments
%%BeginProlog
%%BeginResource: procset SDRes-Prolog 1.0 0
/b4_inc_state save def
/dict_count countdictstack def
/op_count count 1 sub def
userdict begin
0 setgray 0 setlinecap 1 setlinewidth 0 setlinejoin 10 setmiterlimit[] 0 setdash newpath
/languagelevel where {pop languagelevel 1 ne {false setstrokeadjust false setoverprint} if} if
/bdef {bind def} bind def
/c {setgray} bdef
/l {neg lineto} bdef
/rl {neg rlineto} bdef
/lc {setlinecap} bdef
/lj {setlinejoin} bdef
/lw {setlinewidth} bdef
/ml {setmiterlimit} bdef
/ld {setdash} bdef
/m {neg moveto} bdef
/ct {6 2 roll neg 6 2 roll neg 6 2 roll neg curveto} bdef
/r {rotate} bdef
/t {neg translate} bdef
/s {scale} bdef
/sw {show} bdef
/gs {gsave} bdef
/gr {grestore} bdef
/f {findfont dup length dict begin
{1 index /FID ne {def} {pop pop} ifelse} forall /Encoding ISOLatin1Encoding def
currentdict end /NFont exch definefont pop /NFont findfont} bdef
/p {closepath} bdef
/sf {scalefont setfont} bdef
/ef {eofill}bdef
/pc {closepath stroke}bdef
/ps {stroke}bdef
/pum {matrix currentmatrix}bdef
/pom {setmatrix}bdef
/bs {/aString exch def /nXOfs exch def /nWidth exch def currentpoint nXOfs 0 rmoveto pum nWidth aString stringwidth pop div 1 scale aString show pom moveto} bdef
%%EndResource
%%EndProlog
%%BeginSetup
%%EndSetup
%%Page: 1 1
%%BeginPageSetup
%%EndPageSetup
pum
0.02831 0.02835 s 
0 -5502 t
/tm matrix currentmatrix def
tm setmatrix
-4498 -7396 t 
1 1 s 
0.996 c 5649 10496 m  5199 10496 l  5199 9097 l  6099 9097 l  6099 10496 l 
5649 10496 l  p ef
0 lw 1 lj 0.000 c 5649 10496 m  5199 10496 l  5199 9096 l  6099 9096 l  6099 10496 l 
5649 10496 l  pc
pum
5474 9961 t
326 -168 m  326 -110 314 -66 288 -37 ct 262 -8 224 6 175 6 ct 126 6 89 -9 64 -39 ct 
39 -69 27 -112 27 -168 ct 27 -284 77 -342 177 -342 ct 228 -342 266 -328 290 -300 ct 
314 -272 326 -228 326 -168 ct p
268 -168 m  268 -215 261 -248 247 -269 ct 234 -291 210 -301 178 -301 ct 145 -301 122 -290 107 -269 ct 
93 -247 85 -214 85 -168 ct 85 -124 92 -91 107 -69 ct 121 -46 144 -35 175 -35 ct 
208 -35 232 -46 246 -68 ct 261 -89 268 -123 268 -168 ct p ef
pom
0.996 c 6549 10496 m  6099 10496 l  6099 9097 l  6999 9097 l  6999 10496 l 
6549 10496 l  p ef
0.000 c 6548 10496 m  6099 10496 l  6099 9096 l  6998 9096 l  6998 10496 l 
6548 10496 l  pc
pum
6374 9961 t
326 -169 m  326 -52 285 7 203 7 ct 178 7 157 2 140 -7 ct 123 -16 109 -31 99 -51 ct 
98 -51 l  98 -45 98 -35 97 -22 ct 96 -9 95 -1 95 1 ct 41 1 l  42 -10 43 -33 43 -68 ct 
43 -460 l  99 -460 l  99 -328 l  99 -315 98 -299 97 -281 ct 99 -281 l  109 -302 123 -318 140 -327 ct 
157 -336 178 -341 203 -341 ct 245 -341 277 -327 297 -298 ct 317 -270 326 -227 326 -169 ct 
p
268 -167 m  268 -214 262 -247 249 -268 ct 237 -288 217 -298 189 -298 ct 157 -298 135 -287 120 -266 ct 
106 -244 99 -210 99 -163 ct 99 -119 106 -87 120 -66 ct 134 -45 157 -34 188 -34 ct 
216 -34 237 -45 249 -65 ct 262 -86 268 -120 268 -167 ct p ef
pom
0.996 c 7449 10496 m  6999 10496 l  6999 9097 l  7899 9097 l  7899 10496 l 
7449 10496 l  p ef
0.000 c 7448 10496 m  6998 10496 l  6998 9096 l  7898 9096 l  7898 10496 l 
7448 10496 l  pc
pum
7274 9961 t
128 6 m  95 6 69 -3 52 -21 ct 35 -38 27 -63 27 -94 ct 27 -129 38 -155 61 -174 ct 
84 -192 121 -202 172 -204 ct 247 -205 l  247 -223 l  247 -250 241 -270 230 -282 ct 
218 -294 200 -299 175 -299 ct 150 -299 132 -295 121 -287 ct 109 -278 102 -265 100 -246 ct 
42 -251 l  51 -312 96 -342 176 -342 ct 219 -342 250 -332 272 -313 ct 293 -294 304 -266 304 -229 ct 
304 -85 l  304 -68 306 -55 310 -47 ct 314 -39 323 -35 335 -35 ct 340 -35 346 -35 353 -37 ct 
353 -2 l  339 1 325 3 310 3 ct 289 3 274 -2 265 -13 ct 256 -24 250 -41 249 -64 ct 
247 -64 l  233 -39 216 -21 197 -10 ct 178 1 155 6 128 6 ct p
141 -36 m  162 -36 180 -41 196 -50 ct 212 -59 224 -72 233 -88 ct 243 -104 247 -121 247 -138 ct 
247 -166 l  186 -165 l  160 -164 140 -161 126 -157 ct 113 -152 102 -144 95 -134 ct 
88 -123 84 -110 84 -93 ct 84 -75 89 -61 99 -51 ct 109 -41 123 -36 141 -36 ct p ef
pom
0.996 c 8349 10496 m  7899 10496 l  7899 9097 l  8799 9097 l  8799 10496 l 
8349 10496 l  p ef
0.000 c 8348 10496 m  7898 10496 l  7898 9096 l  8798 9096 l  8798 10496 l 
8348 10496 l  pc
pum
8174 9961 t
128 6 m  95 6 69 -3 52 -21 ct 35 -38 27 -63 27 -94 ct 27 -129 38 -155 61 -174 ct 
84 -192 121 -202 172 -204 ct 247 -205 l  247 -223 l  247 -250 241 -270 230 -282 ct 
218 -294 200 -299 175 -299 ct 150 -299 132 -295 121 -287 ct 109 -278 102 -265 100 -246 ct 
42 -251 l  51 -312 96 -342 176 -342 ct 219 -342 250 -332 272 -313 ct 293 -294 304 -266 304 -229 ct 
304 -85 l  304 -68 306 -55 310 -47 ct 314 -39 323 -35 335 -35 ct 340 -35 346 -35 353 -37 ct 
353 -2 l  339 1 325 3 310 3 ct 289 3 274 -2 265 -13 ct 256 -24 250 -41 249 -64 ct 
247 -64 l  233 -39 216 -21 197 -10 ct 178 1 155 6 128 6 ct p
141 -36 m  162 -36 180 -41 196 -50 ct 212 -59 224 -72 233 -88 ct 243 -104 247 -121 247 -138 ct 
247 -166 l  186 -165 l  160 -164 140 -161 126 -157 ct 113 -152 102 -144 95 -134 ct 
88 -123 84 -110 84 -93 ct 84 -75 89 -61 99 -51 ct 109 -41 123 -36 141 -36 ct p ef
pom
0.996 c 9249 10496 m  8799 10496 l  8799 9097 l  9698 9097 l  9698 10496 l 
9249 10496 l  p ef
0.000 c 9248 10496 m  8798 10496 l  8798 9096 l  9698 9096 l  9698 10496 l 
9248 10496 l  pc
pum
9074 9961 t
128 6 m  95 6 69 -3 52 -21 ct 35 -38 27 -63 27 -94 ct 27 -129 38 -155 61 -174 ct 
84 -192 121 -202 172 -204 ct 247 -205 l  247 -223 l  247 -250 241 -270 230 -282 ct 
218 -294 200 -299 175 -299 ct 150 -299 132 -295 121 -287 ct 109 -278 102 -265 100 -246 ct 
42 -251 l  51 -312 96 -342 176 -342 ct 219 -342 250 -332 272 -313 ct 293 -294 304 -266 304 -229 ct 
304 -85 l  304 -68 306 -55 310 -47 ct 314 -39 323 -35 335 -35 ct 340 -35 346 -35 353 -37 ct 
353 -2 l  339 1 325 3 310 3 ct 289 3 274 -2 265 -13 ct 256 -24 250 -41 249 -64 ct 
247 -64 l  233 -39 216 -21 197 -10 ct 178 1 155 6 128 6 ct p
141 -36 m  162 -36 180 -41 196 -50 ct 212 -59 224 -72 233 -88 ct 243 -104 247 -121 247 -138 ct 
247 -166 l  186 -165 l  160 -164 140 -161 126 -157 ct 113 -152 102 -144 95 -134 ct 
88 -123 84 -110 84 -93 ct 84 -75 89 -61 99 -51 ct 109 -41 123 -36 141 -36 ct p ef
pom
0.996 c 10148 10496 m  9698 10496 l  9698 9097 l  10598 9097 l  10598 10496 l 
10148 10496 l  p ef
0.000 c 10148 10496 m  9698 10496 l  9698 9096 l  10598 9096 l  10598 10496 l 
10148 10496 l  pc
pum
9973 9961 t
326 -169 m  326 -52 285 7 203 7 ct 178 7 157 2 140 -7 ct 123 -16 109 -31 99 -51 ct 
98 -51 l  98 -45 98 -35 97 -22 ct 96 -9 95 -1 95 1 ct 41 1 l  42 -10 43 -33 43 -68 ct 
43 -460 l  99 -460 l  99 -328 l  99 -315 98 -299 97 -281 ct 99 -281 l  109 -302 123 -318 140 -327 ct 
157 -336 178 -341 203 -341 ct 245 -341 277 -327 297 -298 ct 317 -270 326 -227 326 -169 ct 
p
268 -167 m  268 -214 262 -247 249 -268 ct 237 -288 217 -298 189 -298 ct 157 -298 135 -287 120 -266 ct 
106 -244 99 -210 99 -163 ct 99 -119 106 -87 120 -66 ct 134 -45 157 -34 188 -34 ct 
216 -34 237 -45 249 -65 ct 262 -86 268 -120 268 -167 ct p ef
pom
0.996 c 11048 10496 m  10598 10496 l  10598 9097 l  11498 9097 l  11498 10496 l 
11048 10496 l  p ef
0.000 c 11048 10496 m  10598 10496 l  10598 9096 l  11498 9096 l  11498 10496 l 
11048 10496 l  pc
pum
10873 9961 t
128 6 m  95 6 69 -3 52 -21 ct 35 -38 27 -63 27 -94 ct 27 -129 38 -155 61 -174 ct 
84 -192 121 -202 172 -204 ct 247 -205 l  247 -223 l  247 -250 241 -270 230 -282 ct 
218 -294 200 -299 175 -299 ct 150 -299 132 -295 121 -287 ct 109 -278 102 -265 100 -246 ct 
42 -251 l  51 -312 96 -342 176 -342 ct 219 -342 250 -332 272 -313 ct 293 -294 304 -266 304 -229 ct 
304 -85 l  304 -68 306 -55 310 -47 ct 314 -39 323 -35 335 -35 ct 340 -35 346 -35 353 -37 ct 
353 -2 l  339 1 325 3 310 3 ct 289 3 274 -2 265 -13 ct 256 -24 250 -41 249 -64 ct 
247 -64 l  233 -39 216 -21 197 -10 ct 178 1 155 6 128 6 ct p
141 -36 m  162 -36 180 -41 196 -50 ct 212 -59 224 -72 233 -88 ct 243 -104 247 -121 247 -138 ct 
247 -166 l  186 -165 l  160 -164 140 -161 126 -157 ct 113 -152 102 -144 95 -134 ct 
88 -123 84 -110 84 -93 ct 84 -75 89 -61 99 -51 ct 109 -41 123 -36 141 -36 ct p ef
pom
0.996 c 11948 10496 m  11498 10496 l  11498 9097 l  12398 9097 l  12398 10496 l 
11948 10496 l  p ef
0.000 c 11948 10496 m  11498 10496 l  11498 9096 l  12398 9096 l  12398 10496 l 
11948 10496 l  pc
pum
11773 9961 t
326 -169 m  326 -52 285 7 203 7 ct 178 7 157 2 140 -7 ct 123 -16 109 -31 99 -51 ct 
98 -51 l  98 -45 98 -35 97 -22 ct 96 -9 95 -1 95 1 ct 41 1 l  42 -10 43 -33 43 -68 ct 
43 -460 l  99 -460 l  99 -328 l  99 -315 98 -299 97 -281 ct 99 -281 l  109 -302 123 -318 140 -327 ct 
157 -336 178 -341 203 -341 ct 245 -341 277 -327 297 -298 ct 317 -270 326 -227 326 -169 ct 
p
268 -167 m  268 -214 262 -247 249 -268 ct 237 -288 217 -298 189 -298 ct 157 -298 135 -287 120 -266 ct 
106 -244 99 -210 99 -163 ct 99 -119 106 -87 120 -66 ct 134 -45 157 -34 188 -34 ct 
216 -34 237 -45 249 -65 ct 262 -86 268 -120 268 -167 ct p ef
pom
0.996 c 12848 10496 m  12398 10496 l  12398 9097 l  13298 9097 l  13298 10496 l 
12848 10496 l  p ef
0.000 c 12847 10496 m  12398 10496 l  12398 9096 l  13297 9096 l  13297 10496 l 
12847 10496 l  pc
pum
12666 9961 t
340 -126 m  340 -85 328 -53 303 -29 ct 279 -5 244 6 198 6 ct 161 6 128 -3 100 -23 ct 
98 -23 l  99 1 100 22 100 40 ct 100 132 l  44 132 l  44 -319 l  44 -368 56 -404 79 -427 ct 
103 -450 138 -461 185 -461 ct 226 -461 257 -452 278 -433 ct 300 -414 311 -387 311 -353 ct 
311 -300 288 -265 242 -247 ct 272 -241 296 -227 314 -206 ct 331 -185 340 -158 340 -126 ct 
p
100 -64 m  113 -55 128 -48 145 -43 ct 162 -38 179 -35 196 -35 ct 225 -35 248 -43 263 -59 ct 
279 -75 287 -97 287 -125 ct 287 -155 278 -178 260 -194 ct 242 -210 216 -218 183 -218 ct 
183 -262 l  209 -268 228 -278 240 -292 ct 251 -307 257 -327 257 -352 ct 257 -372 251 -388 238 -400 ct 
226 -411 208 -417 185 -417 ct 155 -417 133 -409 120 -393 ct 107 -377 100 -352 100 -317 ct 
100 -64 l  p ef
pom
5449 11697 m  5449 10871 l  5299 10871 l  5599 10596 l  5900 10871 l  5749 10871 l 
5749 11697 l  5449 11697 l  p
5299 10596 m  5299 10596 l  p
5900 11697 m  5900 11697 l  p ef
5449 11696 m  5449 10871 l  5299 10871 l  5599 10596 l  5900 10871 l  5749 10871 l 
5749 11696 l  5449 11696 l  pc
5299 10596 m  5299 10596 l  pc
5900 11696 m  5900 11696 l  pc
0.996 c 12730 7397 m  12614 7397 12498 7455 12498 7513 ct 12498 7600 l  12498 7688 l 
12498 7806 l  12498 7894 l  12498 7981 l  12498 8039 12614 8098 12730 8098 ct 
12548 8901 l  13079 8098 l  13317 8098 l  13491 8098 l  13666 8098 l  13782 8098 13898 8039 13898 7981 ct 
13898 7894 l  13898 7806 l  13898 7688 l  13898 7600 l  13898 7513 l  13898 7455 13782 7397 13666 7397 ct 
13491 7397 l  13317 7397 l  13079 7397 l  12905 7397 l  12730 7397 l  p
12498 7397 m  12498 7397 l  p
13899 8098 m  13899 8098 l  p ef
0.000 c 12729 7397 m  12613 7397 12498 7455 12498 7513 ct 12498 7600 l  12498 7688 l 
12498 7806 l  12498 7894 l  12498 7981 l  12498 8039 12613 8098 12729 8098 ct 
12547 8900 l  13078 8098 l  13316 8098 l  13490 8098 l  13665 8098 l  13781 8098 13897 8039 13897 7981 ct 
13897 7894 l  13897 7806 l  13897 7688 l  13897 7600 l  13897 7513 l  13897 7455 13781 7397 13665 7397 ct 
13490 7397 l  13316 7397 l  13078 7397 l  12904 7397 l  12729 7397 l  pc
12498 7397 m  12498 7397 l  pc
13898 8098 m  13898 8098 l  pc
pum
12785 7876 t
87 -302 m  87 -176 l  276 -176 l  276 -138 l  87 -138 l  87 0 l  41 0 l 
41 -340 l  282 -340 l  282 -302 l  87 -302 l  p ef
334 -316 m  334 -358 l  377 -358 l  377 -316 l  334 -316 l  p
334 0 m  334 -261 l  377 -261 l  377 0 l  334 0 l  p ef
545 -2 m  530 2 516 4 501 4 ct 466 4 449 -16 449 -55 ct 449 -229 l  418 -229 l 
418 -261 l  450 -261 l  463 -320 l  492 -320 l  492 -261 l  540 -261 l 
540 -229 l  492 -229 l  492 -65 l  492 -52 494 -43 498 -38 ct 502 -33 509 -31 520 -31 ct 
525 -31 534 -32 545 -34 ct 545 -2 l  p ef
650 5 m  624 5 604 -2 591 -16 ct 578 -30 571 -49 571 -73 ct 571 -100 580 -121 598 -135 ct 
615 -150 644 -157 684 -158 ct 742 -159 l  742 -174 l  742 -195 738 -210 729 -219 ct 
720 -228 706 -233 686 -233 ct 667 -233 653 -230 644 -223 ct 635 -216 630 -206 628 -191 ct 
583 -196 l  590 -243 625 -266 687 -266 ct 720 -266 745 -258 761 -243 ct 778 -228 786 -207 786 -178 ct 
786 -66 l  786 -53 788 -43 791 -37 ct 795 -30 801 -27 811 -27 ct 815 -27 819 -27 825 -28 ct 
825 -2 l  814 1 803 2 791 2 ct 775 2 763 -2 756 -10 ct 749 -19 745 -32 744 -50 ct 
742 -50 l  731 -30 718 -16 704 -7 ct 689 1 671 5 650 5 ct p
660 -28 m  676 -28 690 -31 702 -38 ct 715 -46 724 -56 732 -68 ct 739 -81 742 -94 742 -107 ct 
742 -129 l  695 -128 l  674 -128 659 -125 648 -122 ct 638 -118 630 -112 624 -104 ct 
618 -96 616 -85 616 -72 ct 616 -58 619 -47 627 -39 ct 635 -31 646 -28 660 -28 ct 
p ef
pom
0.996 c 5648 12196 m  5473 12196 5299 12254 5299 12312 ct 5299 12398 l  5299 12486 l 
5299 12604 l  5299 12692 l  5299 12779 l  5299 12837 5473 12896 5648 12896 ct 
5909 12896 l  6171 12896 l  6527 12896 l  6789 12896 l  7050 12896 l  7225 12896 7400 12837 7400 12779 ct 
7400 12692 l  7400 12604 l  7400 12486 l  7400 12398 l  7400 12312 l  7400 12254 7225 12196 7050 12196 ct 
6789 12196 l  6527 12196 l  6171 12196 l  5613 11783 l  5648 12196 l  p
5299 12196 m  5299 12196 l  p
7400 12896 m  7400 12896 l  p ef
0.000 c 5648 12195 m  5473 12195 5299 12253 5299 12311 ct 5299 12398 l  5299 12486 l 
5299 12604 l  5299 12692 l  5299 12779 l  5299 12837 5473 12896 5648 12896 ct 
5909 12896 l  6171 12896 l  6526 12896 l  6788 12896 l  7049 12896 l  7224 12896 7399 12837 7399 12779 ct 
7399 12692 l  7399 12604 l  7399 12486 l  7399 12398 l  7399 12311 l  7399 12253 7224 12195 7049 12195 ct 
6788 12195 l  6526 12195 l  6171 12195 l  5613 11782 l  5648 12195 l  pc
5299 12195 m  5299 12195 l  pc
7399 12896 m  7399 12896 l  pc
pum
5413 12674 t
191 -307 m  153 -307 124 -295 103 -271 ct 82 -247 72 -214 72 -171 ct 72 -130 83 -96 105 -71 ct 
126 -46 156 -33 193 -33 ct 241 -33 276 -56 300 -104 ct 338 -85 l  324 -56 304 -33 279 -18 ct 
254 -3 224 5 191 5 ct 157 5 127 -2 102 -16 ct 77 -31 58 -51 45 -77 ct 32 -104 25 -135 25 -171 ct 
25 -226 40 -268 69 -299 ct 98 -330 139 -345 191 -345 ct 227 -345 257 -338 281 -324 ct 
306 -310 323 -289 335 -261 ct 291 -246 l  283 -266 271 -281 253 -292 ct 236 -302 215 -307 191 -307 ct 
p ef
610 -131 m  610 -85 600 -51 580 -29 ct 560 -6 531 5 492 5 ct 454 5 425 -7 406 -30 ct 
386 -53 377 -87 377 -131 ct 377 -221 416 -266 494 -266 ct 534 -266 563 -255 582 -233 ct 
601 -211 610 -177 610 -131 ct p
564 -131 m  564 -167 559 -193 548 -209 ct 538 -226 520 -234 494 -234 ct 469 -234 451 -226 439 -209 ct 
428 -192 422 -166 422 -131 ct 422 -96 428 -70 439 -53 ct 450 -36 468 -27 492 -27 ct 
518 -27 536 -35 548 -52 ct 559 -69 564 -95 564 -131 ct p ef
830 0 m  830 -166 l  830 -183 828 -196 825 -206 ct 822 -215 816 -222 809 -226 ct 
801 -230 791 -232 776 -232 ct 755 -232 739 -225 727 -211 ct 715 -197 709 -177 709 -151 ct 
709 0 l  665 0 l  665 -205 l  665 -236 665 -254 664 -261 ct 705 -261 l  705 -260 705 -258 705 -255 ct 
705 -251 706 -247 706 -242 ct 706 -238 706 -229 707 -217 ct 707 -217 l  717 -235 729 -247 742 -255 ct 
755 -262 771 -266 791 -266 ct 820 -266 840 -259 854 -245 ct 867 -230 874 -207 874 -174 ct 
874 0 l  830 0 l  p ef
1040 -2 m  1025 2 1011 4 996 4 ct 961 4 944 -16 944 -55 ct 944 -229 l  913 -229 l 
913 -261 l  945 -261 l  958 -320 l  987 -320 l  987 -261 l  1035 -261 l 
1035 -229 l  987 -229 l  987 -65 l  987 -52 989 -43 993 -38 ct 997 -33 1004 -31 1015 -31 ct 
1020 -31 1029 -32 1040 -34 ct 1040 -2 l  p ef
1080 0 m  1080 -200 l  1080 -219 1080 -239 1079 -261 ct 1120 -261 l  1121 -232 1122 -214 1122 -208 ct 
1123 -208 l  1130 -230 1138 -245 1147 -254 ct 1156 -262 1168 -266 1185 -266 ct 
1190 -266 1196 -265 1202 -264 ct 1202 -224 l  1197 -225 1189 -226 1179 -226 ct 
1161 -226 1147 -218 1138 -203 ct 1128 -187 1124 -165 1124 -136 ct 1124 0 l  1080 0 l 
p ef
1465 -131 m  1465 -85 1455 -51 1435 -29 ct 1415 -6 1386 5 1347 5 ct 1309 5 1280 -7 1261 -30 ct 
1241 -53 1232 -87 1232 -131 ct 1232 -221 1271 -266 1349 -266 ct 1389 -266 1418 -255 1437 -233 ct 
1456 -211 1465 -177 1465 -131 ct p
1419 -131 m  1419 -167 1414 -193 1403 -209 ct 1393 -226 1375 -234 1349 -234 ct 
1324 -234 1306 -226 1294 -209 ct 1283 -192 1277 -166 1277 -131 ct 1277 -96 1283 -70 1294 -53 ct 
1305 -36 1323 -27 1347 -27 ct 1373 -27 1391 -35 1403 -52 ct 1414 -69 1419 -95 1419 -131 ct 
p ef
1519 0 m  1519 -358 l  1563 -358 l  1563 0 l  1519 0 l  p ef
1663 -121 m  1663 -91 1669 -68 1681 -52 ct 1694 -36 1712 -28 1735 -28 ct 1754 -28 1769 -31 1781 -39 ct 
1792 -46 1800 -56 1804 -68 ct 1842 -57 l  1826 -16 1791 5 1735 5 ct 1697 5 1667 -7 1647 -30 ct 
1627 -53 1617 -87 1617 -132 ct 1617 -175 1627 -208 1647 -231 ct 1667 -254 1696 -266 1734 -266 ct 
1810 -266 1849 -220 1849 -127 ct 1849 -121 l  1663 -121 l  p
1804 -154 m  1802 -182 1795 -202 1783 -215 ct 1771 -228 1755 -234 1733 -234 ct 
1712 -234 1695 -227 1683 -213 ct 1671 -199 1664 -179 1663 -154 ct 1804 -154 l 
p ef
pom
0.996 c 13748 10496 m  13298 10496 l  13298 9097 l  14198 9097 l  14198 10496 l 
13748 10496 l  p ef
0.000 c 13747 10496 m  13297 10496 l  13297 9096 l  14197 9096 l  14197 10496 l 
13747 10496 l  pc
pum
13566 9961 t
340 -126 m  340 -85 328 -53 303 -29 ct 279 -5 244 6 198 6 ct 161 6 128 -3 100 -23 ct 
98 -23 l  99 1 100 22 100 40 ct 100 132 l  44 132 l  44 -319 l  44 -368 56 -404 79 -427 ct 
103 -450 138 -461 185 -461 ct 226 -461 257 -452 278 -433 ct 300 -414 311 -387 311 -353 ct 
311 -300 288 -265 242 -247 ct 272 -241 296 -227 314 -206 ct 331 -185 340 -158 340 -126 ct 
p
100 -64 m  113 -55 128 -48 145 -43 ct 162 -38 179 -35 196 -35 ct 225 -35 248 -43 263 -59 ct 
279 -75 287 -97 287 -125 ct 287 -155 278 -178 260 -194 ct 242 -210 216 -218 183 -218 ct 
183 -262 l  209 -268 228 -278 240 -292 ct 251 -307 257 -327 257 -352 ct 257 -372 251 -388 238 -400 ct 
226 -411 208 -417 185 -417 ct 155 -417 133 -409 120 -393 ct 107 -377 100 -352 100 -317 ct 
100 -64 l  p ef
pom
0.996 c 14648 10496 m  14198 10496 l  14198 9097 l  15098 9097 l  15098 10496 l 
14648 10496 l  p ef
0.000 c 14647 10496 m  14197 10496 l  14197 9096 l  15097 9096 l  15097 10496 l 
14647 10496 l  pc
pum
14466 9961 t
340 -126 m  340 -85 328 -53 303 -29 ct 279 -5 244 6 198 6 ct 161 6 128 -3 100 -23 ct 
98 -23 l  99 1 100 22 100 40 ct 100 132 l  44 132 l  44 -319 l  44 -368 56 -404 79 -427 ct 
103 -450 138 -461 185 -461 ct 226 -461 257 -452 278 -433 ct 300 -414 311 -387 311 -353 ct 
311 -300 288 -265 242 -247 ct 272 -241 296 -227 314 -206 ct 331 -185 340 -158 340 -126 ct 
p
100 -64 m  113 -55 128 -48 145 -43 ct 162 -38 179 -35 196 -35 ct 225 -35 248 -43 263 -59 ct 
279 -75 287 -97 287 -125 ct 287 -155 278 -178 260 -194 ct 242 -210 216 -218 183 -218 ct 
183 -262 l  209 -268 228 -278 240 -292 ct 251 -307 257 -327 257 -352 ct 257 -372 251 -388 238 -400 ct 
226 -411 208 -417 185 -417 ct 155 -417 133 -409 120 -393 ct 107 -377 100 -352 100 -317 ct 
100 -64 l  p ef
pom
0.996 c 15548 10496 m  15098 10496 l  15098 9097 l  15997 9097 l  15997 10496 l 
15548 10496 l  p ef
0.000 c 15547 10496 m  15097 10496 l  15097 9096 l  15997 9096 l  15997 10496 l 
15547 10496 l  pc
pum
15366 9961 t
340 -126 m  340 -85 328 -53 303 -29 ct 279 -5 244 6 198 6 ct 161 6 128 -3 100 -23 ct 
98 -23 l  99 1 100 22 100 40 ct 100 132 l  44 132 l  44 -319 l  44 -368 56 -404 79 -427 ct 
103 -450 138 -461 185 -461 ct 226 -461 257 -452 278 -433 ct 300 -414 311 -387 311 -353 ct 
311 -300 288 -265 242 -247 ct 272 -241 296 -227 314 -206 ct 331 -185 340 -158 340 -126 ct 
p
100 -64 m  113 -55 128 -48 145 -43 ct 162 -38 179 -35 196 -35 ct 225 -35 248 -43 263 -59 ct 
279 -75 287 -97 287 -125 ct 287 -155 278 -178 260 -194 ct 242 -210 216 -218 183 -218 ct 
183 -262 l  209 -268 228 -278 240 -292 ct 251 -307 257 -327 257 -352 ct 257 -372 251 -388 238 -400 ct 
226 -411 208 -417 185 -417 ct 155 -417 133 -409 120 -393 ct 107 -377 100 -352 100 -317 ct 
100 -64 l  p ef
pom
0.996 c 16447 10496 m  15997 10496 l  15997 9097 l  16897 9097 l  16897 10496 l 
16447 10496 l  p ef
0.000 c 16447 10496 m  15997 10496 l  15997 9096 l  16897 9096 l  16897 10496 l 
16447 10496 l  pc
pum
16265 9961 t
340 -126 m  340 -85 328 -53 303 -29 ct 279 -5 244 6 198 6 ct 161 6 128 -3 100 -23 ct 
98 -23 l  99 1 100 22 100 40 ct 100 132 l  44 132 l  44 -319 l  44 -368 56 -404 79 -427 ct 
103 -450 138 -461 185 -461 ct 226 -461 257 -452 278 -433 ct 300 -414 311 -387 311 -353 ct 
311 -300 288 -265 242 -247 ct 272 -241 296 -227 314 -206 ct 331 -185 340 -158 340 -126 ct 
p
100 -64 m  113 -55 128 -48 145 -43 ct 162 -38 179 -35 196 -35 ct 225 -35 248 -43 263 -59 ct 
279 -75 287 -97 287 -125 ct 287 -155 278 -178 260 -194 ct 242 -210 216 -218 183 -218 ct 
183 -262 l  209 -268 228 -278 240 -292 ct 251 -307 257 -327 257 -352 ct 257 -372 251 -388 238 -400 ct 
226 -411 208 -417 185 -417 ct 155 -417 133 -409 120 -393 ct 107 -377 100 -352 100 -317 ct 
100 -64 l  p ef
pom
0.996 c 4864 7397 m  4681 7397 4499 7480 4499 7563 ct 4499 7688 l  4499 7812 l 
4499 7982 l  4499 8106 l  4499 8231 l  4499 8314 4681 8398 4864 8398 ct 5138 8398 l 
5413 8398 l  5785 8398 l  5680 9037 l  6334 8398 l  6517 8398 6700 8314 6700 8231 ct 
6700 8106 l  6700 7982 l  6700 7812 l  6700 7688 l  6700 7563 l  6700 7480 6517 7397 6334 7397 ct 
6060 7397 l  5785 7397 l  5413 7397 l  5138 7397 l  4864 7397 l  p
4499 7397 m  4499 7397 l  p
6700 8398 m  6700 8398 l  p ef
0.000 c 4864 7397 m  4681 7397 4499 7480 4499 7563 ct 4499 7688 l  4499 7812 l 
4499 7982 l  4499 8106 l  4499 8231 l  4499 8313 4681 8397 4864 8397 ct 5138 8397 l 
5413 8397 l  5785 8397 l  5680 9036 l  6333 8397 l  6516 8397 6699 8313 6699 8231 ct 
6699 8106 l  6699 7982 l  6699 7812 l  6699 7688 l  6699 7563 l  6699 7480 6516 7397 6333 7397 ct 
6060 7397 l  5785 7397 l  5413 7397 l  5138 7397 l  4864 7397 l  pc
4499 7397 m  4499 7397 l  pc
6699 8397 m  6699 8397 l  pc
pum
4691 7795 t
307 -94 m  307 -62 295 -38 270 -21 ct 246 -4 211 5 166 5 ct 84 5 36 -24 22 -81 ct 
67 -90 l  72 -70 83 -55 100 -45 ct 117 -36 139 -31 168 -31 ct 198 -31 221 -36 237 -46 ct 
253 -57 261 -72 261 -91 ct 261 -102 259 -111 254 -118 ct 249 -125 241 -131 232 -135 ct 
223 -140 212 -144 199 -147 ct 187 -150 173 -153 157 -157 ct 130 -163 110 -169 96 -175 ct 
82 -181 71 -187 63 -195 ct 55 -202 49 -210 45 -220 ct 40 -230 38 -241 38 -254 ct 
38 -283 50 -306 72 -321 ct 94 -337 126 -345 167 -345 ct 206 -345 236 -339 256 -327 ct 
276 -315 291 -295 299 -267 ct 254 -259 l  249 -277 239 -290 225 -298 ct 211 -306 192 -310 167 -310 ct 
140 -310 119 -306 105 -297 ct 90 -288 83 -274 83 -256 ct 83 -246 86 -237 92 -230 ct 
97 -224 105 -218 116 -213 ct 126 -208 147 -203 178 -196 ct 188 -193 199 -191 209 -188 ct 
220 -186 230 -183 239 -179 ct 249 -176 257 -172 266 -167 ct 274 -162 281 -157 287 -150 ct 
293 -143 298 -135 302 -126 ct 305 -117 307 -106 307 -94 ct p ef
377 0 m  377 -261 l  420 -261 l  420 0 l  377 0 l  p
363 -290 m  363 -295 l  415 -364 l  465 -364 l  465 -357 l  385 -290 l 
363 -290 l  p ef
655 0 m  655 -166 l  655 -191 652 -208 645 -218 ct 638 -228 626 -232 607 -232 ct 
589 -232 574 -225 564 -211 ct 553 -197 547 -177 547 -151 ct 547 0 l  504 0 l 
504 -205 l  504 -236 504 -254 503 -261 ct 544 -261 l  544 -260 544 -258 544 -255 ct 
544 -251 545 -247 545 -242 ct 545 -238 545 -229 546 -217 ct 546 -217 l  556 -235 566 -248 579 -255 ct 
591 -262 605 -266 623 -266 ct 642 -266 658 -262 670 -254 ct 681 -246 689 -234 694 -217 ct 
694 -217 l  703 -234 714 -247 727 -254 ct 740 -262 755 -266 773 -266 ct 800 -266 819 -259 831 -245 ct 
843 -230 849 -207 849 -174 ct 849 0 l  806 0 l  806 -166 l  806 -191 803 -208 796 -218 ct 
789 -228 776 -232 758 -232 ct 739 -232 725 -225 714 -211 ct 703 -197 698 -177 698 -151 ct 
698 0 l  655 0 l  p ef
1135 -132 m  1135 -41 1103 5 1039 5 ct 1019 5 1003 1 990 -6 ct 977 -13 966 -24 958 -40 ct 
957 -40 l  957 -35 957 -28 956 -18 ct 956 -7 955 -1 955 0 ct 913 0 l  914 -9 914 -26 914 -54 ct 
914 -358 l  958 -358 l  958 -256 l  958 -246 957 -233 957 -219 ct 958 -219 l 
966 -236 976 -248 990 -255 ct 1003 -262 1019 -266 1039 -266 ct 1072 -266 1096 -255 1112 -233 ct 
1127 -210 1135 -177 1135 -132 ct p
1089 -130 m  1089 -167 1085 -193 1075 -209 ct 1065 -225 1050 -232 1028 -232 ct 
1003 -232 986 -224 974 -207 ct 963 -191 958 -164 958 -128 ct 958 -93 963 -68 974 -52 ct 
985 -35 1003 -27 1027 -27 ct 1049 -27 1065 -35 1075 -51 ct 1085 -68 1089 -94 1089 -130 ct 
p ef
1410 -131 m  1410 -85 1400 -51 1380 -29 ct 1360 -6 1331 5 1292 5 ct 1254 5 1225 -7 1206 -30 ct 
1186 -53 1177 -87 1177 -131 ct 1177 -221 1216 -266 1294 -266 ct 1334 -266 1363 -255 1382 -233 ct 
1401 -211 1410 -177 1410 -131 ct p
1364 -131 m  1364 -167 1359 -193 1348 -209 ct 1338 -226 1320 -234 1294 -234 ct 
1269 -234 1251 -226 1239 -209 ct 1228 -192 1222 -166 1222 -131 ct 1222 -96 1228 -70 1239 -53 ct 
1250 -36 1268 -27 1292 -27 ct 1318 -27 1336 -35 1348 -52 ct 1359 -69 1364 -95 1364 -131 ct 
p ef
1464 0 m  1464 -358 l  1508 -358 l  1508 0 l  1464 0 l  p ef
1795 -131 m  1795 -85 1785 -51 1765 -29 ct 1745 -6 1716 5 1677 5 ct 1639 5 1610 -7 1591 -30 ct 
1571 -53 1562 -87 1562 -131 ct 1562 -221 1601 -266 1679 -266 ct 1719 -266 1748 -255 1767 -233 ct 
1786 -211 1795 -177 1795 -131 ct p
1749 -131 m  1749 -167 1744 -193 1733 -209 ct 1723 -226 1705 -234 1679 -234 ct 
1654 -234 1636 -226 1624 -209 ct 1613 -192 1607 -166 1607 -131 ct 1607 -96 1613 -70 1624 -53 ct 
1635 -36 1653 -27 1677 -27 ct 1703 -27 1721 -35 1733 -52 ct 1744 -69 1749 -95 1749 -131 ct 
p ef
pom
pum
4964 8257 t
46 0 m  46 -340 l  92 -340 l  92 0 l  46 0 l  p ef
339 0 m  339 -166 l  339 -183 337 -196 334 -206 ct 331 -215 325 -222 318 -226 ct 
310 -230 300 -232 285 -232 ct 264 -232 248 -225 236 -211 ct 224 -197 218 -177 218 -151 ct 
218 0 l  174 0 l  174 -205 l  174 -236 174 -254 173 -261 ct 214 -261 l  214 -260 214 -258 214 -255 ct 
214 -251 215 -247 215 -242 ct 215 -238 215 -229 216 -217 ct 216 -217 l  226 -235 238 -247 251 -255 ct 
264 -262 280 -266 300 -266 ct 329 -266 349 -259 363 -245 ct 376 -230 383 -207 383 -174 ct 
383 0 l  339 0 l  p ef
448 -316 m  448 -358 l  491 -358 l  491 -316 l  448 -316 l  p
448 0 m  448 -261 l  491 -261 l  491 0 l  448 0 l  p ef
591 -132 m  591 -97 597 -71 608 -54 ct 619 -38 635 -29 657 -29 ct 673 -29 686 -33 696 -42 ct 
706 -50 713 -63 715 -81 ct 759 -78 l  756 -52 745 -32 727 -17 ct 709 -2 686 5 658 5 ct 
622 5 594 -7 575 -30 ct 556 -53 546 -86 546 -131 ct 546 -175 556 -208 575 -231 ct 
594 -254 622 -266 658 -266 ct 685 -266 707 -259 724 -245 ct 742 -231 753 -212 758 -188 ct 
713 -185 l  711 -199 705 -211 696 -219 ct 687 -228 674 -232 657 -232 ct 634 -232 617 -224 607 -209 ct 
596 -194 591 -168 591 -132 ct p ef
808 -316 m  808 -358 l  851 -358 l  851 -316 l  808 -316 l  p
808 0 m  808 -261 l  851 -261 l  851 0 l  808 0 l  p ef
985 5 m  959 5 939 -2 926 -16 ct 913 -30 906 -49 906 -73 ct 906 -100 915 -121 933 -135 ct 
950 -150 979 -157 1019 -158 ct 1077 -159 l  1077 -174 l  1077 -195 1073 -210 1064 -219 ct 
1055 -228 1041 -233 1021 -233 ct 1002 -233 988 -230 979 -223 ct 970 -216 965 -206 963 -191 ct 
918 -196 l  925 -243 960 -266 1022 -266 ct 1055 -266 1080 -258 1096 -243 ct 
1113 -228 1121 -207 1121 -178 ct 1121 -66 l  1121 -53 1123 -43 1126 -37 ct 1130 -30 1136 -27 1146 -27 ct 
1150 -27 1154 -27 1160 -28 ct 1160 -2 l  1149 1 1138 2 1126 2 ct 1110 2 1098 -2 1091 -10 ct 
1084 -19 1080 -32 1079 -50 ct 1077 -50 l  1066 -30 1053 -16 1039 -7 ct 1024 1 1006 5 985 5 ct 
p
995 -28 m  1011 -28 1025 -31 1037 -38 ct 1050 -46 1059 -56 1067 -68 ct 1074 -81 1077 -94 1077 -107 ct 
1077 -129 l  1030 -128 l  1009 -128 994 -125 983 -122 ct 973 -118 965 -112 959 -104 ct 
953 -96 951 -85 951 -72 ct 951 -58 954 -47 962 -39 ct 970 -31 981 -28 995 -28 ct 
p ef
1193 0 m  1193 -358 l  1237 -358 l  1237 0 l  1193 0 l  p ef
pom
6331 8796 m  6165 8796 5999 8962 5999 9129 ct 5999 10463 l  5999 10630 6165 10797 6331 10797 ct 
11965 10797 l  12132 10797 12299 10630 12299 10463 ct 12299 9129 l  12299 8962 12132 8796 11965 8796 ct 
6331 8796 l  pc
5999 8796 m  5999 8796 l  pc
12299 10797 m  12299 10797 l  pc
0.996 c 8513 11298 m  8255 11298 7998 11389 7998 11480 ct 7998 11617 l  7998 11754 l 
7998 11940 l  7998 12077 l  7998 12214 l  7998 12305 8255 12396 8513 12396 ct 
8899 12396 l  9286 12396 l  9810 12396 l  10197 12396 l  10583 12396 l 
10841 12396 11099 12305 11099 12214 ct 11099 12077 l  11099 11940 l  11099 11754 l 
11099 11617 l  11099 11480 l  11099 11389 10841 11298 10583 11298 ct 10197 11298 l 
9810 11298 l  9286 11298 l  9168 10800 l  8513 11298 l  p
7998 11298 m  7998 11298 l  p
11099 12396 m  11099 12396 l  p ef
0.000 c 8512 11297 m  8254 11297 7997 11388 7997 11479 ct 7997 11616 l  7997 11753 l 
7997 11939 l  7997 12076 l  7997 12213 l  7997 12304 8254 12396 8512 12396 ct 
8898 12396 l  9285 12396 l  9810 12396 l  10197 12396 l  10583 12396 l 
10841 12396 11099 12304 11099 12213 ct 11099 12076 l  11099 11939 l  11099 11753 l 
11099 11616 l  11099 11479 l  11099 11388 10841 11297 10583 11297 ct 10197 11297 l 
9810 11297 l  9285 11297 l  9167 10800 l  8512 11297 l  pc
7997 11297 m  7997 11297 l  pc
11099 12396 m  11099 12396 l  pc
pum
8086 11745 t
303 -238 m  303 -206 293 -181 272 -162 ct 251 -143 222 -133 186 -133 ct 87 -133 l 
87 -1 l  41 -1 l  41 -341 l  184 -341 l  222 -341 251 -332 272 -314 ct 293 -296 303 -271 303 -238 ct 
p
257 -238 m  257 -282 231 -304 178 -304 ct 87 -304 l  87 -169 l  180 -169 l 
231 -169 257 -192 257 -238 ct p ef
430 5 m  404 5 384 -2 371 -16 ct 358 -30 351 -49 351 -73 ct 351 -100 360 -121 378 -135 ct 
395 -150 424 -157 464 -158 ct 522 -159 l  522 -174 l  522 -195 518 -210 509 -219 ct 
500 -228 486 -233 466 -233 ct 447 -233 433 -230 424 -223 ct 415 -216 410 -206 408 -191 ct 
363 -196 l  370 -243 405 -266 467 -266 ct 500 -266 525 -258 541 -243 ct 558 -228 566 -207 566 -178 ct 
566 -66 l  566 -53 568 -43 571 -37 ct 575 -30 581 -27 591 -27 ct 595 -27 599 -27 605 -28 ct 
605 -2 l  594 1 583 2 571 2 ct 555 2 543 -2 536 -10 ct 529 -19 525 -32 524 -50 ct 
522 -50 l  511 -30 498 -16 484 -7 ct 469 1 451 5 430 5 ct p
440 -28 m  456 -28 470 -31 482 -38 ct 495 -46 504 -56 512 -68 ct 519 -81 522 -94 522 -107 ct 
522 -129 l  475 -128 l  454 -128 439 -125 428 -122 ct 418 -118 410 -112 404 -104 ct 
398 -96 396 -85 396 -72 ct 396 -58 399 -47 407 -39 ct 415 -31 426 -28 440 -28 ct 
p ef
638 0 m  638 -358 l  682 -358 l  682 0 l  638 0 l  p ef
815 5 m  789 5 769 -2 756 -16 ct 743 -30 736 -49 736 -73 ct 736 -100 745 -121 763 -135 ct 
780 -150 809 -157 849 -158 ct 907 -159 l  907 -174 l  907 -195 903 -210 894 -219 ct 
885 -228 871 -233 851 -233 ct 832 -233 818 -230 809 -223 ct 800 -216 795 -206 793 -191 ct 
748 -196 l  755 -243 790 -266 852 -266 ct 885 -266 910 -258 926 -243 ct 943 -228 951 -207 951 -178 ct 
951 -66 l  951 -53 953 -43 956 -37 ct 960 -30 966 -27 976 -27 ct 980 -27 984 -27 990 -28 ct 
990 -2 l  979 1 968 2 956 2 ct 940 2 928 -2 921 -10 ct 914 -19 910 -32 909 -50 ct 
907 -50 l  896 -30 883 -16 869 -7 ct 854 1 836 5 815 5 ct p
825 -28 m  841 -28 855 -31 867 -38 ct 880 -46 889 -56 897 -68 ct 904 -81 907 -94 907 -107 ct 
907 -129 l  860 -128 l  839 -128 824 -125 813 -122 ct 803 -118 795 -112 789 -104 ct 
783 -96 781 -85 781 -72 ct 781 -58 784 -47 792 -39 ct 800 -31 811 -28 825 -28 ct 
p ef
1139 0 m  1087 0 l  993 -261 l  1039 -261 l  1096 -91 l  1099 -85 1104 -66 1113 -34 ct 
1122 -62 l  1131 -91 l  1190 -261 l  1236 -261 l  1139 0 l  p ef
1274 0 m  1274 -200 l  1274 -219 1274 -239 1273 -261 ct 1314 -261 l  1315 -232 1316 -214 1316 -208 ct 
1317 -208 l  1324 -230 1332 -245 1341 -254 ct 1350 -262 1362 -266 1379 -266 ct 
1384 -266 1390 -265 1396 -264 ct 1396 -224 l  1391 -225 1383 -226 1373 -226 ct 
1355 -226 1341 -218 1332 -203 ct 1322 -187 1318 -165 1318 -136 ct 1318 0 l  1274 0 l 
p ef
1505 5 m  1479 5 1459 -2 1446 -16 ct 1433 -30 1426 -49 1426 -73 ct 1426 -100 1435 -121 1453 -135 ct 
1470 -150 1499 -157 1539 -158 ct 1597 -159 l  1597 -174 l  1597 -195 1593 -210 1584 -219 ct 
1575 -228 1561 -233 1541 -233 ct 1522 -233 1508 -230 1499 -223 ct 1490 -216 1485 -206 1483 -191 ct 
1438 -196 l  1445 -243 1480 -266 1542 -266 ct 1575 -266 1600 -258 1616 -243 ct 
1633 -228 1641 -207 1641 -178 ct 1641 -66 l  1641 -53 1643 -43 1646 -37 ct 1650 -30 1656 -27 1666 -27 ct 
1670 -27 1674 -27 1680 -28 ct 1680 -2 l  1669 1 1658 2 1646 2 ct 1630 2 1618 -2 1611 -10 ct 
1604 -19 1600 -32 1599 -50 ct 1597 -50 l  1586 -30 1573 -16 1559 -7 ct 1544 1 1526 5 1505 5 ct 
p
1515 -28 m  1531 -28 1545 -31 1557 -38 ct 1570 -46 1579 -56 1587 -68 ct 1594 -81 1597 -94 1597 -107 ct 
1597 -129 l  1550 -128 l  1529 -128 1514 -125 1503 -122 ct 1493 -118 1485 -112 1479 -104 ct 
1473 -96 1471 -85 1471 -72 ct 1471 -58 1474 -47 1482 -39 ct 1490 -31 1501 -28 1515 -28 ct 
p ef
1920 5 m  1894 5 1874 -2 1861 -16 ct 1848 -30 1841 -49 1841 -73 ct 1841 -100 1850 -121 1868 -135 ct 
1885 -150 1914 -157 1954 -158 ct 2012 -159 l  2012 -174 l  2012 -195 2008 -210 1999 -219 ct 
1990 -228 1976 -233 1956 -233 ct 1937 -233 1923 -230 1914 -223 ct 1905 -216 1900 -206 1898 -191 ct 
1853 -196 l  1860 -243 1895 -266 1957 -266 ct 1990 -266 2015 -258 2031 -243 ct 
2048 -228 2056 -207 2056 -178 ct 2056 -66 l  2056 -53 2058 -43 2061 -37 ct 2065 -30 2071 -27 2081 -27 ct 
2085 -27 2089 -27 2095 -28 ct 2095 -2 l  2084 1 2073 2 2061 2 ct 2045 2 2033 -2 2026 -10 ct 
2019 -19 2015 -32 2014 -50 ct 2012 -50 l  2001 -30 1988 -16 1974 -7 ct 1959 1 1941 5 1920 5 ct 
p
1930 -28 m  1946 -28 1960 -31 1972 -38 ct 1985 -46 1994 -56 2002 -68 ct 2009 -81 2012 -94 2012 -107 ct 
2012 -129 l  1965 -128 l  1944 -128 1929 -125 1918 -122 ct 1908 -118 1900 -112 1894 -104 ct 
1888 -96 1886 -85 1886 -72 ct 1886 -58 1889 -47 1897 -39 ct 1905 -31 1916 -28 1930 -28 ct 
p ef
2464 -72 m  2464 -47 2455 -28 2436 -15 ct 2418 -2 2392 5 2358 5 ct 2326 5 2301 0 2283 -11 ct 
2266 -22 2254 -38 2249 -61 ct 2287 -69 l  2291 -55 2298 -44 2310 -38 ct 2322 -31 2338 -28 2358 -28 ct 
2380 -28 2396 -31 2407 -38 ct 2417 -45 2422 -55 2422 -69 ct 2422 -79 2418 -87 2411 -94 ct 
2404 -100 2393 -105 2377 -110 ct 2346 -118 l  2321 -124 2303 -131 2293 -137 ct 
2282 -143 2274 -150 2268 -159 ct 2262 -168 2259 -179 2259 -192 ct 2259 -216 2268 -234 2285 -246 ct 
2302 -259 2326 -265 2359 -265 ct 2388 -265 2410 -260 2427 -250 ct 2444 -240 2455 -223 2460 -201 ct 
2420 -196 l  2418 -208 2412 -217 2401 -223 ct 2391 -229 2376 -232 2359 -232 ct 
2339 -232 2325 -229 2315 -223 ct 2306 -217 2301 -208 2301 -196 ct 2301 -189 2303 -183 2307 -178 ct 
2311 -173 2317 -169 2324 -166 ct 2332 -162 2348 -158 2372 -152 ct 2395 -146 2412 -140 2422 -136 ct 
2432 -131 2440 -125 2446 -119 ct 2452 -113 2456 -106 2459 -99 ct 2463 -91 2464 -82 2464 -72 ct 
p ef
2552 -121 m  2552 -91 2558 -68 2570 -52 ct 2583 -36 2601 -28 2624 -28 ct 2643 -28 2658 -31 2670 -39 ct 
2681 -46 2689 -56 2693 -68 ct 2731 -57 l  2715 -16 2680 5 2624 5 ct 2586 5 2556 -7 2536 -30 ct 
2516 -53 2506 -87 2506 -132 ct 2506 -175 2516 -208 2536 -231 ct 2556 -254 2585 -266 2623 -266 ct 
2699 -266 2738 -220 2738 -127 ct 2738 -121 l  2552 -121 l  p
2693 -154 m  2691 -182 2684 -202 2672 -215 ct 2660 -228 2644 -234 2622 -234 ct 
2601 -234 2584 -227 2572 -213 ct 2560 -199 2553 -179 2552 -154 ct 2693 -154 l 
p ef
2794 0 m  2794 -200 l  2794 -219 2794 -239 2793 -261 ct 2834 -261 l  2835 -232 2836 -214 2836 -208 ct 
2837 -208 l  2844 -230 2852 -245 2861 -254 ct 2870 -262 2882 -266 2899 -266 ct 
2904 -266 2910 -265 2916 -264 ct 2916 -224 l  2911 -225 2903 -226 2893 -226 ct 
2875 -226 2861 -218 2852 -203 ct 2842 -187 2838 -165 2838 -136 ct 2838 0 l  2794 0 l 
p ef
pom
pum
8266 12207 t
254 -132 m  254 -40 222 5 158 5 ct 118 5 91 -10 77 -40 ct 76 -40 l  76 -39 77 -25 77 1 ct 
77 103 l  33 103 l  33 -208 l  33 -234 33 -252 32 -261 ct 74 -261 l  74 -260 74 -258 75 -254 ct 
75 -250 75 -244 76 -236 ct 76 -228 76 -222 76 -219 ct 77 -219 l  85 -235 95 -247 108 -254 ct 
121 -262 137 -266 158 -266 ct 190 -266 214 -255 230 -233 ct 246 -212 254 -178 254 -132 ct 
p
208 -131 m  208 -167 204 -193 194 -209 ct 184 -224 168 -232 147 -232 ct 130 -232 116 -228 107 -221 ct 
97 -214 89 -203 84 -187 ct 79 -172 77 -152 77 -127 ct 77 -93 82 -68 93 -51 ct 104 -35 122 -27 146 -27 ct 
168 -27 184 -35 194 -51 ct 203 -67 208 -93 208 -131 ct p ef
309 0 m  309 -200 l  309 -219 309 -239 308 -261 ct 349 -261 l  350 -232 351 -214 351 -208 ct 
352 -208 l  359 -230 367 -245 376 -254 ct 385 -262 397 -266 414 -266 ct 419 -266 425 -265 431 -264 ct 
431 -224 l  426 -225 418 -226 408 -226 ct 390 -226 376 -218 367 -203 ct 357 -187 353 -165 353 -136 ct 
353 0 l  309 0 l  p ef
694 -131 m  694 -85 684 -51 664 -29 ct 644 -6 615 5 576 5 ct 538 5 509 -7 490 -30 ct 
470 -53 461 -87 461 -131 ct 461 -221 500 -266 578 -266 ct 618 -266 647 -255 666 -233 ct 
685 -211 694 -177 694 -131 ct p
648 -131 m  648 -167 643 -193 632 -209 ct 622 -226 604 -234 578 -234 ct 553 -234 535 -226 523 -209 ct 
512 -192 506 -166 506 -131 ct 506 -96 512 -70 523 -53 ct 534 -36 552 -27 576 -27 ct 
602 -27 620 -35 632 -52 ct 643 -69 648 -95 648 -131 ct p ef
781 -132 m  781 -97 787 -71 798 -54 ct 809 -38 825 -29 847 -29 ct 863 -29 876 -33 886 -42 ct 
896 -50 903 -63 905 -81 ct 949 -78 l  946 -52 935 -32 917 -17 ct 899 -2 876 5 848 5 ct 
812 5 784 -7 765 -30 ct 746 -53 736 -86 736 -131 ct 736 -175 746 -208 765 -231 ct 
784 -254 812 -266 848 -266 ct 875 -266 897 -259 914 -245 ct 932 -231 943 -212 948 -188 ct 
903 -185 l  901 -199 895 -211 886 -219 ct 877 -228 864 -232 847 -232 ct 824 -232 807 -224 797 -209 ct 
786 -194 781 -168 781 -132 ct p ef
1032 -121 m  1032 -91 1038 -68 1050 -52 ct 1063 -36 1081 -28 1104 -28 ct 1123 -28 1138 -31 1150 -39 ct 
1161 -46 1169 -56 1173 -68 ct 1211 -57 l  1195 -16 1160 5 1104 5 ct 1066 5 1036 -7 1016 -30 ct 
996 -53 986 -87 986 -132 ct 986 -175 996 -208 1016 -231 ct 1036 -254 1065 -266 1103 -266 ct 
1179 -266 1218 -220 1218 -127 ct 1218 -121 l  1032 -121 l  p
1173 -154 m  1171 -182 1164 -202 1152 -215 ct 1140 -228 1124 -234 1102 -234 ct 
1081 -234 1064 -227 1052 -213 ct 1040 -199 1033 -179 1032 -154 ct 1173 -154 l 
p ef
1469 -72 m  1469 -47 1460 -28 1441 -15 ct 1423 -2 1397 5 1363 5 ct 1331 5 1306 0 1288 -11 ct 
1271 -22 1259 -38 1254 -61 ct 1292 -69 l  1296 -55 1303 -44 1315 -38 ct 1327 -31 1343 -28 1363 -28 ct 
1385 -28 1401 -31 1412 -38 ct 1422 -45 1427 -55 1427 -69 ct 1427 -79 1423 -87 1416 -94 ct 
1409 -100 1398 -105 1382 -110 ct 1351 -118 l  1326 -124 1308 -131 1298 -137 ct 
1287 -143 1279 -150 1273 -159 ct 1267 -168 1264 -179 1264 -192 ct 1264 -216 1273 -234 1290 -246 ct 
1307 -259 1331 -265 1364 -265 ct 1393 -265 1415 -260 1432 -250 ct 1449 -240 1460 -223 1465 -201 ct 
1425 -196 l  1423 -208 1417 -217 1406 -223 ct 1396 -229 1381 -232 1364 -232 ct 
1344 -232 1330 -229 1320 -223 ct 1311 -217 1306 -208 1306 -196 ct 1306 -189 1308 -183 1312 -178 ct 
1316 -173 1322 -169 1329 -166 ct 1337 -162 1353 -158 1377 -152 ct 1400 -146 1417 -140 1427 -136 ct 
1437 -131 1445 -125 1451 -119 ct 1457 -113 1461 -106 1464 -99 ct 1468 -91 1469 -82 1469 -72 ct 
p ef
1719 -72 m  1719 -47 1710 -28 1691 -15 ct 1673 -2 1647 5 1613 5 ct 1581 5 1556 0 1538 -11 ct 
1521 -22 1509 -38 1504 -61 ct 1542 -69 l  1546 -55 1553 -44 1565 -38 ct 1577 -31 1593 -28 1613 -28 ct 
1635 -28 1651 -31 1662 -38 ct 1672 -45 1677 -55 1677 -69 ct 1677 -79 1673 -87 1666 -94 ct 
1659 -100 1648 -105 1632 -110 ct 1601 -118 l  1576 -124 1558 -131 1548 -137 ct 
1537 -143 1529 -150 1523 -159 ct 1517 -168 1514 -179 1514 -192 ct 1514 -216 1523 -234 1540 -246 ct 
1557 -259 1581 -265 1614 -265 ct 1643 -265 1665 -260 1682 -250 ct 1699 -240 1710 -223 1715 -201 ct 
1675 -196 l  1673 -208 1667 -217 1656 -223 ct 1646 -229 1631 -232 1614 -232 ct 
1594 -232 1580 -229 1570 -223 ct 1561 -217 1556 -208 1556 -196 ct 1556 -189 1558 -183 1562 -178 ct 
1566 -173 1572 -169 1579 -166 ct 1587 -162 1603 -158 1627 -152 ct 1650 -146 1667 -140 1677 -136 ct 
1687 -131 1695 -125 1701 -119 ct 1707 -113 1711 -106 1714 -99 ct 1718 -91 1719 -82 1719 -72 ct 
p ef
1840 5 m  1814 5 1794 -2 1781 -16 ct 1768 -30 1761 -49 1761 -73 ct 1761 -100 1770 -121 1788 -135 ct 
1805 -150 1834 -157 1874 -158 ct 1932 -159 l  1932 -174 l  1932 -195 1928 -210 1919 -219 ct 
1910 -228 1896 -233 1876 -233 ct 1857 -233 1843 -230 1834 -223 ct 1825 -216 1820 -206 1818 -191 ct 
1773 -196 l  1780 -243 1815 -266 1877 -266 ct 1910 -266 1935 -258 1951 -243 ct 
1968 -228 1976 -207 1976 -178 ct 1976 -66 l  1976 -53 1978 -43 1981 -37 ct 1985 -30 1991 -27 2001 -27 ct 
2005 -27 2009 -27 2015 -28 ct 2015 -2 l  2004 1 1993 2 1981 2 ct 1965 2 1953 -2 1946 -10 ct 
1939 -19 1935 -32 1934 -50 ct 1932 -50 l  1921 -30 1908 -16 1894 -7 ct 1879 1 1861 5 1840 5 ct 
p
1850 -28 m  1866 -28 1880 -31 1892 -38 ct 1905 -46 1914 -56 1922 -68 ct 1929 -81 1932 -94 1932 -107 ct 
1932 -129 l  1885 -128 l  1864 -128 1849 -125 1838 -122 ct 1828 -118 1820 -112 1814 -104 ct 
1808 -96 1806 -85 1806 -72 ct 1806 -58 1809 -47 1817 -39 ct 1825 -31 1836 -28 1850 -28 ct 
p ef
2213 -42 m  2205 -25 2194 -13 2181 -6 ct 2168 1 2151 5 2132 5 ct 2099 5 2075 -6 2059 -28 ct 
2044 -51 2036 -84 2036 -129 ct 2036 -220 2068 -266 2132 -266 ct 2152 -266 2168 -262 2181 -255 ct 
2194 -248 2205 -236 2213 -221 ct 2214 -221 l  2213 -250 l  2213 -358 l  2256 -358 l 
2256 -54 l  2256 -26 2257 -9 2258 0 ct 2216 0 l  2216 -2 2215 -8 2215 -18 ct 
2214 -27 2214 -35 2214 -42 ct 2213 -42 l  p
2081 -131 m  2081 -94 2086 -68 2096 -52 ct 2105 -36 2121 -29 2143 -29 ct 2167 -29 2185 -37 2196 -54 ct 
2207 -71 2213 -98 2213 -134 ct 2213 -168 2207 -194 2196 -210 ct 2185 -226 2168 -234 2143 -234 ct 
2121 -234 2106 -226 2096 -210 ct 2086 -193 2081 -167 2081 -131 ct p ef
2390 5 m  2364 5 2344 -2 2331 -16 ct 2318 -30 2311 -49 2311 -73 ct 2311 -100 2320 -121 2338 -135 ct 
2355 -150 2384 -157 2424 -158 ct 2482 -159 l  2482 -174 l  2482 -195 2478 -210 2469 -219 ct 
2460 -228 2446 -233 2426 -233 ct 2407 -233 2393 -230 2384 -223 ct 2375 -216 2370 -206 2368 -191 ct 
2323 -196 l  2330 -243 2365 -266 2427 -266 ct 2460 -266 2485 -258 2501 -243 ct 
2518 -228 2526 -207 2526 -178 ct 2526 -66 l  2526 -53 2528 -43 2531 -37 ct 2535 -30 2541 -27 2551 -27 ct 
2555 -27 2559 -27 2565 -28 ct 2565 -2 l  2554 1 2543 2 2531 2 ct 2515 2 2503 -2 2496 -10 ct 
2489 -19 2485 -32 2484 -50 ct 2482 -50 l  2471 -30 2458 -16 2444 -7 ct 2429 1 2411 5 2390 5 ct 
p
2400 -28 m  2416 -28 2430 -31 2442 -38 ct 2455 -46 2464 -56 2472 -68 ct 2479 -81 2482 -94 2482 -107 ct 
2482 -129 l  2435 -128 l  2414 -128 2399 -125 2388 -122 ct 2378 -118 2370 -112 2364 -104 ct 
2358 -96 2356 -85 2356 -72 ct 2356 -58 2359 -47 2367 -39 ct 2375 -31 2386 -28 2400 -28 ct 
p ef
pom
12830 8796 m  12663 8796 12498 8962 12498 9129 ct 12498 10463 l  12498 10630 12663 10797 12830 10797 ct 
16664 10797 l  16831 10797 16998 10630 16998 10463 ct 16998 9129 l  16998 8962 16831 8796 16664 8796 ct 
12830 8796 l  pc
12498 8796 m  12498 8796 l  pc
16998 10797 m  16998 10797 l  pc
0.996 c 13611 11296 m  13353 11296 13096 11387 13096 11478 ct 13096 11615 l 
13096 11752 l  13096 11938 l  13096 12075 l  13096 12212 l  13096 12303 13353 12394 13611 12394 ct 
13997 12394 l  14384 12394 l  14909 12394 l  15296 12394 l  15681 12394 l 
15939 12394 16197 12303 16197 12212 ct 16197 12075 l  16197 11938 l  16197 11752 l 
16197 11615 l  16197 11478 l  16197 11387 15939 11296 15681 11296 ct 15296 11296 l 
14909 11296 l  14384 11296 l  14266 10798 l  13611 11296 l  p
13096 11296 m  13096 11296 l  p
16197 12394 m  16197 12394 l  p ef
0.000 c 13610 11295 m  13352 11295 13095 11386 13095 11477 ct 13095 11614 l 
13095 11751 l  13095 11937 l  13095 12074 l  13095 12211 l  13095 12302 13352 12394 13610 12394 ct 
13996 12394 l  14383 12394 l  14908 12394 l  15295 12394 l  15681 12394 l 
15939 12394 16197 12302 16197 12211 ct 16197 12074 l  16197 11937 l  16197 11751 l 
16197 11614 l  16197 11477 l  16197 11386 15939 11295 15681 11295 ct 15295 11295 l 
14908 11295 l  14383 11295 l  14265 10798 l  13610 11295 l  pc
13095 11295 m  13095 11295 l  pc
16197 12394 m  16197 12394 l  pc
pum
13406 11743 t
41 0 m  41 -340 l  298 -340 l  298 -302 l  87 -302 l  87 -193 l  284 -193 l 
284 -156 l  87 -156 l  87 -38 l  308 -38 l  308 0 l  41 0 l  p ef
559 -72 m  559 -47 550 -28 531 -15 ct 513 -2 487 5 453 5 ct 421 5 396 0 378 -11 ct 
361 -22 349 -38 344 -61 ct 382 -69 l  386 -55 393 -44 405 -38 ct 417 -31 433 -28 453 -28 ct 
475 -28 491 -31 502 -38 ct 512 -45 517 -55 517 -69 ct 517 -79 513 -87 506 -94 ct 
499 -100 488 -105 472 -110 ct 441 -118 l  416 -124 398 -131 388 -137 ct 377 -143 369 -150 363 -159 ct 
357 -168 354 -179 354 -192 ct 354 -216 363 -234 380 -246 ct 397 -259 421 -265 454 -265 ct 
483 -265 505 -260 522 -250 ct 539 -240 550 -223 555 -201 ct 515 -196 l  513 -208 507 -217 496 -223 ct 
486 -229 471 -232 454 -232 ct 434 -232 420 -229 410 -223 ct 401 -217 396 -208 396 -196 ct 
396 -189 398 -183 402 -178 ct 406 -173 412 -169 419 -166 ct 427 -162 443 -158 467 -152 ct 
490 -146 507 -140 517 -136 ct 527 -131 535 -125 541 -119 ct 547 -113 551 -106 554 -99 ct 
558 -91 559 -82 559 -72 ct p ef
834 -132 m  834 -40 802 5 738 5 ct 698 5 671 -10 657 -40 ct 656 -40 l  656 -39 657 -25 657 1 ct 
657 103 l  613 103 l  613 -208 l  613 -234 613 -252 612 -261 ct 654 -261 l 
654 -260 654 -258 655 -254 ct 655 -250 655 -244 656 -236 ct 656 -228 656 -222 656 -219 ct 
657 -219 l  665 -235 675 -247 688 -254 ct 701 -262 717 -266 738 -266 ct 770 -266 794 -255 810 -233 ct 
826 -212 834 -178 834 -132 ct p
788 -131 m  788 -167 784 -193 774 -209 ct 764 -224 748 -232 727 -232 ct 710 -232 696 -228 687 -221 ct 
677 -214 669 -203 664 -187 ct 659 -172 657 -152 657 -127 ct 657 -93 662 -68 673 -51 ct 
684 -35 702 -27 726 -27 ct 748 -27 764 -35 774 -51 ct 783 -67 788 -93 788 -131 ct 
p ef
955 5 m  929 5 909 -2 896 -16 ct 883 -30 876 -49 876 -73 ct 876 -100 885 -121 903 -135 ct 
920 -150 949 -157 989 -158 ct 1047 -159 l  1047 -174 l  1047 -195 1043 -210 1034 -219 ct 
1025 -228 1011 -233 991 -233 ct 972 -233 958 -230 949 -223 ct 940 -216 935 -206 933 -191 ct 
888 -196 l  895 -243 930 -266 992 -266 ct 1025 -266 1050 -258 1066 -243 ct 1083 -228 1091 -207 1091 -178 ct 
1091 -66 l  1091 -53 1093 -43 1096 -37 ct 1100 -30 1106 -27 1116 -27 ct 1120 -27 1124 -27 1130 -28 ct 
1130 -2 l  1119 1 1108 2 1096 2 ct 1080 2 1068 -2 1061 -10 ct 1054 -19 1050 -32 1049 -50 ct 
1047 -50 l  1036 -30 1023 -16 1009 -7 ct 994 1 976 5 955 5 ct p
965 -28 m  981 -28 995 -31 1007 -38 ct 1020 -46 1029 -56 1037 -68 ct 1044 -81 1047 -94 1047 -107 ct 
1047 -129 l  1000 -128 l  979 -128 964 -125 953 -122 ct 943 -118 935 -112 929 -104 ct 
923 -96 921 -85 921 -72 ct 921 -58 924 -47 932 -39 ct 940 -31 951 -28 965 -28 ct 
p ef
1196 -132 m  1196 -97 1202 -71 1213 -54 ct 1224 -38 1240 -29 1262 -29 ct 1278 -29 1291 -33 1301 -42 ct 
1311 -50 1318 -63 1320 -81 ct 1364 -78 l  1361 -52 1350 -32 1332 -17 ct 1314 -2 1291 5 1263 5 ct 
1227 5 1199 -7 1180 -30 ct 1161 -53 1151 -86 1151 -131 ct 1151 -175 1161 -208 1180 -231 ct 
1199 -254 1227 -266 1263 -266 ct 1290 -266 1312 -259 1329 -245 ct 1347 -231 1358 -212 1363 -188 ct 
1318 -185 l  1316 -199 1310 -211 1301 -219 ct 1292 -228 1279 -232 1262 -232 ct 
1239 -232 1222 -224 1212 -209 ct 1201 -194 1196 -168 1196 -132 ct p
1311 61 m  1311 90 1289 105 1245 105 ct 1236 105 1229 105 1223 104 ct 1223 80 l 
1231 81 1238 82 1244 82 ct 1268 82 1280 75 1280 62 ct 1280 50 1269 44 1247 44 ct 
1241 44 1236 44 1234 44 ct 1249 0 l  1275 0 l  1266 25 l  1281 25 1292 28 1300 35 ct 
1307 41 1311 50 1311 61 ct p ef
1634 -131 m  1634 -85 1624 -51 1604 -29 ct 1584 -6 1555 5 1516 5 ct 1478 5 1449 -7 1430 -30 ct 
1410 -53 1401 -87 1401 -131 ct 1401 -221 1440 -266 1518 -266 ct 1558 -266 1587 -255 1606 -233 ct 
1625 -211 1634 -177 1634 -131 ct p
1588 -131 m  1588 -167 1583 -193 1572 -209 ct 1562 -226 1544 -234 1518 -234 ct 
1493 -234 1475 -226 1463 -209 ct 1452 -192 1446 -166 1446 -131 ct 1446 -96 1452 -70 1463 -53 ct 
1474 -36 1492 -27 1516 -27 ct 1542 -27 1560 -35 1572 -52 ct 1583 -69 1588 -95 1588 -131 ct 
p ef
1862 -121 m  1862 -91 1868 -68 1880 -52 ct 1893 -36 1911 -28 1934 -28 ct 1953 -28 1968 -31 1980 -39 ct 
1991 -46 1999 -56 2003 -68 ct 2041 -57 l  2025 -16 1990 5 1934 5 ct 1896 5 1866 -7 1846 -30 ct 
1826 -53 1816 -87 1816 -132 ct 1816 -175 1826 -208 1846 -231 ct 1866 -254 1895 -266 1933 -266 ct 
2009 -266 2048 -220 2048 -127 ct 2048 -121 l  1862 -121 l  p
2003 -154 m  2001 -182 1994 -202 1982 -215 ct 1970 -228 1954 -234 1932 -234 ct 
1911 -234 1894 -227 1882 -213 ct 1870 -199 1863 -179 1862 -154 ct 2003 -154 l 
p ef
2255 0 m  2255 -166 l  2255 -191 2252 -208 2245 -218 ct 2238 -228 2226 -232 2207 -232 ct 
2189 -232 2174 -225 2164 -211 ct 2153 -197 2147 -177 2147 -151 ct 2147 0 l  2104 0 l 
2104 -205 l  2104 -236 2104 -254 2103 -261 ct 2144 -261 l  2144 -260 2144 -258 2144 -255 ct 
2144 -251 2145 -247 2145 -242 ct 2145 -238 2145 -229 2146 -217 ct 2146 -217 l 
2156 -235 2166 -248 2179 -255 ct 2191 -262 2205 -266 2223 -266 ct 2242 -266 2258 -262 2270 -254 ct 
2281 -246 2289 -234 2294 -217 ct 2294 -217 l  2303 -234 2314 -247 2327 -254 ct 
2340 -262 2355 -266 2373 -266 ct 2400 -266 2419 -259 2431 -245 ct 2443 -230 2449 -207 2449 -174 ct 
2449 0 l  2406 0 l  2406 -166 l  2406 -191 2403 -208 2396 -218 ct 2389 -228 2376 -232 2358 -232 ct 
2339 -232 2325 -225 2314 -211 ct 2303 -197 2298 -177 2298 -151 ct 2298 0 l  2255 0 l 
p ef
pom
pum
13889 12205 t
254 -132 m  254 -41 222 5 158 5 ct 138 5 122 1 109 -6 ct 96 -13 85 -24 77 -40 ct 
76 -40 l  76 -35 76 -28 75 -18 ct 75 -7 74 -1 74 0 ct 32 0 l  33 -9 33 -26 33 -54 ct 
33 -358 l  77 -358 l  77 -256 l  77 -246 76 -233 76 -219 ct 77 -219 l  85 -236 95 -248 109 -255 ct 
122 -262 138 -266 158 -266 ct 191 -266 215 -255 231 -233 ct 246 -210 254 -177 254 -132 ct 
p
208 -130 m  208 -167 204 -193 194 -209 ct 184 -225 169 -232 147 -232 ct 122 -232 105 -224 93 -207 ct 
82 -191 77 -164 77 -128 ct 77 -93 82 -68 93 -52 ct 104 -35 122 -27 146 -27 ct 168 -27 184 -35 194 -51 ct 
204 -68 208 -94 208 -130 ct p ef
309 0 m  309 -200 l  309 -219 309 -239 308 -261 ct 349 -261 l  350 -232 351 -214 351 -208 ct 
352 -208 l  359 -230 367 -245 376 -254 ct 385 -262 397 -266 414 -266 ct 419 -266 425 -265 431 -264 ct 
431 -224 l  426 -225 418 -226 408 -226 ct 390 -226 376 -218 367 -203 ct 357 -187 353 -165 353 -136 ct 
353 0 l  309 0 l  p ef
540 5 m  514 5 494 -2 481 -16 ct 468 -30 461 -49 461 -73 ct 461 -100 470 -121 488 -135 ct 
505 -150 534 -157 574 -158 ct 632 -159 l  632 -174 l  632 -195 628 -210 619 -219 ct 
610 -228 596 -233 576 -233 ct 557 -233 543 -230 534 -223 ct 525 -216 520 -206 518 -191 ct 
473 -196 l  480 -243 515 -266 577 -266 ct 610 -266 635 -258 651 -243 ct 668 -228 676 -207 676 -178 ct 
676 -66 l  676 -53 678 -43 681 -37 ct 685 -30 691 -27 701 -27 ct 705 -27 709 -27 715 -28 ct 
715 -2 l  704 1 693 2 681 2 ct 665 2 653 -2 646 -10 ct 639 -19 635 -32 634 -50 ct 
632 -50 l  621 -30 608 -16 594 -7 ct 579 1 561 5 540 5 ct p
550 -28 m  566 -28 580 -31 592 -38 ct 605 -46 614 -56 622 -68 ct 629 -81 632 -94 632 -107 ct 
632 -129 l  585 -128 l  564 -128 549 -125 538 -122 ct 528 -118 520 -112 514 -104 ct 
508 -96 506 -85 506 -72 ct 506 -58 509 -47 517 -39 ct 525 -31 536 -28 550 -28 ct 
p ef
914 0 m  914 -166 l  914 -183 912 -196 909 -206 ct 906 -215 900 -222 893 -226 ct 
885 -230 875 -232 860 -232 ct 839 -232 823 -225 811 -211 ct 799 -197 793 -177 793 -151 ct 
793 0 l  749 0 l  749 -205 l  749 -236 749 -254 748 -261 ct 789 -261 l  789 -260 789 -258 789 -255 ct 
789 -251 790 -247 790 -242 ct 790 -238 790 -229 791 -217 ct 791 -217 l  801 -235 813 -247 826 -255 ct 
839 -262 855 -266 875 -266 ct 904 -266 924 -259 938 -245 ct 951 -230 958 -207 958 -174 ct 
958 0 l  914 0 l  p ef
1057 -132 m  1057 -97 1063 -71 1074 -54 ct 1085 -38 1101 -29 1123 -29 ct 1139 -29 1152 -33 1162 -42 ct 
1172 -50 1179 -63 1181 -81 ct 1225 -78 l  1222 -52 1211 -32 1193 -17 ct 1175 -2 1152 5 1124 5 ct 
1088 5 1060 -7 1041 -30 ct 1022 -53 1012 -86 1012 -131 ct 1012 -175 1022 -208 1041 -231 ct 
1060 -254 1088 -266 1124 -266 ct 1151 -266 1173 -259 1190 -245 ct 1208 -231 1219 -212 1224 -188 ct 
1179 -185 l  1177 -199 1171 -211 1162 -219 ct 1153 -228 1140 -232 1123 -232 ct 
1100 -232 1083 -224 1073 -209 ct 1062 -194 1057 -168 1057 -132 ct p ef
1494 -131 m  1494 -85 1484 -51 1464 -29 ct 1444 -6 1415 5 1376 5 ct 1338 5 1309 -7 1290 -30 ct 
1270 -53 1261 -87 1261 -131 ct 1261 -221 1300 -266 1378 -266 ct 1418 -266 1447 -255 1466 -233 ct 
1485 -211 1494 -177 1494 -131 ct p
1448 -131 m  1448 -167 1443 -193 1432 -209 ct 1422 -226 1404 -234 1378 -234 ct 
1353 -234 1335 -226 1323 -209 ct 1312 -192 1306 -166 1306 -131 ct 1306 -96 1312 -70 1323 -53 ct 
1334 -36 1352 -27 1376 -27 ct 1402 -27 1420 -35 1432 -52 ct 1443 -69 1448 -95 1448 -131 ct 
p ef
pom
0 5502 t 
pom
count op_count sub {pop} repeat countdictstack dict_count sub {end} repeat b4_inc_state restore
%%PageTrailer
%%Trailer
%%EOF
