%!PS-Adobe-3.0 EPSF-3.0 
%%BoundingBox: 0 0 374 136
%%Pages: 0
%%Creator: LibreOffice 5.3
%%Title: none
%%CreationDate: none
%%LanguageLevel: 2
%%EndComments
%%BeginProlog
%%BeginResource: procset SDRes-Prolog 1.0 0
/b4_inc_state save def
/dict_count countdictstack def
/op_count count 1 sub def
userdict begin
0 setgray 0 setlinecap 1 setlinewidth 0 setlinejoin 10 setmiterlimit[] 0 setdash newpath
/languagelevel where {pop languagelevel 1 ne {false setstrokeadjust false setoverprint} if} if
/bdef {bind def} bind def
/c {setgray} bdef
/l {neg lineto} bdef
/rl {neg rlineto} bdef
/lc {setlinecap} bdef
/lj {setlinejoin} bdef
/lw {setlinewidth} bdef
/ml {setmiterlimit} bdef
/ld {setdash} bdef
/m {neg moveto} bdef
/ct {6 2 roll neg 6 2 roll neg 6 2 roll neg curveto} bdef
/r {rotate} bdef
/t {neg translate} bdef
/s {scale} bdef
/sw {show} bdef
/gs {gsave} bdef
/gr {grestore} bdef
/f {findfont dup length dict begin
{1 index /FID ne {def} {pop pop} ifelse} forall /Encoding ISOLatin1Encoding def
currentdict end /NFont exch definefont pop /NFont findfont} bdef
/p {closepath} bdef
/sf {scalefont setfont} bdef
/ef {eofill}bdef
/pc {closepath stroke}bdef
/ps {stroke}bdef
/pum {matrix currentmatrix}bdef
/pom {setmatrix}bdef
/bs {/aString exch def /nXOfs exch def /nWidth exch def currentpoint nXOfs 0 rmoveto pum nWidth aString stringwidth pop div 1 scale aString show pom moveto} bdef
%%EndResource
%%EndProlog
%%BeginSetup
%%EndSetup
%%Page: 1 1
%%BeginPageSetup
%%EndPageSetup
pum
0.02833 0.02832 s 
0 -4801 t
/tm matrix currentmatrix def
tm setmatrix
-3898 -11194 t 
1 1 s 
0.996 c 10398 12795 m  8499 12795 l  8499 11195 l  12298 11195 l  12298 12795 l 
10398 12795 l  p ef
0 lw 1 lj 0.000 c 10398 12794 m  8498 12794 l  8498 11195 l  12298 11195 l 
12298 12794 l  10398 12794 l  pc
pum
9781 12122 t
191 -306 m  153 -306 124 -294 103 -270 ct 82 -246 72 -213 72 -171 ct 72 -129 83 -96 104 -71 ct 
126 -45 156 -33 193 -33 ct 240 -33 276 -56 300 -103 ct 337 -84 l  323 -55 304 -33 278 -18 ct 
253 -3 224 5 190 5 ct 156 5 127 -2 102 -16 ct 77 -30 58 -51 45 -77 ct 32 -103 25 -135 25 -171 ct 
25 -225 40 -267 69 -298 ct 98 -328 139 -344 190 -344 ct 226 -344 256 -336 281 -322 ct 
305 -308 323 -287 334 -260 ct 291 -245 l  283 -265 270 -280 253 -290 ct 235 -301 215 -306 191 -306 ct 
p ef
456 5 m  430 5 410 -2 397 -16 ct 384 -29 377 -48 377 -72 ct 377 -99 386 -120 404 -135 ct 
421 -149 450 -157 489 -158 ct 548 -159 l  548 -173 l  548 -194 543 -209 534 -218 ct 
525 -227 511 -232 492 -232 ct 473 -232 458 -229 450 -222 ct 441 -216 436 -205 434 -191 ct 
389 -195 l  396 -242 431 -265 493 -265 ct 526 -265 550 -257 567 -242 ct 583 -227 592 -206 592 -177 ct 
592 -65 l  592 -52 593 -42 597 -36 ct 600 -29 607 -26 616 -26 ct 620 -26 625 -27 630 -28 ct 
630 -1 l  619 2 608 3 597 3 ct 581 3 569 -1 562 -10 ct 554 -18 550 -32 549 -50 ct 
548 -50 l  537 -30 524 -16 509 -7 ct 495 1 477 5 456 5 ct p
466 -27 m  481 -27 496 -31 508 -38 ct 520 -46 530 -55 537 -68 ct 544 -81 548 -94 548 -107 ct 
548 -128 l  500 -127 l  480 -127 465 -125 454 -121 ct 444 -117 436 -111 430 -103 ct 
424 -95 421 -85 421 -72 ct 421 -58 425 -47 433 -39 ct 441 -31 451 -27 466 -27 ct 
p ef
665 0 m  665 -200 l  665 -218 665 -238 664 -260 ct 705 -260 l  706 -231 707 -213 707 -207 ct 
708 -207 l  714 -229 722 -245 731 -253 ct 740 -261 753 -265 769 -265 ct 775 -265 781 -264 787 -263 ct 
787 -223 l  781 -225 774 -225 764 -225 ct 746 -225 732 -218 723 -202 ct 713 -187 709 -164 709 -136 ct 
709 0 l  665 0 l  p ef
830 0 m  830 -200 l  830 -218 830 -238 829 -260 ct 870 -260 l  871 -231 872 -213 872 -207 ct 
873 -207 l  879 -229 887 -245 896 -253 ct 905 -261 918 -265 934 -265 ct 940 -265 946 -264 952 -263 ct 
952 -223 l  946 -225 939 -225 929 -225 ct 911 -225 897 -218 888 -202 ct 878 -187 874 -164 874 -136 ct 
874 0 l  830 0 l  p ef
1214 -130 m  1214 -85 1204 -51 1184 -28 ct 1164 -6 1135 5 1097 5 ct 1059 5 1030 -7 1011 -30 ct 
991 -53 982 -86 982 -130 ct 982 -220 1021 -265 1098 -265 ct 1138 -265 1168 -254 1186 -232 ct 
1205 -210 1214 -176 1214 -130 ct p
1169 -130 m  1169 -166 1164 -192 1153 -209 ct 1142 -225 1124 -233 1099 -233 ct 
1074 -233 1055 -225 1044 -208 ct 1033 -191 1027 -166 1027 -130 ct 1027 -96 1033 -70 1044 -53 ct 
1055 -36 1073 -27 1097 -27 ct 1123 -27 1141 -35 1152 -52 ct 1163 -69 1169 -95 1169 -130 ct 
p ef
pom
0.996 c 10398 15993 m  8499 15993 l  8499 14394 l  12298 14394 l  12298 15993 l 
10398 15993 l  p ef
0.000 c 10398 15993 m  8498 15993 l  8498 14394 l  12298 14394 l  12298 15993 l 
10398 15993 l  pc
pum
9646 15321 t
191 -306 m  153 -306 124 -294 103 -270 ct 82 -246 72 -213 72 -171 ct 72 -129 83 -96 104 -71 ct 
126 -45 156 -33 193 -33 ct 240 -33 276 -56 300 -103 ct 337 -84 l  323 -55 304 -33 278 -18 ct 
253 -3 224 5 190 5 ct 156 5 127 -2 102 -16 ct 77 -30 58 -51 45 -77 ct 32 -103 25 -135 25 -171 ct 
25 -225 40 -267 69 -298 ct 98 -328 139 -344 190 -344 ct 226 -344 256 -336 281 -322 ct 
305 -308 323 -287 334 -260 ct 291 -245 l  283 -265 270 -280 253 -290 ct 235 -301 215 -306 191 -306 ct 
p ef
432 -216 m  442 -233 453 -245 466 -253 ct 479 -261 496 -265 516 -265 ct 544 -265 565 -258 578 -244 ct 
591 -230 598 -206 598 -173 ct 598 0 l  555 0 l  555 -165 l  555 -183 553 -197 550 -206 ct 
546 -215 541 -221 533 -225 ct 525 -229 515 -232 501 -232 ct 481 -232 464 -225 452 -210 ct 
440 -196 434 -177 434 -153 ct 434 0 l  390 0 l  390 -357 l  434 -357 l  434 -264 l 
434 -254 433 -244 433 -234 ct 432 -223 432 -217 432 -216 ct 432 -216 l  p ef
731 5 m  705 5 685 -2 672 -16 ct 659 -29 652 -48 652 -72 ct 652 -99 661 -120 679 -135 ct 
696 -149 725 -157 764 -158 ct 823 -159 l  823 -173 l  823 -194 818 -209 809 -218 ct 
800 -227 786 -232 767 -232 ct 748 -232 733 -229 725 -222 ct 716 -216 711 -205 709 -191 ct 
664 -195 l  671 -242 706 -265 768 -265 ct 801 -265 825 -257 842 -242 ct 858 -227 867 -206 867 -177 ct 
867 -65 l  867 -52 868 -42 872 -36 ct 875 -29 882 -26 891 -26 ct 895 -26 900 -27 905 -28 ct 
905 -1 l  894 2 883 3 872 3 ct 856 3 844 -1 837 -10 ct 829 -18 825 -32 824 -50 ct 
823 -50 l  812 -30 799 -16 784 -7 ct 770 1 752 5 731 5 ct p
741 -27 m  756 -27 771 -31 783 -38 ct 795 -46 805 -55 812 -68 ct 819 -81 823 -94 823 -107 ct 
823 -128 l  775 -127 l  755 -127 740 -125 729 -121 ct 719 -117 711 -111 705 -103 ct 
699 -95 696 -85 696 -72 ct 696 -58 700 -47 708 -39 ct 716 -31 726 -27 741 -27 ct 
p ef
1135 -72 m  1135 -47 1125 -28 1107 -15 ct 1088 -2 1062 5 1029 5 ct 997 5 972 0 954 -11 ct 
936 -22 925 -38 920 -61 ct 958 -68 l  962 -54 969 -44 981 -38 ct 992 -31 1008 -28 1029 -28 ct 
1051 -28 1067 -31 1077 -38 ct 1087 -45 1093 -55 1093 -68 ct 1093 -79 1089 -87 1082 -93 ct 
1075 -100 1064 -105 1048 -109 ct 1017 -117 l  992 -124 974 -130 964 -136 ct 
953 -142 945 -150 939 -159 ct 933 -168 930 -178 930 -191 ct 930 -215 939 -233 955 -245 ct 
972 -258 997 -264 1029 -264 ct 1058 -264 1081 -259 1098 -249 ct 1115 -239 1126 -223 1130 -200 ct 
1091 -195 l  1089 -207 1082 -216 1072 -222 ct 1061 -228 1047 -231 1029 -231 ct 
1010 -231 995 -228 986 -222 ct 977 -216 972 -207 972 -195 ct 972 -188 974 -182 978 -177 ct 
982 -172 988 -168 995 -165 ct 1003 -162 1019 -157 1043 -151 ct 1066 -145 1082 -140 1092 -135 ct 
1102 -130 1110 -125 1116 -119 ct 1122 -113 1127 -106 1130 -98 ct 1133 -90 1135 -82 1135 -72 ct 
p ef
1380 -72 m  1380 -47 1370 -28 1352 -15 ct 1333 -2 1307 5 1274 5 ct 1242 5 1217 0 1199 -11 ct 
1181 -22 1170 -38 1165 -61 ct 1203 -68 l  1207 -54 1214 -44 1226 -38 ct 1237 -31 1253 -28 1274 -28 ct 
1296 -28 1312 -31 1322 -38 ct 1332 -45 1338 -55 1338 -68 ct 1338 -79 1334 -87 1327 -93 ct 
1320 -100 1309 -105 1293 -109 ct 1262 -117 l  1237 -124 1219 -130 1209 -136 ct 
1198 -142 1190 -150 1184 -159 ct 1178 -168 1175 -178 1175 -191 ct 1175 -215 1184 -233 1200 -245 ct 
1217 -258 1242 -264 1274 -264 ct 1303 -264 1326 -259 1343 -249 ct 1360 -239 1371 -223 1375 -200 ct 
1336 -195 l  1334 -207 1327 -216 1317 -222 ct 1306 -228 1292 -231 1274 -231 ct 
1255 -231 1240 -228 1231 -222 ct 1222 -216 1217 -207 1217 -195 ct 1217 -188 1219 -182 1223 -177 ct 
1227 -172 1233 -168 1240 -165 ct 1248 -162 1264 -157 1288 -151 ct 1311 -145 1327 -140 1337 -135 ct 
1347 -130 1355 -125 1361 -119 ct 1367 -113 1372 -106 1375 -98 ct 1378 -90 1380 -82 1380 -72 ct 
p ef
1430 -316 m  1430 -357 l  1473 -357 l  1473 -316 l  1430 -316 l  p
1430 0 m  1430 -260 l  1473 -260 l  1473 0 l  1430 0 l  p ef
pom
0.996 c 5799 15993 m  3899 15993 l  3899 14394 l  7699 14394 l  7699 15993 l 
5799 15993 l  p ef
0.000 c 5799 15993 m  3899 15993 l  3899 14394 l  7698 14394 l  7698 15993 l 
5799 15993 l  pc
pum
5168 15321 t
329 0 m  329 -226 l  329 -251 330 -275 331 -298 ct 323 -270 316 -247 310 -231 ct 
222 0 l  190 0 l  101 -231 l  88 -272 l  80 -298 l  80 -272 l  81 -226 l 
81 0 l  40 0 l  40 -339 l  101 -339 l  191 -104 l  194 -94 197 -84 200 -74 ct 
203 -63 205 -55 206 -50 ct 208 -56 210 -66 214 -79 ct 218 -92 221 -101 223 -104 ct 
311 -339 l  370 -339 l  370 0 l  329 0 l  p ef
664 -130 m  664 -85 654 -51 634 -28 ct 614 -6 585 5 547 5 ct 509 5 480 -7 461 -30 ct 
441 -53 432 -86 432 -130 ct 432 -220 471 -265 548 -265 ct 588 -265 618 -254 636 -232 ct 
655 -210 664 -176 664 -130 ct p
619 -130 m  619 -166 614 -192 603 -209 ct 592 -225 574 -233 549 -233 ct 524 -233 505 -225 494 -208 ct 
483 -191 477 -166 477 -130 ct 477 -96 483 -70 494 -53 ct 505 -36 523 -27 547 -27 ct 
573 -27 591 -35 602 -52 ct 613 -69 619 -95 619 -130 ct p ef
819 -2 m  805 2 790 4 776 4 ct 741 4 724 -16 724 -55 ct 724 -229 l  693 -229 l 
693 -260 l  725 -260 l  738 -318 l  767 -318 l  767 -260 l  815 -260 l 
815 -229 l  767 -229 l  767 -64 l  767 -52 769 -43 773 -38 ct 777 -33 784 -30 794 -30 ct 
800 -30 808 -32 819 -34 ct 819 -2 l  p ef
1074 -130 m  1074 -85 1064 -51 1044 -28 ct 1024 -6 995 5 957 5 ct 919 5 890 -7 871 -30 ct 
851 -53 842 -86 842 -130 ct 842 -220 881 -265 958 -265 ct 998 -265 1028 -254 1046 -232 ct 
1065 -210 1074 -176 1074 -130 ct p
1029 -130 m  1029 -166 1024 -192 1013 -209 ct 1002 -225 984 -233 959 -233 ct 
934 -233 915 -225 904 -208 ct 893 -191 887 -166 887 -130 ct 887 -96 893 -70 904 -53 ct 
915 -36 933 -27 957 -27 ct 983 -27 1001 -35 1012 -52 ct 1023 -69 1029 -95 1029 -130 ct 
p ef
1130 0 m  1130 -200 l  1130 -218 1130 -238 1129 -260 ct 1170 -260 l  1171 -231 1172 -213 1172 -207 ct 
1173 -207 l  1179 -229 1187 -245 1196 -253 ct 1205 -261 1218 -265 1234 -265 ct 
1240 -265 1246 -264 1252 -263 ct 1252 -223 l  1246 -225 1239 -225 1229 -225 ct 
1211 -225 1197 -218 1188 -202 ct 1178 -187 1174 -164 1174 -136 ct 1174 0 l  1130 0 l 
p ef
pom
0.996 c 15198 15993 m  13298 15993 l  13298 14394 l  17097 14394 l  17097 15993 l 
15198 15993 l  p ef
0.000 c 15197 15993 m  13297 15993 l  13297 14394 l  17097 14394 l  17097 15993 l 
15197 15993 l  pc
pum
14500 15321 t
303 -237 m  303 -205 292 -179 271 -160 ct 250 -141 222 -132 186 -132 ct 86 -132 l 
86 0 l  40 0 l  40 -339 l  183 -339 l  221 -339 251 -330 272 -312 ct 292 -294 303 -269 303 -237 ct 
p
257 -236 m  257 -280 230 -302 178 -302 ct 86 -302 l  86 -168 l  180 -168 l 
231 -168 257 -191 257 -236 ct p ef
525 0 m  525 -165 l  525 -182 523 -195 520 -205 ct 516 -214 511 -221 503 -225 ct 
496 -229 485 -232 471 -232 ct 450 -232 434 -224 422 -210 ct 410 -196 404 -176 404 -151 ct 
404 0 l  360 0 l  360 -205 l  360 -235 360 -253 359 -260 ct 400 -260 l  400 -259 400 -257 400 -254 ct 
400 -250 401 -246 401 -242 ct 401 -237 401 -228 402 -216 ct 402 -216 l  412 -234 424 -246 437 -254 ct 
450 -261 466 -265 486 -265 ct 514 -265 535 -258 548 -244 ct 562 -230 568 -206 568 -173 ct 
568 0 l  525 0 l  p ef
667 -121 m  667 -91 674 -68 686 -52 ct 698 -36 716 -27 740 -27 ct 759 -27 774 -31 785 -39 ct 
797 -46 804 -56 808 -67 ct 846 -57 l  831 -16 795 5 740 5 ct 702 5 672 -6 652 -29 ct 
632 -52 622 -86 622 -132 ct 622 -175 632 -208 652 -231 ct 672 -254 701 -265 738 -265 ct 
815 -265 853 -219 853 -127 ct 853 -121 l  667 -121 l  p
809 -154 m  806 -181 799 -201 788 -214 ct 776 -227 759 -233 738 -233 ct 717 -233 700 -226 688 -212 ct 
676 -198 669 -179 668 -154 ct 809 -154 l  p ef
952 -260 m  952 -95 l  952 -78 953 -65 957 -55 ct 960 -46 965 -39 973 -35 ct 
980 -31 991 -28 1005 -28 ct 1026 -28 1043 -36 1055 -50 ct 1067 -64 1073 -84 1073 -109 ct 
1073 -260 l  1116 -260 l  1116 -55 l  1116 -25 1116 -7 1117 0 ct 1077 0 l 
1076 -1 1076 -3 1076 -6 ct 1076 -10 1076 -14 1075 -18 ct 1075 -23 1075 -32 1075 -44 ct 
1074 -44 l  1064 -26 1052 -14 1039 -6 ct 1026 1 1010 5 991 5 ct 962 5 941 -2 928 -16 ct 
915 -30 908 -54 908 -87 ct 908 -260 l  952 -260 l  p ef
1380 -72 m  1380 -47 1370 -28 1352 -15 ct 1333 -2 1307 5 1274 5 ct 1242 5 1217 0 1199 -11 ct 
1181 -22 1170 -38 1165 -61 ct 1203 -68 l  1207 -54 1214 -44 1226 -38 ct 1237 -31 1253 -28 1274 -28 ct 
1296 -28 1312 -31 1322 -38 ct 1332 -45 1338 -55 1338 -68 ct 1338 -79 1334 -87 1327 -93 ct 
1320 -100 1309 -105 1293 -109 ct 1262 -117 l  1237 -124 1219 -130 1209 -136 ct 
1198 -142 1190 -150 1184 -159 ct 1178 -168 1175 -178 1175 -191 ct 1175 -215 1184 -233 1200 -245 ct 
1217 -258 1242 -264 1274 -264 ct 1303 -264 1326 -259 1343 -249 ct 1360 -239 1371 -223 1375 -200 ct 
1336 -195 l  1334 -207 1327 -216 1317 -222 ct 1306 -228 1292 -231 1274 -231 ct 
1255 -231 1240 -228 1231 -222 ct 1222 -216 1217 -207 1217 -195 ct 1217 -188 1219 -182 1223 -177 ct 
1227 -172 1233 -168 1240 -165 ct 1248 -162 1264 -157 1288 -151 ct 1311 -145 1327 -140 1337 -135 ct 
1347 -130 1355 -125 1361 -119 ct 1367 -113 1372 -106 1375 -98 ct 1378 -90 1380 -82 1380 -72 ct 
p ef
pom
10398 12794 m  10398 14394 l  ps
10398 12794 m  5799 14394 l  ps
10398 12794 m  15197 14394 l  ps
0 4801 t 
pom
count op_count sub {pop} repeat countdictstack dict_count sub {end} repeat b4_inc_state restore
%%PageTrailer
%%Trailer
%%EOF
