%!PS-Adobe-3.0 EPSF-3.0 
%%BoundingBox: 0 0 423 117
%%Pages: 0
%%Creator: LibreOffice 5.3
%%Title: none
%%CreationDate: none
%%LanguageLevel: 2
%%EndComments
%%BeginProlog
%%BeginResource: procset SDRes-Prolog 1.0 0
/b4_inc_state save def
/dict_count countdictstack def
/op_count count 1 sub def
userdict begin
0 setgray 0 setlinecap 1 setlinewidth 0 setlinejoin 10 setmiterlimit[] 0 setdash newpath
/languagelevel where {pop languagelevel 1 ne {false setstrokeadjust false setoverprint} if} if
/bdef {bind def} bind def
/c {setgray} bdef
/l {neg lineto} bdef
/rl {neg rlineto} bdef
/lc {setlinecap} bdef
/lj {setlinejoin} bdef
/lw {setlinewidth} bdef
/ml {setmiterlimit} bdef
/ld {setdash} bdef
/m {neg moveto} bdef
/ct {6 2 roll neg 6 2 roll neg 6 2 roll neg curveto} bdef
/r {rotate} bdef
/t {neg translate} bdef
/s {scale} bdef
/sw {show} bdef
/gs {gsave} bdef
/gr {grestore} bdef
/f {findfont dup length dict begin
{1 index /FID ne {def} {pop pop} ifelse} forall /Encoding ISOLatin1Encoding def
currentdict end /NFont exch definefont pop /NFont findfont} bdef
/p {closepath} bdef
/sf {scalefont setfont} bdef
/ef {eofill}bdef
/pc {closepath stroke}bdef
/ps {stroke}bdef
/pum {matrix currentmatrix}bdef
/pom {setmatrix}bdef
/bs {/aString exch def /nXOfs exch def /nWidth exch def currentpoint nXOfs 0 rmoveto pum nWidth aString stringwidth pop div 1 scale aString show pom moveto} bdef
%%EndResource
%%EndProlog
%%BeginSetup
%%EndSetup
%%Page: 1 1
%%BeginPageSetup
%%EndPageSetup
pum
0.02837 0.02846 s 
0 -4111 t
/tm matrix currentmatrix def
tm setmatrix
-6990 -10994 t 
1 1 s 
0.996 c 9699 10995 m  10039 10995 10299 11255 10299 11594 ct 10299 11934 10039 12194 9699 12194 ct 
9359 12194 9099 11934 9099 11594 ct 9099 11255 9359 10995 9699 10995 ct p
9099 10995 m  9099 10995 l  p
10300 12195 m  10300 12195 l  p ef
0 lw 1 lj 0.000 c 9698 10994 m  10038 10994 10298 11254 10298 11594 ct 10298 11934 10038 12194 9698 12194 ct 
9358 12194 9098 11934 9098 11594 ct 9098 11254 9358 10994 9698 10994 ct pc
9098 10994 m  9098 10994 l  pc
10299 12195 m  10299 12195 l  pc
pum
9422 11654 t
256 0 m  256 -213 l  256 -235 254 -252 249 -264 ct 245 -277 238 -285 229 -291 ct 
219 -296 205 -299 187 -299 ct 160 -299 139 -290 123 -271 ct 108 -253 100 -227 100 -195 ct 
100 0 l  44 0 l  44 -264 l  44 -303 43 -327 42 -336 ct 95 -336 l  95 -335 95 -332 96 -327 ct 
96 -323 96 -318 96 -312 ct 97 -306 97 -295 97 -278 ct 98 -278 l  111 -302 126 -318 143 -328 ct 
160 -337 181 -342 206 -342 ct 242 -342 269 -333 286 -315 ct 303 -296 312 -266 312 -224 ct 
312 0 l  256 0 l  p ef
pom
pum
9773 11921 t
28 0 m  28 -27 l  93 -27 l  93 -222 l  35 -181 l  35 -212 l  95 -253 l 
125 -253 l  125 -27 l  187 -27 l  187 0 l  28 0 l  p ef
pom
0.996 c 7599 13893 m  7939 13893 8199 14153 8199 14493 ct 8199 14833 7939 15093 7599 15093 ct 
7259 15093 6999 14833 6999 14493 ct 6999 14153 7259 13893 7599 13893 ct p
6999 13893 m  6999 13893 l  p
8200 15094 m  8200 15094 l  p ef
17.99441 lw 0.000 c 7598 13893 m  7938 13893 8198 14153 8198 14492 ct 8198 14832 7938 15092 7598 15092 ct 
7259 15092 6999 14832 6999 14492 ct 6999 14153 7259 13893 7598 13893 ct pc
6999 13893 m  6999 13893 l  pc
8199 15093 m  8199 15093 l  pc
pum
7322 14553 t
256 0 m  256 -213 l  256 -235 254 -252 249 -264 ct 245 -277 238 -285 229 -291 ct 
219 -296 205 -299 187 -299 ct 160 -299 139 -290 123 -271 ct 108 -253 100 -227 100 -195 ct 
100 0 l  44 0 l  44 -264 l  44 -303 43 -327 42 -336 ct 95 -336 l  95 -335 95 -332 96 -327 ct 
96 -323 96 -318 96 -312 ct 97 -306 97 -295 97 -278 ct 98 -278 l  111 -302 126 -318 143 -328 ct 
160 -337 181 -342 206 -342 ct 242 -342 269 -333 286 -315 ct 303 -296 312 -266 312 -224 ct 
312 0 l  256 0 l  p ef
pom
pum
7673 14820 t
19 0 m  19 -23 l  25 -37 32 -49 41 -60 ct 50 -71 59 -80 69 -89 ct 78 -98 88 -106 97 -113 ct 
107 -121 116 -128 123 -136 ct 131 -143 137 -151 142 -159 ct 147 -167 149 -176 149 -187 ct 
149 -200 145 -211 137 -219 ct 129 -227 117 -230 103 -230 ct 89 -230 78 -227 69 -219 ct 
60 -212 55 -201 53 -188 ct 20 -191 l  22 -211 31 -227 46 -239 ct 61 -251 80 -257 103 -257 ct 
128 -257 148 -251 162 -239 ct 175 -227 182 -210 182 -188 ct 182 -178 180 -168 175 -158 ct 
171 -149 164 -139 155 -129 ct 147 -120 130 -104 105 -84 ct 91 -73 80 -63 72 -54 ct 
64 -45 58 -36 54 -27 ct 186 -27 l  186 0 l  19 0 l  p ef
pom
0.996 c 11698 13893 m  12038 13893 12298 14153 12298 14493 ct 12298 14833 12038 15093 11698 15093 ct 
11358 15093 11099 14833 11099 14493 ct 11099 14153 11358 13893 11698 13893 ct 
p
11099 13893 m  11099 13893 l  p
12299 15094 m  12299 15094 l  p ef
0 lw 0.000 c 11698 13893 m  12038 13893 12298 14153 12298 14492 ct 12298 14832 12038 15092 11698 15092 ct 
11358 15092 11098 14832 11098 14492 ct 11098 14153 11358 13893 11698 13893 ct 
pc
11098 13893 m  11098 13893 l  pc
12299 15093 m  12299 15093 l  pc
pum
11421 14553 t
256 0 m  256 -213 l  256 -235 254 -252 249 -264 ct 245 -277 238 -285 229 -291 ct 
219 -296 205 -299 187 -299 ct 160 -299 139 -290 123 -271 ct 108 -253 100 -227 100 -195 ct 
100 0 l  44 0 l  44 -264 l  44 -303 43 -327 42 -336 ct 95 -336 l  95 -335 95 -332 96 -327 ct 
96 -323 96 -318 96 -312 ct 97 -306 97 -295 97 -278 ct 98 -278 l  111 -302 126 -318 143 -328 ct 
160 -337 181 -342 206 -342 ct 242 -342 269 -333 286 -315 ct 303 -296 312 -266 312 -224 ct 
312 0 l  256 0 l  p ef
pom
pum
11772 14820 t
189 -69 m  189 -46 181 -28 166 -15 ct 151 -2 130 4 103 4 ct 77 4 57 -2 41 -13 ct 
26 -25 17 -42 14 -64 ct 47 -67 l  52 -38 70 -23 103 -23 ct 119 -23 132 -27 141 -35 ct 
150 -43 155 -55 155 -70 ct 155 -84 150 -95 139 -102 ct 128 -110 113 -114 93 -114 ct 
75 -114 l  75 -142 l  92 -142 l  110 -142 124 -146 134 -154 ct 143 -161 148 -172 148 -186 ct 
148 -200 144 -210 136 -218 ct 128 -226 117 -230 101 -230 ct 87 -230 75 -226 66 -219 ct 
57 -212 52 -201 51 -188 ct 18 -190 l  21 -211 29 -227 44 -239 ct 59 -251 78 -257 101 -257 ct 
127 -257 146 -251 160 -239 ct 174 -227 181 -210 181 -189 ct 181 -173 177 -160 168 -150 ct 
159 -140 146 -133 128 -129 ct 128 -128 l  147 -126 162 -120 173 -109 ct 183 -99 189 -85 189 -69 ct 
p ef
pom
9273 12019 m  7598 13893 l  ps
10123 12019 m  11698 13893 l  ps
0.996 c 19294 10996 m  19634 10996 19894 11256 19894 11595 ct 19894 11935 19634 12195 19294 12195 ct 
18954 12195 18694 11935 18694 11595 ct 18694 11256 18954 10996 19294 10996 ct 
p
18694 10996 m  18694 10996 l  p
19895 12196 m  19895 12196 l  p ef
0.000 c 19294 10995 m  19634 10995 19894 11255 19894 11595 ct 19894 11935 19634 12195 19294 12195 ct 
18954 12195 18694 11935 18694 11595 ct 18694 11255 18954 10995 19294 10995 ct 
pc
18694 10995 m  18694 10995 l  pc
19895 12196 m  19895 12196 l  pc
pum
19017 11655 t
256 0 m  256 -213 l  256 -235 254 -252 249 -264 ct 245 -277 238 -285 229 -291 ct 
219 -296 205 -299 187 -299 ct 160 -299 139 -290 123 -271 ct 108 -253 100 -227 100 -195 ct 
100 0 l  44 0 l  44 -264 l  44 -303 43 -327 42 -336 ct 95 -336 l  95 -335 95 -332 96 -327 ct 
96 -323 96 -318 96 -312 ct 97 -306 97 -295 97 -278 ct 98 -278 l  111 -302 126 -318 143 -328 ct 
160 -337 181 -342 206 -342 ct 242 -342 269 -333 286 -315 ct 303 -296 312 -266 312 -224 ct 
312 0 l  256 0 l  p ef
pom
pum
19368 11922 t
28 0 m  28 -27 l  93 -27 l  93 -222 l  35 -181 l  35 -212 l  95 -253 l 
125 -253 l  125 -27 l  187 -27 l  187 0 l  28 0 l  p ef
pom
0.996 c 17195 13894 m  17535 13894 17795 14154 17795 14494 ct 17795 14834 17535 15094 17195 15094 ct 
16855 15094 16595 14834 16595 14494 ct 16595 14154 16855 13894 17195 13894 ct 
p
16595 13894 m  16595 13894 l  p
17796 15095 m  17796 15095 l  p ef
17.99441 lw 0.000 c 17194 13894 m  17534 13894 17794 14154 17794 14493 ct 
17794 14833 17534 15093 17194 15093 ct 16854 15093 16594 14833 16594 14493 ct 
16594 14154 16854 13894 17194 13894 ct pc
16594 13894 m  16594 13894 l  pc
17795 15094 m  17795 15094 l  pc
pum
16918 14554 t
256 0 m  256 -213 l  256 -235 254 -252 249 -264 ct 245 -277 238 -285 229 -291 ct 
219 -296 205 -299 187 -299 ct 160 -299 139 -290 123 -271 ct 108 -253 100 -227 100 -195 ct 
100 0 l  44 0 l  44 -264 l  44 -303 43 -327 42 -336 ct 95 -336 l  95 -335 95 -332 96 -327 ct 
96 -323 96 -318 96 -312 ct 97 -306 97 -295 97 -278 ct 98 -278 l  111 -302 126 -318 143 -328 ct 
160 -337 181 -342 206 -342 ct 242 -342 269 -333 286 -315 ct 303 -296 312 -266 312 -224 ct 
312 0 l  256 0 l  p ef
pom
pum
17269 14821 t
189 -69 m  189 -46 181 -28 166 -15 ct 151 -2 130 4 103 4 ct 77 4 57 -2 41 -13 ct 
26 -25 17 -42 14 -64 ct 47 -67 l  52 -38 70 -23 103 -23 ct 119 -23 132 -27 141 -35 ct 
150 -43 155 -55 155 -70 ct 155 -84 150 -95 139 -102 ct 128 -110 113 -114 93 -114 ct 
75 -114 l  75 -142 l  92 -142 l  110 -142 124 -146 134 -154 ct 143 -161 148 -172 148 -186 ct 
148 -200 144 -210 136 -218 ct 128 -226 117 -230 101 -230 ct 87 -230 75 -226 66 -219 ct 
57 -212 52 -201 51 -188 ct 18 -190 l  21 -211 29 -227 44 -239 ct 59 -251 78 -257 101 -257 ct 
127 -257 146 -251 160 -239 ct 174 -227 181 -210 181 -189 ct 181 -173 177 -160 168 -150 ct 
159 -140 146 -133 128 -129 ct 128 -128 l  147 -126 162 -120 173 -109 ct 183 -99 189 -85 189 -69 ct 
p ef
pom
0.996 c 21294 13894 m  21634 13894 21894 14154 21894 14494 ct 21894 14834 21634 15094 21294 15094 ct 
20954 15094 20694 14834 20694 14494 ct 20694 14154 20954 13894 21294 13894 ct 
p
20694 13894 m  20694 13894 l  p
21895 15095 m  21895 15095 l  p ef
0 lw 0.000 c 21294 13894 m  21634 13894 21894 14154 21894 14493 ct 21894 14833 21634 15093 21294 15093 ct 
20954 15093 20694 14833 20694 14493 ct 20694 14154 20954 13894 21294 13894 ct 
pc
20694 13894 m  20694 13894 l  pc
21895 15094 m  21895 15094 l  pc
pum
21017 14554 t
256 0 m  256 -213 l  256 -235 254 -252 249 -264 ct 245 -277 238 -285 229 -291 ct 
219 -296 205 -299 187 -299 ct 160 -299 139 -290 123 -271 ct 108 -253 100 -227 100 -195 ct 
100 0 l  44 0 l  44 -264 l  44 -303 43 -327 42 -336 ct 95 -336 l  95 -335 95 -332 96 -327 ct 
96 -323 96 -318 96 -312 ct 97 -306 97 -295 97 -278 ct 98 -278 l  111 -302 126 -318 143 -328 ct 
160 -337 181 -342 206 -342 ct 242 -342 269 -333 286 -315 ct 303 -296 312 -266 312 -224 ct 
312 0 l  256 0 l  p ef
pom
pum
21368 14821 t
19 0 m  19 -23 l  25 -37 32 -49 41 -60 ct 50 -71 59 -80 69 -89 ct 78 -98 88 -106 97 -113 ct 
107 -121 116 -128 123 -136 ct 131 -143 137 -151 142 -159 ct 147 -167 149 -176 149 -187 ct 
149 -200 145 -211 137 -219 ct 129 -227 117 -230 103 -230 ct 89 -230 78 -227 69 -219 ct 
60 -212 55 -201 53 -188 ct 20 -191 l  22 -211 31 -227 46 -239 ct 61 -251 80 -257 103 -257 ct 
128 -257 148 -251 162 -239 ct 175 -227 182 -210 182 -188 ct 182 -178 180 -168 175 -158 ct 
171 -149 164 -139 155 -129 ct 147 -120 130 -104 105 -84 ct 91 -73 80 -63 72 -54 ct 
64 -45 58 -36 54 -27 ct 186 -27 l  186 0 l  19 0 l  p ef
pom
18869 12020 m  17194 13894 l  ps
19719 12020 m  21294 13894 l  ps
0 4111 t 
pom
count op_count sub {pop} repeat countdictstack dict_count sub {end} repeat b4_inc_state restore
%%PageTrailer
%%Trailer
%%EOF
