%!PS-Adobe-3.0 EPSF-3.0 
%%BoundingBox: 0 0 215 196
%%Pages: 0
%%Creator: LibreOffice 5.3
%%Title: none
%%CreationDate: none
%%LanguageLevel: 2
%%EndComments
%%BeginProlog
%%BeginResource: procset SDRes-Prolog 1.0 0
/b4_inc_state save def
/dict_count countdictstack def
/op_count count 1 sub def
userdict begin
0 setgray 0 setlinecap 1 setlinewidth 0 setlinejoin 10 setmiterlimit[] 0 setdash newpath
/languagelevel where {pop languagelevel 1 ne {false setstrokeadjust false setoverprint} if} if
/bdef {bind def} bind def
/c {setgray} bdef
/l {neg lineto} bdef
/rl {neg rlineto} bdef
/lc {setlinecap} bdef
/lj {setlinejoin} bdef
/lw {setlinewidth} bdef
/ml {setmiterlimit} bdef
/ld {setdash} bdef
/m {neg moveto} bdef
/ct {6 2 roll neg 6 2 roll neg 6 2 roll neg curveto} bdef
/r {rotate} bdef
/t {neg translate} bdef
/s {scale} bdef
/sw {show} bdef
/gs {gsave} bdef
/gr {grestore} bdef
/f {findfont dup length dict begin
{1 index /FID ne {def} {pop pop} ifelse} forall /Encoding ISOLatin1Encoding def
currentdict end /NFont exch definefont pop /NFont findfont} bdef
/p {closepath} bdef
/sf {scalefont setfont} bdef
/ef {eofill}bdef
/pc {closepath stroke}bdef
/ps {stroke}bdef
/pum {matrix currentmatrix}bdef
/pom {setmatrix}bdef
/bs {/aString exch def /nXOfs exch def /nWidth exch def currentpoint nXOfs 0 rmoveto pum nWidth aString stringwidth pop div 1 scale aString show pom moveto} bdef
%%EndResource
%%EndProlog
%%BeginSetup
%%EndSetup
%%Page: 1 1
%%BeginPageSetup
%%EndPageSetup
pum
0.02828 0.02838 s 
0 -6904 t
/tm matrix currentmatrix def
tm setmatrix
-4700 -10996 t 
1 1 s 
0.996 c 9697 10997 m  10037 10997 10297 11257 10297 11597 ct 10297 11937 10037 12196 9697 12196 ct 
9358 12196 9098 11937 9098 11597 ct 9098 11257 9358 10997 9697 10997 ct p
9098 10997 m  9098 10997 l  p
10298 12197 m  10298 12197 l  p ef
0 lw 1 lj 0.000 c 9697 10996 m  10037 10996 10297 11256 10297 11596 ct 10297 11936 10037 12196 9697 12196 ct 
9357 12196 9097 11936 9097 11596 ct 9097 11256 9357 10996 9697 10996 ct pc
9097 10996 m  9097 10996 l  pc
10298 12197 m  10298 12197 l  pc
pum
9421 11657 t
256 0 m  256 -213 l  256 -235 254 -252 249 -264 ct 245 -277 238 -285 229 -291 ct 
219 -296 205 -299 187 -299 ct 160 -299 139 -290 123 -271 ct 108 -253 100 -227 100 -195 ct 
100 0 l  44 0 l  44 -264 l  44 -303 43 -327 42 -336 ct 95 -336 l  95 -335 95 -332 96 -327 ct 
96 -323 96 -318 96 -312 ct 97 -306 97 -295 97 -278 ct 98 -278 l  111 -302 126 -318 143 -328 ct 
160 -337 181 -342 206 -342 ct 242 -342 269 -333 286 -315 ct 303 -296 312 -266 312 -224 ct 
312 0 l  256 0 l  p ef
pom
pum
9771 11924 t
28 0 m  28 -27 l  93 -27 l  93 -222 l  35 -181 l  35 -212 l  95 -253 l 
125 -253 l  125 -27 l  187 -27 l  187 0 l  28 0 l  p ef
pom
0.996 c 7598 13896 m  7938 13896 8198 14156 8198 14496 ct 8198 14836 7938 15096 7598 15096 ct 
7258 15096 6998 14836 6998 14496 ct 6998 14156 7258 13896 7598 13896 ct p
6998 13896 m  6998 13896 l  p
8199 15097 m  8199 15097 l  p ef
17.99502 lw 0.000 c 7598 13895 m  7937 13895 8197 14155 8197 14495 ct 8197 14835 7937 15095 7598 15095 ct 
7258 15095 6998 14835 6998 14495 ct 6998 14155 7258 13895 7598 13895 ct pc
6998 13895 m  6998 13895 l  pc
8198 15096 m  8198 15096 l  pc
pum
7321 14556 t
256 0 m  256 -213 l  256 -235 254 -252 249 -264 ct 245 -277 238 -285 229 -291 ct 
219 -296 205 -299 187 -299 ct 160 -299 139 -290 123 -271 ct 108 -253 100 -227 100 -195 ct 
100 0 l  44 0 l  44 -264 l  44 -303 43 -327 42 -336 ct 95 -336 l  95 -335 95 -332 96 -327 ct 
96 -323 96 -318 96 -312 ct 97 -306 97 -295 97 -278 ct 98 -278 l  111 -302 126 -318 143 -328 ct 
160 -337 181 -342 206 -342 ct 242 -342 269 -333 286 -315 ct 303 -296 312 -266 312 -224 ct 
312 0 l  256 0 l  p ef
pom
pum
7672 14823 t
19 0 m  19 -23 l  25 -37 32 -49 41 -60 ct 50 -71 59 -80 69 -89 ct 78 -98 88 -106 97 -113 ct 
107 -121 116 -128 123 -136 ct 131 -143 137 -151 142 -159 ct 147 -167 149 -176 149 -187 ct 
149 -200 145 -211 137 -219 ct 129 -227 117 -230 103 -230 ct 89 -230 78 -227 69 -219 ct 
60 -212 55 -201 53 -188 ct 20 -191 l  22 -211 31 -227 46 -239 ct 61 -251 80 -257 103 -257 ct 
128 -257 148 -251 162 -239 ct 175 -227 182 -210 182 -188 ct 182 -178 180 -168 175 -158 ct 
171 -149 164 -139 155 -129 ct 147 -120 130 -104 105 -84 ct 91 -73 80 -63 72 -54 ct 
64 -45 58 -36 54 -27 ct 186 -27 l  186 0 l  19 0 l  p ef
pom
0.996 c 11697 13896 m  12037 13896 12297 14156 12297 14496 ct 12297 14836 12037 15096 11697 15096 ct 
11357 15096 11097 14836 11097 14496 ct 11097 14156 11357 13896 11697 13896 ct 
p
11097 13896 m  11097 13896 l  p
12298 15097 m  12298 15097 l  p ef
0 lw 0.000 c 11696 13895 m  12036 13895 12296 14155 12296 14495 ct 12296 14835 12036 15095 11696 15095 ct 
11357 15095 11097 14835 11097 14495 ct 11097 14155 11357 13895 11696 13895 ct 
pc
11097 13895 m  11097 13895 l  pc
12297 15096 m  12297 15096 l  pc
pum
11420 14556 t
256 0 m  256 -213 l  256 -235 254 -252 249 -264 ct 245 -277 238 -285 229 -291 ct 
219 -296 205 -299 187 -299 ct 160 -299 139 -290 123 -271 ct 108 -253 100 -227 100 -195 ct 
100 0 l  44 0 l  44 -264 l  44 -303 43 -327 42 -336 ct 95 -336 l  95 -335 95 -332 96 -327 ct 
96 -323 96 -318 96 -312 ct 97 -306 97 -295 97 -278 ct 98 -278 l  111 -302 126 -318 143 -328 ct 
160 -337 181 -342 206 -342 ct 242 -342 269 -333 286 -315 ct 303 -296 312 -266 312 -224 ct 
312 0 l  256 0 l  p ef
pom
pum
11771 14823 t
189 -69 m  189 -46 181 -28 166 -15 ct 151 -2 130 4 103 4 ct 77 4 57 -2 41 -13 ct 
26 -25 17 -42 14 -64 ct 47 -67 l  52 -38 70 -23 103 -23 ct 119 -23 132 -27 141 -35 ct 
150 -43 155 -55 155 -70 ct 155 -84 150 -95 139 -102 ct 128 -110 113 -114 93 -114 ct 
75 -114 l  75 -142 l  92 -142 l  110 -142 124 -146 134 -154 ct 143 -161 148 -172 148 -186 ct 
148 -200 144 -210 136 -218 ct 128 -226 117 -230 101 -230 ct 87 -230 75 -226 66 -219 ct 
57 -212 52 -201 51 -188 ct 18 -190 l  21 -211 29 -227 44 -239 ct 59 -251 78 -257 101 -257 ct 
127 -257 146 -251 160 -239 ct 174 -227 181 -210 181 -189 ct 181 -173 177 -160 168 -150 ct 
159 -140 146 -133 128 -129 ct 128 -128 l  147 -126 162 -120 173 -109 ct 183 -99 189 -85 189 -69 ct 
p ef
pom
0.996 c 7499 16696 m  7839 16696 8099 16956 8099 17296 ct 8099 17636 7839 17896 7499 17896 ct 
7159 17896 6899 17636 6899 17296 ct 6899 16956 7159 16696 7499 16696 ct p
6899 16696 m  6899 16696 l  p
8100 17897 m  8100 17897 l  p ef
0.000 c 7499 16696 m  7838 16696 8098 16956 8098 17295 ct 8098 17635 7838 17895 7499 17895 ct 
7159 17895 6899 17635 6899 17295 ct 6899 16956 7159 16696 7499 16696 ct pc
6899 16696 m  6899 16696 l  pc
8099 17896 m  8099 17896 l  pc
pum
7222 17356 t
256 0 m  256 -213 l  256 -235 254 -252 249 -264 ct 245 -277 238 -285 229 -291 ct 
219 -296 205 -299 187 -299 ct 160 -299 139 -290 123 -271 ct 108 -253 100 -227 100 -195 ct 
100 0 l  44 0 l  44 -264 l  44 -303 43 -327 42 -336 ct 95 -336 l  95 -335 95 -332 96 -327 ct 
96 -323 96 -318 96 -312 ct 97 -306 97 -295 97 -278 ct 98 -278 l  111 -302 126 -318 143 -328 ct 
160 -337 181 -342 206 -342 ct 242 -342 269 -333 286 -315 ct 303 -296 312 -266 312 -224 ct 
312 0 l  256 0 l  p ef
pom
pum
7573 17623 t
189 -82 m  189 -55 181 -34 165 -19 ct 150 -4 128 4 99 4 ct 76 4 57 -1 42 -11 ct 
28 -22 19 -37 15 -56 ct 47 -60 l  54 -35 72 -22 100 -22 ct 117 -22 131 -28 141 -38 ct 
151 -49 156 -63 156 -81 ct 156 -97 151 -110 141 -120 ct 131 -130 118 -135 101 -135 ct 
92 -135 84 -133 76 -130 ct 69 -128 61 -123 54 -116 ct 22 -116 l  31 -253 l  174 -253 l 
174 -226 l  60 -226 l  55 -145 l  69 -156 87 -161 107 -161 ct 132 -161 152 -154 167 -139 ct 
182 -124 189 -105 189 -82 ct p ef
pom
0.996 c 5301 16697 m  5641 16697 5900 16957 5900 17297 ct 5900 17637 5641 17897 5301 17897 ct 
4961 17897 4701 17637 4701 17297 ct 4701 16957 4961 16697 5301 16697 ct p
4701 16697 m  4701 16697 l  p
5901 17898 m  5901 17898 l  p ef
0.000 c 5300 16697 m  5640 16697 5900 16957 5900 17296 ct 5900 17636 5640 17896 5300 17896 ct 
4960 17896 4700 17636 4700 17296 ct 4700 16957 4960 16697 5300 16697 ct pc
4700 16697 m  4700 16697 l  pc
5901 17897 m  5901 17897 l  pc
pum
5024 17357 t
256 0 m  256 -213 l  256 -235 254 -252 249 -264 ct 245 -277 238 -285 229 -291 ct 
219 -296 205 -299 187 -299 ct 160 -299 139 -290 123 -271 ct 108 -253 100 -227 100 -195 ct 
100 0 l  44 0 l  44 -264 l  44 -303 43 -327 42 -336 ct 95 -336 l  95 -335 95 -332 96 -327 ct 
96 -323 96 -318 96 -312 ct 97 -306 97 -295 97 -278 ct 98 -278 l  111 -302 126 -318 143 -328 ct 
160 -337 181 -342 206 -342 ct 242 -342 269 -333 286 -315 ct 303 -296 312 -266 312 -224 ct 
312 0 l  256 0 l  p ef
pom
pum
5375 17624 t
158 -57 m  158 1 l  128 1 l  128 -57 l  8 -57 l  8 -82 l  124 -253 l  158 -253 l 
158 -83 l  194 -83 l  194 -57 l  158 -57 l  p
128 -217 m  128 -216 126 -213 123 -207 ct 120 -201 117 -197 116 -195 ct 51 -99 l 
41 -86 l  38 -83 l  128 -83 l  128 -217 l  p ef
pom
0.996 c 9699 16697 m  10039 16697 10299 16957 10299 17297 ct 10299 17637 10039 17897 9699 17897 ct 
9360 17897 9100 17637 9100 17297 ct 9100 16957 9360 16697 9699 16697 ct p
9100 16697 m  9100 16697 l  p
10300 17898 m  10300 17898 l  p ef
0.000 c 9699 16697 m  10039 16697 10299 16957 10299 17296 ct 10299 17636 10039 17896 9699 17896 ct 
9359 17896 9099 17636 9099 17296 ct 9099 16957 9359 16697 9699 16697 ct pc
9099 16697 m  9099 16697 l  pc
10300 17897 m  10300 17897 l  pc
pum
9423 17357 t
256 0 m  256 -213 l  256 -235 254 -252 249 -264 ct 245 -277 238 -285 229 -291 ct 
219 -296 205 -299 187 -299 ct 160 -299 139 -290 123 -271 ct 108 -253 100 -227 100 -195 ct 
100 0 l  44 0 l  44 -264 l  44 -303 43 -327 42 -336 ct 95 -336 l  95 -335 95 -332 96 -327 ct 
96 -323 96 -318 96 -312 ct 97 -306 97 -295 97 -278 ct 98 -278 l  111 -302 126 -318 143 -328 ct 
160 -337 181 -342 206 -342 ct 242 -342 269 -333 286 -315 ct 303 -296 312 -266 312 -224 ct 
312 0 l  256 0 l  p ef
pom
pum
9773 17624 t
189 -82 m  189 -56 181 -35 167 -19 ct 152 -4 132 4 107 4 ct 78 4 56 -7 41 -28 ct 
26 -49 19 -80 19 -120 ct 19 -164 27 -198 42 -221 ct 58 -245 80 -256 109 -256 ct 
147 -256 172 -239 181 -205 ct 151 -199 l  144 -220 130 -230 109 -230 ct 90 -230 76 -221 66 -204 ct 
56 -187 51 -162 51 -130 ct 57 -140 65 -149 76 -154 ct 86 -160 99 -163 112 -163 ct 
136 -163 154 -156 168 -141 ct 182 -127 189 -107 189 -82 ct p
156 -81 m  156 -99 151 -113 142 -123 ct 133 -133 121 -138 105 -138 ct 89 -138 77 -134 68 -125 ct 
59 -116 54 -104 54 -89 ct 54 -69 59 -53 69 -41 ct 78 -28 91 -22 106 -22 ct 121 -22 133 -27 142 -38 ct 
151 -48 156 -63 156 -81 ct p ef
pom
9272 12021 m  7598 13895 l  ps
10122 12021 m  11696 13895 l  ps
7173 14920 m  5300 16697 l  ps
7598 15095 m  7499 16696 l  ps
8022 14920 m  9699 16697 l  ps
0 6904 t 
pom
count op_count sub {pop} repeat countdictstack dict_count sub {end} repeat b4_inc_state restore
%%PageTrailer
%%Trailer
%%EOF
