%!PS-Adobe-3.0 EPSF-3.0 
%%BoundingBox: 0 0 289 196
%%Pages: 0
%%Creator: LibreOffice 5.3
%%Title: none
%%CreationDate: none
%%LanguageLevel: 2
%%EndComments
%%BeginProlog
%%BeginResource: procset SDRes-Prolog 1.0 0
/b4_inc_state save def
/dict_count countdictstack def
/op_count count 1 sub def
userdict begin
0 setgray 0 setlinecap 1 setlinewidth 0 setlinejoin 10 setmiterlimit[] 0 setdash newpath
/languagelevel where {pop languagelevel 1 ne {false setstrokeadjust false setoverprint} if} if
/bdef {bind def} bind def
/c {setgray} bdef
/l {neg lineto} bdef
/rl {neg rlineto} bdef
/lc {setlinecap} bdef
/lj {setlinejoin} bdef
/lw {setlinewidth} bdef
/ml {setmiterlimit} bdef
/ld {setdash} bdef
/m {neg moveto} bdef
/ct {6 2 roll neg 6 2 roll neg 6 2 roll neg curveto} bdef
/r {rotate} bdef
/t {neg translate} bdef
/s {scale} bdef
/sw {show} bdef
/gs {gsave} bdef
/gr {grestore} bdef
/f {findfont dup length dict begin
{1 index /FID ne {def} {pop pop} ifelse} forall /Encoding ISOLatin1Encoding def
currentdict end /NFont exch definefont pop /NFont findfont} bdef
/p {closepath} bdef
/sf {scalefont setfont} bdef
/ef {eofill}bdef
/pc {closepath stroke}bdef
/ps {stroke}bdef
/pum {matrix currentmatrix}bdef
/pom {setmatrix}bdef
/bs {/aString exch def /nXOfs exch def /nWidth exch def currentpoint nXOfs 0 rmoveto pum nWidth aString stringwidth pop div 1 scale aString show pom moveto} bdef
%%EndResource
%%EndProlog
%%BeginSetup
%%EndSetup
%%Page: 1 1
%%BeginPageSetup
%%EndPageSetup
pum
0.02833 0.02838 s 
0 -6905 t
/tm matrix currentmatrix def
tm setmatrix
-4301 -1599 t 
1 1 s 
0.996 c 9698 1600 m  10038 1600 10298 1859 10298 2199 ct 10298 2539 10038 2799 9698 2799 ct 
9358 2799 9098 2539 9098 2199 ct 9098 1859 9358 1600 9698 1600 ct p
9098 1600 m  9098 1600 l  p
10299 2800 m  10299 2800 l  p ef
0 lw 1 lj 0.000 c 9698 1599 m  10038 1599 10297 1859 10297 2199 ct 10297 2539 10038 2799 9698 2799 ct 
9358 2799 9098 2539 9098 2199 ct 9098 1859 9358 1599 9698 1599 ct pc
9098 1599 m  9098 1599 l  pc
10298 2800 m  10298 2800 l  pc
pum
9421 2259 t
256 0 m  256 -213 l  256 -235 254 -252 249 -264 ct 245 -277 238 -285 229 -291 ct 
219 -296 205 -299 187 -299 ct 160 -299 139 -290 123 -271 ct 108 -253 100 -227 100 -195 ct 
100 0 l  44 0 l  44 -264 l  44 -303 43 -327 42 -336 ct 95 -336 l  95 -335 95 -332 96 -327 ct 
96 -323 96 -318 96 -312 ct 97 -306 97 -295 97 -278 ct 98 -278 l  111 -302 126 -318 143 -328 ct 
160 -337 181 -342 206 -342 ct 242 -342 269 -333 286 -315 ct 303 -296 312 -266 312 -224 ct 
312 0 l  256 0 l  p ef
pom
pum
9772 2526 t
28 0 m  28 -27 l  93 -27 l  93 -222 l  35 -181 l  35 -212 l  95 -253 l 
125 -253 l  125 -27 l  187 -27 l  187 0 l  28 0 l  p ef
pom
0.996 c 7599 4499 m  7938 4499 8198 4759 8198 5099 ct 8198 5438 7938 5698 7599 5698 ct 
7259 5698 6999 5438 6999 5099 ct 6999 4759 7259 4499 7599 4499 ct p
6999 4499 m  6999 4499 l  p
8199 5699 m  8199 5699 l  p ef
17.99562 lw 0.000 c 7598 4498 m  7938 4498 8198 4758 8198 5098 ct 8198 5438 7938 5698 7598 5698 ct 
7258 5698 6998 5438 6998 5098 ct 6998 4758 7258 4498 7598 4498 ct pc
6998 4498 m  6998 4498 l  pc
8199 5699 m  8199 5699 l  pc
pum
7322 5159 t
256 0 m  256 -213 l  256 -235 254 -252 249 -264 ct 245 -277 238 -285 229 -291 ct 
219 -296 205 -299 187 -299 ct 160 -299 139 -290 123 -271 ct 108 -253 100 -227 100 -195 ct 
100 0 l  44 0 l  44 -264 l  44 -303 43 -327 42 -336 ct 95 -336 l  95 -335 95 -332 96 -327 ct 
96 -323 96 -318 96 -312 ct 97 -306 97 -295 97 -278 ct 98 -278 l  111 -302 126 -318 143 -328 ct 
160 -337 181 -342 206 -342 ct 242 -342 269 -333 286 -315 ct 303 -296 312 -266 312 -224 ct 
312 0 l  256 0 l  p ef
pom
pum
7672 5425 t
19 0 m  19 -23 l  25 -37 32 -49 41 -60 ct 50 -71 59 -80 69 -89 ct 78 -98 88 -106 97 -113 ct 
107 -121 116 -128 123 -136 ct 131 -143 137 -151 142 -159 ct 147 -167 149 -176 149 -187 ct 
149 -200 145 -211 137 -219 ct 129 -227 117 -230 103 -230 ct 89 -230 78 -227 69 -219 ct 
60 -212 55 -201 53 -188 ct 20 -191 l  22 -211 31 -227 46 -239 ct 61 -251 80 -257 103 -257 ct 
128 -257 148 -251 162 -239 ct 175 -227 182 -210 182 -188 ct 182 -178 180 -168 175 -158 ct 
171 -149 164 -139 155 -129 ct 147 -120 130 -104 105 -84 ct 91 -73 80 -63 72 -54 ct 
64 -45 58 -36 54 -27 ct 186 -27 l  186 0 l  19 0 l  p ef
pom
0.996 c 11698 4499 m  12038 4499 12298 4759 12298 5099 ct 12298 5438 12038 5698 11698 5698 ct 
11358 5698 11098 5438 11098 5099 ct 11098 4759 11358 4499 11698 4499 ct p
11098 4499 m  11098 4499 l  p
12299 5699 m  12299 5699 l  p ef
0 lw 0.000 c 11697 4498 m  12037 4498 12297 4758 12297 5098 ct 12297 5438 12037 5698 11697 5698 ct 
11357 5698 11097 5438 11097 5098 ct 11097 4758 11357 4498 11697 4498 ct pc
11097 4498 m  11097 4498 l  pc
12298 5699 m  12298 5699 l  pc
pum
11421 5159 t
256 0 m  256 -213 l  256 -235 254 -252 249 -264 ct 245 -277 238 -285 229 -291 ct 
219 -296 205 -299 187 -299 ct 160 -299 139 -290 123 -271 ct 108 -253 100 -227 100 -195 ct 
100 0 l  44 0 l  44 -264 l  44 -303 43 -327 42 -336 ct 95 -336 l  95 -335 95 -332 96 -327 ct 
96 -323 96 -318 96 -312 ct 97 -306 97 -295 97 -278 ct 98 -278 l  111 -302 126 -318 143 -328 ct 
160 -337 181 -342 206 -342 ct 242 -342 269 -333 286 -315 ct 303 -296 312 -266 312 -224 ct 
312 0 l  256 0 l  p ef
pom
pum
11772 5425 t
189 -69 m  189 -46 181 -28 166 -15 ct 151 -2 130 4 103 4 ct 77 4 57 -2 41 -13 ct 
26 -25 17 -42 14 -64 ct 47 -67 l  52 -38 70 -23 103 -23 ct 119 -23 132 -27 141 -35 ct 
150 -43 155 -55 155 -70 ct 155 -84 150 -95 139 -102 ct 128 -110 113 -114 93 -114 ct 
75 -114 l  75 -142 l  92 -142 l  110 -142 124 -146 134 -154 ct 143 -161 148 -172 148 -186 ct 
148 -200 144 -210 136 -218 ct 128 -226 117 -230 101 -230 ct 87 -230 75 -226 66 -219 ct 
57 -212 52 -201 51 -188 ct 18 -190 l  21 -211 29 -227 44 -239 ct 59 -251 78 -257 101 -257 ct 
127 -257 146 -251 160 -239 ct 174 -227 181 -210 181 -189 ct 181 -173 177 -160 168 -150 ct 
159 -140 146 -133 128 -129 ct 128 -128 l  147 -126 162 -120 173 -109 ct 183 -99 189 -85 189 -69 ct 
p ef
pom
0.996 c 9500 7300 m  9840 7300 10100 7560 10100 7900 ct 10100 8240 9840 8500 9500 8500 ct 
9160 8500 8900 8240 8900 7900 ct 8900 7560 9160 7300 9500 7300 ct p
8900 7300 m  8900 7300 l  p
10101 8501 m  10101 8501 l  p ef
0.000 c 9500 7299 m  9840 7299 10100 7559 10100 7899 ct 10100 8239 9840 8499 9500 8499 ct 
9160 8499 8900 8239 8900 7899 ct 8900 7559 9160 7299 9500 7299 ct pc
8900 7299 m  8900 7299 l  pc
10101 8500 m  10101 8500 l  pc
pum
9223 7960 t
256 0 m  256 -213 l  256 -235 254 -252 249 -264 ct 245 -277 238 -285 229 -291 ct 
219 -296 205 -299 187 -299 ct 160 -299 139 -290 123 -271 ct 108 -253 100 -227 100 -195 ct 
100 0 l  44 0 l  44 -264 l  44 -303 43 -327 42 -336 ct 95 -336 l  95 -335 95 -332 96 -327 ct 
96 -323 96 -318 96 -312 ct 97 -306 97 -295 97 -278 ct 98 -278 l  111 -302 126 -318 143 -328 ct 
160 -337 181 -342 206 -342 ct 242 -342 269 -333 286 -315 ct 303 -296 312 -266 312 -224 ct 
312 0 l  256 0 l  p ef
pom
pum
9574 8227 t
158 -57 m  158 1 l  128 1 l  128 -57 l  8 -57 l  8 -82 l  124 -253 l  158 -253 l 
158 -83 l  194 -83 l  194 -57 l  158 -57 l  p
128 -217 m  128 -216 126 -213 123 -207 ct 120 -201 117 -197 116 -195 ct 51 -99 l 
41 -86 l  38 -83 l  128 -83 l  128 -217 l  p ef
pom
0.996 c 13899 7300 m  14239 7300 14499 7560 14499 7900 ct 14499 8240 14239 8500 13899 8500 ct 
13559 8500 13299 8240 13299 7900 ct 13299 7560 13559 7300 13899 7300 ct p
13299 7300 m  13299 7300 l  p
14500 8501 m  14500 8501 l  p ef
0.000 c 13899 7299 m  14239 7299 14499 7559 14499 7899 ct 14499 8239 14239 8499 13899 8499 ct 
13559 8499 13299 8239 13299 7899 ct 13299 7559 13559 7299 13899 7299 ct pc
13299 7299 m  13299 7299 l  pc
14500 8500 m  14500 8500 l  pc
pum
13622 7960 t
256 0 m  256 -213 l  256 -235 254 -252 249 -264 ct 245 -277 238 -285 229 -291 ct 
219 -296 205 -299 187 -299 ct 160 -299 139 -290 123 -271 ct 108 -253 100 -227 100 -195 ct 
100 0 l  44 0 l  44 -264 l  44 -303 43 -327 42 -336 ct 95 -336 l  95 -335 95 -332 96 -327 ct 
96 -323 96 -318 96 -312 ct 97 -306 97 -295 97 -278 ct 98 -278 l  111 -302 126 -318 143 -328 ct 
160 -337 181 -342 206 -342 ct 242 -342 269 -333 286 -315 ct 303 -296 312 -266 312 -224 ct 
312 0 l  256 0 l  p ef
pom
pum
13973 8227 t
189 -82 m  189 -56 181 -35 167 -19 ct 152 -4 132 4 107 4 ct 78 4 56 -7 41 -28 ct 
26 -49 19 -80 19 -120 ct 19 -164 27 -198 42 -221 ct 58 -245 80 -256 109 -256 ct 
147 -256 172 -239 181 -205 ct 151 -199 l  144 -220 130 -230 109 -230 ct 90 -230 76 -221 66 -204 ct 
56 -187 51 -162 51 -130 ct 57 -140 65 -149 76 -154 ct 86 -160 99 -163 112 -163 ct 
136 -163 154 -156 168 -141 ct 182 -127 189 -107 189 -82 ct p
156 -81 m  156 -99 151 -113 142 -123 ct 133 -133 121 -138 105 -138 ct 89 -138 77 -134 68 -125 ct 
59 -116 54 -104 54 -89 ct 54 -69 59 -53 69 -41 ct 78 -28 91 -22 106 -22 ct 121 -22 133 -27 142 -38 ct 
151 -48 156 -63 156 -81 ct p ef
pom
9273 2624 m  7598 4498 l  ps
10123 2624 m  11697 4498 l  ps
11272 5523 m  9500 7299 l  ps
12122 5523 m  13899 7299 l  ps
0.996 c 4902 7301 m  5242 7301 5502 7561 5502 7901 ct 5502 8241 5242 8501 4902 8501 ct 
4562 8501 4302 8241 4302 7901 ct 4302 7561 4562 7301 4902 7301 ct p
4302 7301 m  4302 7301 l  p
5503 8502 m  5503 8502 l  p ef
0.000 c 4902 7300 m  5241 7300 5501 7560 5501 7900 ct 5501 8240 5241 8500 4902 8500 ct 
4562 8500 4302 8240 4302 7900 ct 4302 7560 4562 7300 4902 7300 ct pc
4302 7300 m  4302 7300 l  pc
5502 8501 m  5502 8501 l  pc
pum
4625 7961 t
256 0 m  256 -213 l  256 -235 254 -252 249 -264 ct 245 -277 238 -285 229 -291 ct 
219 -296 205 -299 187 -299 ct 160 -299 139 -290 123 -271 ct 108 -253 100 -227 100 -195 ct 
100 0 l  44 0 l  44 -264 l  44 -303 43 -327 42 -336 ct 95 -336 l  95 -335 95 -332 96 -327 ct 
96 -323 96 -318 96 -312 ct 97 -306 97 -295 97 -278 ct 98 -278 l  111 -302 126 -318 143 -328 ct 
160 -337 181 -342 206 -342 ct 242 -342 269 -333 286 -315 ct 303 -296 312 -266 312 -224 ct 
312 0 l  256 0 l  p ef
pom
pum
4976 8228 t
186 -227 m  160 -188 142 -157 131 -134 ct 121 -112 113 -90 107 -68 ct 102 -46 99 -24 99 -1 ct 
66 -1 l  66 -33 72 -67 86 -103 ct 100 -138 123 -179 155 -226 ct 19 -226 l  19 -253 l 
186 -253 l  186 -227 l  p ef
pom
4902 7300 m  7173 5523 l  ps
0 6905 t 
pom
count op_count sub {pop} repeat countdictstack dict_count sub {end} repeat b4_inc_state restore
%%PageTrailer
%%Trailer
%%EOF
