%!PS-Adobe-3.0 EPSF-3.0 
%%BoundingBox: 0 0 451 278
%%Pages: 0
%%Creator: LibreOffice 5.3
%%Title: none
%%CreationDate: none
%%LanguageLevel: 2
%%EndComments
%%BeginProlog
%%BeginResource: procset SDRes-Prolog 1.0 0
/b4_inc_state save def
/dict_count countdictstack def
/op_count count 1 sub def
userdict begin
0 setgray 0 setlinecap 1 setlinewidth 0 setlinejoin 10 setmiterlimit[] 0 setdash newpath
/languagelevel where {pop languagelevel 1 ne {false setstrokeadjust false setoverprint} if} if
/bdef {bind def} bind def
/c {setgray} bdef
/l {neg lineto} bdef
/rl {neg rlineto} bdef
/lc {setlinecap} bdef
/lj {setlinejoin} bdef
/lw {setlinewidth} bdef
/ml {setmiterlimit} bdef
/ld {setdash} bdef
/m {neg moveto} bdef
/ct {6 2 roll neg 6 2 roll neg 6 2 roll neg curveto} bdef
/r {rotate} bdef
/t {neg translate} bdef
/s {scale} bdef
/sw {show} bdef
/gs {gsave} bdef
/gr {grestore} bdef
/f {findfont dup length dict begin
{1 index /FID ne {def} {pop pop} ifelse} forall /Encoding ISOLatin1Encoding def
currentdict end /NFont exch definefont pop /NFont findfont} bdef
/p {closepath} bdef
/sf {scalefont setfont} bdef
/ef {eofill}bdef
/pc {closepath stroke}bdef
/ps {stroke}bdef
/pum {matrix currentmatrix}bdef
/pom {setmatrix}bdef
/bs {/aString exch def /nXOfs exch def /nWidth exch def currentpoint nXOfs 0 rmoveto pum nWidth aString stringwidth pop div 1 scale aString show pom moveto} bdef
%%EndResource
%%EndProlog
%%BeginSetup
%%EndSetup
%%Page: 1 1
%%BeginPageSetup
%%EndPageSetup
pum
0.02836 0.02836 s 
0 -9801 t
/tm matrix currentmatrix def
tm setmatrix
-3899 -11197 t 
1 1 s 
0.996 c 10399 12797 m  8499 12797 l  8499 11198 l  12298 11198 l  12298 12797 l 
10399 12797 l  p ef
0 lw 1 lj 0.000 c 10398 12797 m  8498 12797 l  8498 11197 l  12298 11197 l 
12298 12797 l  10398 12797 l  pc
pum
9658 12125 t
332 -173 m  332 -138 326 -107 312 -81 ct 298 -55 279 -35 254 -21 ct 229 -7 200 0 167 0 ct 
40 0 l  40 -339 l  153 -339 l  210 -339 254 -324 286 -296 ct 317 -267 332 -226 332 -173 ct 
p
286 -173 m  286 -215 275 -247 252 -269 ct 229 -291 195 -302 152 -302 ct 86 -302 l 
86 -37 l  162 -37 l  187 -37 209 -42 228 -53 ct 246 -64 261 -80 271 -100 ct 
281 -121 286 -145 286 -173 ct p ef
389 -316 m  389 -357 l  432 -357 l  432 -316 l  389 -316 l  p
389 0 m  389 -260 l  432 -260 l  432 0 l  389 0 l  p ef
500 0 m  500 -200 l  500 -218 500 -238 499 -260 ct 540 -260 l  541 -231 542 -213 542 -207 ct 
543 -207 l  549 -229 557 -245 566 -253 ct 575 -261 588 -265 604 -265 ct 610 -265 616 -264 622 -263 ct 
622 -223 l  616 -225 609 -225 599 -225 ct 581 -225 567 -218 558 -202 ct 548 -187 544 -164 544 -136 ct 
544 0 l  500 0 l  p ef
697 -121 m  697 -91 704 -68 716 -52 ct 728 -36 746 -27 770 -27 ct 789 -27 804 -31 815 -39 ct 
827 -46 834 -56 838 -67 ct 876 -57 l  861 -16 825 5 770 5 ct 732 5 702 -6 682 -29 ct 
662 -52 652 -86 652 -132 ct 652 -175 662 -208 682 -231 ct 702 -254 731 -265 768 -265 ct 
845 -265 883 -219 883 -127 ct 883 -121 l  697 -121 l  p
839 -154 m  836 -181 829 -201 818 -214 ct 806 -227 789 -233 768 -233 ct 747 -233 730 -226 718 -212 ct 
706 -198 699 -179 698 -154 ct 839 -154 l  p ef
1039 -2 m  1025 2 1010 4 996 4 ct 961 4 944 -16 944 -55 ct 944 -229 l  913 -229 l 
913 -260 l  945 -260 l  958 -318 l  987 -318 l  987 -260 l  1035 -260 l 
1035 -229 l  987 -229 l  987 -64 l  987 -52 989 -43 993 -38 ct 997 -33 1004 -30 1014 -30 ct 
1020 -30 1028 -32 1039 -34 ct 1039 -2 l  p ef
1294 -130 m  1294 -85 1284 -51 1264 -28 ct 1244 -6 1215 5 1177 5 ct 1139 5 1110 -7 1091 -30 ct 
1071 -53 1062 -86 1062 -130 ct 1062 -220 1101 -265 1178 -265 ct 1218 -265 1248 -254 1266 -232 ct 
1285 -210 1294 -176 1294 -130 ct p
1249 -130 m  1249 -166 1244 -192 1233 -209 ct 1222 -225 1204 -233 1179 -233 ct 
1154 -233 1135 -225 1124 -208 ct 1113 -191 1107 -166 1107 -130 ct 1107 -96 1113 -70 1124 -53 ct 
1135 -36 1153 -27 1177 -27 ct 1203 -27 1221 -35 1232 -52 ct 1243 -69 1249 -95 1249 -130 ct 
p ef
1351 0 m  1351 -200 l  1351 -218 1351 -238 1350 -260 ct 1391 -260 l  1392 -231 1393 -213 1393 -207 ct 
1394 -207 l  1400 -229 1408 -245 1417 -253 ct 1426 -261 1439 -265 1455 -265 ct 
1461 -265 1467 -264 1473 -263 ct 1473 -223 l  1467 -225 1460 -225 1450 -225 ct 
1432 -225 1418 -218 1409 -202 ct 1399 -187 1395 -164 1395 -136 ct 1395 0 l  1351 0 l 
p ef
pom
0.996 c 5799 15997 m  3900 15997 l  3900 14397 l  7699 14397 l  7699 15997 l 
5799 15997 l  p ef
0.000 c 5799 15996 m  3899 15996 l  3899 14397 l  7699 14397 l  7699 15996 l 
5799 15996 l  pc
pum
4485 15324 t
25 -171 m  25 -226 40 -268 69 -298 ct 99 -328 140 -344 194 -344 ct 231 -344 262 -337 285 -325 ct 
308 -312 327 -292 339 -264 ct 295 -251 l  286 -270 272 -284 256 -293 ct 239 -302 218 -306 192 -306 ct 
153 -306 123 -294 103 -271 ct 82 -247 72 -214 72 -171 ct 72 -128 82 -94 104 -69 ct 
126 -45 157 -32 196 -32 ct 218 -32 239 -36 258 -42 ct 277 -49 292 -58 304 -70 ct 
304 -131 l  203 -131 l  203 -169 l  347 -169 l  347 -53 l  329 -34 307 -20 281 -10 ct 
254 0 226 5 196 5 ct 160 5 130 -2 104 -16 ct 78 -30 59 -51 45 -77 ct 32 -104 25 -135 25 -171 ct 
p ef
447 -121 m  447 -91 454 -68 466 -52 ct 478 -36 496 -27 520 -27 ct 539 -27 554 -31 565 -39 ct 
577 -46 584 -56 588 -67 ct 626 -57 l  611 -16 575 5 520 5 ct 482 5 452 -6 432 -29 ct 
412 -52 402 -86 402 -132 ct 402 -175 412 -208 432 -231 ct 452 -254 481 -265 518 -265 ct 
595 -265 633 -219 633 -127 ct 633 -121 l  447 -121 l  p
589 -154 m  586 -181 579 -201 568 -214 ct 556 -227 539 -233 518 -233 ct 497 -233 480 -226 468 -212 ct 
456 -198 449 -179 448 -154 ct 589 -154 l  p ef
690 0 m  690 -200 l  690 -218 690 -238 689 -260 ct 730 -260 l  731 -231 732 -213 732 -207 ct 
733 -207 l  739 -229 747 -245 756 -253 ct 765 -261 778 -265 794 -265 ct 800 -265 806 -264 812 -263 ct 
812 -223 l  806 -225 799 -225 789 -225 ct 771 -225 757 -218 748 -202 ct 738 -187 734 -164 734 -136 ct 
734 0 l  690 0 l  p ef
887 -121 m  887 -91 894 -68 906 -52 ct 918 -36 936 -27 960 -27 ct 979 -27 994 -31 1005 -39 ct 
1017 -46 1024 -56 1028 -67 ct 1066 -57 l  1051 -16 1015 5 960 5 ct 922 5 892 -6 872 -29 ct 
852 -52 842 -86 842 -132 ct 842 -175 852 -208 872 -231 ct 892 -254 921 -265 958 -265 ct 
1035 -265 1073 -219 1073 -127 ct 1073 -121 l  887 -121 l  p
1029 -154 m  1026 -181 1019 -201 1008 -214 ct 996 -227 979 -233 958 -233 ct 
937 -233 920 -226 908 -212 ct 896 -198 889 -179 888 -154 ct 1029 -154 l  p ef
1295 0 m  1295 -165 l  1295 -182 1293 -195 1290 -205 ct 1286 -214 1281 -221 1273 -225 ct 
1266 -229 1255 -232 1241 -232 ct 1220 -232 1204 -224 1192 -210 ct 1180 -196 1174 -176 1174 -151 ct 
1174 0 l  1130 0 l  1130 -205 l  1130 -235 1130 -253 1129 -260 ct 1170 -260 l 
1170 -259 1170 -257 1170 -254 ct 1170 -250 1171 -246 1171 -242 ct 1171 -237 1171 -228 1172 -216 ct 
1172 -216 l  1182 -234 1194 -246 1207 -254 ct 1220 -261 1236 -265 1256 -265 ct 
1284 -265 1305 -258 1318 -244 ct 1332 -230 1338 -206 1338 -173 ct 1338 0 l  1295 0 l 
p ef
1505 -2 m  1491 2 1476 4 1462 4 ct 1427 4 1410 -16 1410 -55 ct 1410 -229 l  1379 -229 l 
1379 -260 l  1411 -260 l  1424 -318 l  1453 -318 l  1453 -260 l  1501 -260 l 
1501 -229 l  1453 -229 l  1453 -64 l  1453 -52 1455 -43 1459 -38 ct 1463 -33 1470 -30 1480 -30 ct 
1486 -30 1494 -32 1505 -34 ct 1505 -2 l  p ef
1573 -121 m  1573 -91 1580 -68 1592 -52 ct 1604 -36 1622 -27 1646 -27 ct 1665 -27 1680 -31 1691 -39 ct 
1703 -46 1710 -56 1714 -67 ct 1752 -57 l  1737 -16 1701 5 1646 5 ct 1608 5 1578 -6 1558 -29 ct 
1538 -52 1528 -86 1528 -132 ct 1528 -175 1538 -208 1558 -231 ct 1578 -254 1607 -265 1644 -265 ct 
1721 -265 1759 -219 1759 -127 ct 1759 -121 l  1573 -121 l  p
1715 -154 m  1712 -181 1705 -201 1694 -214 ct 1682 -227 1665 -233 1644 -233 ct 
1623 -233 1606 -226 1594 -212 ct 1582 -198 1575 -179 1574 -154 ct 1715 -154 l 
p ef
2198 -1 m  2110 -141 l  2004 -141 l  2004 -1 l  1958 -1 l  1958 -339 l 
2118 -339 l  2156 -339 2186 -330 2207 -313 ct 2227 -296 2238 -273 2238 -242 ct 
2238 -217 2230 -196 2216 -179 ct 2201 -162 2181 -151 2155 -146 ct 2251 -1 l 
2198 -1 l  p
2191 -242 m  2191 -261 2185 -276 2171 -287 ct 2158 -297 2139 -302 2113 -302 ct 
2004 -302 l  2004 -177 l  2115 -177 l  2140 -177 2158 -183 2172 -194 ct 2185 -206 2191 -221 2191 -242 ct 
p ef
2543 0 m  2543 -157 l  2359 -157 l  2359 0 l  2313 0 l  2313 -339 l  2359 -339 l 
2359 -195 l  2543 -195 l  2543 -339 l  2589 -339 l  2589 0 l  2543 0 l 
p ef
pom
0.996 c 15198 15997 m  13298 15997 l  13298 14397 l  17098 14397 l  17098 15997 l 
15198 15997 l  p ef
0.000 c 15198 15996 m  13298 15996 l  13298 14397 l  17097 14397 l  17097 15996 l 
15198 15996 l  pc
pum
13964 15095 t
25 -171 m  25 -226 40 -268 69 -298 ct 99 -328 140 -344 194 -344 ct 231 -344 262 -337 285 -325 ct 
308 -312 327 -292 339 -264 ct 295 -251 l  286 -270 272 -284 256 -293 ct 239 -302 218 -306 192 -306 ct 
153 -306 123 -294 103 -271 ct 82 -247 72 -214 72 -171 ct 72 -128 82 -94 104 -69 ct 
126 -45 157 -32 196 -32 ct 218 -32 239 -36 258 -42 ct 277 -49 292 -58 304 -70 ct 
304 -131 l  203 -131 l  203 -169 l  347 -169 l  347 -53 l  329 -34 307 -20 281 -10 ct 
254 0 226 5 196 5 ct 160 5 130 -2 104 -16 ct 78 -30 59 -51 45 -77 ct 32 -104 25 -135 25 -171 ct 
p ef
447 -121 m  447 -91 454 -68 466 -52 ct 478 -36 496 -27 520 -27 ct 539 -27 554 -31 565 -39 ct 
577 -46 584 -56 588 -67 ct 626 -57 l  611 -16 575 5 520 5 ct 482 5 452 -6 432 -29 ct 
412 -52 402 -86 402 -132 ct 402 -175 412 -208 432 -231 ct 452 -254 481 -265 518 -265 ct 
595 -265 633 -219 633 -127 ct 633 -121 l  447 -121 l  p
589 -154 m  586 -181 579 -201 568 -214 ct 556 -227 539 -233 518 -233 ct 497 -233 480 -226 468 -212 ct 
456 -198 449 -179 448 -154 ct 589 -154 l  p ef
690 0 m  690 -200 l  690 -218 690 -238 689 -260 ct 730 -260 l  731 -231 732 -213 732 -207 ct 
733 -207 l  739 -229 747 -245 756 -253 ct 765 -261 778 -265 794 -265 ct 800 -265 806 -264 812 -263 ct 
812 -223 l  806 -225 799 -225 789 -225 ct 771 -225 757 -218 748 -202 ct 738 -187 734 -164 734 -136 ct 
734 0 l  690 0 l  p ef
887 -121 m  887 -91 894 -68 906 -52 ct 918 -36 936 -27 960 -27 ct 979 -27 994 -31 1005 -39 ct 
1017 -46 1024 -56 1028 -67 ct 1066 -57 l  1051 -16 1015 5 960 5 ct 922 5 892 -6 872 -29 ct 
852 -52 842 -86 842 -132 ct 842 -175 852 -208 872 -231 ct 892 -254 921 -265 958 -265 ct 
1035 -265 1073 -219 1073 -127 ct 1073 -121 l  887 -121 l  p
1029 -154 m  1026 -181 1019 -201 1008 -214 ct 996 -227 979 -233 958 -233 ct 
937 -233 920 -226 908 -212 ct 896 -198 889 -179 888 -154 ct 1029 -154 l  p ef
1295 0 m  1295 -165 l  1295 -182 1293 -195 1290 -205 ct 1286 -214 1281 -221 1273 -225 ct 
1266 -229 1255 -232 1241 -232 ct 1220 -232 1204 -224 1192 -210 ct 1180 -196 1174 -176 1174 -151 ct 
1174 0 l  1130 0 l  1130 -205 l  1130 -235 1130 -253 1129 -260 ct 1170 -260 l 
1170 -259 1170 -257 1170 -254 ct 1170 -250 1171 -246 1171 -242 ct 1171 -237 1171 -228 1172 -216 ct 
1172 -216 l  1182 -234 1194 -246 1207 -254 ct 1220 -261 1236 -265 1256 -265 ct 
1284 -265 1305 -258 1318 -244 ct 1332 -230 1338 -206 1338 -173 ct 1338 0 l  1295 0 l 
p ef
1505 -2 m  1491 2 1476 4 1462 4 ct 1427 4 1410 -16 1410 -55 ct 1410 -229 l  1379 -229 l 
1379 -260 l  1411 -260 l  1424 -318 l  1453 -318 l  1453 -260 l  1501 -260 l 
1501 -229 l  1453 -229 l  1453 -64 l  1453 -52 1455 -43 1459 -38 ct 1463 -33 1470 -30 1480 -30 ct 
1486 -30 1494 -32 1505 -34 ct 1505 -2 l  p ef
1573 -121 m  1573 -91 1580 -68 1592 -52 ct 1604 -36 1622 -27 1646 -27 ct 1665 -27 1680 -31 1691 -39 ct 
1703 -46 1710 -56 1714 -67 ct 1752 -57 l  1737 -16 1701 5 1646 5 ct 1608 5 1578 -6 1558 -29 ct 
1538 -52 1528 -86 1528 -132 ct 1528 -175 1538 -208 1558 -231 ct 1578 -254 1607 -265 1644 -265 ct 
1721 -265 1759 -219 1759 -127 ct 1759 -121 l  1573 -121 l  p
1715 -154 m  1712 -181 1705 -201 1694 -214 ct 1682 -227 1665 -233 1644 -233 ct 
1623 -233 1606 -226 1594 -212 ct 1582 -198 1575 -179 1574 -154 ct 1715 -154 l 
p ef
2116 -42 m  2108 -26 2097 -14 2084 -6 ct 2071 1 2054 4 2035 4 ct 2002 4 1977 -7 1962 -29 ct 
1946 -51 1939 -84 1939 -129 ct 1939 -220 1971 -265 2035 -265 ct 2054 -265 2071 -261 2084 -254 ct 
2097 -247 2108 -236 2116 -220 ct 2116 -220 l  2116 -249 l  2116 -357 l  2159 -357 l 
2159 -54 l  2159 -27 2159 -9 2160 0 ct 2119 0 l  2119 -3 2118 -9 2117 -18 ct 
2117 -27 2117 -35 2117 -42 ct 2116 -42 l  p
1984 -131 m  1984 -94 1989 -68 1999 -53 ct 2008 -37 2024 -29 2046 -29 ct 2070 -29 2088 -37 2099 -54 ct 
2110 -71 2116 -98 2116 -133 ct 2116 -168 2110 -193 2099 -209 ct 2088 -225 2070 -233 2046 -233 ct 
2024 -233 2008 -225 1999 -209 ct 1989 -193 1984 -167 1984 -131 ct p ef
2259 -121 m  2259 -91 2266 -68 2278 -52 ct 2290 -36 2308 -27 2332 -27 ct 2351 -27 2366 -31 2377 -39 ct 
2389 -46 2396 -56 2400 -67 ct 2438 -57 l  2423 -16 2387 5 2332 5 ct 2294 5 2264 -6 2244 -29 ct 
2224 -52 2214 -86 2214 -132 ct 2214 -175 2224 -208 2244 -231 ct 2264 -254 2293 -265 2330 -265 ct 
2407 -265 2445 -219 2445 -127 ct 2445 -121 l  2259 -121 l  p
2401 -154 m  2398 -181 2391 -201 2380 -214 ct 2368 -227 2351 -233 2330 -233 ct 
2309 -233 2292 -226 2280 -212 ct 2268 -198 2261 -179 2260 -154 ct 2401 -154 l 
p ef
pom
pum
14294 15553 t
303 -237 m  303 -205 292 -179 271 -160 ct 250 -141 222 -132 186 -132 ct 86 -132 l 
86 0 l  40 0 l  40 -339 l  183 -339 l  221 -339 251 -330 272 -312 ct 292 -294 303 -269 303 -237 ct 
p
257 -236 m  257 -280 230 -302 178 -302 ct 86 -302 l  86 -168 l  180 -168 l 
231 -168 257 -191 257 -236 ct p ef
360 0 m  360 -200 l  360 -218 360 -238 359 -260 ct 400 -260 l  401 -231 402 -213 402 -207 ct 
403 -207 l  409 -229 417 -245 426 -253 ct 435 -261 448 -265 464 -265 ct 470 -265 476 -264 482 -263 ct 
482 -223 l  476 -225 469 -225 459 -225 ct 441 -225 427 -218 418 -202 ct 408 -187 404 -164 404 -136 ct 
404 0 l  360 0 l  p ef
744 -130 m  744 -85 734 -51 714 -28 ct 694 -6 665 5 627 5 ct 589 5 560 -7 541 -30 ct 
521 -53 512 -86 512 -130 ct 512 -220 551 -265 628 -265 ct 668 -265 698 -254 716 -232 ct 
735 -210 744 -176 744 -130 ct p
699 -130 m  699 -166 694 -192 683 -209 ct 672 -225 654 -233 629 -233 ct 604 -233 585 -225 574 -208 ct 
563 -191 557 -166 557 -130 ct 557 -96 563 -70 574 -53 ct 585 -36 603 -27 627 -27 ct 
653 -27 671 -35 682 -52 ct 693 -69 699 -95 699 -130 ct p ef
799 -316 m  799 -357 l  842 -357 l  842 -316 l  799 -316 l  p
842 32 m  842 57 838 74 828 85 ct 818 96 804 102 785 102 ct 772 102 762 101 754 100 ct 
754 66 l  769 68 l  780 68 788 65 792 59 ct 797 53 799 42 799 26 ct 799 -260 l 
842 -260 l  842 32 l  p ef
942 -121 m  942 -91 949 -68 961 -52 ct 973 -36 991 -27 1015 -27 ct 1034 -27 1049 -31 1060 -39 ct 
1072 -46 1079 -56 1083 -67 ct 1121 -57 l  1106 -16 1070 5 1015 5 ct 977 5 947 -6 927 -29 ct 
907 -52 897 -86 897 -132 ct 897 -175 907 -208 927 -231 ct 947 -254 976 -265 1013 -265 ct 
1090 -265 1128 -219 1128 -127 ct 1128 -121 l  942 -121 l  p
1084 -154 m  1081 -181 1074 -201 1063 -214 ct 1051 -227 1034 -233 1013 -233 ct 
992 -233 975 -226 963 -212 ct 951 -198 944 -179 943 -154 ct 1084 -154 l  p ef
1284 -2 m  1270 2 1255 4 1241 4 ct 1206 4 1189 -16 1189 -55 ct 1189 -229 l  1158 -229 l 
1158 -260 l  1190 -260 l  1203 -318 l  1232 -318 l  1232 -260 l  1280 -260 l 
1280 -229 l  1232 -229 l  1232 -64 l  1232 -52 1234 -43 1238 -38 ct 1242 -33 1249 -30 1259 -30 ct 
1265 -30 1273 -32 1284 -34 ct 1284 -2 l  p ef
1540 -130 m  1540 -85 1530 -51 1510 -28 ct 1490 -6 1461 5 1423 5 ct 1385 5 1356 -7 1337 -30 ct 
1317 -53 1308 -86 1308 -130 ct 1308 -220 1347 -265 1424 -265 ct 1464 -265 1494 -254 1512 -232 ct 
1531 -210 1540 -176 1540 -130 ct p
1495 -130 m  1495 -166 1490 -192 1479 -209 ct 1468 -225 1450 -233 1425 -233 ct 
1400 -233 1381 -225 1370 -208 ct 1359 -191 1353 -166 1353 -130 ct 1353 -96 1359 -70 1370 -53 ct 
1381 -36 1399 -27 1423 -27 ct 1449 -27 1467 -35 1478 -52 ct 1489 -69 1495 -95 1495 -130 ct 
p ef
1791 -72 m  1791 -47 1781 -28 1763 -15 ct 1744 -2 1718 5 1685 5 ct 1653 5 1628 0 1610 -11 ct 
1592 -22 1581 -38 1576 -61 ct 1614 -68 l  1618 -54 1625 -44 1637 -38 ct 1648 -31 1664 -28 1685 -28 ct 
1707 -28 1723 -31 1733 -38 ct 1743 -45 1749 -55 1749 -68 ct 1749 -79 1745 -87 1738 -93 ct 
1731 -100 1720 -105 1704 -109 ct 1673 -117 l  1648 -124 1630 -130 1620 -136 ct 
1609 -142 1601 -150 1595 -159 ct 1589 -168 1586 -178 1586 -191 ct 1586 -215 1595 -233 1611 -245 ct 
1628 -258 1653 -264 1685 -264 ct 1714 -264 1737 -259 1754 -249 ct 1771 -239 1782 -223 1786 -200 ct 
1747 -195 l  1745 -207 1738 -216 1728 -222 ct 1717 -228 1703 -231 1685 -231 ct 
1666 -231 1651 -228 1642 -222 ct 1633 -216 1628 -207 1628 -195 ct 1628 -188 1630 -182 1634 -177 ct 
1638 -172 1644 -168 1651 -165 ct 1659 -162 1675 -157 1699 -151 ct 1722 -145 1738 -140 1748 -135 ct 
1758 -130 1766 -125 1772 -119 ct 1778 -113 1783 -106 1786 -98 ct 1789 -90 1791 -82 1791 -72 ct 
p ef
pom
0.996 c 5799 18796 m  3900 18796 l  3900 17196 l  7699 17196 l  7699 18796 l 
5799 18796 l  p ef
0.000 c 5799 18796 m  3899 18796 l  3899 17196 l  7699 17196 l  7699 18796 l 
5799 18796 l  pc
pum
4783 18123 t
191 -306 m  153 -306 124 -294 103 -270 ct 82 -246 72 -213 72 -171 ct 72 -129 83 -96 104 -71 ct 
126 -45 156 -33 193 -33 ct 240 -33 276 -56 300 -103 ct 337 -84 l  323 -55 304 -33 278 -18 ct 
253 -3 224 5 190 5 ct 156 5 127 -2 102 -16 ct 77 -30 58 -51 45 -77 ct 32 -103 25 -135 25 -171 ct 
25 -225 40 -267 69 -298 ct 98 -328 139 -344 190 -344 ct 226 -344 256 -336 281 -322 ct 
305 -308 323 -287 334 -260 ct 291 -245 l  283 -265 270 -280 253 -290 ct 235 -301 215 -306 191 -306 ct 
p ef
609 -130 m  609 -85 599 -51 579 -28 ct 559 -6 530 5 492 5 ct 454 5 425 -7 406 -30 ct 
386 -53 377 -86 377 -130 ct 377 -220 416 -265 493 -265 ct 533 -265 563 -254 581 -232 ct 
600 -210 609 -176 609 -130 ct p
564 -130 m  564 -166 559 -192 548 -209 ct 537 -225 519 -233 494 -233 ct 469 -233 450 -225 439 -208 ct 
428 -191 422 -166 422 -130 ct 422 -96 428 -70 439 -53 ct 450 -36 468 -27 492 -27 ct 
518 -27 536 -35 547 -52 ct 558 -69 564 -95 564 -130 ct p ef
830 0 m  830 -165 l  830 -182 828 -195 825 -205 ct 821 -214 816 -221 808 -225 ct 
801 -229 790 -232 776 -232 ct 755 -232 739 -224 727 -210 ct 715 -196 709 -176 709 -151 ct 
709 0 l  665 0 l  665 -205 l  665 -235 665 -253 664 -260 ct 705 -260 l  705 -259 705 -257 705 -254 ct 
705 -250 706 -246 706 -242 ct 706 -237 706 -228 707 -216 ct 707 -216 l  717 -234 729 -246 742 -254 ct 
755 -261 771 -265 791 -265 ct 819 -265 840 -258 853 -244 ct 867 -230 873 -206 873 -173 ct 
873 0 l  830 0 l  p ef
1039 -2 m  1025 2 1010 4 996 4 ct 961 4 944 -16 944 -55 ct 944 -229 l  913 -229 l 
913 -260 l  945 -260 l  958 -318 l  987 -318 l  987 -260 l  1035 -260 l 
1035 -229 l  987 -229 l  987 -64 l  987 -52 989 -43 993 -38 ct 997 -33 1004 -30 1014 -30 ct 
1020 -30 1028 -32 1039 -34 ct 1039 -2 l  p ef
1141 5 m  1115 5 1095 -2 1082 -16 ct 1069 -29 1062 -48 1062 -72 ct 1062 -99 1071 -120 1089 -135 ct 
1106 -149 1135 -157 1174 -158 ct 1233 -159 l  1233 -173 l  1233 -194 1228 -209 1219 -218 ct 
1210 -227 1196 -232 1177 -232 ct 1158 -232 1143 -229 1135 -222 ct 1126 -216 1121 -205 1119 -191 ct 
1074 -195 l  1081 -242 1116 -265 1178 -265 ct 1211 -265 1235 -257 1252 -242 ct 
1268 -227 1277 -206 1277 -177 ct 1277 -65 l  1277 -52 1278 -42 1282 -36 ct 1285 -29 1292 -26 1301 -26 ct 
1305 -26 1310 -27 1315 -28 ct 1315 -1 l  1304 2 1293 3 1282 3 ct 1266 3 1254 -1 1247 -10 ct 
1239 -18 1235 -32 1234 -50 ct 1233 -50 l  1222 -30 1209 -16 1194 -7 ct 1180 1 1162 5 1141 5 ct 
p
1151 -27 m  1166 -27 1181 -31 1193 -38 ct 1205 -46 1215 -55 1222 -68 ct 1229 -81 1233 -94 1233 -107 ct 
1233 -128 l  1185 -127 l  1165 -127 1150 -125 1139 -121 ct 1129 -117 1121 -111 1115 -103 ct 
1109 -95 1106 -85 1106 -72 ct 1106 -58 1110 -47 1118 -39 ct 1126 -31 1136 -27 1151 -27 ct 
p ef
1515 -42 m  1507 -26 1496 -14 1483 -6 ct 1470 1 1453 4 1434 4 ct 1401 4 1376 -7 1361 -29 ct 
1345 -51 1338 -84 1338 -129 ct 1338 -220 1370 -265 1434 -265 ct 1453 -265 1470 -261 1483 -254 ct 
1496 -247 1507 -236 1515 -220 ct 1515 -220 l  1515 -249 l  1515 -357 l  1558 -357 l 
1558 -54 l  1558 -27 1558 -9 1559 0 ct 1518 0 l  1518 -3 1517 -9 1516 -18 ct 
1516 -27 1516 -35 1516 -42 ct 1515 -42 l  p
1383 -131 m  1383 -94 1388 -68 1398 -53 ct 1407 -37 1423 -29 1445 -29 ct 1469 -29 1487 -37 1498 -54 ct 
1509 -71 1515 -98 1515 -133 ct 1515 -168 1509 -193 1498 -209 ct 1487 -225 1469 -233 1445 -233 ct 
1423 -233 1407 -225 1398 -209 ct 1388 -193 1383 -167 1383 -131 ct p ef
1845 -130 m  1845 -85 1835 -51 1815 -28 ct 1795 -6 1766 5 1728 5 ct 1690 5 1661 -7 1642 -30 ct 
1622 -53 1613 -86 1613 -130 ct 1613 -220 1652 -265 1729 -265 ct 1769 -265 1799 -254 1817 -232 ct 
1836 -210 1845 -176 1845 -130 ct p
1800 -130 m  1800 -166 1795 -192 1784 -209 ct 1773 -225 1755 -233 1730 -233 ct 
1705 -233 1686 -225 1675 -208 ct 1664 -191 1658 -166 1658 -130 ct 1658 -96 1664 -70 1675 -53 ct 
1686 -36 1704 -27 1728 -27 ct 1754 -27 1772 -35 1783 -52 ct 1794 -69 1800 -95 1800 -130 ct 
p ef
1901 0 m  1901 -200 l  1901 -218 1901 -238 1900 -260 ct 1941 -260 l  1942 -231 1943 -213 1943 -207 ct 
1944 -207 l  1950 -229 1958 -245 1967 -253 ct 1976 -261 1989 -265 2005 -265 ct 
2011 -265 2017 -264 2023 -263 ct 2023 -223 l  2017 -225 2010 -225 2000 -225 ct 
1982 -225 1968 -218 1959 -202 ct 1949 -187 1945 -164 1945 -136 ct 1945 0 l  1901 0 l 
p ef
pom
0.996 c 13398 20996 m  11499 20996 l  11499 19396 l  15298 19396 l  15298 20996 l 
13398 20996 l  p ef
0.000 c 13398 20995 m  11498 20995 l  11498 19396 l  15298 19396 l  15298 20995 l 
13398 20995 l  pc
pum
11752 20323 t
332 -173 m  332 -138 326 -107 312 -81 ct 298 -55 279 -35 254 -21 ct 229 -7 200 0 167 0 ct 
40 0 l  40 -339 l  153 -339 l  210 -339 254 -324 286 -296 ct 317 -267 332 -226 332 -173 ct 
p
286 -173 m  286 -215 275 -247 252 -269 ct 229 -291 195 -302 152 -302 ct 86 -302 l 
86 -37 l  162 -37 l  187 -37 209 -42 228 -53 ct 246 -64 261 -80 271 -100 ct 
281 -121 286 -145 286 -173 ct p ef
422 -121 m  422 -91 429 -68 441 -52 ct 453 -36 471 -27 495 -27 ct 514 -27 529 -31 540 -39 ct 
552 -46 559 -56 563 -67 ct 601 -57 l  586 -16 550 5 495 5 ct 457 5 427 -6 407 -29 ct 
387 -52 377 -86 377 -132 ct 377 -175 387 -208 407 -231 ct 427 -254 456 -265 493 -265 ct 
570 -265 608 -219 608 -127 ct 608 -121 l  422 -121 l  p
564 -154 m  561 -181 554 -201 543 -214 ct 531 -227 514 -233 493 -233 ct 472 -233 455 -226 443 -212 ct 
431 -198 424 -179 423 -154 ct 564 -154 l  p ef
860 -72 m  860 -47 850 -28 832 -15 ct 813 -2 787 5 754 5 ct 722 5 697 0 679 -11 ct 
661 -22 650 -38 645 -61 ct 683 -68 l  687 -54 694 -44 706 -38 ct 717 -31 733 -28 754 -28 ct 
776 -28 792 -31 802 -38 ct 812 -45 818 -55 818 -68 ct 818 -79 814 -87 807 -93 ct 
800 -100 789 -105 773 -109 ct 742 -117 l  717 -124 699 -130 689 -136 ct 678 -142 670 -150 664 -159 ct 
658 -168 655 -178 655 -191 ct 655 -215 664 -233 680 -245 ct 697 -258 722 -264 754 -264 ct 
783 -264 806 -259 823 -249 ct 840 -239 851 -223 855 -200 ct 816 -195 l  814 -207 807 -216 797 -222 ct 
786 -228 772 -231 754 -231 ct 735 -231 720 -228 711 -222 ct 702 -216 697 -207 697 -195 ct 
697 -188 699 -182 703 -177 ct 707 -172 713 -168 720 -165 ct 728 -162 744 -157 768 -151 ct 
791 -145 807 -140 817 -135 ct 827 -130 835 -125 841 -119 ct 847 -113 852 -106 855 -98 ct 
858 -90 860 -82 860 -72 ct p ef
942 -121 m  942 -91 949 -68 961 -52 ct 973 -36 991 -27 1015 -27 ct 1034 -27 1049 -31 1060 -39 ct 
1072 -46 1079 -56 1083 -67 ct 1121 -57 l  1106 -16 1070 5 1015 5 ct 977 5 947 -6 927 -29 ct 
907 -52 897 -86 897 -132 ct 897 -175 907 -208 927 -231 ct 947 -254 976 -265 1013 -265 ct 
1090 -265 1128 -219 1128 -127 ct 1128 -121 l  942 -121 l  p
1084 -154 m  1081 -181 1074 -201 1063 -214 ct 1051 -227 1034 -233 1013 -233 ct 
992 -233 975 -226 963 -212 ct 951 -198 944 -179 943 -154 ct 1084 -154 l  p ef
1350 0 m  1350 -165 l  1350 -182 1348 -195 1345 -205 ct 1341 -214 1336 -221 1328 -225 ct 
1321 -229 1310 -232 1296 -232 ct 1275 -232 1259 -224 1247 -210 ct 1235 -196 1229 -176 1229 -151 ct 
1229 0 l  1185 0 l  1185 -205 l  1185 -235 1185 -253 1184 -260 ct 1225 -260 l 
1225 -259 1225 -257 1225 -254 ct 1225 -250 1226 -246 1226 -242 ct 1226 -237 1226 -228 1227 -216 ct 
1227 -216 l  1237 -234 1249 -246 1262 -254 ct 1275 -261 1291 -265 1311 -265 ct 
1339 -265 1360 -258 1373 -244 ct 1387 -230 1393 -206 1393 -173 ct 1393 0 l  1350 0 l 
p ef
1575 0 m  1523 0 l  1429 -260 l  1475 -260 l  1532 -91 l  1534 -84 1540 -65 1549 -34 ct 
1557 -62 l  1567 -90 l  1626 -260 l  1672 -260 l  1575 0 l  p ef
1925 -130 m  1925 -85 1915 -51 1895 -28 ct 1875 -6 1846 5 1808 5 ct 1770 5 1741 -7 1722 -30 ct 
1702 -53 1693 -86 1693 -130 ct 1693 -220 1732 -265 1809 -265 ct 1849 -265 1879 -254 1897 -232 ct 
1916 -210 1925 -176 1925 -130 ct p
1880 -130 m  1880 -166 1875 -192 1864 -209 ct 1853 -225 1835 -233 1810 -233 ct 
1785 -233 1766 -225 1755 -208 ct 1744 -191 1738 -166 1738 -130 ct 1738 -96 1744 -70 1755 -53 ct 
1766 -36 1784 -27 1808 -27 ct 1834 -27 1852 -35 1863 -52 ct 1874 -69 1880 -95 1880 -130 ct 
p ef
1980 0 m  1980 -357 l  2024 -357 l  2024 0 l  1980 0 l  p ef
2205 0 m  2153 0 l  2059 -260 l  2105 -260 l  2162 -91 l  2164 -84 2170 -65 2179 -34 ct 
2187 -62 l  2197 -90 l  2256 -260 l  2302 -260 l  2205 0 l  p ef
2369 -121 m  2369 -91 2376 -68 2388 -52 ct 2400 -36 2418 -27 2442 -27 ct 2461 -27 2476 -31 2487 -39 ct 
2499 -46 2506 -56 2510 -67 ct 2548 -57 l  2533 -16 2497 5 2442 5 ct 2404 5 2374 -6 2354 -29 ct 
2334 -52 2324 -86 2324 -132 ct 2324 -175 2334 -208 2354 -231 ct 2374 -254 2403 -265 2440 -265 ct 
2517 -265 2555 -219 2555 -127 ct 2555 -121 l  2369 -121 l  p
2511 -154 m  2508 -181 2501 -201 2490 -214 ct 2478 -227 2461 -233 2440 -233 ct 
2419 -233 2402 -226 2390 -212 ct 2378 -198 2371 -179 2370 -154 ct 2511 -154 l 
p ef
2776 -42 m  2768 -26 2757 -14 2744 -6 ct 2731 1 2714 4 2695 4 ct 2662 4 2637 -7 2622 -29 ct 
2606 -51 2599 -84 2599 -129 ct 2599 -220 2631 -265 2695 -265 ct 2714 -265 2731 -261 2744 -254 ct 
2757 -247 2768 -236 2776 -220 ct 2776 -220 l  2776 -249 l  2776 -357 l  2819 -357 l 
2819 -54 l  2819 -27 2819 -9 2820 0 ct 2779 0 l  2779 -3 2778 -9 2777 -18 ct 
2777 -27 2777 -35 2777 -42 ct 2776 -42 l  p
2644 -131 m  2644 -94 2649 -68 2659 -53 ct 2668 -37 2684 -29 2706 -29 ct 2730 -29 2748 -37 2759 -54 ct 
2770 -71 2776 -98 2776 -133 ct 2776 -168 2770 -193 2759 -209 ct 2748 -225 2730 -233 2706 -233 ct 
2684 -233 2668 -225 2659 -209 ct 2649 -193 2644 -167 2644 -131 ct p ef
3106 -130 m  3106 -85 3096 -51 3076 -28 ct 3056 -6 3027 5 2989 5 ct 2951 5 2922 -7 2903 -30 ct 
2883 -53 2874 -86 2874 -130 ct 2874 -220 2913 -265 2990 -265 ct 3030 -265 3060 -254 3078 -232 ct 
3097 -210 3106 -176 3106 -130 ct p
3061 -130 m  3061 -166 3056 -192 3045 -209 ct 3034 -225 3016 -233 2991 -233 ct 
2966 -233 2947 -225 2936 -208 ct 2925 -191 2919 -166 2919 -130 ct 2919 -96 2925 -70 2936 -53 ct 
2947 -36 2965 -27 2989 -27 ct 3015 -27 3033 -35 3044 -52 ct 3055 -69 3061 -95 3061 -130 ct 
p ef
3162 0 m  3162 -200 l  3162 -218 3162 -238 3161 -260 ct 3202 -260 l  3203 -231 3204 -213 3204 -207 ct 
3205 -207 l  3211 -229 3219 -245 3228 -253 ct 3237 -261 3250 -265 3266 -265 ct 
3272 -265 3278 -264 3284 -263 ct 3284 -223 l  3278 -225 3271 -225 3261 -225 ct 
3243 -225 3229 -218 3220 -202 ct 3210 -187 3206 -164 3206 -136 ct 3206 0 l  3162 0 l 
p ef
pom
0.996 c 17898 20996 m  15998 20996 l  15998 19396 l  19798 19396 l  19798 20996 l 
17898 20996 l  p ef
0.000 c 17897 20995 m  15997 20995 l  15997 19396 l  19797 19396 l  19797 20995 l 
17897 20995 l  pc
pum
16910 20323 t
332 -173 m  332 -138 326 -107 312 -81 ct 298 -55 279 -35 254 -21 ct 229 -7 200 0 167 0 ct 
40 0 l  40 -339 l  153 -339 l  210 -339 254 -324 286 -296 ct 317 -267 332 -226 332 -173 ct 
p
286 -173 m  286 -215 275 -247 252 -269 ct 229 -291 195 -302 152 -302 ct 86 -302 l 
86 -37 l  162 -37 l  187 -37 209 -42 228 -53 ct 246 -64 261 -80 271 -100 ct 
281 -121 286 -145 286 -173 ct p ef
422 -121 m  422 -91 429 -68 441 -52 ct 453 -36 471 -27 495 -27 ct 514 -27 529 -31 540 -39 ct 
552 -46 559 -56 563 -67 ct 601 -57 l  586 -16 550 5 495 5 ct 457 5 427 -6 407 -29 ct 
387 -52 377 -86 377 -132 ct 377 -175 387 -208 407 -231 ct 427 -254 456 -265 493 -265 ct 
570 -265 608 -219 608 -127 ct 608 -121 l  422 -121 l  p
564 -154 m  561 -181 554 -201 543 -214 ct 531 -227 514 -233 493 -233 ct 472 -233 455 -226 443 -212 ct 
431 -198 424 -179 423 -154 ct 564 -154 l  p ef
860 -72 m  860 -47 850 -28 832 -15 ct 813 -2 787 5 754 5 ct 722 5 697 0 679 -11 ct 
661 -22 650 -38 645 -61 ct 683 -68 l  687 -54 694 -44 706 -38 ct 717 -31 733 -28 754 -28 ct 
776 -28 792 -31 802 -38 ct 812 -45 818 -55 818 -68 ct 818 -79 814 -87 807 -93 ct 
800 -100 789 -105 773 -109 ct 742 -117 l  717 -124 699 -130 689 -136 ct 678 -142 670 -150 664 -159 ct 
658 -168 655 -178 655 -191 ct 655 -215 664 -233 680 -245 ct 697 -258 722 -264 754 -264 ct 
783 -264 806 -259 823 -249 ct 840 -239 851 -223 855 -200 ct 816 -195 l  814 -207 807 -216 797 -222 ct 
786 -228 772 -231 754 -231 ct 735 -231 720 -228 711 -222 ct 702 -216 697 -207 697 -195 ct 
697 -188 699 -182 703 -177 ct 707 -172 713 -168 720 -165 ct 728 -162 744 -157 768 -151 ct 
791 -145 807 -140 817 -135 ct 827 -130 835 -125 841 -119 ct 847 -113 852 -106 855 -98 ct 
858 -90 860 -82 860 -72 ct p ef
909 -316 m  909 -357 l  952 -357 l  952 -316 l  909 -316 l  p
909 0 m  909 -260 l  952 -260 l  952 0 l  909 0 l  p ef
1118 102 m  1090 102 1067 96 1050 85 ct 1033 74 1022 58 1018 38 ct 1061 32 l 
1064 44 1070 53 1080 59 ct 1090 66 1103 69 1119 69 ct 1162 69 1184 44 1184 -7 ct 
1184 -48 l  1183 -48 l  1175 -32 1164 -19 1150 -11 ct 1135 -2 1119 2 1100 2 ct 
1068 2 1044 -9 1029 -30 ct 1014 -51 1007 -84 1007 -130 ct 1007 -176 1015 -210 1031 -231 ct 
1047 -253 1072 -264 1104 -264 ct 1123 -264 1139 -260 1152 -252 ct 1166 -243 1176 -231 1184 -216 ct 
1184 -216 l  1184 -220 1185 -229 1185 -241 ct 1186 -253 1187 -259 1187 -260 ct 
1228 -260 l  1227 -252 1227 -234 1227 -206 ct 1227 -8 l  1227 65 1191 102 1118 102 ct 
p
1184 -130 m  1184 -151 1181 -169 1175 -185 ct 1169 -200 1161 -212 1151 -220 ct 
1140 -228 1128 -232 1115 -232 ct 1093 -232 1077 -224 1067 -208 ct 1057 -192 1051 -166 1051 -130 ct 
1051 -94 1056 -69 1066 -53 ct 1075 -38 1091 -30 1114 -30 ct 1128 -30 1140 -34 1151 -42 ct 
1161 -50 1169 -62 1175 -77 ct 1181 -92 1184 -109 1184 -130 ct p ef
1461 0 m  1461 -165 l  1461 -182 1459 -195 1456 -205 ct 1452 -214 1447 -221 1439 -225 ct 
1432 -229 1421 -232 1407 -232 ct 1386 -232 1370 -224 1358 -210 ct 1346 -196 1340 -176 1340 -151 ct 
1340 0 l  1296 0 l  1296 -205 l  1296 -235 1296 -253 1295 -260 ct 1336 -260 l 
1336 -259 1336 -257 1336 -254 ct 1336 -250 1337 -246 1337 -242 ct 1337 -237 1337 -228 1338 -216 ct 
1338 -216 l  1348 -234 1360 -246 1373 -254 ct 1386 -261 1402 -265 1422 -265 ct 
1450 -265 1471 -258 1484 -244 ct 1498 -230 1504 -206 1504 -173 ct 1504 0 l  1461 0 l 
p ef
1603 -121 m  1603 -91 1610 -68 1622 -52 ct 1634 -36 1652 -27 1676 -27 ct 1695 -27 1710 -31 1721 -39 ct 
1733 -46 1740 -56 1744 -67 ct 1782 -57 l  1767 -16 1731 5 1676 5 ct 1638 5 1608 -6 1588 -29 ct 
1568 -52 1558 -86 1558 -132 ct 1558 -175 1568 -208 1588 -231 ct 1608 -254 1637 -265 1674 -265 ct 
1751 -265 1789 -219 1789 -127 ct 1789 -121 l  1603 -121 l  p
1745 -154 m  1742 -181 1735 -201 1724 -214 ct 1712 -227 1695 -233 1674 -233 ct 
1653 -233 1636 -226 1624 -212 ct 1612 -198 1605 -179 1604 -154 ct 1745 -154 l 
p ef
1846 0 m  1846 -200 l  1846 -218 1846 -238 1845 -260 ct 1886 -260 l  1887 -231 1888 -213 1888 -207 ct 
1889 -207 l  1895 -229 1903 -245 1912 -253 ct 1921 -261 1934 -265 1950 -265 ct 
1956 -265 1962 -264 1968 -263 ct 1968 -223 l  1962 -225 1955 -225 1945 -225 ct 
1927 -225 1913 -218 1904 -202 ct 1894 -187 1890 -164 1890 -136 ct 1890 0 l  1846 0 l 
p ef
pom
10398 12797 m  5799 14397 l  ps
10398 12797 m  15198 14397 l  ps
5799 15996 m  5799 17196 l  ps
15198 15996 m  13398 19396 l  ps
15198 15996 m  17897 19396 l  ps
0 9801 t 
pom
count op_count sub {pop} repeat countdictstack dict_count sub {end} repeat b4_inc_state restore
%%PageTrailer
%%Trailer
%%EOF
