%!PS-Adobe-3.0 EPSF-3.0 
%%BoundingBox: 0 0 289 258
%%Pages: 0
%%Creator: LibreOffice 5.3
%%Title: none
%%CreationDate: none
%%LanguageLevel: 2
%%EndComments
%%BeginProlog
%%BeginResource: procset SDRes-Prolog 1.0 0
/b4_inc_state save def
/dict_count countdictstack def
/op_count count 1 sub def
userdict begin
0 setgray 0 setlinecap 1 setlinewidth 0 setlinejoin 10 setmiterlimit[] 0 setdash newpath
/languagelevel where {pop languagelevel 1 ne {false setstrokeadjust false setoverprint} if} if
/bdef {bind def} bind def
/c {setgray} bdef
/l {neg lineto} bdef
/rl {neg rlineto} bdef
/lc {setlinecap} bdef
/lj {setlinejoin} bdef
/lw {setlinewidth} bdef
/ml {setmiterlimit} bdef
/ld {setdash} bdef
/m {neg moveto} bdef
/ct {6 2 roll neg 6 2 roll neg 6 2 roll neg curveto} bdef
/r {rotate} bdef
/t {neg translate} bdef
/s {scale} bdef
/sw {show} bdef
/gs {gsave} bdef
/gr {grestore} bdef
/f {findfont dup length dict begin
{1 index /FID ne {def} {pop pop} ifelse} forall /Encoding ISOLatin1Encoding def
currentdict end /NFont exch definefont pop /NFont findfont} bdef
/p {closepath} bdef
/sf {scalefont setfont} bdef
/ef {eofill}bdef
/pc {closepath stroke}bdef
/ps {stroke}bdef
/pum {matrix currentmatrix}bdef
/pom {setmatrix}bdef
/bs {/aString exch def /nXOfs exch def /nWidth exch def currentpoint nXOfs 0 rmoveto pum nWidth aString stringwidth pop div 1 scale aString show pom moveto} bdef
%%EndResource
%%EndProlog
%%BeginSetup
%%EndSetup
%%Page: 1 1
%%BeginPageSetup
%%EndPageSetup
pum
0.02833 0.02833 s 
0 -9105 t
/tm matrix currentmatrix def
tm setmatrix
-4301 -1599 t 
1 1 s 
0.996 c 9698 1600 m  10038 1600 10298 1860 10298 2200 ct 10298 2539 10038 2799 9698 2799 ct 
9358 2799 9098 2539 9098 2200 ct 9098 1860 9358 1600 9698 1600 ct p
9098 1600 m  9098 1600 l  p
10299 2800 m  10299 2800 l  p ef
0 lw 1 lj 0.000 c 9698 1599 m  10038 1599 10297 1859 10297 2199 ct 10297 2539 10038 2799 9698 2799 ct 
9358 2799 9098 2539 9098 2199 ct 9098 1859 9358 1599 9698 1599 ct pc
9098 1599 m  9098 1599 l  pc
10298 2800 m  10298 2800 l  pc
pum
9421 2260 t
256 0 m  256 -213 l  256 -235 254 -252 249 -264 ct 245 -277 238 -285 229 -291 ct 
219 -296 205 -299 187 -299 ct 160 -299 139 -290 123 -271 ct 108 -253 100 -227 100 -195 ct 
100 0 l  44 0 l  44 -264 l  44 -303 43 -327 42 -336 ct 95 -336 l  95 -335 95 -332 96 -327 ct 
96 -323 96 -318 96 -312 ct 97 -306 97 -295 97 -278 ct 98 -278 l  111 -302 126 -318 143 -328 ct 
160 -337 181 -342 206 -342 ct 242 -342 269 -333 286 -315 ct 303 -296 312 -266 312 -224 ct 
312 0 l  256 0 l  p ef
pom
pum
9772 2526 t
28 0 m  28 -27 l  93 -27 l  93 -222 l  35 -181 l  35 -212 l  95 -253 l 
125 -253 l  125 -27 l  187 -27 l  187 0 l  28 0 l  p ef
pom
0.996 c 7599 4499 m  7938 4499 8198 4759 8198 5099 ct 8198 5439 7938 5699 7599 5699 ct 
7259 5699 6999 5439 6999 5099 ct 6999 4759 7259 4499 7599 4499 ct p
6999 4499 m  6999 4499 l  p
8199 5700 m  8199 5700 l  p ef
17.99625 lw 0.000 c 7598 4499 m  7938 4499 8198 4758 8198 5098 ct 8198 5438 7938 5698 7598 5698 ct 
7258 5698 6998 5438 6998 5098 ct 6998 4758 7258 4499 7598 4499 ct pc
6998 4499 m  6998 4499 l  pc
8199 5699 m  8199 5699 l  pc
pum
7322 5159 t
256 0 m  256 -213 l  256 -235 254 -252 249 -264 ct 245 -277 238 -285 229 -291 ct 
219 -296 205 -299 187 -299 ct 160 -299 139 -290 123 -271 ct 108 -253 100 -227 100 -195 ct 
100 0 l  44 0 l  44 -264 l  44 -303 43 -327 42 -336 ct 95 -336 l  95 -335 95 -332 96 -327 ct 
96 -323 96 -318 96 -312 ct 97 -306 97 -295 97 -278 ct 98 -278 l  111 -302 126 -318 143 -328 ct 
160 -337 181 -342 206 -342 ct 242 -342 269 -333 286 -315 ct 303 -296 312 -266 312 -224 ct 
312 0 l  256 0 l  p ef
pom
pum
7672 5426 t
19 0 m  19 -23 l  25 -37 32 -49 41 -60 ct 50 -71 59 -80 69 -89 ct 78 -98 88 -106 97 -113 ct 
107 -121 116 -128 123 -136 ct 131 -143 137 -151 142 -159 ct 147 -167 149 -176 149 -187 ct 
149 -200 145 -211 137 -219 ct 129 -227 117 -230 103 -230 ct 89 -230 78 -227 69 -219 ct 
60 -212 55 -201 53 -188 ct 20 -191 l  22 -211 31 -227 46 -239 ct 61 -251 80 -257 103 -257 ct 
128 -257 148 -251 162 -239 ct 175 -227 182 -210 182 -188 ct 182 -178 180 -168 175 -158 ct 
171 -149 164 -139 155 -129 ct 147 -120 130 -104 105 -84 ct 91 -73 80 -63 72 -54 ct 
64 -45 58 -36 54 -27 ct 186 -27 l  186 0 l  19 0 l  p ef
pom
0.996 c 11698 4499 m  12038 4499 12298 4759 12298 5099 ct 12298 5439 12038 5699 11698 5699 ct 
11358 5699 11098 5439 11098 5099 ct 11098 4759 11358 4499 11698 4499 ct p
11098 4499 m  11098 4499 l  p
12299 5700 m  12299 5700 l  p ef
0 lw 0.000 c 11697 4499 m  12037 4499 12297 4758 12297 5098 ct 12297 5438 12037 5698 11697 5698 ct 
11357 5698 11097 5438 11097 5098 ct 11097 4758 11357 4499 11697 4499 ct pc
11097 4499 m  11097 4499 l  pc
12298 5699 m  12298 5699 l  pc
pum
11421 5159 t
256 0 m  256 -213 l  256 -235 254 -252 249 -264 ct 245 -277 238 -285 229 -291 ct 
219 -296 205 -299 187 -299 ct 160 -299 139 -290 123 -271 ct 108 -253 100 -227 100 -195 ct 
100 0 l  44 0 l  44 -264 l  44 -303 43 -327 42 -336 ct 95 -336 l  95 -335 95 -332 96 -327 ct 
96 -323 96 -318 96 -312 ct 97 -306 97 -295 97 -278 ct 98 -278 l  111 -302 126 -318 143 -328 ct 
160 -337 181 -342 206 -342 ct 242 -342 269 -333 286 -315 ct 303 -296 312 -266 312 -224 ct 
312 0 l  256 0 l  p ef
pom
pum
11772 5426 t
189 -69 m  189 -46 181 -28 166 -15 ct 151 -2 130 4 103 4 ct 77 4 57 -2 41 -13 ct 
26 -25 17 -42 14 -64 ct 47 -67 l  52 -38 70 -23 103 -23 ct 119 -23 132 -27 141 -35 ct 
150 -43 155 -55 155 -70 ct 155 -84 150 -95 139 -102 ct 128 -110 113 -114 93 -114 ct 
75 -114 l  75 -142 l  92 -142 l  110 -142 124 -146 134 -154 ct 143 -161 148 -172 148 -186 ct 
148 -200 144 -210 136 -218 ct 128 -226 117 -230 101 -230 ct 87 -230 75 -226 66 -219 ct 
57 -212 52 -201 51 -188 ct 18 -190 l  21 -211 29 -227 44 -239 ct 59 -251 78 -257 101 -257 ct 
127 -257 146 -251 160 -239 ct 174 -227 181 -210 181 -189 ct 181 -173 177 -160 168 -150 ct 
159 -140 146 -133 128 -129 ct 128 -128 l  147 -126 162 -120 173 -109 ct 183 -99 189 -85 189 -69 ct 
p ef
pom
0.996 c 9500 7300 m  9840 7300 10100 7560 10100 7900 ct 10100 8240 9840 8500 9500 8500 ct 
9160 8500 8900 8240 8900 7900 ct 8900 7560 9160 7300 9500 7300 ct p
8900 7300 m  8900 7300 l  p
10101 8501 m  10101 8501 l  p ef
0.000 c 9500 7300 m  9840 7300 10100 7560 10100 7900 ct 10100 8240 9840 8500 9500 8500 ct 
9160 8500 8900 8240 8900 7900 ct 8900 7560 9160 7300 9500 7300 ct pc
8900 7300 m  8900 7300 l  pc
10101 8501 m  10101 8501 l  pc
pum
9223 7960 t
256 0 m  256 -213 l  256 -235 254 -252 249 -264 ct 245 -277 238 -285 229 -291 ct 
219 -296 205 -299 187 -299 ct 160 -299 139 -290 123 -271 ct 108 -253 100 -227 100 -195 ct 
100 0 l  44 0 l  44 -264 l  44 -303 43 -327 42 -336 ct 95 -336 l  95 -335 95 -332 96 -327 ct 
96 -323 96 -318 96 -312 ct 97 -306 97 -295 97 -278 ct 98 -278 l  111 -302 126 -318 143 -328 ct 
160 -337 181 -342 206 -342 ct 242 -342 269 -333 286 -315 ct 303 -296 312 -266 312 -224 ct 
312 0 l  256 0 l  p ef
pom
pum
9574 8227 t
158 -57 m  158 1 l  128 1 l  128 -57 l  8 -57 l  8 -82 l  124 -253 l  158 -253 l 
158 -83 l  194 -83 l  194 -57 l  158 -57 l  p
128 -217 m  128 -216 126 -213 123 -207 ct 120 -201 117 -197 116 -195 ct 51 -99 l 
41 -86 l  38 -83 l  128 -83 l  128 -217 l  p ef
pom
0.996 c 13899 7300 m  14239 7300 14499 7560 14499 7900 ct 14499 8240 14239 8500 13899 8500 ct 
13559 8500 13299 8240 13299 7900 ct 13299 7560 13559 7300 13899 7300 ct p
13299 7300 m  13299 7300 l  p
14500 8501 m  14500 8501 l  p ef
0.000 c 13899 7300 m  14239 7300 14499 7560 14499 7900 ct 14499 8240 14239 8500 13899 8500 ct 
13559 8500 13299 8240 13299 7900 ct 13299 7560 13559 7300 13899 7300 ct pc
13299 7300 m  13299 7300 l  pc
14500 8501 m  14500 8501 l  pc
pum
13622 7960 t
256 0 m  256 -213 l  256 -235 254 -252 249 -264 ct 245 -277 238 -285 229 -291 ct 
219 -296 205 -299 187 -299 ct 160 -299 139 -290 123 -271 ct 108 -253 100 -227 100 -195 ct 
100 0 l  44 0 l  44 -264 l  44 -303 43 -327 42 -336 ct 95 -336 l  95 -335 95 -332 96 -327 ct 
96 -323 96 -318 96 -312 ct 97 -306 97 -295 97 -278 ct 98 -278 l  111 -302 126 -318 143 -328 ct 
160 -337 181 -342 206 -342 ct 242 -342 269 -333 286 -315 ct 303 -296 312 -266 312 -224 ct 
312 0 l  256 0 l  p ef
pom
pum
13973 8227 t
189 -82 m  189 -56 181 -35 167 -19 ct 152 -4 132 4 107 4 ct 78 4 56 -7 41 -28 ct 
26 -49 19 -80 19 -120 ct 19 -164 27 -198 42 -221 ct 58 -245 80 -256 109 -256 ct 
147 -256 172 -239 181 -205 ct 151 -199 l  144 -220 130 -230 109 -230 ct 90 -230 76 -221 66 -204 ct 
56 -187 51 -162 51 -130 ct 57 -140 65 -149 76 -154 ct 86 -160 99 -163 112 -163 ct 
136 -163 154 -156 168 -141 ct 182 -127 189 -107 189 -82 ct p
156 -81 m  156 -99 151 -113 142 -123 ct 133 -133 121 -138 105 -138 ct 89 -138 77 -134 68 -125 ct 
59 -116 54 -104 54 -89 ct 54 -69 59 -53 69 -41 ct 78 -28 91 -22 106 -22 ct 121 -22 133 -27 142 -38 ct 
151 -48 156 -63 156 -81 ct p ef
pom
9273 2624 m  7598 4499 l  ps
10123 2624 m  11697 4499 l  ps
11272 5523 m  9500 7300 l  ps
12122 5523 m  13899 7300 l  ps
0.996 c 4902 7301 m  5242 7301 5502 7561 5502 7901 ct 5502 8241 5242 8501 4902 8501 ct 
4562 8501 4302 8241 4302 7901 ct 4302 7561 4562 7301 4902 7301 ct p
4302 7301 m  4302 7301 l  p
5503 8502 m  5503 8502 l  p ef
0.000 c 4902 7301 m  5241 7301 5501 7561 5501 7901 ct 5501 8241 5241 8501 4902 8501 ct 
4562 8501 4302 8241 4302 7901 ct 4302 7561 4562 7301 4902 7301 ct pc
4302 7301 m  4302 7301 l  pc
5502 8502 m  5502 8502 l  pc
pum
4625 7961 t
256 0 m  256 -213 l  256 -235 254 -252 249 -264 ct 245 -277 238 -285 229 -291 ct 
219 -296 205 -299 187 -299 ct 160 -299 139 -290 123 -271 ct 108 -253 100 -227 100 -195 ct 
100 0 l  44 0 l  44 -264 l  44 -303 43 -327 42 -336 ct 95 -336 l  95 -335 95 -332 96 -327 ct 
96 -323 96 -318 96 -312 ct 97 -306 97 -295 97 -278 ct 98 -278 l  111 -302 126 -318 143 -328 ct 
160 -337 181 -342 206 -342 ct 242 -342 269 -333 286 -315 ct 303 -296 312 -266 312 -224 ct 
312 0 l  256 0 l  p ef
pom
pum
4976 8228 t
186 -227 m  160 -188 142 -157 131 -134 ct 121 -112 113 -90 107 -68 ct 102 -46 99 -24 99 -1 ct 
66 -1 l  66 -33 72 -67 86 -103 ct 100 -138 123 -179 155 -226 ct 19 -226 l  19 -253 l 
186 -253 l  186 -227 l  p ef
pom
4902 7301 m  7173 5523 l  ps
0.996 c 7801 9501 m  8141 9501 8401 9761 8401 10101 ct 8401 10441 8141 10701 7801 10701 ct 
7462 10701 7202 10441 7202 10101 ct 7202 9761 7462 9501 7801 9501 ct p
7202 9501 m  7202 9501 l  p
8402 10702 m  8402 10702 l  p ef
0.000 c 7801 9500 m  8141 9500 8401 9760 8401 10100 ct 8401 10440 8141 10700 7801 10700 ct 
7461 10700 7201 10440 7201 10100 ct 7201 9760 7461 9500 7801 9500 ct pc
7201 9500 m  7201 9500 l  pc
8402 10701 m  8402 10701 l  pc
pum
7525 10161 t
256 0 m  256 -213 l  256 -235 254 -252 249 -264 ct 245 -277 238 -285 229 -291 ct 
219 -296 205 -299 187 -299 ct 160 -299 139 -290 123 -271 ct 108 -253 100 -227 100 -195 ct 
100 0 l  44 0 l  44 -264 l  44 -303 43 -327 42 -336 ct 95 -336 l  95 -335 95 -332 96 -327 ct 
96 -323 96 -318 96 -312 ct 97 -306 97 -295 97 -278 ct 98 -278 l  111 -302 126 -318 143 -328 ct 
160 -337 181 -342 206 -342 ct 242 -342 269 -333 286 -315 ct 303 -296 312 -266 312 -224 ct 
312 0 l  256 0 l  p ef
pom
pum
7875 10428 t
189 -70 m  189 -47 181 -29 166 -16 ct 152 -3 130 4 102 4 ct 75 4 54 -2 39 -15 ct 
24 -28 16 -46 16 -70 ct 16 -86 21 -100 30 -112 ct 40 -123 52 -130 66 -132 ct 66 -133 l 
53 -136 42 -143 34 -154 ct 26 -164 22 -177 22 -191 ct 22 -211 29 -226 44 -238 ct 
58 -250 77 -256 102 -256 ct 127 -256 146 -250 161 -239 ct 175 -227 182 -211 182 -191 ct 
182 -177 178 -164 170 -153 ct 162 -143 151 -136 137 -133 ct 137 -132 l  154 -130 166 -123 175 -112 ct 
184 -101 189 -87 189 -70 ct p
149 -189 m  149 -218 133 -232 102 -232 ct 87 -232 75 -228 67 -221 ct 59 -214 55 -203 55 -189 ct 
55 -175 59 -164 67 -156 ct 76 -149 87 -145 102 -145 ct 117 -145 129 -148 137 -155 ct 
145 -162 149 -174 149 -189 ct p
155 -73 m  155 -89 150 -101 141 -109 ct 132 -117 119 -121 102 -121 ct 85 -121 72 -116 63 -108 ct 
54 -99 49 -88 49 -73 ct 49 -38 67 -20 103 -20 ct 120 -20 134 -24 142 -33 ct 151 -41 155 -55 155 -73 ct 
p ef
pom
0.996 c 12201 9501 m  12541 9501 12800 9761 12800 10101 ct 12800 10441 12541 10701 12201 10701 ct 
11861 10701 11601 10441 11601 10101 ct 11601 9761 11861 9501 12201 9501 ct p
11601 9501 m  11601 9501 l  p
12801 10702 m  12801 10702 l  p ef
0.000 c 12200 9500 m  12540 9500 12800 9760 12800 10100 ct 12800 10440 12540 10700 12200 10700 ct 
11860 10700 11600 10440 11600 10100 ct 11600 9760 11860 9500 12200 9500 ct pc
11600 9500 m  11600 9500 l  pc
12801 10701 m  12801 10701 l  pc
pum
11924 10161 t
256 0 m  256 -213 l  256 -235 254 -252 249 -264 ct 245 -277 238 -285 229 -291 ct 
219 -296 205 -299 187 -299 ct 160 -299 139 -290 123 -271 ct 108 -253 100 -227 100 -195 ct 
100 0 l  44 0 l  44 -264 l  44 -303 43 -327 42 -336 ct 95 -336 l  95 -335 95 -332 96 -327 ct 
96 -323 96 -318 96 -312 ct 97 -306 97 -295 97 -278 ct 98 -278 l  111 -302 126 -318 143 -328 ct 
160 -337 181 -342 206 -342 ct 242 -342 269 -333 286 -315 ct 303 -296 312 -266 312 -224 ct 
312 0 l  256 0 l  p ef
pom
pum
12275 10428 t
187 -131 m  187 -88 179 -54 163 -31 ct 148 -8 125 4 96 4 ct 76 4 60 0 48 -8 ct 
36 -17 28 -30 22 -49 ct 53 -54 l  60 -33 74 -22 96 -22 ct 115 -22 129 -31 139 -48 ct 
149 -65 155 -90 155 -122 ct 150 -111 142 -102 131 -96 ct 119 -89 106 -86 92 -86 ct 
70 -86 51 -94 38 -109 ct 24 -125 17 -146 17 -171 ct 17 -198 25 -218 40 -234 ct 
54 -249 75 -256 102 -256 ct 130 -256 151 -246 165 -225 ct 180 -204 187 -173 187 -131 ct 
p
152 -162 m  152 -183 147 -199 138 -211 ct 129 -224 116 -230 100 -230 ct 85 -230 73 -225 64 -214 ct 
55 -204 50 -189 50 -171 ct 50 -153 55 -138 64 -128 ct 73 -117 85 -112 100 -112 ct 
109 -112 118 -114 126 -118 ct 134 -122 140 -128 145 -136 ct 150 -144 152 -153 152 -162 ct 
p ef
pom
7801 9500 m  9075 8325 l  ps
9925 8325 m  12200 9500 l  ps
0 9105 t 
pom
count op_count sub {pop} repeat countdictstack dict_count sub {end} repeat b4_inc_state restore
%%PageTrailer
%%Trailer
%%EOF
