%!PS-Adobe-3.0 EPSF-3.0 
%%BoundingBox: 0 0 289 40
%%Pages: 0
%%Creator: LibreOffice 5.3
%%Title: none
%%CreationDate: none
%%LanguageLevel: 2
%%EndComments
%%BeginProlog
%%BeginResource: procset SDRes-Prolog 1.0 0
/b4_inc_state save def
/dict_count countdictstack def
/op_count count 1 sub def
userdict begin
0 setgray 0 setlinecap 1 setlinewidth 0 setlinejoin 10 setmiterlimit[] 0 setdash newpath
/languagelevel where {pop languagelevel 1 ne {false setstrokeadjust false setoverprint} if} if
/bdef {bind def} bind def
/c {setgray} bdef
/l {neg lineto} bdef
/rl {neg rlineto} bdef
/lc {setlinecap} bdef
/lj {setlinejoin} bdef
/lw {setlinewidth} bdef
/ml {setmiterlimit} bdef
/ld {setdash} bdef
/m {neg moveto} bdef
/ct {6 2 roll neg 6 2 roll neg 6 2 roll neg curveto} bdef
/r {rotate} bdef
/t {neg translate} bdef
/s {scale} bdef
/sw {show} bdef
/gs {gsave} bdef
/gr {grestore} bdef
/f {findfont dup length dict begin
{1 index /FID ne {def} {pop pop} ifelse} forall /Encoding ISOLatin1Encoding def
currentdict end /NFont exch definefont pop /NFont findfont} bdef
/p {closepath} bdef
/sf {scalefont setfont} bdef
/ef {eofill}bdef
/pc {closepath stroke}bdef
/ps {stroke}bdef
/pum {matrix currentmatrix}bdef
/pom {setmatrix}bdef
/bs {/aString exch def /nXOfs exch def /nWidth exch def currentpoint nXOfs 0 rmoveto pum nWidth aString stringwidth pop div 1 scale aString show pom moveto} bdef
%%EndResource
%%EndProlog
%%BeginSetup
%%EndSetup
%%Page: 1 1
%%BeginPageSetup
%%EndPageSetup
pum
0.02833 0.02855 s 
0 -1401 t
/tm matrix currentmatrix def
tm setmatrix
-5198 -9086 t 
1 1 s 
0.996 c 6049 10485 m  5199 10485 l  5199 9087 l  6899 9087 l  6899 10485 l 
6049 10485 l  p ef
0 lw 1 lj 0.000 c 6048 10485 m  5198 10485 l  5198 9087 l  6898 9087 l  6898 10485 l 
6048 10485 l  pc
pum
5384 9846 t
255 0 m  255 -212 l  255 -234 253 -251 249 -264 ct 245 -276 238 -285 228 -290 ct 
219 -295 205 -298 186 -298 ct 160 -298 138 -289 123 -270 ct 107 -252 100 -227 100 -194 ct 
100 0 l  44 0 l  44 -263 l  44 -302 43 -326 42 -335 ct 95 -335 l  95 -334 95 -331 95 -326 ct 
96 -322 96 -317 96 -311 ct 96 -305 97 -294 97 -278 ct 98 -278 l  111 -301 126 -317 143 -327 ct 
159 -336 180 -341 205 -341 ct 242 -341 269 -332 286 -314 ct 303 -295 311 -265 311 -223 ct 
311 0 l  255 0 l  p ef
pom
pum
5735 10112 t
28 0 m  28 -27 l  92 -27 l  92 -222 l  35 -181 l  35 -212 l  95 -253 l 
125 -253 l  125 -27 l  186 -27 l  186 0 l  28 0 l  p ef
pom
pum
5938 9846 t
39 -164 m  39 -224 49 -277 67 -325 ct 86 -372 115 -417 154 -459 ct 207 -459 l 
169 -416 140 -370 122 -322 ct 104 -274 95 -221 95 -163 ct 95 -106 104 -54 122 -6 ct 
140 43 168 88 207 132 ct 154 132 l  115 90 86 45 67 -3 ct 49 -50 39 -104 39 -163 ct 
39 -164 l  p ef
244 0 m  244 -39 l  254 -63 267 -85 282 -103 ct 298 -122 314 -138 330 -153 ct 
347 -168 364 -182 380 -195 ct 396 -208 411 -221 424 -233 ct 438 -246 448 -260 456 -274 ct 
465 -288 469 -304 469 -321 ct 469 -345 462 -364 448 -377 ct 434 -390 414 -397 389 -397 ct 
365 -397 346 -391 330 -378 ct 315 -365 306 -347 303 -323 ct 246 -329 l  250 -363 265 -391 291 -412 ct 
316 -432 349 -443 389 -443 ct 433 -443 467 -432 490 -412 ct 514 -391 526 -361 526 -323 ct 
526 -306 522 -290 514 -273 ct 507 -256 495 -239 480 -223 ct 465 -206 435 -180 392 -145 ct 
368 -125 350 -108 336 -92 ct 321 -77 311 -62 305 -47 ct 533 -47 l  533 0 l  244 0 l 
p ef
735 -163 m  735 -103 725 -50 707 -2 ct 688 45 659 90 621 132 ct 567 132 l  606 89 634 43 652 -5 ct 
670 -53 679 -106 679 -163 ct 679 -221 670 -274 652 -322 ct 634 -370 605 -416 567 -459 ct 
621 -459 l  660 -417 688 -372 707 -324 ct 726 -277 735 -223 735 -164 ct 735 -163 l 
p ef
pom
0.996 c 7748 10485 m  6899 10485 l  6899 9087 l  8598 9087 l  8598 10485 l 
7748 10485 l  p ef
0.000 c 7748 10485 m  6898 10485 l  6898 9087 l  8598 9087 l  8598 10485 l 
7748 10485 l  pc
pum
7084 9846 t
255 0 m  255 -212 l  255 -234 253 -251 249 -264 ct 245 -276 238 -285 228 -290 ct 
219 -295 205 -298 186 -298 ct 160 -298 138 -289 123 -270 ct 107 -252 100 -227 100 -194 ct 
100 0 l  44 0 l  44 -263 l  44 -302 43 -326 42 -335 ct 95 -335 l  95 -334 95 -331 95 -326 ct 
96 -322 96 -317 96 -311 ct 96 -305 97 -294 97 -278 ct 98 -278 l  111 -301 126 -317 143 -327 ct 
159 -336 180 -341 205 -341 ct 242 -341 269 -332 286 -314 ct 303 -295 311 -265 311 -223 ct 
311 0 l  255 0 l  p ef
pom
pum
7435 10112 t
18 0 m  18 -23 l  25 -37 32 -49 41 -60 ct 50 -71 59 -80 68 -89 ct 78 -98 88 -106 97 -113 ct 
107 -121 115 -128 123 -136 ct 131 -143 137 -151 141 -159 ct 146 -167 149 -176 149 -187 ct 
149 -200 145 -211 136 -219 ct 128 -227 117 -230 103 -230 ct 89 -230 77 -227 69 -219 ct 
60 -212 54 -201 53 -188 ct 20 -191 l  22 -211 31 -227 46 -239 ct 60 -251 79 -257 103 -257 ct 
128 -257 148 -251 161 -239 ct 175 -227 182 -210 182 -188 ct 182 -178 179 -168 175 -158 ct 
171 -149 164 -139 155 -129 ct 146 -120 129 -104 104 -84 ct 91 -73 80 -63 72 -54 ct 
63 -45 58 -36 54 -27 ct 186 -27 l  186 0 l  18 0 l  p ef
pom
pum
7638 9846 t
39 -164 m  39 -224 49 -277 67 -325 ct 86 -372 115 -417 154 -459 ct 207 -459 l 
169 -416 140 -370 122 -322 ct 104 -274 95 -221 95 -163 ct 95 -106 104 -54 122 -6 ct 
140 43 168 88 207 132 ct 154 132 l  115 90 86 45 67 -3 ct 49 -50 39 -104 39 -163 ct 
39 -164 l  p ef
537 -121 m  537 -80 524 -49 498 -27 ct 473 -5 436 6 389 6 ct 345 6 309 -4 283 -24 ct 
257 -44 241 -73 236 -112 ct 294 -118 l  301 -66 333 -40 389 -40 ct 417 -40 439 -47 455 -61 ct 
471 -75 479 -95 479 -122 ct 479 -146 470 -165 451 -178 ct 433 -191 407 -198 372 -198 ct 
341 -198 l  341 -246 l  371 -246 l  402 -246 425 -253 442 -266 ct 459 -280 467 -298 467 -321 ct 
467 -345 461 -363 447 -377 ct 433 -390 413 -397 386 -397 ct 361 -397 341 -391 326 -378 ct 
311 -366 302 -348 300 -325 ct 244 -329 l  248 -365 263 -393 288 -413 ct 313 -433 346 -443 386 -443 ct 
430 -443 464 -433 488 -412 ct 513 -392 525 -364 525 -327 ct 525 -300 517 -277 501 -259 ct 
486 -242 463 -230 433 -224 ct 433 -223 l  466 -219 491 -208 509 -190 ct 528 -172 537 -148 537 -121 ct 
p ef
735 -163 m  735 -103 725 -50 707 -2 ct 688 45 659 90 621 132 ct 567 132 l  606 89 634 43 652 -5 ct 
670 -53 679 -106 679 -163 ct 679 -221 670 -274 652 -322 ct 634 -370 605 -416 567 -459 ct 
621 -459 l  660 -417 688 -372 707 -324 ct 726 -277 735 -223 735 -164 ct 735 -163 l 
p ef
pom
0.996 c 9448 10485 m  8598 10485 l  8598 9087 l  10298 9087 l  10298 10485 l 
9448 10485 l  p ef
0.000 c 9448 10485 m  8598 10485 l  8598 9087 l  10297 9087 l  10297 10485 l 
9448 10485 l  pc
pum
8783 9846 t
255 0 m  255 -212 l  255 -234 253 -251 249 -264 ct 245 -276 238 -285 228 -290 ct 
219 -295 205 -298 186 -298 ct 160 -298 138 -289 123 -270 ct 107 -252 100 -227 100 -194 ct 
100 0 l  44 0 l  44 -263 l  44 -302 43 -326 42 -335 ct 95 -335 l  95 -334 95 -331 95 -326 ct 
96 -322 96 -317 96 -311 ct 96 -305 97 -294 97 -278 ct 98 -278 l  111 -301 126 -317 143 -327 ct 
159 -336 180 -341 205 -341 ct 242 -341 269 -332 286 -314 ct 303 -295 311 -265 311 -223 ct 
311 0 l  255 0 l  p ef
pom
pum
9134 10112 t
158 -57 m  158 1 l  127 1 l  127 -57 l  8 -57 l  8 -82 l  124 -253 l  158 -253 l 
158 -83 l  193 -83 l  193 -57 l  158 -57 l  p
127 -217 m  127 -216 126 -213 122 -207 ct 119 -201 117 -197 115 -195 ct 51 -99 l 
41 -86 l  38 -83 l  127 -83 l  127 -217 l  p ef
pom
pum
9337 9846 t
39 -164 m  39 -224 49 -277 67 -325 ct 86 -372 115 -417 154 -459 ct 207 -459 l 
169 -416 140 -370 122 -322 ct 104 -274 95 -221 95 -163 ct 95 -106 104 -54 122 -6 ct 
140 43 168 88 207 132 ct 154 132 l  115 90 86 45 67 -3 ct 49 -50 39 -104 39 -163 ct 
39 -164 l  p ef
540 -219 m  540 -146 527 -90 501 -52 ct 476 -13 438 6 388 6 ct 337 6 300 -13 275 -51 ct 
249 -89 237 -145 237 -219 ct 237 -293 249 -350 273 -387 ct 298 -424 337 -443 389 -443 ct 
441 -443 479 -424 503 -386 ct 528 -349 540 -293 540 -219 ct p
483 -219 m  483 -281 476 -327 461 -355 ct 447 -384 423 -398 389 -398 ct 355 -398 331 -384 316 -356 ct 
301 -328 293 -282 293 -219 ct 293 -157 301 -111 316 -83 ct 331 -54 355 -39 388 -39 ct 
421 -39 445 -54 460 -83 ct 476 -113 483 -158 483 -219 ct p ef
735 -163 m  735 -103 725 -50 707 -2 ct 688 45 659 90 621 132 ct 567 132 l  606 89 634 43 652 -5 ct 
670 -53 679 -106 679 -163 ct 679 -221 670 -274 652 -322 ct 634 -370 605 -416 567 -459 ct 
621 -459 l  660 -417 688 -372 707 -324 ct 726 -277 735 -223 735 -164 ct 735 -163 l 
p ef
pom
0.996 c 11148 10485 m  10298 10485 l  10298 9087 l  11998 9087 l  11998 10485 l 
11148 10485 l  p ef
0.000 c 11147 10485 m  10297 10485 l  10297 9087 l  11997 9087 l  11997 10485 l 
11147 10485 l  pc
pum
10483 9846 t
255 0 m  255 -212 l  255 -234 253 -251 249 -264 ct 245 -276 238 -285 228 -290 ct 
219 -295 205 -298 186 -298 ct 160 -298 138 -289 123 -270 ct 107 -252 100 -227 100 -194 ct 
100 0 l  44 0 l  44 -263 l  44 -302 43 -326 42 -335 ct 95 -335 l  95 -334 95 -331 95 -326 ct 
96 -322 96 -317 96 -311 ct 96 -305 97 -294 97 -278 ct 98 -278 l  111 -301 126 -317 143 -327 ct 
159 -336 180 -341 205 -341 ct 242 -341 269 -332 286 -314 ct 303 -295 311 -265 311 -223 ct 
311 0 l  255 0 l  p ef
pom
pum
10834 10112 t
189 -82 m  189 -55 181 -34 165 -19 ct 149 -4 127 4 99 4 ct 76 4 57 -1 42 -11 ct 
28 -22 19 -37 15 -56 ct 47 -60 l  54 -35 72 -22 100 -22 ct 117 -22 131 -28 140 -38 ct 
150 -49 155 -63 155 -81 ct 155 -97 150 -110 140 -120 ct 131 -130 117 -135 101 -135 ct 
92 -135 84 -133 76 -130 ct 69 -128 61 -123 54 -116 ct 22 -116 l  30 -253 l  174 -253 l 
174 -226 l  60 -226 l  55 -145 l  69 -156 86 -161 107 -161 ct 132 -161 152 -154 167 -139 ct 
181 -125 189 -105 189 -82 ct p ef
pom
pum
11037 9846 t
39 -164 m  39 -224 49 -277 67 -325 ct 86 -372 115 -417 154 -459 ct 207 -459 l 
169 -416 140 -370 122 -322 ct 104 -274 95 -221 95 -163 ct 95 -106 104 -54 122 -6 ct 
140 43 168 88 207 132 ct 154 132 l  115 90 86 45 67 -3 ct 49 -50 39 -104 39 -163 ct 
39 -164 l  p ef
540 -219 m  540 -146 527 -90 501 -52 ct 476 -13 438 6 388 6 ct 337 6 300 -13 275 -51 ct 
249 -89 237 -145 237 -219 ct 237 -293 249 -350 273 -387 ct 298 -424 337 -443 389 -443 ct 
441 -443 479 -424 503 -386 ct 528 -349 540 -293 540 -219 ct p
483 -219 m  483 -281 476 -327 461 -355 ct 447 -384 423 -398 389 -398 ct 355 -398 331 -384 316 -356 ct 
301 -328 293 -282 293 -219 ct 293 -157 301 -111 316 -83 ct 331 -54 355 -39 388 -39 ct 
421 -39 445 -54 460 -83 ct 476 -113 483 -158 483 -219 ct p ef
735 -163 m  735 -103 725 -50 707 -2 ct 688 45 659 90 621 132 ct 567 132 l  606 89 634 43 652 -5 ct 
670 -53 679 -106 679 -163 ct 679 -221 670 -274 652 -322 ct 634 -370 605 -416 567 -459 ct 
621 -459 l  660 -417 688 -372 707 -324 ct 726 -277 735 -223 735 -164 ct 735 -163 l 
p ef
pom
0.996 c 12847 10485 m  11998 10485 l  11998 9087 l  13697 9087 l  13697 10485 l 
12847 10485 l  p ef
0.000 c 12847 10485 m  11997 10485 l  11997 9087 l  13697 9087 l  13697 10485 l 
12847 10485 l  pc
pum
12183 9846 t
255 0 m  255 -212 l  255 -234 253 -251 249 -264 ct 245 -276 238 -285 228 -290 ct 
219 -295 205 -298 186 -298 ct 160 -298 138 -289 123 -270 ct 107 -252 100 -227 100 -194 ct 
100 0 l  44 0 l  44 -263 l  44 -302 43 -326 42 -335 ct 95 -335 l  95 -334 95 -331 95 -326 ct 
96 -322 96 -317 96 -311 ct 96 -305 97 -294 97 -278 ct 98 -278 l  111 -301 126 -317 143 -327 ct 
159 -336 180 -341 205 -341 ct 242 -341 269 -332 286 -314 ct 303 -295 311 -265 311 -223 ct 
311 0 l  255 0 l  p ef
pom
pum
12534 10112 t
188 -82 m  188 -56 181 -35 166 -19 ct 152 -4 132 4 106 4 ct 78 4 56 -7 41 -28 ct 
26 -49 19 -80 19 -120 ct 19 -164 26 -198 42 -221 ct 58 -245 80 -256 109 -256 ct 
147 -256 171 -239 181 -205 ct 150 -199 l  144 -220 130 -230 109 -230 ct 90 -230 76 -221 66 -204 ct 
56 -187 51 -162 51 -130 ct 57 -141 65 -149 75 -154 ct 86 -160 98 -163 112 -163 ct 
135 -163 154 -156 167 -141 ct 181 -127 188 -107 188 -82 ct p
155 -81 m  155 -99 151 -113 142 -123 ct 133 -133 120 -138 104 -138 ct 89 -138 77 -134 68 -125 ct 
59 -116 54 -104 54 -89 ct 54 -69 59 -53 68 -41 ct 78 -28 90 -22 105 -22 ct 121 -22 133 -27 142 -38 ct 
151 -48 155 -63 155 -81 ct p ef
pom
pum
12737 9846 t
39 -164 m  39 -224 49 -277 67 -325 ct 86 -372 115 -417 154 -459 ct 207 -459 l 
169 -416 140 -370 122 -322 ct 104 -274 95 -221 95 -163 ct 95 -106 104 -54 122 -6 ct 
140 43 168 88 207 132 ct 154 132 l  115 90 86 45 67 -3 ct 49 -50 39 -104 39 -163 ct 
39 -164 l  p ef
540 -219 m  540 -146 527 -90 501 -52 ct 476 -13 438 6 388 6 ct 337 6 300 -13 275 -51 ct 
249 -89 237 -145 237 -219 ct 237 -293 249 -350 273 -387 ct 298 -424 337 -443 389 -443 ct 
441 -443 479 -424 503 -386 ct 528 -349 540 -293 540 -219 ct p
483 -219 m  483 -281 476 -327 461 -355 ct 447 -384 423 -398 389 -398 ct 355 -398 331 -384 316 -356 ct 
301 -328 293 -282 293 -219 ct 293 -157 301 -111 316 -83 ct 331 -54 355 -39 388 -39 ct 
421 -39 445 -54 460 -83 ct 476 -113 483 -158 483 -219 ct p ef
735 -163 m  735 -103 725 -50 707 -2 ct 688 45 659 90 621 132 ct 567 132 l  606 89 634 43 652 -5 ct 
670 -53 679 -106 679 -163 ct 679 -221 670 -274 652 -322 ct 634 -370 605 -416 567 -459 ct 
621 -459 l  660 -417 688 -372 707 -324 ct 726 -277 735 -223 735 -164 ct 735 -163 l 
p ef
pom
0.996 c 14547 10485 m  13697 10485 l  13697 9087 l  15397 9087 l  15397 10485 l 
14547 10485 l  p ef
0.000 c 14547 10485 m  13697 10485 l  13697 9087 l  15396 9087 l  15396 10485 l 
14547 10485 l  pc
pum
13882 9846 t
255 0 m  255 -212 l  255 -234 253 -251 249 -264 ct 245 -276 238 -285 228 -290 ct 
219 -295 205 -298 186 -298 ct 160 -298 138 -289 123 -270 ct 107 -252 100 -227 100 -194 ct 
100 0 l  44 0 l  44 -263 l  44 -302 43 -326 42 -335 ct 95 -335 l  95 -334 95 -331 95 -326 ct 
96 -322 96 -317 96 -311 ct 96 -305 97 -294 97 -278 ct 98 -278 l  111 -301 126 -317 143 -327 ct 
159 -336 180 -341 205 -341 ct 242 -341 269 -332 286 -314 ct 303 -295 311 -265 311 -223 ct 
311 0 l  255 0 l  p ef
pom
pum
14233 10112 t
188 -69 m  188 -46 181 -28 166 -15 ct 151 -2 130 4 102 4 ct 77 4 56 -2 41 -13 ct 
26 -25 17 -42 14 -64 ct 47 -67 l  52 -38 70 -23 102 -23 ct 119 -23 131 -27 141 -35 ct 
150 -43 154 -55 154 -70 ct 154 -84 149 -95 139 -102 ct 128 -110 113 -114 93 -114 ct 
75 -114 l  75 -142 l  92 -142 l  110 -142 124 -146 133 -154 ct 143 -161 148 -172 148 -186 ct 
148 -200 144 -210 136 -218 ct 128 -226 116 -230 101 -230 ct 86 -230 75 -226 66 -219 ct 
57 -212 52 -201 51 -188 ct 18 -190 l  21 -211 29 -227 44 -239 ct 59 -251 78 -257 101 -257 ct 
126 -257 146 -251 160 -239 ct 174 -227 181 -210 181 -189 ct 181 -173 176 -160 167 -150 ct 
158 -140 145 -133 128 -129 ct 128 -128 l  147 -126 162 -120 172 -109 ct 183 -99 188 -85 188 -69 ct 
p ef
pom
pum
14436 9846 t
39 -164 m  39 -224 49 -277 67 -325 ct 86 -372 115 -417 154 -459 ct 207 -459 l 
169 -416 140 -370 122 -322 ct 104 -274 95 -221 95 -163 ct 95 -106 104 -54 122 -6 ct 
140 43 168 88 207 132 ct 154 132 l  115 90 86 45 67 -3 ct 49 -50 39 -104 39 -163 ct 
39 -164 l  p ef
540 -219 m  540 -146 527 -90 501 -52 ct 476 -13 438 6 388 6 ct 337 6 300 -13 275 -51 ct 
249 -89 237 -145 237 -219 ct 237 -293 249 -350 273 -387 ct 298 -424 337 -443 389 -443 ct 
441 -443 479 -424 503 -386 ct 528 -349 540 -293 540 -219 ct p
483 -219 m  483 -281 476 -327 461 -355 ct 447 -384 423 -398 389 -398 ct 355 -398 331 -384 316 -356 ct 
301 -328 293 -282 293 -219 ct 293 -157 301 -111 316 -83 ct 331 -54 355 -39 388 -39 ct 
421 -39 445 -54 460 -83 ct 476 -113 483 -158 483 -219 ct p ef
735 -163 m  735 -103 725 -50 707 -2 ct 688 45 659 90 621 132 ct 567 132 l  606 89 634 43 652 -5 ct 
670 -53 679 -106 679 -163 ct 679 -221 670 -274 652 -322 ct 634 -370 605 -416 567 -459 ct 
621 -459 l  660 -417 688 -372 707 -324 ct 726 -277 735 -223 735 -164 ct 735 -163 l 
p ef
pom
0 1401 t 
pom
count op_count sub {pop} repeat countdictstack dict_count sub {end} repeat b4_inc_state restore
%%PageTrailer
%%Trailer
%%EOF
