%!PS-Adobe-3.0 EPSF-3.0 
%%BoundingBox: 0 0 370 95
%%Pages: 0
%%Creator: LibreOffice 5.4
%%Title: none
%%CreationDate: none
%%LanguageLevel: 2
%%EndComments
%%BeginProlog
%%BeginResource: procset SDRes-Prolog 1.0 0
/b4_inc_state save def
/dict_count countdictstack def
/op_count count 1 sub def
userdict begin
0 setgray 0 setlinecap 1 setlinewidth 0 setlinejoin 10 setmiterlimit[] 0 setdash newpath
/languagelevel where {pop languagelevel 1 ne {false setstrokeadjust false setoverprint} if} if
/bdef {bind def} bind def
/c {setgray} bdef
/l {neg lineto} bdef
/rl {neg rlineto} bdef
/lc {setlinecap} bdef
/lj {setlinejoin} bdef
/lw {setlinewidth} bdef
/ml {setmiterlimit} bdef
/ld {setdash} bdef
/m {neg moveto} bdef
/ct {6 2 roll neg 6 2 roll neg 6 2 roll neg curveto} bdef
/r {rotate} bdef
/t {neg translate} bdef
/s {scale} bdef
/sw {show} bdef
/gs {gsave} bdef
/gr {grestore} bdef
/f {findfont dup length dict begin
{1 index /FID ne {def} {pop pop} ifelse} forall /Encoding ISOLatin1Encoding def
currentdict end /NFont exch definefont pop /NFont findfont} bdef
/p {closepath} bdef
/sf {scalefont setfont} bdef
/ef {eofill}bdef
/pc {closepath stroke}bdef
/ps {stroke}bdef
/pum {matrix currentmatrix}bdef
/pom {setmatrix}bdef
/bs {/aString exch def /nXOfs exch def /nWidth exch def currentpoint nXOfs 0 rmoveto pum nWidth aString stringwidth pop div 1 scale aString show pom moveto} bdef
%%EndResource
%%EndProlog
%%BeginSetup
%%EndSetup
%%Page: 1 1
%%BeginPageSetup
%%EndPageSetup
pum
0.02834 0.0284 s 
0 -3344 t
/tm matrix currentmatrix def
tm setmatrix
-4599 -10197 t 
1 1 s 
0.996 c 8299 12196 m  8639 12196 8899 12456 8899 12796 ct 8899 13136 8639 13396 8299 13396 ct 
7959 13396 7699 13136 7699 12796 ct 7699 12456 7959 12196 8299 12196 ct p
7699 12196 m  7699 12196 l  p
8900 13397 m  8900 13397 l  p ef
0 lw 1 lj 0.000 c 8298 12196 m  8638 12196 8898 12456 8898 12796 ct 8898 13136 8638 13395 8298 13395 ct 
7958 13395 7698 13136 7698 12796 ct 7698 12456 7958 12196 8298 12196 ct pc
7698 12196 m  7698 12196 l  pc
8899 13396 m  8899 13396 l  pc
pum
8022 12856 t
150 6 m  107 6 76 -8 56 -37 ct 37 -66 27 -109 27 -166 ct 27 -283 68 -342 150 -342 ct 
175 -342 196 -338 213 -329 ct 230 -320 243 -305 255 -284 ct 255 -284 l  255 -290 256 -301 256 -316 ct 
257 -332 258 -339 259 -339 ct 313 -339 l  311 -327 310 -297 310 -248 ct 310 132 l 
255 132 l  255 -4 l  256 -55 l  255 -55 l  244 -33 230 -17 214 -8 ct 198 1 176 6 150 6 ct 
p
255 -172 m  255 -216 247 -248 233 -269 ct 219 -290 196 -301 165 -301 ct 137 -301 116 -290 104 -269 ct 
91 -248 85 -214 85 -168 ct 85 -121 92 -88 104 -67 ct 117 -47 137 -37 164 -37 ct 
196 -37 219 -48 233 -71 ct 247 -93 255 -127 255 -172 ct p ef
pom
pum
8373 13123 t
190 -126 m  190 -84 183 -52 168 -29 ct 153 -7 131 4 102 4 ct 73 4 51 -7 36 -29 ct 
22 -51 14 -84 14 -126 ct 14 -170 21 -202 36 -224 ct 50 -245 72 -256 103 -256 ct 
133 -256 155 -245 169 -223 ct 183 -202 190 -169 190 -126 ct p
157 -126 m  157 -163 153 -189 145 -205 ct 136 -222 122 -230 103 -230 ct 83 -230 69 -222 60 -206 ct 
51 -190 47 -163 47 -126 ct 47 -90 51 -64 60 -47 ct 69 -31 83 -22 102 -22 ct 121 -22 135 -31 144 -48 ct 
153 -65 157 -91 157 -126 ct p ef
pom
0.996 c 12798 12196 m  13138 12196 13398 12456 13398 12796 ct 13398 13136 13138 13396 12798 13396 ct 
12458 13396 12198 13136 12198 12796 ct 12198 12456 12458 12196 12798 12196 ct 
p
12198 12196 m  12198 12196 l  p
13399 13397 m  13399 13397 l  p ef
0.000 c 12798 12196 m  13137 12196 13397 12456 13397 12796 ct 13397 13136 13137 13395 12798 13395 ct 
12458 13395 12198 13136 12198 12796 ct 12198 12456 12458 12196 12798 12196 ct 
pc
12198 12196 m  12198 12196 l  pc
13398 13396 m  13398 13396 l  pc
pum
12521 12856 t
150 6 m  107 6 76 -8 56 -37 ct 37 -66 27 -109 27 -166 ct 27 -283 68 -342 150 -342 ct 
175 -342 196 -338 213 -329 ct 230 -320 243 -305 255 -284 ct 255 -284 l  255 -290 256 -301 256 -316 ct 
257 -332 258 -339 259 -339 ct 313 -339 l  311 -327 310 -297 310 -248 ct 310 132 l 
255 132 l  255 -4 l  256 -55 l  255 -55 l  244 -33 230 -17 214 -8 ct 198 1 176 6 150 6 ct 
p
255 -172 m  255 -216 247 -248 233 -269 ct 219 -290 196 -301 165 -301 ct 137 -301 116 -290 104 -269 ct 
91 -248 85 -214 85 -168 ct 85 -121 92 -88 104 -67 ct 117 -47 137 -37 164 -37 ct 
196 -37 219 -48 233 -71 ct 247 -93 255 -127 255 -172 ct p ef
pom
pum
12872 13123 t
28 0 m  28 -27 l  93 -27 l  93 -222 l  35 -181 l  35 -212 l  95 -253 l 
125 -253 l  125 -27 l  187 -27 l  187 0 l  28 0 l  p ef
pom
0.996 c 16997 12196 m  17337 12196 17597 12456 17597 12796 ct 17597 13136 17337 13396 16997 13396 ct 
16657 13396 16397 13136 16397 12796 ct 16397 12456 16657 12196 16997 12196 ct 
p
16397 12196 m  16397 12196 l  p
17598 13397 m  17598 13397 l  p ef
105.97603 lw 0.000 c 16997 12196 m  17337 12196 17597 12456 17597 12796 ct 
17597 13136 17337 13395 16997 13395 ct 16657 13395 16397 13136 16397 12796 ct 
16397 12456 16657 12196 16997 12196 ct pc
16397 12196 m  16397 12196 l  pc
17598 13396 m  17598 13396 l  pc
pum
16770 12856 t
150 6 m  107 6 76 -8 56 -37 ct 37 -66 27 -109 27 -166 ct 27 -283 68 -342 150 -342 ct 
175 -342 196 -338 213 -329 ct 230 -320 243 -305 255 -284 ct 255 -284 l  255 -290 256 -301 256 -316 ct 
257 -332 258 -339 259 -339 ct 313 -339 l  311 -327 310 -297 310 -248 ct 310 132 l 
255 132 l  255 -4 l  256 -55 l  255 -55 l  244 -33 230 -17 214 -8 ct 198 1 176 6 150 6 ct 
p
255 -172 m  255 -216 247 -248 233 -269 ct 219 -290 196 -301 165 -301 ct 137 -301 116 -290 104 -269 ct 
91 -248 85 -214 85 -168 ct 85 -121 92 -88 104 -67 ct 117 -47 137 -37 164 -37 ct 
196 -37 219 -48 233 -71 ct 247 -93 255 -127 255 -172 ct p ef
pom
pum
17121 13123 t
65 -170 m  65 0 l  33 0 l  33 -170 l  5 -170 l  5 -194 l  33 -194 l  33 -216 l 
33 -234 36 -247 44 -254 ct 52 -262 64 -266 80 -266 ct 89 -266 97 -265 103 -264 ct 
103 -239 l  97 -240 93 -241 88 -241 ct 80 -241 74 -239 70 -234 ct 67 -230 65 -223 65 -211 ct 
65 -194 l  103 -194 l  103 -170 l  65 -170 l  p ef
pom
1 lw 8299 11197 m  8299 11766 l  ps
8299 12196 m  8449 11746 l  8149 11746 l  8299 12196 l  p ef
8899 12796 m  11768 12796 l  ps
12198 12796 m  11748 12646 l  11748 12946 l  12198 12796 l  p ef
13398 12796 m  15968 12796 l  ps
16397 12796 m  15948 12646 l  15948 12946 l  16397 12796 l  p ef
7874 13221 m  7198 13221 l  7198 12371 l  7444 12371 l  ps
7874 12371 m  7424 12221 l  7424 12521 l  7874 12371 l  p ef
pum
9349 12682 t
39 -165 m  39 -224 49 -278 67 -326 ct 86 -373 115 -418 154 -460 ct 208 -460 l 
169 -417 141 -371 123 -323 ct 105 -274 96 -222 96 -164 ct 96 -107 104 -54 122 -6 ct 
140 42 169 88 208 132 ct 154 132 l  115 90 86 45 67 -3 ct 49 -50 39 -104 39 -163 ct 
39 -165 l  p ef
pom
pum
9561 12682 t
340 -126 m  340 -85 328 -53 303 -29 ct 279 -5 244 6 198 6 ct 161 6 128 -3 100 -23 ct 
98 -23 l  99 1 100 22 100 40 ct 100 132 l  44 132 l  44 -319 l  44 -368 56 -404 79 -427 ct 
103 -450 138 -461 185 -461 ct 226 -461 257 -452 278 -433 ct 300 -414 311 -387 311 -353 ct 
311 -300 288 -265 242 -247 ct 272 -241 296 -227 314 -206 ct 331 -185 340 -158 340 -126 ct 
p
100 -64 m  113 -55 128 -48 145 -43 ct 162 -38 179 -35 196 -35 ct 225 -35 248 -43 263 -59 ct 
279 -75 287 -97 287 -125 ct 287 -155 278 -178 260 -194 ct 242 -210 216 -218 183 -218 ct 
183 -262 l  209 -268 228 -278 240 -292 ct 251 -307 257 -327 257 -352 ct 257 -372 251 -388 238 -400 ct 
226 -411 208 -417 185 -417 ct 155 -417 133 -409 120 -393 ct 107 -377 100 -352 100 -317 ct 
100 -64 l  p ef
pom
pum
9924 12682 t
119 -68 m  119 -16 l  119 6 117 25 113 39 ct 110 54 103 68 95 82 ct 57 82 l 
76 53 86 26 86 0 ct 59 0 l  59 -68 l  119 -68 l  p ef
pom
pum
10280 12682 t
340 -126 m  340 -85 328 -53 303 -29 ct 279 -5 244 6 198 6 ct 161 6 128 -3 100 -23 ct 
98 -23 l  99 1 100 22 100 40 ct 100 132 l  44 132 l  44 -319 l  44 -368 56 -404 79 -427 ct 
103 -450 138 -461 185 -461 ct 226 -461 257 -452 278 -433 ct 300 -414 311 -387 311 -353 ct 
311 -300 288 -265 242 -247 ct 272 -241 296 -227 314 -206 ct 331 -185 340 -158 340 -126 ct 
p
100 -64 m  113 -55 128 -48 145 -43 ct 162 -38 179 -35 196 -35 ct 225 -35 248 -43 263 -59 ct 
279 -75 287 -97 287 -125 ct 287 -155 278 -178 260 -194 ct 242 -210 216 -218 183 -218 ct 
183 -262 l  209 -268 228 -278 240 -292 ct 251 -307 257 -327 257 -352 ct 257 -372 251 -388 238 -400 ct 
226 -411 208 -417 185 -417 ct 155 -417 133 -409 120 -393 ct 107 -377 100 -352 100 -317 ct 
100 -64 l  p ef
pom
pum
10644 12682 t
119 -68 m  119 -16 l  119 6 117 25 113 39 ct 110 54 103 68 95 82 ct 57 82 l 
76 53 86 26 86 0 ct 59 0 l  59 -68 l  119 -68 l  p ef
pom
pum
11000 12682 t
141 -36 m  159 -36 177 -40 194 -49 ct 212 -59 226 -71 238 -86 ct 271 -55 l  254 -34 235 -19 212 -9 ct 
190 1 165 6 138 6 ct 100 6 72 -3 52 -20 ct 32 -37 22 -61 22 -92 ct 22 -115 29 -134 45 -149 ct 
60 -164 80 -173 104 -175 ct 104 -176 l  82 -179 64 -187 51 -201 ct 38 -215 32 -232 32 -253 ct 
32 -279 42 -301 63 -317 ct 84 -334 112 -342 146 -342 ct 198 -342 237 -323 263 -285 ct 
223 -257 l  204 -286 178 -300 146 -300 ct 128 -300 113 -296 103 -287 ct 93 -279 88 -267 88 -251 ct 
88 -233 96 -219 113 -210 ct 129 -201 158 -197 199 -197 ct 199 -155 l  168 -155 144 -153 128 -149 ct 
113 -145 101 -138 92 -130 ct 84 -121 80 -108 80 -93 ct 80 -75 85 -61 96 -51 ct 
107 -41 122 -36 141 -36 ct p ef
pom
pum
11284 12682 t
172 -163 m  172 -104 163 -50 144 -2 ct 125 45 97 90 58 132 ct 4 132 l  43 89 71 43 89 -5 ct 
107 -53 116 -106 116 -164 ct 116 -222 107 -275 89 -323 ct 71 -371 42 -417 4 -460 ct 
58 -460 l  97 -418 126 -373 144 -325 ct 163 -278 172 -224 172 -165 ct 172 -163 l 
p ef
pom
pum
4849 12582 t
39 -165 m  39 -224 49 -278 67 -326 ct 86 -373 115 -418 154 -460 ct 208 -460 l 
169 -417 141 -371 123 -323 ct 105 -274 96 -222 96 -164 ct 96 -107 104 -54 122 -6 ct 
140 42 169 88 208 132 ct 154 132 l  115 90 86 45 67 -3 ct 49 -50 39 -104 39 -163 ct 
39 -165 l  p ef
540 -219 m  540 -146 527 -90 502 -52 ct 476 -13 438 6 388 6 ct 338 6 300 -13 275 -51 ct 
249 -90 237 -146 237 -219 ct 237 -294 249 -350 274 -388 ct 298 -425 337 -444 390 -444 ct 
441 -444 479 -425 504 -387 ct 528 -349 540 -293 540 -219 ct p
484 -219 m  484 -282 476 -328 462 -356 ct 447 -385 423 -399 390 -399 ct 355 -399 331 -385 316 -357 ct 
301 -329 293 -283 293 -219 ct 293 -157 301 -112 316 -83 ct 331 -54 355 -40 388 -40 ct 
421 -40 445 -54 461 -84 ct 476 -113 484 -158 484 -219 ct p ef
682 -68 m  682 -16 l  682 6 680 25 676 39 ct 673 54 666 68 658 82 ct 620 82 l 
639 53 649 26 649 0 ct 622 0 l  622 -68 l  682 -68 l  p ef
967 0 m  967 -47 l  1079 -47 l  1079 -384 l  980 -314 l  980 -366 l  1083 -438 l 
1135 -438 l  1135 -47 l  1241 -47 l  1241 0 l  967 0 l  p ef
pom
pum
6119 12582 t
119 -68 m  119 -16 l  119 6 117 25 113 39 ct 110 54 103 68 95 82 ct 57 82 l 
76 53 86 26 86 0 ct 59 0 l  59 -68 l  119 -68 l  p ef
784 -223 m  784 -178 775 -139 758 -105 ct 740 -71 715 -45 683 -27 ct 651 -9 614 0 571 0 ct 
408 0 l  408 -437 l  553 -437 l  627 -437 684 -419 724 -382 ct 764 -345 784 -292 784 -223 ct 
p
725 -223 m  725 -277 710 -319 680 -347 ct 651 -376 608 -390 551 -390 ct 467 -390 l 
467 -47 l  565 -47 l  597 -47 625 -55 649 -69 ct 673 -83 692 -103 705 -129 ct 
718 -156 725 -187 725 -223 ct p ef
pom
pum
6932 12582 t
172 -163 m  172 -104 163 -50 144 -2 ct 125 45 97 90 58 132 ct 4 132 l  43 89 71 43 89 -5 ct 
107 -53 116 -106 116 -164 ct 116 -222 107 -275 89 -323 ct 71 -371 42 -417 4 -460 ct 
58 -460 l  97 -418 126 -373 144 -325 ct 163 -278 172 -224 172 -165 ct 172 -163 l 
p ef
pom
pum
4850 13282 t
39 -165 m  39 -224 49 -278 67 -326 ct 86 -373 115 -418 154 -460 ct 208 -460 l 
169 -417 141 -371 123 -323 ct 105 -274 96 -222 96 -164 ct 96 -107 104 -54 122 -6 ct 
140 42 169 88 208 132 ct 154 132 l  115 90 86 45 67 -3 ct 49 -50 39 -104 39 -163 ct 
39 -165 l  p ef
260 0 m  260 -47 l  372 -47 l  372 -384 l  273 -314 l  273 -366 l  376 -438 l 
428 -438 l  428 -47 l  534 -47 l  534 0 l  260 0 l  p ef
682 -68 m  682 -16 l  682 6 680 25 676 39 ct 673 54 666 68 658 82 ct 620 82 l 
639 53 649 26 649 0 ct 622 0 l  622 -68 l  682 -68 l  p ef
1247 -219 m  1247 -146 1234 -90 1209 -52 ct 1183 -13 1145 6 1095 6 ct 1045 6 1007 -13 982 -51 ct 
956 -90 944 -146 944 -219 ct 944 -294 956 -350 981 -388 ct 1005 -425 1044 -444 1097 -444 ct 
1148 -444 1186 -425 1211 -387 ct 1235 -349 1247 -293 1247 -219 ct p
1191 -219 m  1191 -282 1183 -328 1169 -356 ct 1154 -385 1130 -399 1097 -399 ct 
1062 -399 1038 -385 1023 -357 ct 1008 -329 1000 -283 1000 -219 ct 1000 -157 1008 -112 1023 -83 ct 
1038 -54 1062 -40 1095 -40 ct 1128 -40 1152 -54 1168 -84 ct 1183 -113 1191 -158 1191 -219 ct 
p ef
pom
pum
6120 13282 t
119 -68 m  119 -16 l  119 6 117 25 113 39 ct 110 54 103 68 95 82 ct 57 82 l 
76 53 86 26 86 0 ct 59 0 l  59 -68 l  119 -68 l  p ef
784 -223 m  784 -178 775 -139 758 -105 ct 740 -71 715 -45 683 -27 ct 651 -9 614 0 571 0 ct 
408 0 l  408 -437 l  553 -437 l  627 -437 684 -419 724 -382 ct 764 -345 784 -292 784 -223 ct 
p
725 -223 m  725 -277 710 -319 680 -347 ct 651 -376 608 -390 551 -390 ct 467 -390 l 
467 -47 l  565 -47 l  597 -47 625 -55 649 -69 ct 673 -83 692 -103 705 -129 ct 
718 -156 725 -187 725 -223 ct p ef
pom
pum
6933 13282 t
172 -163 m  172 -104 163 -50 144 -2 ct 125 45 97 90 58 132 ct 4 132 l  43 89 71 43 89 -5 ct 
107 -53 116 -106 116 -164 ct 116 -222 107 -275 89 -323 ct 71 -371 42 -417 4 -460 ct 
58 -460 l  97 -418 126 -373 144 -325 ct 163 -278 172 -224 172 -165 ct 172 -163 l 
p ef
pom
13223 12371 m  13223 11696 l  12373 11696 l  12373 11941 l  ps
12373 12371 m  12523 11921 l  12223 11921 l  12373 12371 l  p ef
pum
11648 11583 t
39 -165 m  39 -224 49 -278 67 -326 ct 86 -373 115 -418 154 -460 ct 208 -460 l 
169 -417 141 -371 123 -323 ct 105 -274 96 -222 96 -164 ct 96 -107 104 -54 122 -6 ct 
140 42 169 88 208 132 ct 154 132 l  115 90 86 45 67 -3 ct 49 -50 39 -104 39 -163 ct 
39 -165 l  p ef
pom
pum
11860 11583 t
48 0 m  48 -47 l  160 -47 l  160 -384 l  61 -314 l  61 -366 l  164 -438 l 
216 -438 l  216 -47 l  322 -47 l  322 0 l  48 0 l  p ef
pom
pum
12211 11583 t
119 -68 m  119 -16 l  119 6 117 25 113 39 ct 110 54 103 68 95 82 ct 57 82 l 
76 53 86 26 86 0 ct 59 0 l  59 -68 l  119 -68 l  p ef
pom
pum
12567 11583 t
48 0 m  48 -47 l  160 -47 l  160 -384 l  61 -314 l  61 -366 l  164 -438 l 
216 -438 l  216 -47 l  322 -47 l  322 0 l  48 0 l  p ef
pom
pum
12918 11583 t
119 -68 m  119 -16 l  119 6 117 25 113 39 ct 110 54 103 68 95 82 ct 57 82 l 
76 53 86 26 86 0 ct 59 0 l  59 -68 l  119 -68 l  p ef
pom
pum
13274 11583 t
52 0 m  52 -437 l  384 -437 l  384 -389 l  111 -389 l  111 -249 l  365 -249 l 
365 -201 l  111 -201 l  111 -48 l  396 -48 l  396 0 l  52 0 l  p ef
pom
pum
13697 11583 t
172 -163 m  172 -104 163 -50 144 -2 ct 125 45 97 90 58 132 ct 4 132 l  43 89 71 43 89 -5 ct 
107 -53 116 -106 116 -164 ct 116 -222 107 -275 89 -323 ct 71 -371 42 -417 4 -460 ct 
58 -460 l  97 -418 126 -373 144 -325 ct 163 -278 172 -224 172 -165 ct 172 -163 l 
p ef
pom
pum
11649 10783 t
39 -165 m  39 -224 49 -278 67 -326 ct 86 -373 115 -418 154 -460 ct 208 -460 l 
169 -417 141 -371 123 -323 ct 105 -274 96 -222 96 -164 ct 96 -107 104 -54 122 -6 ct 
140 42 169 88 208 132 ct 154 132 l  115 90 86 45 67 -3 ct 49 -50 39 -104 39 -163 ct 
39 -165 l  p ef
pom
pum
11861 10783 t
328 -219 m  328 -146 315 -90 290 -52 ct 264 -13 226 6 176 6 ct 126 6 88 -13 63 -51 ct 
37 -90 25 -146 25 -219 ct 25 -294 37 -350 62 -388 ct 86 -425 125 -444 178 -444 ct 
229 -444 267 -425 292 -387 ct 316 -349 328 -293 328 -219 ct p
272 -219 m  272 -282 264 -328 250 -356 ct 235 -385 211 -399 178 -399 ct 143 -399 119 -385 104 -357 ct 
89 -329 81 -283 81 -219 ct 81 -157 89 -112 104 -83 ct 119 -54 143 -40 176 -40 ct 
209 -40 233 -54 249 -84 ct 264 -113 272 -158 272 -219 ct p ef
pom
pum
12212 10783 t
119 -68 m  119 -16 l  119 6 117 25 113 39 ct 110 54 103 68 95 82 ct 57 82 l 
76 53 86 26 86 0 ct 59 0 l  59 -68 l  119 -68 l  p ef
pom
pum
12568 10783 t
328 -219 m  328 -146 315 -90 290 -52 ct 264 -13 226 6 176 6 ct 126 6 88 -13 63 -51 ct 
37 -90 25 -146 25 -219 ct 25 -294 37 -350 62 -388 ct 86 -425 125 -444 178 -444 ct 
229 -444 267 -425 292 -387 ct 316 -349 328 -293 328 -219 ct p
272 -219 m  272 -282 264 -328 250 -356 ct 235 -385 211 -399 178 -399 ct 143 -399 119 -385 104 -357 ct 
89 -329 81 -283 81 -219 ct 81 -157 89 -112 104 -83 ct 119 -54 143 -40 176 -40 ct 
209 -40 233 -54 249 -84 ct 264 -113 272 -158 272 -219 ct p ef
pom
pum
12919 10783 t
119 -68 m  119 -16 l  119 6 117 25 113 39 ct 110 54 103 68 95 82 ct 57 82 l 
76 53 86 26 86 0 ct 59 0 l  59 -68 l  119 -68 l  p ef
pom
pum
13275 10783 t
52 0 m  52 -437 l  384 -437 l  384 -389 l  111 -389 l  111 -249 l  365 -249 l 
365 -201 l  111 -201 l  111 -48 l  396 -48 l  396 0 l  52 0 l  p ef
pom
pum
13698 10783 t
172 -163 m  172 -104 163 -50 144 -2 ct 125 45 97 90 58 132 ct 4 132 l  43 89 71 43 89 -5 ct 
107 -53 116 -106 116 -164 ct 116 -222 107 -275 89 -323 ct 71 -371 42 -417 4 -460 ct 
58 -460 l  97 -418 126 -373 144 -325 ct 163 -278 172 -224 172 -165 ct 172 -163 l 
p ef
pom
pum
13649 12682 t
39 -165 m  39 -224 49 -278 67 -326 ct 86 -373 115 -418 154 -460 ct 208 -460 l 
169 -417 141 -371 123 -323 ct 105 -274 96 -222 96 -164 ct 96 -107 104 -54 122 -6 ct 
140 42 169 88 208 132 ct 154 132 l  115 90 86 45 67 -3 ct 49 -50 39 -104 39 -163 ct 
39 -165 l  p ef
pom
pum
13861 12682 t
326 -168 m  326 -110 314 -66 288 -37 ct 262 -8 224 6 175 6 ct 126 6 89 -9 64 -39 ct 
39 -69 27 -112 27 -168 ct 27 -284 77 -342 177 -342 ct 228 -342 266 -328 290 -300 ct 
314 -272 326 -228 326 -168 ct p
268 -168 m  268 -215 261 -248 247 -269 ct 234 -291 210 -301 178 -301 ct 145 -301 122 -290 107 -269 ct 
93 -247 85 -214 85 -168 ct 85 -124 92 -91 107 -69 ct 121 -46 144 -35 175 -35 ct 
208 -35 232 -46 246 -68 ct 261 -89 268 -123 268 -168 ct p ef
pom
pum
14212 12682 t
119 -68 m  119 -16 l  119 6 117 25 113 39 ct 110 54 103 68 95 82 ct 57 82 l 
76 53 86 26 86 0 ct 59 0 l  59 -68 l  119 -68 l  p ef
pom
pum
14568 12682 t
326 -168 m  326 -110 314 -66 288 -37 ct 262 -8 224 6 175 6 ct 126 6 89 -9 64 -39 ct 
39 -69 27 -112 27 -168 ct 27 -284 77 -342 177 -342 ct 228 -342 266 -328 290 -300 ct 
314 -272 326 -228 326 -168 ct p
268 -168 m  268 -215 261 -248 247 -269 ct 234 -291 210 -301 178 -301 ct 145 -301 122 -290 107 -269 ct 
93 -247 85 -214 85 -168 ct 85 -124 92 -91 107 -69 ct 121 -46 144 -35 175 -35 ct 
208 -35 232 -46 246 -68 ct 261 -89 268 -123 268 -168 ct p ef
pom
pum
14919 12682 t
119 -68 m  119 -16 l  119 6 117 25 113 39 ct 110 54 103 68 95 82 ct 57 82 l 
76 53 86 26 86 0 ct 59 0 l  59 -68 l  119 -68 l  p ef
pom
pum
15275 12682 t
428 -223 m  428 -178 419 -139 402 -105 ct 384 -71 359 -45 327 -27 ct 295 -9 258 0 215 0 ct 
52 0 l  52 -437 l  197 -437 l  271 -437 328 -419 368 -382 ct 408 -345 428 -292 428 -223 ct 
p
369 -223 m  369 -277 354 -319 324 -347 ct 295 -376 252 -390 195 -390 ct 111 -390 l 
111 -47 l  209 -47 l  241 -47 269 -55 293 -69 ct 317 -83 336 -103 349 -129 ct 
362 -156 369 -187 369 -223 ct p ef
pom
pum
15732 12682 t
172 -163 m  172 -104 163 -50 144 -2 ct 125 45 97 90 58 132 ct 4 132 l  43 89 71 43 89 -5 ct 
107 -53 116 -106 116 -164 ct 116 -222 107 -275 89 -323 ct 71 -371 42 -417 4 -460 ct 
58 -460 l  97 -418 126 -373 144 -325 ct 163 -278 172 -224 172 -165 ct 172 -163 l 
p ef
pom
0 3344 t 
pom
count op_count sub {pop} repeat countdictstack dict_count sub {end} repeat b4_inc_state restore
%%PageTrailer
%%Trailer
%%EOF
