%!PS-Adobe-3.0 EPSF-3.0 
%%BoundingBox: 0 0 363 176
%%Pages: 0
%%Creator: LibreOffice 5.3
%%Title: none
%%CreationDate: none
%%LanguageLevel: 2
%%EndComments
%%BeginProlog
%%BeginResource: procset SDRes-Prolog 1.0 0
/b4_inc_state save def
/dict_count countdictstack def
/op_count count 1 sub def
userdict begin
0 setgray 0 setlinecap 1 setlinewidth 0 setlinejoin 10 setmiterlimit[] 0 setdash newpath
/languagelevel where {pop languagelevel 1 ne {false setstrokeadjust false setoverprint} if} if
/bdef {bind def} bind def
/c {setrgbcolor} bdef
/l {neg lineto} bdef
/rl {neg rlineto} bdef
/lc {setlinecap} bdef
/lj {setlinejoin} bdef
/lw {setlinewidth} bdef
/ml {setmiterlimit} bdef
/ld {setdash} bdef
/m {neg moveto} bdef
/ct {6 2 roll neg 6 2 roll neg 6 2 roll neg curveto} bdef
/r {rotate} bdef
/t {neg translate} bdef
/s {scale} bdef
/sw {show} bdef
/gs {gsave} bdef
/gr {grestore} bdef
/f {findfont dup length dict begin
{1 index /FID ne {def} {pop pop} ifelse} forall /Encoding ISOLatin1Encoding def
currentdict end /NFont exch definefont pop /NFont findfont} bdef
/p {closepath} bdef
/sf {scalefont setfont} bdef
/ef {eofill}bdef
/pc {closepath stroke}bdef
/ps {stroke}bdef
/pum {matrix currentmatrix}bdef
/pom {setmatrix}bdef
/bs {/aString exch def /nXOfs exch def /nWidth exch def currentpoint nXOfs 0 rmoveto pum nWidth aString stringwidth pop div 1 scale aString show pom moveto} bdef
%%EndResource
%%EndProlog
%%BeginSetup
%%EndSetup
%%Page: 1 1
%%BeginPageSetup
%%EndPageSetup
pum
0.02835 0.02838 s 
0 -6200 t
/tm matrix currentmatrix def
tm setmatrix
-2300 -4199 t 
1 1 s 
pum
5049 7285 t
0.003 0.003 0.003 c 326 -143 m  326 -96 313 -60 285 -34 ct 258 -7 220 6 171 6 ct 
131 6 98 -3 73 -21 ct 48 -38 32 -64 25 -98 ct 82 -104 l  94 -61 124 -40 173 -40 ct 
203 -40 226 -49 243 -67 ct 260 -85 269 -110 269 -141 ct 269 -169 260 -191 243 -208 ct 
226 -225 203 -233 174 -233 ct 159 -233 145 -231 132 -226 ct 119 -221 106 -213 93 -202 ct 
38 -202 l  53 -437 l  301 -437 l  301 -390 l  104 -390 l  95 -251 l  119 -270 149 -279 185 -279 ct 
228 -279 263 -266 288 -241 ct 314 -216 326 -183 326 -143 ct p ef
pom
pum
3549 8585 t
325 -121 m  325 -81 312 -49 287 -27 ct 261 -5 225 6 177 6 ct 133 6 98 -4 71 -24 ct 
45 -44 29 -73 24 -113 ct 82 -118 l  89 -66 121 -40 177 -40 ct 205 -40 227 -47 243 -61 ct 
259 -75 267 -96 267 -123 ct 267 -147 258 -165 240 -179 ct 222 -192 195 -199 161 -199 ct 
129 -199 l  129 -247 l  159 -247 l  190 -247 214 -254 231 -267 ct 247 -280 256 -299 256 -322 ct 
256 -346 249 -364 235 -378 ct 221 -391 201 -398 174 -398 ct 149 -398 129 -392 114 -379 ct 
99 -367 90 -349 88 -326 ct 32 -330 l  36 -366 51 -394 76 -414 ct 102 -434 134 -444 175 -444 ct 
218 -444 252 -434 277 -413 ct 301 -393 313 -365 313 -328 ct 313 -300 305 -278 290 -260 ct 
274 -243 251 -231 222 -225 ct 222 -223 l  254 -220 280 -209 298 -191 ct 316 -172 325 -149 325 -121 ct 
p ef
pom
pum
6496 8541 t
48 0 m  48 -47 l  160 -47 l  160 -384 l  61 -314 l  61 -366 l  164 -438 l 
216 -438 l  216 -47 l  322 -47 l  322 0 l  48 0 l  p ef
pom
pum
2550 10140 t
32 0 m  32 -39 l  42 -64 55 -85 71 -104 ct 86 -122 102 -139 118 -154 ct 135 -169 152 -183 168 -196 ct 
185 -208 199 -221 213 -234 ct 226 -247 237 -260 245 -274 ct 253 -289 257 -304 257 -322 ct 
257 -346 250 -365 236 -378 ct 222 -391 202 -398 177 -398 ct 154 -398 134 -392 119 -379 ct 
103 -366 94 -348 91 -324 ct 34 -329 l  39 -364 53 -392 79 -413 ct 104 -434 137 -444 177 -444 ct 
221 -444 255 -434 279 -413 ct 303 -392 314 -362 314 -324 ct 314 -307 311 -290 303 -274 ct 
295 -257 283 -240 268 -223 ct 253 -206 224 -180 180 -145 ct 157 -126 138 -108 124 -93 ct 
110 -77 100 -62 93 -47 ct 321 -47 l  321 0 l  32 0 l  p ef
pom
0 lw 1 lj 4099 8098 m  4999 7398 l  ps
5499 7398 m  6399 8098 l  ps
2899 9598 m  3599 8598 l  ps
5149 6498 m  3199 6498 l  3199 5599 l  7098 5599 l  7098 6498 l  5149 6498 l 
pc
pum
3550 6285 t
326 -143 m  326 -96 313 -60 285 -34 ct 258 -7 220 6 171 6 ct 131 6 98 -3 73 -21 ct 
48 -38 32 -64 25 -98 ct 82 -104 l  94 -61 124 -40 173 -40 ct 203 -40 226 -49 243 -67 ct 
260 -85 269 -110 269 -141 ct 269 -169 260 -191 243 -208 ct 226 -225 203 -233 174 -233 ct 
159 -233 145 -231 132 -226 ct 119 -221 106 -213 93 -202 ct 38 -202 l  53 -437 l 
301 -437 l  301 -390 l  104 -390 l  95 -251 l  119 -270 149 -279 185 -279 ct 
228 -279 263 -266 288 -241 ct 314 -216 326 -183 326 -143 ct p ef
pom
pum
4550 6285 t
325 -121 m  325 -81 312 -49 287 -27 ct 261 -5 225 6 177 6 ct 133 6 98 -4 71 -24 ct 
45 -44 29 -73 24 -113 ct 82 -118 l  89 -66 121 -40 177 -40 ct 205 -40 227 -47 243 -61 ct 
259 -75 267 -96 267 -123 ct 267 -147 258 -165 240 -179 ct 222 -192 195 -199 161 -199 ct 
129 -199 l  129 -247 l  159 -247 l  190 -247 214 -254 231 -267 ct 247 -280 256 -299 256 -322 ct 
256 -346 249 -364 235 -378 ct 221 -391 201 -398 174 -398 ct 149 -398 129 -392 114 -379 ct 
99 -367 90 -349 88 -326 ct 32 -330 l  36 -366 51 -394 76 -414 ct 102 -434 134 -444 175 -444 ct 
218 -444 252 -434 277 -413 ct 301 -393 313 -365 313 -328 ct 313 -300 305 -278 290 -260 ct 
274 -243 251 -231 222 -225 ct 222 -223 l  254 -220 280 -209 298 -191 ct 316 -172 325 -149 325 -121 ct 
p ef
pom
pum
5697 6241 t
48 0 m  48 -47 l  160 -47 l  160 -384 l  61 -314 l  61 -366 l  164 -438 l 
216 -438 l  216 -47 l  322 -47 l  322 0 l  48 0 l  p ef
pom
pum
6550 6241 t
32 0 m  32 -39 l  42 -64 55 -85 71 -104 ct 86 -122 102 -139 118 -154 ct 135 -169 152 -183 168 -196 ct 
185 -208 199 -221 213 -234 ct 226 -247 237 -260 245 -274 ct 253 -289 257 -304 257 -322 ct 
257 -346 250 -365 236 -378 ct 222 -391 202 -398 177 -398 ct 154 -398 134 -392 119 -379 ct 
103 -366 94 -348 91 -324 ct 34 -329 l  39 -364 53 -392 79 -413 ct 104 -434 137 -444 177 -444 ct 
221 -444 255 -434 279 -413 ct 303 -392 314 -362 314 -324 ct 314 -307 311 -290 303 -274 ct 
295 -257 283 -240 268 -223 ct 253 -206 224 -180 180 -145 ct 157 -126 138 -108 124 -93 ct 
110 -77 100 -62 93 -47 ct 321 -47 l  321 0 l  32 0 l  p ef
pom
pum
11548 8585 t
325 -121 m  325 -81 312 -49 287 -27 ct 261 -5 225 6 177 6 ct 133 6 98 -4 71 -24 ct 
45 -44 29 -73 24 -113 ct 82 -118 l  89 -66 121 -40 177 -40 ct 205 -40 227 -47 243 -61 ct 
259 -75 267 -96 267 -123 ct 267 -147 258 -165 240 -179 ct 222 -192 195 -199 161 -199 ct 
129 -199 l  129 -247 l  159 -247 l  190 -247 214 -254 231 -267 ct 247 -280 256 -299 256 -322 ct 
256 -346 249 -364 235 -378 ct 221 -391 201 -398 174 -398 ct 149 -398 129 -392 114 -379 ct 
99 -367 90 -349 88 -326 ct 32 -330 l  36 -366 51 -394 76 -414 ct 102 -434 134 -444 175 -444 ct 
218 -444 252 -434 277 -413 ct 301 -393 313 -365 313 -328 ct 313 -300 305 -278 290 -260 ct 
274 -243 251 -231 222 -225 ct 222 -223 l  254 -220 280 -209 298 -191 ct 316 -172 325 -149 325 -121 ct 
p ef
pom
pum
14495 8541 t
48 0 m  48 -47 l  160 -47 l  160 -384 l  61 -314 l  61 -366 l  164 -438 l 
216 -438 l  216 -47 l  322 -47 l  322 0 l  48 0 l  p ef
pom
pum
13048 7185 t
32 0 m  32 -39 l  42 -64 55 -85 71 -104 ct 86 -122 102 -139 118 -154 ct 135 -169 152 -183 168 -196 ct 
185 -208 199 -221 213 -234 ct 226 -247 237 -260 245 -274 ct 253 -289 257 -304 257 -322 ct 
257 -346 250 -365 236 -378 ct 222 -391 202 -398 177 -398 ct 154 -398 134 -392 119 -379 ct 
103 -366 94 -348 91 -324 ct 34 -329 l  39 -364 53 -392 79 -413 ct 104 -434 137 -444 177 -444 ct 
221 -444 255 -434 279 -413 ct 303 -392 314 -362 314 -324 ct 314 -307 311 -290 303 -274 ct 
295 -257 283 -240 268 -223 ct 253 -206 224 -180 180 -145 ct 157 -126 138 -108 124 -93 ct 
110 -77 100 -62 93 -47 ct 321 -47 l  321 0 l  32 0 l  p ef
pom
12098 8098 m  12997 7398 l  ps
13497 7398 m  14397 8098 l  ps
13147 6498 m  11198 6498 l  11198 5599 l  15097 5599 l  15097 6498 l  13147 6498 l 
pc
pum
14449 6285 t
326 -143 m  326 -96 313 -60 285 -34 ct 258 -7 220 6 171 6 ct 131 6 98 -3 73 -21 ct 
48 -38 32 -64 25 -98 ct 82 -104 l  94 -61 124 -40 173 -40 ct 203 -40 226 -49 243 -67 ct 
260 -85 269 -110 269 -141 ct 269 -169 260 -191 243 -208 ct 226 -225 203 -233 174 -233 ct 
159 -233 145 -231 132 -226 ct 119 -221 106 -213 93 -202 ct 38 -202 l  53 -437 l 
301 -437 l  301 -390 l  104 -390 l  95 -251 l  119 -270 149 -279 185 -279 ct 
228 -279 263 -266 288 -241 ct 314 -216 326 -183 326 -143 ct p ef
pom
pum
12549 6285 t
325 -121 m  325 -81 312 -49 287 -27 ct 261 -5 225 6 177 6 ct 133 6 98 -4 71 -24 ct 
45 -44 29 -73 24 -113 ct 82 -118 l  89 -66 121 -40 177 -40 ct 205 -40 227 -47 243 -61 ct 
259 -75 267 -96 267 -123 ct 267 -147 258 -165 240 -179 ct 222 -192 195 -199 161 -199 ct 
129 -199 l  129 -247 l  159 -247 l  190 -247 214 -254 231 -267 ct 247 -280 256 -299 256 -322 ct 
256 -346 249 -364 235 -378 ct 221 -391 201 -398 174 -398 ct 149 -398 129 -392 114 -379 ct 
99 -367 90 -349 88 -326 ct 32 -330 l  36 -366 51 -394 76 -414 ct 102 -434 134 -444 175 -444 ct 
218 -444 252 -434 277 -413 ct 301 -393 313 -365 313 -328 ct 313 -300 305 -278 290 -260 ct 
274 -243 251 -231 222 -225 ct 222 -223 l  254 -220 280 -209 298 -191 ct 316 -172 325 -149 325 -121 ct 
p ef
pom
pum
13696 6241 t
48 0 m  48 -47 l  160 -47 l  160 -384 l  61 -314 l  61 -366 l  164 -438 l 
216 -438 l  216 -47 l  322 -47 l  322 0 l  48 0 l  p ef
pom
pum
11549 6241 t
32 0 m  32 -39 l  42 -64 55 -85 71 -104 ct 86 -122 102 -139 118 -154 ct 135 -169 152 -183 168 -196 ct 
185 -208 199 -221 213 -234 ct 226 -247 237 -260 245 -274 ct 253 -289 257 -304 257 -322 ct 
257 -346 250 -365 236 -378 ct 222 -391 202 -398 177 -398 ct 154 -398 134 -392 119 -379 ct 
103 -366 94 -348 91 -324 ct 34 -329 l  39 -364 53 -392 79 -413 ct 104 -434 137 -444 177 -444 ct 
221 -444 255 -434 279 -413 ct 303 -392 314 -362 314 -324 ct 314 -307 311 -290 303 -274 ct 
295 -257 283 -240 268 -223 ct 253 -206 224 -180 180 -145 ct 157 -126 138 -108 124 -93 ct 
110 -77 100 -62 93 -47 ct 321 -47 l  321 0 l  32 0 l  p ef
pom
pum
6249 4785 t
86 -156 m  86 -118 94 -88 109 -67 ct 125 -46 149 -36 179 -36 ct 203 -36 223 -41 237 -50 ct 
252 -60 262 -72 267 -87 ct 316 -73 l  296 -20 250 6 179 6 ct 130 6 92 -9 66 -38 ct 
40 -68 27 -112 27 -170 ct 27 -226 40 -268 66 -298 ct 92 -327 129 -342 177 -342 ct 
276 -342 325 -283 325 -164 ct 325 -156 l  86 -156 l  p
267 -199 m  264 -234 255 -260 240 -277 ct 225 -293 204 -301 176 -301 ct 149 -301 128 -292 112 -274 ct 
96 -256 87 -231 86 -199 ct 267 -199 l  p ef
607 0 m  607 -213 l  607 -235 605 -252 600 -264 ct 596 -277 589 -285 580 -291 ct 
570 -296 556 -299 538 -299 ct 511 -299 490 -290 474 -271 ct 459 -253 451 -227 451 -195 ct 
451 0 l  395 0 l  395 -264 l  395 -303 394 -327 393 -336 ct 446 -336 l  446 -335 446 -332 447 -327 ct 
447 -323 447 -318 447 -312 ct 448 -306 448 -295 448 -278 ct 449 -278 l  462 -302 477 -318 494 -328 ct 
511 -337 532 -342 557 -342 ct 593 -342 620 -333 637 -315 ct 654 -296 663 -266 663 -224 ct 
663 0 l  607 0 l  p ef
958 -53 m  947 -32 934 -16 916 -7 ct 899 2 878 7 853 7 ct 811 7 780 -7 760 -36 ct 
740 -64 730 -108 730 -166 ct 730 -283 771 -341 853 -341 ct 878 -341 900 -337 917 -327 ct 
934 -318 947 -303 958 -283 ct 958 -283 l  958 -321 l  958 -460 l  1013 -460 l 
1013 -68 l  1013 -33 1014 -10 1015 1 ct 962 1 l  961 -3 961 -10 960 -22 ct 959 -34 959 -45 959 -53 ct 
958 -53 l  p
788 -167 m  788 -120 794 -87 807 -67 ct 819 -46 839 -36 867 -36 ct 899 -36 922 -47 936 -69 ct 
950 -91 958 -125 958 -171 ct 958 -216 950 -248 936 -269 ct 922 -290 899 -300 868 -300 ct 
840 -300 820 -290 807 -269 ct 795 -248 788 -214 788 -167 ct p ef
pom
1 lw 6699 4899 m  6699 5269 l  ps
6699 5699 m  6849 5249 l  6549 5249 l  6699 5699 l  p ef
pum
13348 4785 t
86 -156 m  86 -118 94 -88 109 -67 ct 125 -46 149 -36 179 -36 ct 203 -36 223 -41 237 -50 ct 
252 -60 262 -72 267 -87 ct 316 -73 l  296 -20 250 6 179 6 ct 130 6 92 -9 66 -38 ct 
40 -68 27 -112 27 -170 ct 27 -226 40 -268 66 -298 ct 92 -327 129 -342 177 -342 ct 
276 -342 325 -283 325 -164 ct 325 -156 l  86 -156 l  p
267 -199 m  264 -234 255 -260 240 -277 ct 225 -293 204 -301 176 -301 ct 149 -301 128 -292 112 -274 ct 
96 -256 87 -231 86 -199 ct 267 -199 l  p ef
607 0 m  607 -213 l  607 -235 605 -252 600 -264 ct 596 -277 589 -285 580 -291 ct 
570 -296 556 -299 538 -299 ct 511 -299 490 -290 474 -271 ct 459 -253 451 -227 451 -195 ct 
451 0 l  395 0 l  395 -264 l  395 -303 394 -327 393 -336 ct 446 -336 l  446 -335 446 -332 447 -327 ct 
447 -323 447 -318 447 -312 ct 448 -306 448 -295 448 -278 ct 449 -278 l  462 -302 477 -318 494 -328 ct 
511 -337 532 -342 557 -342 ct 593 -342 620 -333 637 -315 ct 654 -296 663 -266 663 -224 ct 
663 0 l  607 0 l  p ef
958 -53 m  947 -32 934 -16 916 -7 ct 899 2 878 7 853 7 ct 811 7 780 -7 760 -36 ct 
740 -64 730 -108 730 -166 ct 730 -283 771 -341 853 -341 ct 878 -341 900 -337 917 -327 ct 
934 -318 947 -303 958 -283 ct 958 -283 l  958 -321 l  958 -460 l  1013 -460 l 
1013 -68 l  1013 -33 1014 -10 1015 1 ct 962 1 l  961 -3 961 -10 960 -22 ct 959 -34 959 -45 959 -53 ct 
958 -53 l  p
788 -167 m  788 -120 794 -87 807 -67 ct 819 -46 839 -36 867 -36 ct 899 -36 922 -47 936 -69 ct 
950 -91 958 -125 958 -171 ct 958 -216 950 -248 936 -269 ct 922 -290 899 -300 868 -300 ct 
840 -300 820 -290 807 -269 ct 795 -248 788 -214 788 -167 ct p ef
pom
13798 4899 m  13798 5269 l  ps
13798 5699 m  13948 5249 l  13648 5249 l  13798 5699 l  p ef
0 6200 t 
pom
count op_count sub {pop} repeat countdictstack dict_count sub {end} repeat b4_inc_state restore
%%PageTrailer
%%Trailer
%%EOF
