%!PS-Adobe-3.0 EPSF-3.0 
%%BoundingBox: 0 0 392 226
%%Pages: 0
%%Creator: LibreOffice 5.4
%%Title: none
%%CreationDate: none
%%LanguageLevel: 2
%%EndComments
%%BeginProlog
%%BeginResource: procset SDRes-Prolog 1.0 0
/b4_inc_state save def
/dict_count countdictstack def
/op_count count 1 sub def
userdict begin
0 setgray 0 setlinecap 1 setlinewidth 0 setlinejoin 10 setmiterlimit[] 0 setdash newpath
/languagelevel where {pop languagelevel 1 ne {false setstrokeadjust false setoverprint} if} if
/bdef {bind def} bind def
/c {setgray} bdef
/l {neg lineto} bdef
/rl {neg rlineto} bdef
/lc {setlinecap} bdef
/lj {setlinejoin} bdef
/lw {setlinewidth} bdef
/ml {setmiterlimit} bdef
/ld {setdash} bdef
/m {neg moveto} bdef
/ct {6 2 roll neg 6 2 roll neg 6 2 roll neg curveto} bdef
/r {rotate} bdef
/t {neg translate} bdef
/s {scale} bdef
/sw {show} bdef
/gs {gsave} bdef
/gr {grestore} bdef
/f {findfont dup length dict begin
{1 index /FID ne {def} {pop pop} ifelse} forall /Encoding ISOLatin1Encoding def
currentdict end /NFont exch definefont pop /NFont findfont} bdef
/p {closepath} bdef
/sf {scalefont setfont} bdef
/ef {eofill}bdef
/pc {closepath stroke}bdef
/ps {stroke}bdef
/pum {matrix currentmatrix}bdef
/pom {setmatrix}bdef
/bs {/aString exch def /nXOfs exch def /nWidth exch def currentpoint nXOfs 0 rmoveto pum nWidth aString stringwidth pop div 1 scale aString show pom moveto} bdef
%%EndResource
%%EndProlog
%%BeginSetup
%%EndSetup
%%Page: 1 1
%%BeginPageSetup
%%EndPageSetup
pum
0.02835 0.02828 s 
0 -7990 t
/tm matrix currentmatrix def
tm setmatrix
-8697 -6196 t 
1 1 s 
gs
0 lw 1 lj 0.000 c 9309 8964 m  9656 8964 9922 9207 9922 9526 ct 9922 9845 9656 10089 9309 10089 ct 
8962 10089 8697 9845 8697 9526 ct 8697 9207 8962 8964 9309 8964 ct pc
gr
gs
0 lw 1 lj 0.000 c 8697 8964 m  8697 8964 l  pc
gr
gs
0 lw 1 lj 0.000 c 9923 10090 m  9923 10090 l  pc
gr
pum
9135 9690 t
0.000 c 48 0 m  48 -47 l  160 -47 l  160 -384 l  61 -314 l  61 -366 l  164 -438 l 
216 -438 l  216 -47 l  322 -47 l  322 0 l  48 0 l  p ef
pom
gs
0 lw 1 lj 15083 9483 m  15430 9483 15696 9726 15696 10045 ct 15696 10364 15430 10608 15083 10608 ct 
14736 10608 14471 10364 14471 10045 ct 14471 9726 14736 9483 15083 9483 ct pc
gr
gs
0 lw 1 lj 14471 9483 m  14471 9483 l  pc
gr
gs
0 lw 1 lj 15697 10609 m  15697 10609 l  pc
gr
pum
14909 10208 t
32 0 m  32 -39 l  42 -64 55 -85 71 -104 ct 86 -122 102 -139 118 -154 ct 135 -169 152 -183 168 -196 ct 
185 -208 199 -221 213 -234 ct 226 -247 237 -260 245 -274 ct 253 -289 257 -304 257 -322 ct 
257 -346 250 -365 236 -378 ct 222 -391 202 -398 177 -398 ct 154 -398 134 -392 119 -379 ct 
103 -366 94 -348 91 -324 ct 34 -329 l  39 -364 53 -392 79 -413 ct 104 -434 137 -444 177 -444 ct 
221 -444 255 -434 279 -413 ct 303 -392 314 -362 314 -324 ct 314 -307 311 -290 303 -274 ct 
295 -257 283 -240 268 -223 ct 253 -206 224 -180 180 -145 ct 157 -126 138 -108 124 -93 ct 
110 -77 100 -62 93 -47 ct 321 -47 l  321 0 l  32 0 l  p ef
pom
gs
0 lw 1 lj 11759 12857 m  12106 12857 12372 13101 12372 13419 ct 12372 13737 12106 13981 11759 13981 ct 
11412 13981 11147 13737 11147 13419 ct 11147 13101 11412 12857 11759 12857 ct 
pc
gr
gs
0 lw 1 lj 11147 12857 m  11147 12857 l  pc
gr
gs
0 lw 1 lj 12373 13982 m  12373 13982 l  pc
gr
pum
11584 13583 t
273 -99 m  273 0 l  220 0 l  220 -99 l  15 -99 l  15 -142 l  215 -438 l 
273 -438 l  273 -143 l  335 -143 l  335 -99 l  273 -99 l  p
220 -374 m  220 -373 217 -368 212 -358 ct 206 -348 202 -341 200 -338 ct 88 -172 l 
71 -149 l  66 -143 l  220 -143 l  220 -374 l  p ef
pom
gs
0 lw 1 lj 12634 6197 m  12981 6197 13247 6440 13247 6759 ct 13247 7078 12981 7322 12634 7322 ct 
12287 7322 12022 7078 12022 6759 ct 12022 6440 12287 6197 12634 6197 ct pc
gr
gs
0 lw 1 lj 12022 6197 m  12022 6197 l  pc
gr
gs
0 lw 1 lj 13248 7323 m  13248 7323 l  pc
gr
pum
12459 6922 t
325 -121 m  325 -81 312 -49 287 -27 ct 261 -5 225 6 177 6 ct 133 6 98 -4 71 -24 ct 
45 -44 29 -73 24 -113 ct 82 -118 l  89 -66 121 -40 177 -40 ct 205 -40 227 -47 243 -61 ct 
259 -75 267 -96 267 -123 ct 267 -147 258 -165 240 -179 ct 222 -192 195 -199 161 -199 ct 
129 -199 l  129 -247 l  159 -247 l  190 -247 214 -254 231 -267 ct 247 -280 256 -299 256 -322 ct 
256 -346 249 -364 235 -378 ct 221 -391 201 -398 174 -398 ct 149 -398 129 -392 114 -379 ct 
99 -367 90 -349 88 -326 ct 32 -330 l  36 -366 51 -394 76 -414 ct 102 -434 134 -444 175 -444 ct 
218 -444 252 -434 277 -413 ct 301 -393 313 -365 313 -328 ct 313 -300 305 -278 290 -260 ct 
274 -243 251 -231 222 -225 ct 222 -223 l  254 -220 280 -209 298 -191 ct 316 -172 325 -149 325 -121 ct 
p ef
pom
gs
0 lw 1 lj 15608 12165 m  15955 12165 16221 12409 16221 12727 ct 16221 13045 15955 13289 15608 13289 ct 
15261 13289 14996 13045 14996 12727 ct 14996 12409 15261 12165 15608 12165 ct 
pc
gr
gs
0 lw 1 lj 14996 12165 m  14996 12165 l  pc
gr
gs
0 lw 1 lj 16222 13290 m  16222 13290 l  pc
gr
pum
15434 12891 t
325 -143 m  325 -97 313 -61 288 -34 ct 263 -7 228 6 184 6 ct 135 6 97 -12 71 -49 ct 
45 -86 32 -139 32 -209 ct 32 -284 46 -343 73 -383 ct 100 -424 139 -444 189 -444 ct 
254 -444 296 -414 313 -355 ct 260 -345 l  249 -381 225 -399 188 -399 ct 156 -399 131 -384 114 -354 ct 
96 -324 88 -282 88 -225 ct 98 -244 112 -258 131 -268 ct 149 -278 170 -283 194 -283 ct 
234 -283 266 -270 290 -245 ct 313 -220 325 -186 325 -143 ct p
269 -141 m  269 -173 261 -197 245 -214 ct 230 -231 208 -240 180 -240 ct 154 -240 133 -232 117 -217 ct 
101 -202 93 -181 93 -154 ct 93 -120 102 -93 118 -71 ct 135 -50 156 -39 182 -39 ct 
209 -39 230 -48 246 -66 ct 261 -84 269 -109 269 -141 ct p ef
pom
gs
0 lw 1 lj 16658 6544 m  17005 6544 17271 6788 17271 7106 ct 17271 7424 17005 7668 16658 7668 ct 
16311 7668 16046 7424 16046 7106 ct 16046 6788 16311 6544 16658 6544 ct pc
gr
gs
0 lw 1 lj 16046 6544 m  16046 6544 l  pc
gr
gs
0 lw 1 lj 17272 7669 m  17272 7669 l  pc
gr
pum
16484 7269 t
326 -143 m  326 -96 313 -60 285 -34 ct 258 -7 220 6 171 6 ct 131 6 98 -3 73 -21 ct 
48 -38 32 -64 25 -98 ct 82 -104 l  94 -61 124 -40 173 -40 ct 203 -40 226 -49 243 -67 ct 
260 -85 269 -110 269 -141 ct 269 -169 260 -191 243 -208 ct 226 -225 203 -233 174 -233 ct 
159 -233 145 -231 132 -226 ct 119 -221 106 -213 93 -202 ct 38 -202 l  53 -437 l 
301 -437 l  301 -390 l  104 -390 l  95 -251 l  119 -270 149 -279 185 -279 ct 
228 -279 263 -266 288 -241 ct 314 -216 326 -183 326 -143 ct p ef
pom
gs
0 lw 1 lj 9744 9129 m  12202 7159 l  ps
gr
gs
0 lw 1 lj 9744 9926 m  11327 13021 l  ps
gr
gs
0 lw 1 lj 9923 9528 m  16226 7504 l  ps
gr
gs
0 lw 1 lj 13248 6761 m  16047 7106 l  ps
gr
gs
0 lw 1 lj 12373 13419 m  15176 13125 l  ps
gr
gs
0 lw 1 lj 15610 12165 m  15085 10609 l  ps
gr
gs
0 lw 1 lj 15085 9484 m  16660 7668 l  ps
gr
gs
0 lw 1 lj 16222 12727 m  17093 7504 l  ps
gr
pum
10127 11848 t
326 -143 m  326 -96 313 -60 285 -34 ct 258 -7 220 6 171 6 ct 131 6 98 -3 73 -21 ct 
48 -38 32 -64 25 -98 ct 82 -104 l  94 -61 124 -40 173 -40 ct 203 -40 226 -49 243 -67 ct 
260 -85 269 -110 269 -141 ct 269 -169 260 -191 243 -208 ct 226 -225 203 -233 174 -233 ct 
159 -233 145 -231 132 -226 ct 119 -221 106 -213 93 -202 ct 38 -202 l  53 -437 l 
301 -437 l  301 -390 l  104 -390 l  95 -251 l  119 -270 149 -279 185 -279 ct 
228 -279 263 -266 288 -241 ct 314 -216 326 -183 326 -143 ct p ef
pom
pum
13539 13924 t
273 -99 m  273 0 l  220 0 l  220 -99 l  15 -99 l  15 -142 l  215 -438 l 
273 -438 l  273 -143 l  335 -143 l  335 -99 l  273 -99 l  p
220 -374 m  220 -373 217 -368 212 -358 ct 206 -348 202 -341 200 -338 ct 88 -172 l 
71 -149 l  66 -143 l  220 -143 l  220 -374 l  p ef
pom
pum
12969 9168 t
48 0 m  48 -47 l  160 -47 l  160 -384 l  61 -314 l  61 -366 l  164 -438 l 
216 -438 l  216 -47 l  322 -47 l  322 0 l  48 0 l  p ef
677 -143 m  677 -96 664 -60 636 -34 ct 609 -7 571 6 522 6 ct 482 6 449 -3 424 -21 ct 
399 -38 383 -64 376 -98 ct 433 -104 l  445 -61 475 -40 524 -40 ct 554 -40 577 -49 594 -67 ct 
611 -85 620 -110 620 -141 ct 620 -169 611 -191 594 -208 ct 577 -225 554 -233 525 -233 ct 
510 -233 496 -231 483 -226 ct 470 -221 457 -213 444 -202 ct 389 -202 l  404 -437 l 
652 -437 l  652 -390 l  455 -390 l  446 -251 l  470 -270 500 -279 536 -279 ct 
579 -279 614 -266 639 -241 ct 665 -216 677 -183 677 -143 ct p ef
pom
pum
10519 8043 t
48 0 m  48 -47 l  160 -47 l  160 -384 l  61 -314 l  61 -366 l  164 -438 l 
216 -438 l  216 -47 l  322 -47 l  322 0 l  48 0 l  p ef
672 -392 m  628 -324 596 -270 578 -232 ct 559 -193 545 -155 536 -117 ct 527 -79 522 -40 522 0 ct 
464 0 l  464 -56 476 -115 500 -177 ct 523 -238 563 -309 618 -390 ct 384 -390 l 
384 -437 l  672 -437 l  672 -392 l  p ef
pom
pum
16994 10205 t
32 0 m  32 -39 l  42 -64 55 -85 71 -104 ct 86 -122 102 -139 118 -154 ct 135 -169 152 -183 168 -196 ct 
185 -208 199 -221 213 -234 ct 226 -247 237 -260 245 -274 ct 253 -289 257 -304 257 -322 ct 
257 -346 250 -365 236 -378 ct 222 -391 202 -398 177 -398 ct 154 -398 134 -392 119 -379 ct 
103 -366 94 -348 91 -324 ct 34 -329 l  39 -364 53 -392 79 -413 ct 104 -434 137 -444 177 -444 ct 
221 -444 255 -434 279 -413 ct 303 -392 314 -362 314 -324 ct 314 -307 311 -290 303 -274 ct 
295 -257 283 -240 268 -223 ct 253 -206 224 -180 180 -145 ct 157 -126 138 -108 124 -93 ct 
110 -77 100 -62 93 -47 ct 321 -47 l  321 0 l  32 0 l  p ef
399 0 m  399 -47 l  511 -47 l  511 -384 l  412 -314 l  412 -366 l  515 -438 l 
567 -438 l  567 -47 l  673 -47 l  673 0 l  399 0 l  p ef
pom
pum
15989 9255 t
321 -392 m  277 -324 245 -270 227 -232 ct 208 -193 194 -155 185 -117 ct 176 -79 171 -40 171 0 ct 
113 0 l  113 -56 125 -115 149 -177 ct 172 -238 212 -309 267 -390 ct 33 -390 l 
33 -437 l  321 -437 l  321 -392 l  p ef
pom
pum
21247 9384 t
48 0 m  48 -47 l  160 -47 l  160 -384 l  61 -314 l  61 -366 l  164 -438 l 
216 -438 l  216 -47 l  322 -47 l  322 0 l  48 0 l  p ef
676 -121 m  676 -81 663 -49 638 -27 ct 612 -5 576 6 528 6 ct 484 6 449 -4 422 -24 ct 
396 -44 380 -73 375 -113 ct 433 -118 l  440 -66 472 -40 528 -40 ct 556 -40 578 -47 594 -61 ct 
610 -75 618 -96 618 -123 ct 618 -147 609 -165 591 -179 ct 573 -192 546 -199 512 -199 ct 
480 -199 l  480 -247 l  510 -247 l  541 -247 565 -254 582 -267 ct 598 -280 607 -299 607 -322 ct 
607 -346 600 -364 586 -378 ct 572 -391 552 -398 525 -398 ct 500 -398 480 -392 465 -379 ct 
450 -367 441 -349 439 -326 ct 383 -330 l  387 -366 402 -394 427 -414 ct 453 -434 485 -444 526 -444 ct 
569 -444 603 -434 628 -413 ct 652 -393 664 -365 664 -328 ct 664 -300 656 -278 641 -260 ct 
625 -243 602 -231 573 -225 ct 573 -223 l  605 -220 631 -209 649 -191 ct 667 -172 676 -149 676 -121 ct 
p ef
pom
pum
14985 11627 t
325 -121 m  325 -81 312 -49 287 -27 ct 261 -5 225 6 177 6 ct 133 6 98 -4 71 -24 ct 
45 -44 29 -73 24 -113 ct 82 -118 l  89 -66 121 -40 177 -40 ct 205 -40 227 -47 243 -61 ct 
259 -75 267 -96 267 -123 ct 267 -147 258 -165 240 -179 ct 222 -192 195 -199 161 -199 ct 
129 -199 l  129 -247 l  159 -247 l  190 -247 214 -254 231 -267 ct 247 -280 256 -299 256 -322 ct 
256 -346 249 -364 235 -378 ct 221 -391 201 -398 174 -398 ct 149 -398 129 -392 114 -379 ct 
99 -367 90 -349 88 -326 ct 32 -330 l  36 -366 51 -394 76 -414 ct 102 -434 134 -444 175 -444 ct 
218 -444 252 -434 277 -413 ct 301 -393 313 -365 313 -328 ct 313 -300 305 -278 290 -260 ct 
274 -243 251 -231 222 -225 ct 222 -223 l  254 -220 280 -209 298 -191 ct 316 -172 325 -149 325 -121 ct 
p ef
pom
gs
0 lw 1 lj 9923 9528 m  15176 12329 l  ps
gr
gs
0 lw 1 lj 20208 12466 m  20555 12466 20820 12710 20820 13028 ct 20820 13346 20555 13590 20208 13590 ct 
19861 13590 19596 13346 19596 13028 ct 19596 12710 19861 12466 20208 12466 ct 
pc
gr
gs
0 lw 1 lj 19596 12466 m  19596 12466 l  pc
gr
gs
0 lw 1 lj 20821 13591 m  20821 13591 l  pc
gr
pum
20033 13192 t
326 -122 m  326 -82 313 -50 287 -28 ct 261 -5 225 6 177 6 ct 130 6 93 -5 67 -27 ct 
41 -49 28 -81 28 -121 ct 28 -150 36 -174 52 -193 ct 68 -213 89 -225 115 -229 ct 
115 -230 l  91 -236 72 -248 58 -266 ct 45 -285 38 -307 38 -332 ct 38 -365 50 -392 75 -413 ct 
100 -434 134 -444 176 -444 ct 218 -444 252 -434 277 -414 ct 302 -393 315 -366 315 -331 ct 
315 -306 308 -284 294 -266 ct 280 -247 261 -235 237 -231 ct 237 -229 l  265 -225 287 -213 302 -194 ct 
318 -175 326 -151 326 -122 ct p
257 -328 m  257 -378 230 -402 176 -402 ct 149 -402 129 -396 115 -384 ct 102 -371 95 -353 95 -328 ct 
95 -303 102 -284 116 -271 ct 130 -258 150 -251 176 -251 ct 202 -251 222 -257 236 -269 ct 
250 -281 257 -301 257 -328 ct p
268 -127 m  268 -154 260 -175 243 -189 ct 227 -202 205 -209 176 -209 ct 147 -209 125 -202 109 -187 ct 
93 -172 85 -152 85 -126 ct 85 -66 116 -36 177 -36 ct 208 -36 230 -43 245 -58 ct 
260 -72 268 -96 268 -127 ct p ef
pom
gs
0 lw 1 lj 20108 7369 m  20455 7369 20721 7613 20721 7931 ct 20721 8248 20455 8492 20108 8492 ct 
19761 8492 19496 8248 19496 7931 ct 19496 7613 19761 7369 20108 7369 ct pc
gr
gs
0 lw 1 lj 19496 7369 m  19496 7369 l  pc
gr
gs
0 lw 1 lj 20722 8493 m  20722 8493 l  pc
gr
pum
19933 8094 t
321 -392 m  277 -324 245 -270 227 -232 ct 208 -193 194 -155 185 -117 ct 176 -79 171 -40 171 0 ct 
113 0 l  113 -56 125 -115 149 -177 ct 172 -238 212 -309 267 -390 ct 33 -390 l 
33 -437 l  321 -437 l  321 -392 l  p ef
pom
gs
0 lw 1 lj 21907 9968 m  22254 9968 22520 10212 22520 10530 ct 22520 10848 22254 11092 21907 11092 ct 
21560 11092 21295 10848 21295 10530 ct 21295 10212 21560 9968 21907 9968 ct 
pc
gr
gs
0 lw 1 lj 21295 9968 m  21295 9968 l  pc
gr
gs
0 lw 1 lj 22521 11093 m  22521 11093 l  pc
gr
pum
21733 10693 t
323 -228 m  323 -153 309 -95 282 -55 ct 255 -14 216 6 165 6 ct 131 6 104 -1 83 -16 ct 
62 -30 48 -53 39 -85 ct 92 -94 l  103 -57 128 -39 166 -39 ct 198 -39 223 -54 240 -84 ct 
258 -114 267 -156 268 -212 ct 260 -193 245 -178 225 -167 ct 205 -156 183 -150 159 -150 ct 
120 -150 89 -163 65 -190 ct 42 -217 30 -253 30 -297 ct 30 -343 43 -379 68 -405 ct 
94 -431 130 -444 175 -444 ct 224 -444 261 -426 286 -390 ct 311 -354 323 -300 323 -228 ct 
p
262 -282 m  262 -317 254 -345 238 -367 ct 222 -388 200 -399 173 -399 ct 146 -399 125 -390 110 -371 ct 
94 -353 87 -328 87 -297 ct 87 -265 94 -240 110 -222 ct 125 -203 146 -194 173 -194 ct 
189 -194 204 -198 218 -205 ct 232 -212 242 -223 250 -236 ct 258 -250 262 -265 262 -282 ct 
p ef
pom
gs
0 lw 1 lj 16222 12727 m  21296 10530 l  ps
gr
gs
0 lw 1 lj 16222 12727 m  19597 13028 l  ps
gr
gs
0 lw 1 lj 17272 7106 m  19497 7931 l  ps
gr
gs
0 lw 1 lj 20543 8328 m  21475 10132 l  ps
gr
gs
0 lw 1 lj 20643 12630 m  21475 10928 l  ps
gr
pum
12327 11548 t
326 -143 m  326 -96 313 -60 285 -34 ct 258 -7 220 6 171 6 ct 131 6 98 -3 73 -21 ct 
48 -38 32 -64 25 -98 ct 82 -104 l  94 -61 124 -40 173 -40 ct 203 -40 226 -49 243 -67 ct 
260 -85 269 -110 269 -141 ct 269 -169 260 -191 243 -208 ct 226 -225 203 -233 174 -233 ct 
159 -233 145 -231 132 -226 ct 119 -221 106 -213 93 -202 ct 38 -202 l  53 -437 l 
301 -437 l  301 -390 l  104 -390 l  95 -251 l  119 -270 149 -279 185 -279 ct 
228 -279 263 -266 288 -241 ct 314 -216 326 -183 326 -143 ct p ef
pom
pum
18693 11405 t
323 -228 m  323 -153 309 -95 282 -55 ct 255 -14 216 6 165 6 ct 131 6 104 -1 83 -16 ct 
62 -30 48 -53 39 -85 ct 92 -94 l  103 -57 128 -39 166 -39 ct 198 -39 223 -54 240 -84 ct 
258 -114 267 -156 268 -212 ct 260 -193 245 -178 225 -167 ct 205 -156 183 -150 159 -150 ct 
120 -150 89 -163 65 -190 ct 42 -217 30 -253 30 -297 ct 30 -343 43 -379 68 -405 ct 
94 -431 130 -444 175 -444 ct 224 -444 261 -426 286 -390 ct 311 -354 323 -300 323 -228 ct 
p
262 -282 m  262 -317 254 -345 238 -367 ct 222 -388 200 -399 173 -399 ct 146 -399 125 -390 110 -371 ct 
94 -353 87 -328 87 -297 ct 87 -265 94 -240 110 -222 ct 125 -203 146 -194 173 -194 ct 
189 -194 204 -198 218 -205 ct 232 -212 242 -223 250 -236 ct 258 -250 262 -265 262 -282 ct 
p ef
pom
pum
18301 7336 t
326 -143 m  326 -96 313 -60 285 -34 ct 258 -7 220 6 171 6 ct 131 6 98 -3 73 -21 ct 
48 -38 32 -64 25 -98 ct 82 -104 l  94 -61 124 -40 173 -40 ct 203 -40 226 -49 243 -67 ct 
260 -85 269 -110 269 -141 ct 269 -169 260 -191 243 -208 ct 226 -225 203 -233 174 -233 ct 
159 -233 145 -231 132 -226 ct 119 -221 106 -213 93 -202 ct 38 -202 l  53 -437 l 
301 -437 l  301 -390 l  104 -390 l  95 -251 l  119 -270 149 -279 185 -279 ct 
228 -279 263 -266 288 -241 ct 314 -216 326 -183 326 -143 ct p ef
pom
pum
17793 13583 t
48 0 m  48 -47 l  160 -47 l  160 -384 l  61 -314 l  61 -366 l  164 -438 l 
216 -438 l  216 -47 l  322 -47 l  322 0 l  48 0 l  p ef
672 -392 m  628 -324 596 -270 578 -232 ct 559 -193 545 -155 536 -117 ct 527 -79 522 -40 522 0 ct 
464 0 l  464 -56 476 -115 500 -177 ct 523 -238 563 -309 618 -390 ct 384 -390 l 
384 -437 l  672 -437 l  672 -392 l  p ef
pom
pum
21147 12235 t
48 0 m  48 -47 l  160 -47 l  160 -384 l  61 -314 l  61 -366 l  164 -438 l 
216 -438 l  216 -47 l  322 -47 l  322 0 l  48 0 l  p ef
353 0 m  353 -47 l  465 -47 l  465 -384 l  366 -314 l  366 -366 l  469 -438 l 
521 -438 l  521 -47 l  627 -47 l  627 0 l  353 0 l  p ef
pom
pum
14502 6836 t
32 0 m  32 -39 l  42 -64 55 -85 71 -104 ct 86 -122 102 -139 118 -154 ct 135 -169 152 -183 168 -196 ct 
185 -208 199 -221 213 -234 ct 226 -247 237 -260 245 -274 ct 253 -289 257 -304 257 -322 ct 
257 -346 250 -365 236 -378 ct 222 -391 202 -398 177 -398 ct 154 -398 134 -392 119 -379 ct 
103 -366 94 -348 91 -324 ct 34 -329 l  39 -364 53 -392 79 -413 ct 104 -434 137 -444 177 -444 ct 
221 -444 255 -434 279 -413 ct 303 -392 314 -362 314 -324 ct 314 -307 311 -290 303 -274 ct 
295 -257 283 -240 268 -223 ct 253 -206 224 -180 180 -145 ct 157 -126 138 -108 124 -93 ct 
110 -77 100 -62 93 -47 ct 321 -47 l  321 0 l  32 0 l  p ef
pom
0 7990 t 
pom
count op_count sub {pop} repeat countdictstack dict_count sub {end} repeat b4_inc_state restore
%%PageTrailer
%%Trailer
%%EOF
