%!PS-Adobe-3.0 EPSF-3.0 
%%BoundingBox: 0 0 155 38
%%Pages: 0
%%Creator: LibreOffice 5.3
%%Title: none
%%CreationDate: none
%%LanguageLevel: 2
%%EndComments
%%BeginProlog
%%BeginResource: procset SDRes-Prolog 1.0 0
/b4_inc_state save def
/dict_count countdictstack def
/op_count count 1 sub def
userdict begin
0 setgray 0 setlinecap 1 setlinewidth 0 setlinejoin 10 setmiterlimit[] 0 setdash newpath
/languagelevel where {pop languagelevel 1 ne {false setstrokeadjust false setoverprint} if} if
/bdef {bind def} bind def
/c {setgray} bdef
/l {neg lineto} bdef
/rl {neg rlineto} bdef
/lc {setlinecap} bdef
/lj {setlinejoin} bdef
/lw {setlinewidth} bdef
/ml {setmiterlimit} bdef
/ld {setdash} bdef
/m {neg moveto} bdef
/ct {6 2 roll neg 6 2 roll neg 6 2 roll neg curveto} bdef
/r {rotate} bdef
/t {neg translate} bdef
/s {scale} bdef
/sw {show} bdef
/gs {gsave} bdef
/gr {grestore} bdef
/f {findfont dup length dict begin
{1 index /FID ne {def} {pop pop} ifelse} forall /Encoding ISOLatin1Encoding def
currentdict end /NFont exch definefont pop /NFont findfont} bdef
/p {closepath} bdef
/sf {scalefont setfont} bdef
/ef {eofill}bdef
/pc {closepath stroke}bdef
/ps {stroke}bdef
/pum {matrix currentmatrix}bdef
/pom {setmatrix}bdef
/bs {/aString exch def /nXOfs exch def /nWidth exch def currentpoint nXOfs 0 rmoveto pum nWidth aString stringwidth pop div 1 scale aString show pom moveto} bdef
%%EndResource
%%EndProlog
%%BeginSetup
%%EndSetup
%%Page: 1 1
%%BeginPageSetup
%%EndPageSetup
pum
0.0284 0.02802 s 
0 -1356 t
/tm matrix currentmatrix def
tm setmatrix
-8994 -14190 t 
1 1 s 
0.996 c 10795 14290 m  11135 14290 11395 14550 11395 14890 ct 11395 15230 11135 15490 10795 15490 ct 
10455 15490 10195 15230 10195 14890 ct 10195 14550 10455 14290 10795 14290 ct 
p
10195 14290 m  10195 14290 l  p
11396 15491 m  11396 15491 l  p ef
34.97748 lw 1 lj 0.000 c 10795 14290 m  11134 14290 11394 14550 11394 14890 ct 
11394 15229 11134 15489 10795 15489 ct 10455 15489 10195 15229 10195 14890 ct 
10195 14550 10455 14290 10795 14290 ct pc
10195 14290 m  10195 14290 l  pc
11395 15490 m  11395 15490 l  pc
1 lw 8995 14889 m  9765 14889 l  ps
10194 14889 m  9745 14739 l  9745 15039 l  10194 14889 l  p ef
0.996 c 13794 14291 m  14134 14291 14394 14551 14394 14891 ct 14394 15231 14134 15491 13794 15491 ct 
13455 15491 13195 15231 13195 14891 ct 13195 14551 13455 14291 13794 14291 ct 
p
13195 14291 m  13195 14291 l  p
14395 15492 m  14395 15492 l  p ef
105.93181 lw 0.000 c 13794 14291 m  14134 14291 14394 14551 14394 14891 ct 
14394 15230 14134 15490 13794 15490 ct 13454 15490 13194 15230 13194 14891 ct 
13194 14551 13454 14291 13794 14291 ct pc
13194 14291 m  13194 14291 l  pc
14395 15491 m  14395 15491 l  pc
36 lw 11395 14890 m  12690 14891 l  ps
13195 14891 m  12667 14715 l  12667 15067 l  13195 14891 l  p ef
pum
11943 14775 t
326 -169 m  326 -52 285 7 203 7 ct 178 7 157 2 140 -7 ct 123 -16 109 -31 99 -51 ct 
98 -51 l  98 -45 98 -35 97 -22 ct 96 -9 95 -1 95 1 ct 41 1 l  42 -10 43 -33 43 -68 ct 
43 -460 l  99 -460 l  99 -328 l  99 -315 98 -299 97 -281 ct 99 -281 l  109 -302 123 -318 140 -327 ct 
157 -336 178 -341 203 -341 ct 245 -341 277 -327 297 -298 ct 317 -270 326 -227 326 -169 ct 
p
268 -167 m  268 -214 262 -247 249 -268 ct 237 -288 217 -298 189 -298 ct 157 -298 135 -287 120 -266 ct 
106 -244 99 -210 99 -163 ct 99 -119 106 -87 120 -66 ct 134 -45 157 -34 188 -34 ct 
216 -34 237 -45 249 -65 ct 262 -86 268 -120 268 -167 ct p ef
pom
0 1356 t 
pom
count op_count sub {pop} repeat countdictstack dict_count sub {end} repeat b4_inc_state restore
%%PageTrailer
%%Trailer
%%EOF
