%!PS-Adobe-3.0 EPSF-3.0 
%%BoundingBox: 0 0 276 117
%%Pages: 0
%%Creator: LibreOffice 5.3
%%Title: none
%%CreationDate: none
%%LanguageLevel: 2
%%EndComments
%%BeginProlog
%%BeginResource: procset SDRes-Prolog 1.0 0
/b4_inc_state save def
/dict_count countdictstack def
/op_count count 1 sub def
userdict begin
0 setgray 0 setlinecap 1 setlinewidth 0 setlinejoin 10 setmiterlimit[] 0 setdash newpath
/languagelevel where {pop languagelevel 1 ne {false setstrokeadjust false setoverprint} if} if
/bdef {bind def} bind def
/c {setgray} bdef
/l {neg lineto} bdef
/rl {neg rlineto} bdef
/lc {setlinecap} bdef
/lj {setlinejoin} bdef
/lw {setlinewidth} bdef
/ml {setmiterlimit} bdef
/ld {setdash} bdef
/m {neg moveto} bdef
/ct {6 2 roll neg 6 2 roll neg 6 2 roll neg curveto} bdef
/r {rotate} bdef
/t {neg translate} bdef
/s {scale} bdef
/sw {show} bdef
/gs {gsave} bdef
/gr {grestore} bdef
/f {findfont dup length dict begin
{1 index /FID ne {def} {pop pop} ifelse} forall /Encoding ISOLatin1Encoding def
currentdict end /NFont exch definefont pop /NFont findfont} bdef
/p {closepath} bdef
/sf {scalefont setfont} bdef
/ef {eofill}bdef
/pc {closepath stroke}bdef
/ps {stroke}bdef
/pum {matrix currentmatrix}bdef
/pom {setmatrix}bdef
/bs {/aString exch def /nXOfs exch def /nWidth exch def currentpoint nXOfs 0 rmoveto pum nWidth aString stringwidth pop div 1 scale aString show pom moveto} bdef
%%EndResource
%%EndProlog
%%BeginSetup
%%EndSetup
%%Page: 1 1
%%BeginPageSetup
%%EndPageSetup
pum
0.02836 0.02823 s 
0 -4144 t
/tm matrix currentmatrix def
tm setmatrix
-8024 -12897 t 
1 1 s 
0.996 c 12000 14299 m  12339 14299 12599 14558 12599 14898 ct 12599 15238 12339 15498 12000 15498 ct 
11660 15498 11400 15238 11400 14898 ct 11400 14558 11660 14299 12000 14299 ct 
p
11400 14299 m  11400 14299 l  p
12600 15499 m  12600 15499 l  p ef
34.99218 lw 1 lj 0.000 c 11999 14298 m  12339 14298 12599 14558 12599 14898 ct 
12599 15238 12339 15498 11999 15498 ct 11659 15498 11399 15238 11399 14898 ct 
11399 14558 11659 14298 11999 14298 ct pc
11399 14298 m  11399 14298 l  pc
12600 15499 m  12600 15499 l  pc
0.996 c 14699 14299 m  15039 14299 15299 14558 15299 14898 ct 15299 15238 15039 15498 14699 15498 ct 
14359 15498 14099 15238 14099 14898 ct 14099 14558 14359 14299 14699 14299 ct 
p
14099 14299 m  14099 14299 l  p
15300 15499 m  15300 15499 l  p ef
0.000 c 14698 14298 m  15038 14298 15298 14558 15298 14898 ct 15298 15238 15038 15498 14698 15498 ct 
14359 15498 14099 15238 14099 14898 ct 14099 14558 14359 14298 14698 14298 ct 
pc
14099 14298 m  14099 14298 l  pc
15299 15499 m  15299 15499 l  pc
36 lw 10301 14899 m  10895 14898 l  ps
11400 14898 m  10872 14722 l  10872 15074 l  11400 14898 l  p ef
0.996 c 9701 14300 m  10041 14300 10301 14559 10301 14899 ct 10301 15239 10041 15499 9701 15499 ct 
9361 15499 9101 15239 9101 14899 ct 9101 14559 9361 14300 9701 14300 ct p
9101 14300 m  9101 14300 l  p
10302 15500 m  10302 15500 l  p ef
34.99218 lw 0.000 c 9701 14299 m  10040 14299 10300 14559 10300 14899 ct 10300 15239 10040 15499 9701 15499 ct 
9361 15499 9101 15239 9101 14899 ct 9101 14559 9361 14299 9701 14299 ct pc
9101 14299 m  9101 14299 l  pc
10301 15500 m  10301 15500 l  pc
0.996 c 17099 14300 m  17439 14300 17699 14559 17699 14899 ct 17699 15239 17439 15499 17099 15499 ct 
16760 15499 16500 15239 16500 14899 ct 16500 14559 16760 14300 17099 14300 ct 
p
16500 14300 m  16500 14300 l  p
17700 15500 m  17700 15500 l  p ef
105.97632 lw 0.000 c 17099 14299 m  17439 14299 17699 14559 17699 14899 ct 
17699 15239 17439 15499 17099 15499 ct 16759 15499 16499 15239 16499 14899 ct 
16499 14559 16759 14299 17099 14299 ct pc
16499 14299 m  16499 14299 l  pc
17700 15500 m  17700 15500 l  pc
36 lw 15299 14898 m  15995 14899 l  ps
16500 14899 m  15972 14723 l  15972 15075 l  16500 14899 l  p ef
14699 15498 m  14699 16296 l  12000 16296 l  12000 16003 l  ps
12000 15498 m  11824 16026 l  12175 16026 l  12000 15498 l  p ef
9701 14300 m  9701 13597 l  17099 13597 l  17099 13795 l  ps
17099 14300 m  17275 13772 l  16924 13772 l  17099 14300 l  p ef
8042 14919 m  8597 14909 l  ps
9101 14899 m  8570 14733 l  8576 15085 l  9101 14899 l  p ef
pum
13147 13483 t
141 -36 m  159 -36 177 -40 194 -49 ct 212 -59 226 -71 238 -86 ct 271 -55 l  254 -34 235 -19 212 -9 ct 
190 1 165 6 138 6 ct 100 6 72 -3 52 -20 ct 32 -37 22 -61 22 -92 ct 22 -115 29 -134 45 -149 ct 
60 -164 80 -173 104 -175 ct 104 -176 l  82 -179 64 -187 51 -201 ct 38 -215 32 -232 32 -253 ct 
32 -279 42 -301 63 -317 ct 84 -334 112 -342 146 -342 ct 198 -342 237 -323 263 -285 ct 
223 -257 l  204 -286 178 -300 146 -300 ct 128 -300 113 -296 103 -287 ct 93 -279 88 -267 88 -251 ct 
88 -233 96 -219 113 -210 ct 129 -201 158 -197 199 -197 ct 199 -155 l  168 -155 144 -153 128 -149 ct 
113 -145 101 -138 92 -130 ct 84 -121 80 -108 80 -93 ct 80 -75 85 -61 96 -51 ct 
107 -41 122 -36 141 -36 ct p ef
pom
pum
13147 16782 t
141 -36 m  159 -36 177 -40 194 -49 ct 212 -59 226 -71 238 -86 ct 271 -55 l  254 -34 235 -19 212 -9 ct 
190 1 165 6 138 6 ct 100 6 72 -3 52 -20 ct 32 -37 22 -61 22 -92 ct 22 -115 29 -134 45 -149 ct 
60 -164 80 -173 104 -175 ct 104 -176 l  82 -179 64 -187 51 -201 ct 38 -215 32 -232 32 -253 ct 
32 -279 42 -301 63 -317 ct 84 -334 112 -342 146 -342 ct 198 -342 237 -323 263 -285 ct 
223 -257 l  204 -286 178 -300 146 -300 ct 128 -300 113 -296 103 -287 ct 93 -279 88 -267 88 -251 ct 
88 -233 96 -219 113 -210 ct 129 -201 158 -197 199 -197 ct 199 -155 l  168 -155 144 -153 128 -149 ct 
113 -145 101 -138 92 -130 ct 84 -121 80 -108 80 -93 ct 80 -75 85 -61 96 -51 ct 
107 -41 122 -36 141 -36 ct p ef
pom
pum
15447 15382 t
141 -36 m  159 -36 177 -40 194 -49 ct 212 -59 226 -71 238 -86 ct 271 -55 l  254 -34 235 -19 212 -9 ct 
190 1 165 6 138 6 ct 100 6 72 -3 52 -20 ct 32 -37 22 -61 22 -92 ct 22 -115 29 -134 45 -149 ct 
60 -164 80 -173 104 -175 ct 104 -176 l  82 -179 64 -187 51 -201 ct 38 -215 32 -232 32 -253 ct 
32 -279 42 -301 63 -317 ct 84 -334 112 -342 146 -342 ct 198 -342 237 -323 263 -285 ct 
223 -257 l  204 -286 178 -300 146 -300 ct 128 -300 113 -296 103 -287 ct 93 -279 88 -267 88 -251 ct 
88 -233 96 -219 113 -210 ct 129 -201 158 -197 199 -197 ct 199 -155 l  168 -155 144 -153 128 -149 ct 
113 -145 101 -138 92 -130 ct 84 -121 80 -108 80 -93 ct 80 -75 85 -61 96 -51 ct 
107 -41 122 -36 141 -36 ct p ef
pom
pum
10448 15382 t
141 -36 m  159 -36 177 -40 194 -49 ct 212 -59 226 -71 238 -86 ct 271 -55 l  254 -34 235 -19 212 -9 ct 
190 1 165 6 138 6 ct 100 6 72 -3 52 -20 ct 32 -37 22 -61 22 -92 ct 22 -115 29 -134 45 -149 ct 
60 -164 80 -173 104 -175 ct 104 -176 l  82 -179 64 -187 51 -201 ct 38 -215 32 -232 32 -253 ct 
32 -279 42 -301 63 -317 ct 84 -334 112 -342 146 -342 ct 198 -342 237 -323 263 -285 ct 
223 -257 l  204 -286 178 -300 146 -300 ct 128 -300 113 -296 103 -287 ct 93 -279 88 -267 88 -251 ct 
88 -233 96 -219 113 -210 ct 129 -201 158 -197 199 -197 ct 199 -155 l  168 -155 144 -153 128 -149 ct 
113 -145 101 -138 92 -130 ct 84 -121 80 -108 80 -93 ct 80 -75 85 -61 96 -51 ct 
107 -41 122 -36 141 -36 ct p ef
pom
1 lw 12599 14898 m  13669 14898 l  ps
14099 14898 m  13649 14748 l  13649 15048 l  14099 14898 l  p ef
pum
13147 14782 t
128 6 m  95 6 69 -3 52 -21 ct 35 -38 27 -63 27 -94 ct 27 -129 38 -155 61 -174 ct 
84 -192 121 -202 172 -204 ct 247 -205 l  247 -223 l  247 -250 241 -270 230 -282 ct 
218 -294 200 -299 175 -299 ct 150 -299 132 -295 121 -287 ct 109 -278 102 -265 100 -246 ct 
42 -251 l  51 -312 96 -342 176 -342 ct 219 -342 250 -332 272 -313 ct 293 -294 304 -266 304 -229 ct 
304 -85 l  304 -68 306 -55 310 -47 ct 314 -39 323 -35 335 -35 ct 340 -35 346 -35 353 -37 ct 
353 -2 l  339 1 325 3 310 3 ct 289 3 274 -2 265 -13 ct 256 -24 250 -41 249 -64 ct 
247 -64 l  233 -39 216 -21 197 -10 ct 178 1 155 6 128 6 ct p
141 -36 m  162 -36 180 -41 196 -50 ct 212 -59 224 -72 233 -88 ct 243 -104 247 -121 247 -138 ct 
247 -166 l  186 -165 l  160 -164 140 -161 126 -157 ct 113 -152 102 -144 95 -134 ct 
88 -123 84 -110 84 -93 ct 84 -75 89 -61 99 -51 ct 109 -41 123 -36 141 -36 ct p ef
pom
0 4144 t 
pom
count op_count sub {pop} repeat countdictstack dict_count sub {end} repeat b4_inc_state restore
%%PageTrailer
%%Trailer
%%EOF
