%!PS-Adobe-3.0 EPSF-3.0 
%%BoundingBox: 0 0 70 35
%%Pages: 0
%%Creator: LibreOffice 5.3
%%Title: none
%%CreationDate: none
%%LanguageLevel: 2
%%EndComments
%%BeginProlog
%%BeginResource: procset SDRes-Prolog 1.0 0
/b4_inc_state save def
/dict_count countdictstack def
/op_count count 1 sub def
userdict begin
0 setgray 0 setlinecap 1 setlinewidth 0 setlinejoin 10 setmiterlimit[] 0 setdash newpath
/languagelevel where {pop languagelevel 1 ne {false setstrokeadjust false setoverprint} if} if
/bdef {bind def} bind def
/c {setgray} bdef
/l {neg lineto} bdef
/rl {neg rlineto} bdef
/lc {setlinecap} bdef
/lj {setlinejoin} bdef
/lw {setlinewidth} bdef
/ml {setmiterlimit} bdef
/ld {setdash} bdef
/m {neg moveto} bdef
/ct {6 2 roll neg 6 2 roll neg 6 2 roll neg curveto} bdef
/r {rotate} bdef
/t {neg translate} bdef
/s {scale} bdef
/sw {show} bdef
/gs {gsave} bdef
/gr {grestore} bdef
/f {findfont dup length dict begin
{1 index /FID ne {def} {pop pop} ifelse} forall /Encoding ISOLatin1Encoding def
currentdict end /NFont exch definefont pop /NFont findfont} bdef
/p {closepath} bdef
/sf {scalefont setfont} bdef
/ef {eofill}bdef
/pc {closepath stroke}bdef
/ps {stroke}bdef
/pum {matrix currentmatrix}bdef
/pom {setmatrix}bdef
/bs {/aString exch def /nXOfs exch def /nWidth exch def currentpoint nXOfs 0 rmoveto pum nWidth aString stringwidth pop div 1 scale aString show pom moveto} bdef
%%EndResource
%%EndProlog
%%BeginSetup
%%EndSetup
%%Page: 1 1
%%BeginPageSetup
%%EndPageSetup
pum
0.02828 0.02831 s 
0 -1236 t
/tm matrix currentmatrix def
tm setmatrix
-8936 -14259 t 
1 1 s 
0.996 c 10791 14277 m  11131 14277 11391 14536 11391 14876 ct 11391 15215 11131 15475 10791 15475 ct 
10452 15475 10192 15215 10192 14876 ct 10192 14536 10452 14277 10791 14277 ct 
p
10192 14277 m  10192 14277 l  p
11392 15476 m  11392 15476 l  p ef
34.95759 lw 1 lj 0.000 c 10791 14276 m  11131 14276 11390 14536 11390 14875 ct 
11390 15215 11131 15474 10791 15474 ct 10451 15474 10191 15215 10191 14875 ct 
10191 14536 10451 14276 10791 14276 ct pc
10191 14276 m  10191 14276 l  pc
11391 15475 m  11391 15475 l  pc
pum
10515 14936 t
150 7 m  107 7 76 -7 56 -36 ct 37 -65 27 -108 27 -165 ct 27 -282 68 -340 150 -340 ct 
175 -340 196 -336 213 -327 ct 229 -318 243 -303 254 -282 ct 255 -282 l  255 -288 255 -299 256 -314 ct 
257 -330 258 -337 258 -337 ct 312 -337 l  311 -325 310 -295 310 -246 ct 310 132 l 
254 132 l  254 -4 l  255 -54 l  255 -54 l  244 -32 230 -16 214 -7 ct 197 2 176 7 150 7 ct 
p
254 -171 m  254 -214 247 -246 233 -267 ct 219 -288 196 -299 165 -299 ct 136 -299 116 -288 104 -267 ct 
91 -246 85 -213 85 -167 ct 85 -120 91 -87 104 -66 ct 116 -46 136 -36 164 -36 ct 
196 -36 219 -47 233 -70 ct 247 -92 254 -126 254 -171 ct p ef
pom
pum
10865 15202 t
190 -126 m  190 -84 182 -52 167 -29 ct 153 -7 131 4 102 4 ct 73 4 51 -7 36 -29 ct 
22 -51 14 -84 14 -126 ct 14 -170 21 -202 36 -224 ct 50 -245 72 -256 103 -256 ct 
132 -256 154 -245 169 -223 ct 183 -202 190 -169 190 -126 ct p
157 -126 m  157 -163 153 -189 144 -205 ct 136 -222 122 -230 103 -230 ct 83 -230 69 -222 60 -206 ct 
51 -190 47 -163 47 -126 ct 47 -90 51 -64 60 -47 ct 69 -31 83 -22 102 -22 ct 121 -22 135 -31 144 -48 ct 
153 -65 157 -91 157 -126 ct p ef
pom
36 lw 8954 14899 m  9688 14885 l  ps
10192 14876 m  9661 14710 l  9667 15062 l  10192 14876 l  p ef
0 1236 t 
pom
count op_count sub {pop} repeat countdictstack dict_count sub {end} repeat b4_inc_state restore
%%PageTrailer
%%Trailer
%%EOF
