%!PS-Adobe-3.0 EPSF-3.0 
%%BoundingBox: 0 0 155 38
%%Pages: 0
%%Creator: LibreOffice 5.3
%%Title: none
%%CreationDate: none
%%LanguageLevel: 2
%%EndComments
%%BeginProlog
%%BeginResource: procset SDRes-Prolog 1.0 0
/b4_inc_state save def
/dict_count countdictstack def
/op_count count 1 sub def
userdict begin
0 setgray 0 setlinecap 1 setlinewidth 0 setlinejoin 10 setmiterlimit[] 0 setdash newpath
/languagelevel where {pop languagelevel 1 ne {false setstrokeadjust false setoverprint} if} if
/bdef {bind def} bind def
/c {setgray} bdef
/l {neg lineto} bdef
/rl {neg rlineto} bdef
/lc {setlinecap} bdef
/lj {setlinejoin} bdef
/lw {setlinewidth} bdef
/ml {setmiterlimit} bdef
/ld {setdash} bdef
/m {neg moveto} bdef
/ct {6 2 roll neg 6 2 roll neg 6 2 roll neg curveto} bdef
/r {rotate} bdef
/t {neg translate} bdef
/s {scale} bdef
/sw {show} bdef
/gs {gsave} bdef
/gr {grestore} bdef
/f {findfont dup length dict begin
{1 index /FID ne {def} {pop pop} ifelse} forall /Encoding ISOLatin1Encoding def
currentdict end /NFont exch definefont pop /NFont findfont} bdef
/p {closepath} bdef
/sf {scalefont setfont} bdef
/ef {eofill}bdef
/pc {closepath stroke}bdef
/ps {stroke}bdef
/pum {matrix currentmatrix}bdef
/pom {setmatrix}bdef
/bs {/aString exch def /nXOfs exch def /nWidth exch def currentpoint nXOfs 0 rmoveto pum nWidth aString stringwidth pop div 1 scale aString show pom moveto} bdef
%%EndResource
%%EndProlog
%%BeginSetup
%%EndSetup
%%Page: 1 1
%%BeginPageSetup
%%EndPageSetup
pum
0.0284 0.02802 s 
0 -1356 t
/tm matrix currentmatrix def
tm setmatrix
-8994 -14190 t 
1 1 s 
0.996 c 10795 14290 m  11135 14290 11395 14550 11395 14890 ct 11395 15230 11135 15490 10795 15490 ct 
10455 15490 10195 15230 10195 14890 ct 10195 14550 10455 14290 10795 14290 ct 
p
10195 14290 m  10195 14290 l  p
11396 15491 m  11396 15491 l  p ef
34.97748 lw 1 lj 0.000 c 10795 14290 m  11134 14290 11394 14550 11394 14890 ct 
11394 15229 11134 15489 10795 15489 ct 10455 15489 10195 15229 10195 14890 ct 
10195 14550 10455 14290 10795 14290 ct pc
10195 14290 m  10195 14290 l  pc
11395 15490 m  11395 15490 l  pc
1 lw 8995 14889 m  9765 14889 l  ps
10194 14889 m  9745 14739 l  9745 15039 l  10194 14889 l  p ef
0.996 c 13794 14291 m  14134 14291 14394 14551 14394 14891 ct 14394 15231 14134 15491 13794 15491 ct 
13455 15491 13195 15231 13195 14891 ct 13195 14551 13455 14291 13794 14291 ct 
p
13195 14291 m  13195 14291 l  p
14395 15492 m  14395 15492 l  p ef
105.93181 lw 0.000 c 13794 14291 m  14134 14291 14394 14551 14394 14891 ct 
14394 15230 14134 15490 13794 15490 ct 13454 15490 13194 15230 13194 14891 ct 
13194 14551 13454 14291 13794 14291 ct pc
13194 14291 m  13194 14291 l  pc
14395 15491 m  14395 15491 l  pc
36 lw 11395 14890 m  12690 14891 l  ps
13195 14891 m  12667 14715 l  12667 15067 l  13195 14891 l  p ef
pum
11943 14775 t
128 6 m  95 6 69 -3 52 -21 ct 35 -38 27 -63 27 -94 ct 27 -129 38 -155 61 -174 ct 
84 -192 121 -202 172 -204 ct 247 -205 l  247 -223 l  247 -250 241 -270 230 -282 ct 
218 -294 200 -299 175 -299 ct 150 -299 132 -295 121 -287 ct 109 -278 102 -265 100 -246 ct 
42 -251 l  51 -312 96 -342 176 -342 ct 219 -342 250 -332 272 -313 ct 293 -294 304 -266 304 -229 ct 
304 -85 l  304 -68 306 -55 310 -47 ct 314 -39 323 -35 335 -35 ct 340 -35 346 -35 353 -37 ct 
353 -2 l  339 1 325 3 310 3 ct 289 3 274 -2 265 -13 ct 256 -24 250 -41 249 -64 ct 
247 -64 l  233 -39 216 -21 197 -10 ct 178 1 155 6 128 6 ct p
141 -36 m  162 -36 180 -41 196 -50 ct 212 -59 224 -72 233 -88 ct 243 -104 247 -121 247 -138 ct 
247 -166 l  186 -165 l  160 -164 140 -161 126 -157 ct 113 -152 102 -144 95 -134 ct 
88 -123 84 -110 84 -93 ct 84 -75 89 -61 99 -51 ct 109 -41 123 -36 141 -36 ct p ef
pom
0 1356 t 
pom
count op_count sub {pop} repeat countdictstack dict_count sub {end} repeat b4_inc_state restore
%%PageTrailer
%%Trailer
%%EOF
