%!PS-Adobe-3.0 EPSF-3.0 
%%BoundingBox: 0 0 155 38
%%Pages: 0
%%Creator: LibreOffice 5.3
%%Title: none
%%CreationDate: none
%%LanguageLevel: 2
%%EndComments
%%BeginProlog
%%BeginResource: procset SDRes-Prolog 1.0 0
/b4_inc_state save def
/dict_count countdictstack def
/op_count count 1 sub def
userdict begin
0 setgray 0 setlinecap 1 setlinewidth 0 setlinejoin 10 setmiterlimit[] 0 setdash newpath
/languagelevel where {pop languagelevel 1 ne {false setstrokeadjust false setoverprint} if} if
/bdef {bind def} bind def
/c {setgray} bdef
/l {neg lineto} bdef
/rl {neg rlineto} bdef
/lc {setlinecap} bdef
/lj {setlinejoin} bdef
/lw {setlinewidth} bdef
/ml {setmiterlimit} bdef
/ld {setdash} bdef
/m {neg moveto} bdef
/ct {6 2 roll neg 6 2 roll neg 6 2 roll neg curveto} bdef
/r {rotate} bdef
/t {neg translate} bdef
/s {scale} bdef
/sw {show} bdef
/gs {gsave} bdef
/gr {grestore} bdef
/f {findfont dup length dict begin
{1 index /FID ne {def} {pop pop} ifelse} forall /Encoding ISOLatin1Encoding def
currentdict end /NFont exch definefont pop /NFont findfont} bdef
/p {closepath} bdef
/sf {scalefont setfont} bdef
/ef {eofill}bdef
/pc {closepath stroke}bdef
/ps {stroke}bdef
/pum {matrix currentmatrix}bdef
/pom {setmatrix}bdef
/bs {/aString exch def /nXOfs exch def /nWidth exch def currentpoint nXOfs 0 rmoveto pum nWidth aString stringwidth pop div 1 scale aString show pom moveto} bdef
%%EndResource
%%EndProlog
%%BeginSetup
%%EndSetup
%%Page: 1 1
%%BeginPageSetup
%%EndPageSetup
pum
0.0284 0.02802 s 
0 -1356 t
/tm matrix currentmatrix def
tm setmatrix
-8996 -14190 t 
1 1 s 
0.996 c 10797 14290 m  11137 14290 11397 14550 11397 14890 ct 11397 15230 11137 15490 10797 15490 ct 
10457 15490 10197 15230 10197 14890 ct 10197 14550 10457 14290 10797 14290 ct 
p
10197 14290 m  10197 14290 l  p
11398 15491 m  11398 15491 l  p ef
34.98069 lw 1 lj 0.000 c 10797 14290 m  11136 14290 11396 14550 11396 14890 ct 
11396 15229 11136 15489 10797 15489 ct 10457 15489 10197 15229 10197 14890 ct 
10197 14550 10457 14290 10797 14290 ct pc
10197 14290 m  10197 14290 l  pc
11397 15490 m  11397 15490 l  pc
pum
10520 14950 t
150 6 m  107 6 76 -8 56 -37 ct 37 -66 27 -109 27 -166 ct 27 -283 68 -342 150 -342 ct 
175 -342 196 -338 213 -329 ct 230 -320 243 -305 255 -284 ct 255 -284 l  255 -290 256 -301 256 -316 ct 
257 -332 258 -339 259 -339 ct 313 -339 l  311 -327 310 -297 310 -248 ct 310 132 l 
255 132 l  255 -4 l  256 -55 l  255 -55 l  244 -33 230 -17 214 -8 ct 198 1 176 6 150 6 ct 
p
255 -172 m  255 -216 247 -248 233 -269 ct 219 -290 196 -301 165 -301 ct 137 -301 116 -290 104 -269 ct 
91 -248 85 -214 85 -168 ct 85 -121 92 -88 104 -67 ct 117 -47 137 -37 164 -37 ct 
196 -37 219 -48 233 -71 ct 247 -93 255 -127 255 -172 ct p ef
pom
pum
10871 15217 t
190 -126 m  190 -84 183 -52 168 -29 ct 153 -7 131 4 102 4 ct 73 4 51 -7 36 -29 ct 
22 -51 14 -84 14 -126 ct 14 -170 21 -202 36 -224 ct 50 -245 72 -256 103 -256 ct 
133 -256 155 -245 169 -223 ct 183 -202 190 -169 190 -126 ct p
157 -126 m  157 -163 153 -189 145 -205 ct 136 -222 122 -230 103 -230 ct 83 -230 69 -222 60 -206 ct 
51 -190 47 -163 47 -126 ct 47 -90 51 -64 60 -47 ct 69 -31 83 -22 102 -22 ct 121 -22 135 -31 144 -48 ct 
153 -65 157 -91 157 -126 ct p ef
pom
1 lw 8997 14889 m  9766 14889 l  ps
10196 14889 m  9746 14739 l  9746 15039 l  10196 14889 l  p ef
0.996 c 13797 14291 m  14137 14291 14397 14551 14397 14891 ct 14397 15231 14137 15491 13797 15491 ct 
13457 15491 13197 15231 13197 14891 ct 13197 14551 13457 14291 13797 14291 ct 
p
13197 14291 m  13197 14291 l  p
14398 15492 m  14398 15492 l  p ef
105.94152 lw 0.000 c 13796 14291 m  14136 14291 14396 14551 14396 14891 ct 
14396 15230 14136 15490 13796 15490 ct 13457 15490 13197 15230 13197 14891 ct 
13197 14551 13457 14291 13796 14291 ct pc
13197 14291 m  13197 14291 l  pc
14397 15491 m  14397 15491 l  pc
pum
13570 14951 t
150 6 m  107 6 76 -8 56 -37 ct 37 -66 27 -109 27 -166 ct 27 -283 68 -342 150 -342 ct 
175 -342 196 -338 213 -329 ct 230 -320 243 -305 255 -284 ct 255 -284 l  255 -290 256 -301 256 -316 ct 
257 -332 258 -339 259 -339 ct 313 -339 l  311 -327 310 -297 310 -248 ct 310 132 l 
255 132 l  255 -4 l  256 -55 l  255 -55 l  244 -33 230 -17 214 -8 ct 198 1 176 6 150 6 ct 
p
255 -172 m  255 -216 247 -248 233 -269 ct 219 -290 196 -301 165 -301 ct 137 -301 116 -290 104 -269 ct 
91 -248 85 -214 85 -168 ct 85 -121 92 -88 104 -67 ct 117 -47 137 -37 164 -37 ct 
196 -37 219 -48 233 -71 ct 247 -93 255 -127 255 -172 ct p ef
pom
pum
13921 15218 t
65 -170 m  65 0 l  33 0 l  33 -170 l  5 -170 l  5 -194 l  33 -194 l  33 -216 l 
33 -234 36 -247 44 -254 ct 52 -262 64 -266 80 -266 ct 89 -266 97 -265 103 -264 ct 
103 -239 l  97 -240 93 -241 88 -241 ct 80 -241 74 -239 70 -234 ct 67 -230 65 -223 65 -211 ct 
65 -194 l  103 -194 l  103 -170 l  65 -170 l  p ef
pom
36 lw 11397 14890 m  12692 14891 l  ps
13197 14891 m  12669 14715 l  12669 15067 l  13197 14891 l  p ef
pum
11946 14775 t
248 0 m  158 -138 l  67 0 l  7 0 l  127 -173 l  13 -336 l  74 -336 l  158 -205 l 
241 -336 l  304 -336 l  190 -173 l  311 0 l  248 0 l  p ef
pom
0 1356 t 
pom
count op_count sub {pop} repeat countdictstack dict_count sub {end} repeat b4_inc_state restore
%%PageTrailer
%%Trailer
%%EOF
