%!PS-Adobe-3.0 EPSF-3.0 
%%BoundingBox: 0 0 231 147
%%Pages: 0
%%Creator: LibreOffice 5.3
%%Title: none
%%CreationDate: none
%%LanguageLevel: 2
%%EndComments
%%BeginProlog
%%BeginResource: procset SDRes-Prolog 1.0 0
/b4_inc_state save def
/dict_count countdictstack def
/op_count count 1 sub def
userdict begin
0 setgray 0 setlinecap 1 setlinewidth 0 setlinejoin 10 setmiterlimit[] 0 setdash newpath
/languagelevel where {pop languagelevel 1 ne {false setstrokeadjust false setoverprint} if} if
/bdef {bind def} bind def
/c {setgray} bdef
/l {neg lineto} bdef
/rl {neg rlineto} bdef
/lc {setlinecap} bdef
/lj {setlinejoin} bdef
/lw {setlinewidth} bdef
/ml {setmiterlimit} bdef
/ld {setdash} bdef
/m {neg moveto} bdef
/ct {6 2 roll neg 6 2 roll neg 6 2 roll neg curveto} bdef
/r {rotate} bdef
/t {neg translate} bdef
/s {scale} bdef
/sw {show} bdef
/gs {gsave} bdef
/gr {grestore} bdef
/f {findfont dup length dict begin
{1 index /FID ne {def} {pop pop} ifelse} forall /Encoding ISOLatin1Encoding def
currentdict end /NFont exch definefont pop /NFont findfont} bdef
/p {closepath} bdef
/sf {scalefont setfont} bdef
/ef {eofill}bdef
/pc {closepath stroke}bdef
/ps {stroke}bdef
/pum {matrix currentmatrix}bdef
/pom {setmatrix}bdef
/bs {/aString exch def /nXOfs exch def /nWidth exch def currentpoint nXOfs 0 rmoveto pum nWidth aString stringwidth pop div 1 scale aString show pom moveto} bdef
%%EndResource
%%EndProlog
%%BeginSetup
%%EndSetup
%%Page: 1 1
%%BeginPageSetup
%%EndPageSetup
pum
0.02832 0.02838 s 
0 -5178 t
/tm matrix currentmatrix def
tm setmatrix
-6297 -12354 t 
1 1 s 
0.996 c 8099 14298 m  8439 14298 8699 14558 8699 14898 ct 8699 15238 8439 15498 8099 15498 ct 
7759 15498 7499 15238 7499 14898 ct 7499 14558 7759 14298 8099 14298 ct p
7499 14298 m  7499 14298 l  p
8700 15499 m  8700 15499 l  p ef
34.99233 lw 1 lj 0.000 c 8099 14298 m  8438 14298 8698 14558 8698 14898 ct 
8698 15238 8438 15498 8099 15498 ct 7759 15498 7499 15238 7499 14898 ct 7499 14558 7759 14298 8099 14298 ct 
pc
7499 14298 m  7499 14298 l  pc
8699 15499 m  8699 15499 l  pc
pum
7822 14958 t
150 6 m  107 6 76 -8 56 -37 ct 37 -66 27 -109 27 -166 ct 27 -283 68 -342 150 -342 ct 
175 -342 196 -338 213 -329 ct 230 -320 243 -305 255 -284 ct 255 -284 l  255 -290 256 -301 256 -316 ct 
257 -332 258 -339 259 -339 ct 313 -339 l  311 -327 310 -297 310 -248 ct 310 132 l 
255 132 l  255 -4 l  256 -55 l  255 -55 l  244 -33 230 -17 214 -8 ct 198 1 176 6 150 6 ct 
p
255 -172 m  255 -216 247 -248 233 -269 ct 219 -290 196 -301 165 -301 ct 137 -301 116 -290 104 -269 ct 
91 -248 85 -214 85 -168 ct 85 -121 92 -88 104 -67 ct 117 -47 137 -37 164 -37 ct 
196 -37 219 -48 233 -71 ct 247 -93 255 -127 255 -172 ct p ef
pom
pum
8173 15225 t
190 -126 m  190 -84 183 -52 168 -29 ct 153 -7 131 4 102 4 ct 73 4 51 -7 36 -29 ct 
22 -51 14 -84 14 -126 ct 14 -170 21 -202 36 -224 ct 50 -245 72 -256 103 -256 ct 
133 -256 155 -245 169 -223 ct 183 -202 190 -169 190 -126 ct p
157 -126 m  157 -163 153 -189 145 -205 ct 136 -222 122 -230 103 -230 ct 83 -230 69 -222 60 -206 ct 
51 -190 47 -163 47 -126 ct 47 -90 51 -64 60 -47 ct 69 -31 83 -22 102 -22 ct 121 -22 135 -31 144 -48 ct 
153 -65 157 -91 157 -126 ct p ef
pom
1 lw 6298 14897 m  7068 14897 l  ps
7498 14897 m  7048 14747 l  7048 15047 l  7498 14897 l  p ef
0.996 c 13799 14299 m  14139 14299 14398 14559 14398 14899 ct 14398 15239 14139 15499 13799 15499 ct 
13459 15499 13199 15239 13199 14899 ct 13199 14559 13459 14299 13799 14299 ct 
p
13199 14299 m  13199 14299 l  p
14399 15500 m  14399 15500 l  p ef
105.97677 lw 0.000 c 13798 14299 m  14138 14299 14398 14559 14398 14899 ct 
14398 15239 14138 15499 13798 15499 ct 13458 15499 13198 15239 13198 14899 ct 
13198 14559 13458 14299 13798 14299 ct pc
13198 14299 m  13198 14299 l  pc
14399 15500 m  14399 15500 l  pc
pum
13572 14959 t
150 6 m  107 6 76 -8 56 -37 ct 37 -66 27 -109 27 -166 ct 27 -283 68 -342 150 -342 ct 
175 -342 196 -338 213 -329 ct 230 -320 243 -305 255 -284 ct 255 -284 l  255 -290 256 -301 256 -316 ct 
257 -332 258 -339 259 -339 ct 313 -339 l  311 -327 310 -297 310 -248 ct 310 132 l 
255 132 l  255 -4 l  256 -55 l  255 -55 l  244 -33 230 -17 214 -8 ct 198 1 176 6 150 6 ct 
p
255 -172 m  255 -216 247 -248 233 -269 ct 219 -290 196 -301 165 -301 ct 137 -301 116 -290 104 -269 ct 
91 -248 85 -214 85 -168 ct 85 -121 92 -88 104 -67 ct 117 -47 137 -37 164 -37 ct 
196 -37 219 -48 233 -71 ct 247 -93 255 -127 255 -172 ct p ef
pom
pum
13923 15226 t
65 -170 m  65 0 l  33 0 l  33 -170 l  5 -170 l  5 -194 l  33 -194 l  33 -216 l 
33 -234 36 -247 44 -254 ct 52 -262 64 -266 80 -266 ct 89 -266 97 -265 103 -264 ct 
103 -239 l  97 -240 93 -241 88 -241 ct 80 -241 74 -239 70 -234 ct 67 -230 65 -223 65 -211 ct 
65 -194 l  103 -194 l  103 -170 l  65 -170 l  p ef
pom
pum
8328 17139 t
141 -36 m  159 -36 177 -40 194 -49 ct 212 -59 226 -71 238 -86 ct 271 -55 l  254 -34 235 -19 212 -9 ct 
190 1 165 6 138 6 ct 100 6 72 -3 52 -20 ct 32 -37 22 -61 22 -92 ct 22 -115 29 -134 45 -149 ct 
60 -164 80 -173 104 -175 ct 104 -176 l  82 -179 64 -187 51 -201 ct 38 -215 32 -232 32 -253 ct 
32 -279 42 -301 63 -317 ct 84 -334 112 -342 146 -342 ct 198 -342 237 -323 263 -285 ct 
223 -257 l  204 -286 178 -300 146 -300 ct 128 -300 113 -296 103 -287 ct 93 -279 88 -267 88 -251 ct 
88 -233 96 -219 113 -210 ct 129 -201 158 -197 199 -197 ct 199 -155 l  168 -155 144 -153 128 -149 ct 
113 -145 101 -138 92 -130 ct 84 -121 80 -108 80 -93 ct 80 -75 85 -61 96 -51 ct 
107 -41 122 -36 141 -36 ct p ef
pom
0.996 c 11047 13997 m  9198 13997 l  9198 12398 l  12897 12398 l  12897 13997 l 
11047 13997 l  p ef
34.99233 lw 0.000 c 11047 13997 m  9197 13997 l  9197 12397 l  12896 12397 l 
12896 13997 l  11047 13997 l  pc
0.996 c 10100 12600 m  10439 12600 10699 12860 10699 13199 ct 10699 13539 10439 13799 10100 13799 ct 
9760 13799 9500 13539 9500 13199 ct 9500 12860 9760 12600 10100 12600 ct p
9500 12600 m  9500 12600 l  p
10700 13800 m  10700 13800 l  p ef
0.000 c 10099 12599 m  10439 12599 10699 12859 10699 13199 ct 10699 13539 10439 13799 10099 13799 ct 
9759 13799 9499 13539 9499 13199 ct 9499 12859 9759 12599 10099 12599 ct pc
9499 12599 m  9499 12599 l  pc
10700 13800 m  10700 13800 l  pc
pum
9721 13259 t
150 6 m  107 6 76 -8 56 -37 ct 37 -66 27 -109 27 -166 ct 27 -283 68 -342 150 -342 ct 
175 -342 196 -338 213 -329 ct 230 -320 243 -305 255 -284 ct 255 -284 l  255 -290 256 -301 256 -316 ct 
257 -332 258 -339 259 -339 ct 313 -339 l  311 -327 310 -297 310 -248 ct 310 132 l 
255 132 l  255 -4 l  256 -55 l  255 -55 l  244 -33 230 -17 214 -8 ct 198 1 176 6 150 6 ct 
p
255 -172 m  255 -216 247 -248 233 -269 ct 219 -290 196 -301 165 -301 ct 137 -301 116 -290 104 -269 ct 
91 -248 85 -214 85 -168 ct 85 -121 92 -88 104 -67 ct 117 -47 137 -37 164 -37 ct 
196 -37 219 -48 233 -71 ct 247 -93 255 -127 255 -172 ct p ef
pom
pum
10072 13526 t
190 -126 m  190 -84 183 -52 168 -29 ct 153 -7 131 4 102 4 ct 73 4 51 -7 36 -29 ct 
22 -51 14 -84 14 -126 ct 14 -170 21 -202 36 -224 ct 50 -245 72 -256 103 -256 ct 
133 -256 155 -245 169 -223 ct 183 -202 190 -169 190 -126 ct p
157 -126 m  157 -163 153 -189 145 -205 ct 136 -222 122 -230 103 -230 ct 83 -230 69 -222 60 -206 ct 
51 -190 47 -163 47 -126 ct 47 -90 51 -64 60 -47 ct 69 -31 83 -22 102 -22 ct 121 -22 135 -31 144 -48 ct 
153 -65 157 -91 157 -126 ct p ef
231 0 m  231 -27 l  296 -27 l  296 -222 l  238 -181 l  238 -212 l  298 -253 l 
328 -253 l  328 -27 l  390 -27 l  390 0 l  231 0 l  p ef
pom
0.996 c 11999 12600 m  12339 12600 12599 12860 12599 13199 ct 12599 13539 12339 13799 11999 13799 ct 
11659 13799 11399 13539 11399 13199 ct 11399 12860 11659 12600 11999 12600 ct 
p
11399 12600 m  11399 12600 l  p
12600 13800 m  12600 13800 l  p ef
0.000 c 11999 12599 m  12338 12599 12598 12859 12598 13199 ct 12598 13539 12338 13799 11999 13799 ct 
11659 13799 11399 13539 11399 13199 ct 11399 12859 11659 12599 11999 12599 ct 
pc
11399 12599 m  11399 12599 l  pc
12599 13800 m  12599 13800 l  pc
pum
11671 13259 t
150 6 m  107 6 76 -8 56 -37 ct 37 -66 27 -109 27 -166 ct 27 -283 68 -342 150 -342 ct 
175 -342 196 -338 213 -329 ct 230 -320 243 -305 255 -284 ct 255 -284 l  255 -290 256 -301 256 -316 ct 
257 -332 258 -339 259 -339 ct 313 -339 l  311 -327 310 -297 310 -248 ct 310 132 l 
255 132 l  255 -4 l  256 -55 l  255 -55 l  244 -33 230 -17 214 -8 ct 198 1 176 6 150 6 ct 
p
255 -172 m  255 -216 247 -248 233 -269 ct 219 -290 196 -301 165 -301 ct 137 -301 116 -290 104 -269 ct 
91 -248 85 -214 85 -168 ct 85 -121 92 -88 104 -67 ct 117 -47 137 -37 164 -37 ct 
196 -37 219 -48 233 -71 ct 247 -93 255 -127 255 -172 ct p ef
pom
pum
12022 13526 t
65 -170 m  65 0 l  33 0 l  33 -170 l  5 -170 l  5 -194 l  33 -194 l  33 -216 l 
33 -234 36 -247 44 -254 ct 52 -262 64 -266 80 -266 ct 89 -266 97 -265 103 -264 ct 
103 -239 l  97 -240 93 -241 88 -241 ct 80 -241 74 -239 70 -234 ct 67 -230 65 -223 65 -211 ct 
65 -194 l  103 -194 l  103 -170 l  65 -170 l  p ef
130 0 m  130 -27 l  195 -27 l  195 -222 l  137 -181 l  137 -212 l  197 -253 l 
227 -253 l  227 -27 l  289 -27 l  289 0 l  130 0 l  p ef
pom
0.996 c 11047 17397 m  9198 17397 l  9198 15797 l  12897 15797 l  12897 17397 l 
11047 17397 l  p ef
0.000 c 11047 17396 m  9197 17396 l  9197 15796 l  12896 15796 l  12896 17396 l 
11047 17396 l  pc
0.996 c 10100 15999 m  10439 15999 10699 16259 10699 16599 ct 10699 16939 10439 17199 10100 17199 ct 
9760 17199 9500 16939 9500 16599 ct 9500 16259 9760 15999 10100 15999 ct p
9500 15999 m  9500 15999 l  p
10700 17200 m  10700 17200 l  p ef
0.000 c 10099 15998 m  10439 15998 10699 16258 10699 16598 ct 10699 16938 10439 17198 10099 17198 ct 
9759 17198 9499 16938 9499 16598 ct 9499 16258 9759 15998 10099 15998 ct pc
9499 15998 m  9499 15998 l  pc
10700 17199 m  10700 17199 l  pc
pum
9721 16659 t
150 6 m  107 6 76 -8 56 -37 ct 37 -66 27 -109 27 -166 ct 27 -283 68 -342 150 -342 ct 
175 -342 196 -338 213 -329 ct 230 -320 243 -305 255 -284 ct 255 -284 l  255 -290 256 -301 256 -316 ct 
257 -332 258 -339 259 -339 ct 313 -339 l  311 -327 310 -297 310 -248 ct 310 132 l 
255 132 l  255 -4 l  256 -55 l  255 -55 l  244 -33 230 -17 214 -8 ct 198 1 176 6 150 6 ct 
p
255 -172 m  255 -216 247 -248 233 -269 ct 219 -290 196 -301 165 -301 ct 137 -301 116 -290 104 -269 ct 
91 -248 85 -214 85 -168 ct 85 -121 92 -88 104 -67 ct 117 -47 137 -37 164 -37 ct 
196 -37 219 -48 233 -71 ct 247 -93 255 -127 255 -172 ct p ef
pom
pum
10072 16926 t
190 -126 m  190 -84 183 -52 168 -29 ct 153 -7 131 4 102 4 ct 73 4 51 -7 36 -29 ct 
22 -51 14 -84 14 -126 ct 14 -170 21 -202 36 -224 ct 50 -245 72 -256 103 -256 ct 
133 -256 155 -245 169 -223 ct 183 -202 190 -169 190 -126 ct p
157 -126 m  157 -163 153 -189 145 -205 ct 136 -222 122 -230 103 -230 ct 83 -230 69 -222 60 -206 ct 
51 -190 47 -163 47 -126 ct 47 -90 51 -64 60 -47 ct 69 -31 83 -22 102 -22 ct 121 -22 135 -31 144 -48 ct 
153 -65 157 -91 157 -126 ct p ef
222 0 m  222 -23 l  228 -37 235 -49 244 -60 ct 253 -71 262 -80 272 -89 ct 281 -98 291 -106 300 -113 ct 
310 -121 319 -128 326 -136 ct 334 -143 340 -151 345 -159 ct 350 -167 352 -176 352 -187 ct 
352 -200 348 -211 340 -219 ct 332 -227 320 -230 306 -230 ct 292 -230 281 -227 272 -219 ct 
263 -212 258 -201 256 -188 ct 223 -191 l  225 -211 234 -227 249 -239 ct 264 -251 283 -257 306 -257 ct 
331 -257 351 -251 365 -239 ct 378 -227 385 -210 385 -188 ct 385 -178 383 -168 378 -158 ct 
374 -149 367 -139 358 -129 ct 350 -120 333 -104 308 -84 ct 294 -73 283 -63 275 -54 ct 
267 -45 261 -36 257 -27 ct 389 -27 l  389 0 l  222 0 l  p ef
pom
0.996 c 11999 15999 m  12339 15999 12599 16259 12599 16599 ct 12599 16939 12339 17199 11999 17199 ct 
11659 17199 11399 16939 11399 16599 ct 11399 16259 11659 15999 11999 15999 ct 
p
11399 15999 m  11399 15999 l  p
12600 17200 m  12600 17200 l  p ef
0.000 c 11999 15998 m  12338 15998 12598 16258 12598 16598 ct 12598 16938 12338 17198 11999 17198 ct 
11659 17198 11399 16938 11399 16598 ct 11399 16258 11659 15998 11999 15998 ct 
pc
11399 15998 m  11399 15998 l  pc
12599 17199 m  12599 17199 l  pc
pum
11671 16659 t
150 6 m  107 6 76 -8 56 -37 ct 37 -66 27 -109 27 -166 ct 27 -283 68 -342 150 -342 ct 
175 -342 196 -338 213 -329 ct 230 -320 243 -305 255 -284 ct 255 -284 l  255 -290 256 -301 256 -316 ct 
257 -332 258 -339 259 -339 ct 313 -339 l  311 -327 310 -297 310 -248 ct 310 132 l 
255 132 l  255 -4 l  256 -55 l  255 -55 l  244 -33 230 -17 214 -8 ct 198 1 176 6 150 6 ct 
p
255 -172 m  255 -216 247 -248 233 -269 ct 219 -290 196 -301 165 -301 ct 137 -301 116 -290 104 -269 ct 
91 -248 85 -214 85 -168 ct 85 -121 92 -88 104 -67 ct 117 -47 137 -37 164 -37 ct 
196 -37 219 -48 233 -71 ct 247 -93 255 -127 255 -172 ct p ef
pom
pum
12022 16926 t
65 -170 m  65 0 l  33 0 l  33 -170 l  5 -170 l  5 -194 l  33 -194 l  33 -216 l 
33 -234 36 -247 44 -254 ct 52 -262 64 -266 80 -266 ct 89 -266 97 -265 103 -264 ct 
103 -239 l  97 -240 93 -241 88 -241 ct 80 -241 74 -239 70 -234 ct 67 -230 65 -223 65 -211 ct 
65 -194 l  103 -194 l  103 -170 l  65 -170 l  p ef
121 0 m  121 -23 l  127 -37 134 -49 143 -60 ct 152 -71 161 -80 171 -89 ct 180 -98 190 -106 199 -113 ct 
209 -121 218 -128 225 -136 ct 233 -143 239 -151 244 -159 ct 249 -167 251 -176 251 -187 ct 
251 -200 247 -211 239 -219 ct 231 -227 219 -230 205 -230 ct 191 -230 180 -227 171 -219 ct 
162 -212 157 -201 155 -188 ct 122 -191 l  124 -211 133 -227 148 -239 ct 163 -251 182 -257 205 -257 ct 
230 -257 250 -251 264 -239 ct 277 -227 284 -210 284 -188 ct 284 -178 282 -168 277 -158 ct 
273 -149 266 -139 257 -129 ct 249 -120 232 -104 207 -84 ct 193 -73 182 -63 174 -54 ct 
166 -45 160 -36 156 -27 ct 288 -27 l  288 0 l  121 0 l  p ef
pom
36 lw 8099 14298 m  8099 13199 l  8995 13199 l  ps
9500 13199 m  8972 13023 l  8972 13375 l  9500 13199 l  p ef
12599 13199 m  13799 13199 l  13799 13794 l  ps
13799 14299 m  13975 13771 l  13623 13771 l  13799 14299 l  p ef
8099 15498 m  8099 16599 l  8995 16599 l  ps
9500 16599 m  8972 16423 l  8972 16775 l  9500 16599 l  p ef
12599 16599 m  13799 16599 l  13799 16004 l  ps
13799 15499 m  13623 16027 l  13975 16027 l  13799 15499 l  p ef
pum
13427 17139 t
141 -36 m  159 -36 177 -40 194 -49 ct 212 -59 226 -71 238 -86 ct 271 -55 l  254 -34 235 -19 212 -9 ct 
190 1 165 6 138 6 ct 100 6 72 -3 52 -20 ct 32 -37 22 -61 22 -92 ct 22 -115 29 -134 45 -149 ct 
60 -164 80 -173 104 -175 ct 104 -176 l  82 -179 64 -187 51 -201 ct 38 -215 32 -232 32 -253 ct 
32 -279 42 -301 63 -317 ct 84 -334 112 -342 146 -342 ct 198 -342 237 -323 263 -285 ct 
223 -257 l  204 -286 178 -300 146 -300 ct 128 -300 113 -296 103 -287 ct 93 -279 88 -267 88 -251 ct 
88 -233 96 -219 113 -210 ct 129 -201 158 -197 199 -197 ct 199 -155 l  168 -155 144 -153 128 -149 ct 
113 -145 101 -138 92 -130 ct 84 -121 80 -108 80 -93 ct 80 -75 85 -61 96 -51 ct 
107 -41 122 -36 141 -36 ct p ef
pom
pum
8328 13039 t
141 -36 m  159 -36 177 -40 194 -49 ct 212 -59 226 -71 238 -86 ct 271 -55 l  254 -34 235 -19 212 -9 ct 
190 1 165 6 138 6 ct 100 6 72 -3 52 -20 ct 32 -37 22 -61 22 -92 ct 22 -115 29 -134 45 -149 ct 
60 -164 80 -173 104 -175 ct 104 -176 l  82 -179 64 -187 51 -201 ct 38 -215 32 -232 32 -253 ct 
32 -279 42 -301 63 -317 ct 84 -334 112 -342 146 -342 ct 198 -342 237 -323 263 -285 ct 
223 -257 l  204 -286 178 -300 146 -300 ct 128 -300 113 -296 103 -287 ct 93 -279 88 -267 88 -251 ct 
88 -233 96 -219 113 -210 ct 129 -201 158 -197 199 -197 ct 199 -155 l  168 -155 144 -153 128 -149 ct 
113 -145 101 -138 92 -130 ct 84 -121 80 -108 80 -93 ct 80 -75 85 -61 96 -51 ct 
107 -41 122 -36 141 -36 ct p ef
pom
pum
13427 13039 t
141 -36 m  159 -36 177 -40 194 -49 ct 212 -59 226 -71 238 -86 ct 271 -55 l  254 -34 235 -19 212 -9 ct 
190 1 165 6 138 6 ct 100 6 72 -3 52 -20 ct 32 -37 22 -61 22 -92 ct 22 -115 29 -134 45 -149 ct 
60 -164 80 -173 104 -175 ct 104 -176 l  82 -179 64 -187 51 -201 ct 38 -215 32 -232 32 -253 ct 
32 -279 42 -301 63 -317 ct 84 -334 112 -342 146 -342 ct 198 -342 237 -323 263 -285 ct 
223 -257 l  204 -286 178 -300 146 -300 ct 128 -300 113 -296 103 -287 ct 93 -279 88 -267 88 -251 ct 
88 -233 96 -219 113 -210 ct 129 -201 158 -197 199 -197 ct 199 -155 l  168 -155 144 -153 128 -149 ct 
113 -145 101 -138 92 -130 ct 84 -121 80 -108 80 -93 ct 80 -75 85 -61 96 -51 ct 
107 -41 122 -36 141 -36 ct p ef
pom
pum
10727 12839 t
330 0 m  330 -227 l  330 -252 330 -276 332 -299 ct 324 -270 317 -248 310 -232 ct 
223 0 l  190 0 l  101 -232 l  88 -273 l  80 -299 l  81 -272 l  82 -227 l 
82 0 l  41 0 l  41 -340 l  101 -340 l  192 -104 l  195 -95 198 -85 201 -74 ct 
204 -63 206 -55 207 -50 ct 208 -57 211 -66 215 -80 ct 219 -93 222 -101 223 -104 ct 
312 -340 l  371 -340 l  371 0 l  330 0 l  p ef
pom
pum
11138 13045 t
22 0 m  22 -22 l  72 -22 l  72 -174 l  28 -142 l  28 -166 l  74 -198 l 
98 -198 l  98 -22 l  146 -22 l  146 0 l  22 0 l  p ef
pom
pum
10727 17139 t
330 0 m  330 -227 l  330 -252 330 -276 332 -299 ct 324 -270 317 -248 310 -232 ct 
223 0 l  190 0 l  101 -232 l  88 -273 l  80 -299 l  81 -272 l  82 -227 l 
82 0 l  41 0 l  41 -340 l  101 -340 l  192 -104 l  195 -95 198 -85 201 -74 ct 
204 -63 206 -55 207 -50 ct 208 -57 211 -66 215 -80 ct 219 -93 222 -101 223 -104 ct 
312 -340 l  371 -340 l  371 0 l  330 0 l  p ef
pom
pum
11138 17346 t
14 0 m  14 -18 l  19 -29 25 -38 32 -47 ct 39 -55 46 -63 54 -70 ct 61 -76 69 -83 76 -89 ct 
83 -94 90 -100 96 -106 ct 102 -112 107 -118 111 -124 ct 114 -131 116 -138 116 -146 ct 
116 -157 113 -165 107 -171 ct 100 -177 91 -180 80 -180 ct 69 -180 61 -177 54 -171 ct 
47 -166 43 -157 41 -147 ct 16 -149 l  17 -165 24 -178 36 -187 ct 47 -196 62 -201 80 -201 ct 
100 -201 115 -196 126 -187 ct 137 -177 142 -164 142 -147 ct 142 -139 140 -131 137 -124 ct 
133 -116 128 -109 121 -101 ct 114 -93 101 -82 82 -66 ct 71 -57 62 -49 56 -42 ct 
50 -35 45 -28 42 -22 ct 145 -22 l  145 0 l  14 0 l  p ef
pom
0 5178 t 
pom
count op_count sub {pop} repeat countdictstack dict_count sub {end} repeat b4_inc_state restore
%%PageTrailer
%%Trailer
%%EOF
