%!PS-Adobe-3.0 EPSF-3.0 
%%BoundingBox: 0 0 551 149
%%Pages: 0
%%Creator: LibreOffice 5.3
%%Title: none
%%CreationDate: none
%%LanguageLevel: 2
%%EndComments
%%BeginProlog
%%BeginResource: procset SDRes-Prolog 1.0 0
/b4_inc_state save def
/dict_count countdictstack def
/op_count count 1 sub def
userdict begin
0 setgray 0 setlinecap 1 setlinewidth 0 setlinejoin 10 setmiterlimit[] 0 setdash newpath
/languagelevel where {pop languagelevel 1 ne {false setstrokeadjust false setoverprint} if} if
/bdef {bind def} bind def
/c {setgray} bdef
/l {neg lineto} bdef
/rl {neg rlineto} bdef
/lc {setlinecap} bdef
/lj {setlinejoin} bdef
/lw {setlinewidth} bdef
/ml {setmiterlimit} bdef
/ld {setdash} bdef
/m {neg moveto} bdef
/ct {6 2 roll neg 6 2 roll neg 6 2 roll neg curveto} bdef
/r {rotate} bdef
/t {neg translate} bdef
/s {scale} bdef
/sw {show} bdef
/gs {gsave} bdef
/gr {grestore} bdef
/f {findfont dup length dict begin
{1 index /FID ne {def} {pop pop} ifelse} forall /Encoding ISOLatin1Encoding def
currentdict end /NFont exch definefont pop /NFont findfont} bdef
/p {closepath} bdef
/sf {scalefont setfont} bdef
/ef {eofill}bdef
/pc {closepath stroke}bdef
/ps {stroke}bdef
/pum {matrix currentmatrix}bdef
/pom {setmatrix}bdef
/bs {/aString exch def /nXOfs exch def /nWidth exch def currentpoint nXOfs 0 rmoveto pum nWidth aString stringwidth pop div 1 scale aString show pom moveto} bdef
%%EndResource
%%EndProlog
%%BeginSetup
%%EndSetup
%%Page: 1 1
%%BeginPageSetup
%%EndPageSetup
pum
0.02835 0.02839 s 
0 -5247 t
/tm matrix currentmatrix def
tm setmatrix
-6681 -5498 t 
1 1 s 
0.996 c 22995 5599 m  23335 5599 23595 5859 23595 6199 ct 23595 6539 23335 6798 22995 6798 ct 
22655 6798 22395 6539 22395 6199 ct 22395 5859 22655 5599 22995 5599 ct p
22395 5599 m  22395 5599 l  p
23596 6799 m  23596 6799 l  p ef
34.99153 lw 1 lj 0.000 c 22994 5598 m  23334 5598 23594 5858 23594 6198 ct 
23594 6538 23334 6798 22994 6798 ct 22654 6798 22394 6538 22394 6198 ct 22394 5858 22654 5598 22994 5598 ct 
pc
22394 5598 m  22394 5598 l  pc
23595 6799 m  23595 6799 l  pc
0.996 c 25295 5600 m  25635 5600 25895 5860 25895 6200 ct 25895 6540 25635 6799 25295 6799 ct 
24955 6799 24695 6540 24695 6200 ct 24695 5860 24955 5600 25295 5600 ct p
24695 5600 m  24695 5600 l  p
25896 6800 m  25896 6800 l  p ef
0.000 c 25295 5599 m  25635 5599 25895 5859 25895 6199 ct 25895 6539 25635 6799 25295 6799 ct 
24955 6799 24695 6539 24695 6199 ct 24695 5859 24955 5599 25295 5599 ct pc
24695 5599 m  24695 5599 l  pc
25896 6800 m  25896 6800 l  pc
36 lw 23595 6199 m  24191 6200 l  ps
24695 6200 m  24168 6024 l  24168 6376 l  24695 6200 l  p ef
pum
23744 6084 t
128 6 m  95 6 69 -3 52 -21 ct 35 -38 27 -63 27 -94 ct 27 -129 38 -155 61 -174 ct 
84 -192 121 -202 172 -204 ct 247 -205 l  247 -223 l  247 -250 241 -270 230 -282 ct 
218 -294 200 -299 175 -299 ct 150 -299 132 -295 121 -287 ct 109 -278 102 -265 100 -246 ct 
42 -251 l  51 -312 96 -342 176 -342 ct 219 -342 250 -332 272 -313 ct 293 -294 304 -266 304 -229 ct 
304 -85 l  304 -68 306 -55 310 -47 ct 314 -39 323 -35 335 -35 ct 340 -35 346 -35 353 -37 ct 
353 -2 l  339 1 325 3 310 3 ct 289 3 274 -2 265 -13 ct 256 -24 250 -41 249 -64 ct 
247 -64 l  233 -39 216 -21 197 -10 ct 178 1 155 6 128 6 ct p
141 -36 m  162 -36 180 -41 196 -50 ct 212 -59 224 -72 233 -88 ct 243 -104 247 -121 247 -138 ct 
247 -166 l  186 -165 l  160 -164 140 -161 126 -157 ct 113 -152 102 -144 95 -134 ct 
88 -123 84 -110 84 -93 ct 84 -75 89 -61 99 -51 ct 109 -41 123 -36 141 -36 ct p ef
pom
0.996 c 20696 5600 m  21036 5600 21296 5860 21296 6200 ct 21296 6540 21036 6799 20696 6799 ct 
20356 6799 20096 6540 20096 6200 ct 20096 5860 20356 5600 20696 5600 ct p
20096 5600 m  20096 5600 l  p
21297 6800 m  21297 6800 l  p ef
34.99153 lw 0.000 c 20695 5599 m  21035 5599 21295 5859 21295 6199 ct 21295 6539 21035 6799 20695 6799 ct 
20355 6799 20095 6539 20095 6199 ct 20095 5859 20355 5599 20695 5599 ct pc
20095 5599 m  20095 5599 l  pc
21296 6800 m  21296 6800 l  pc
0.996 c 18296 5600 m  18636 5600 18896 5860 18896 6200 ct 18896 6540 18636 6799 18296 6799 ct 
17956 6799 17696 6540 17696 6200 ct 17696 5860 17956 5600 18296 5600 ct p
17696 5600 m  17696 5600 l  p
18897 6800 m  18897 6800 l  p ef
0.000 c 18296 5599 m  18636 5599 18896 5859 18896 6199 ct 18896 6539 18636 6799 18296 6799 ct 
17956 6799 17696 6539 17696 6199 ct 17696 5859 17956 5599 18296 5599 ct pc
17696 5599 m  17696 5599 l  pc
18897 6800 m  18897 6800 l  pc
36 lw 18896 6200 m  19591 6200 l  ps
20096 6200 m  19568 6024 l  19568 6376 l  20096 6200 l  p ef
21296 6200 m  21890 6199 l  ps
22395 6199 m  21867 6023 l  21867 6375 l  22395 6199 l  p ef
pum
19045 6084 t
128 6 m  95 6 69 -3 52 -21 ct 35 -38 27 -63 27 -94 ct 27 -129 38 -155 61 -174 ct 
84 -192 121 -202 172 -204 ct 247 -205 l  247 -223 l  247 -250 241 -270 230 -282 ct 
218 -294 200 -299 175 -299 ct 150 -299 132 -295 121 -287 ct 109 -278 102 -265 100 -246 ct 
42 -251 l  51 -312 96 -342 176 -342 ct 219 -342 250 -332 272 -313 ct 293 -294 304 -266 304 -229 ct 
304 -85 l  304 -68 306 -55 310 -47 ct 314 -39 323 -35 335 -35 ct 340 -35 346 -35 353 -37 ct 
353 -2 l  339 1 325 3 310 3 ct 289 3 274 -2 265 -13 ct 256 -24 250 -41 249 -64 ct 
247 -64 l  233 -39 216 -21 197 -10 ct 178 1 155 6 128 6 ct p
141 -36 m  162 -36 180 -41 196 -50 ct 212 -59 224 -72 233 -88 ct 243 -104 247 -121 247 -138 ct 
247 -166 l  186 -165 l  160 -164 140 -161 126 -157 ct 113 -152 102 -144 95 -134 ct 
88 -123 84 -110 84 -93 ct 84 -75 89 -61 99 -51 ct 109 -41 123 -36 141 -36 ct p ef
pom
pum
21445 6084 t
141 -36 m  159 -36 177 -40 194 -49 ct 212 -59 226 -71 238 -86 ct 271 -55 l  254 -34 235 -19 212 -9 ct 
190 1 165 6 138 6 ct 100 6 72 -3 52 -20 ct 32 -37 22 -61 22 -92 ct 22 -115 29 -134 45 -149 ct 
60 -164 80 -173 104 -175 ct 104 -176 l  82 -179 64 -187 51 -201 ct 38 -215 32 -232 32 -253 ct 
32 -279 42 -301 63 -317 ct 84 -334 112 -342 146 -342 ct 198 -342 237 -323 263 -285 ct 
223 -257 l  204 -286 178 -300 146 -300 ct 128 -300 113 -296 103 -287 ct 93 -279 88 -267 88 -251 ct 
88 -233 96 -219 113 -210 ct 129 -201 158 -197 199 -197 ct 199 -155 l  168 -155 144 -153 128 -149 ct 
113 -145 101 -138 92 -130 ct 84 -121 80 -108 80 -93 ct 80 -75 85 -61 96 -51 ct 
107 -41 122 -36 141 -36 ct p ef
pom
0.996 c 23014 9524 m  23354 9524 23614 9784 23614 10124 ct 23614 10464 23354 10724 23014 10724 ct 
22674 10724 22414 10464 22414 10124 ct 22414 9784 22674 9524 23014 9524 ct p
22414 9524 m  22414 9524 l  p
23615 10725 m  23615 10725 l  p ef
34.99153 lw 0.000 c 23013 9524 m  23353 9524 23613 9784 23613 10124 ct 23613 10464 23353 10723 23013 10723 ct 
22673 10723 22413 10464 22413 10124 ct 22413 9784 22673 9524 23013 9524 ct pc
22413 9524 m  22413 9524 l  pc
23614 10724 m  23614 10724 l  pc
0.996 c 25314 9525 m  25654 9525 25914 9785 25914 10125 ct 25914 10465 25654 10725 25314 10725 ct 
24974 10725 24714 10465 24714 10125 ct 24714 9785 24974 9525 25314 9525 ct p
24714 9525 m  24714 9525 l  p
25915 10726 m  25915 10726 l  p ef
0.000 c 25314 9525 m  25654 9525 25914 9785 25914 10125 ct 25914 10465 25654 10724 25314 10724 ct 
24974 10724 24714 10465 24714 10125 ct 24714 9785 24974 9525 25314 9525 ct pc
24714 9525 m  24714 9525 l  pc
25915 10725 m  25915 10725 l  pc
36 lw 23614 10124 m  24210 10125 l  ps
24714 10125 m  24187 9949 l  24187 10301 l  24714 10125 l  p ef
pum
23763 10009 t
326 -169 m  326 -52 285 7 203 7 ct 178 7 157 2 140 -7 ct 123 -16 109 -31 99 -51 ct 
98 -51 l  98 -45 98 -35 97 -22 ct 96 -9 95 -1 95 1 ct 41 1 l  42 -10 43 -33 43 -68 ct 
43 -460 l  99 -460 l  99 -328 l  99 -315 98 -299 97 -281 ct 99 -281 l  109 -302 123 -318 140 -327 ct 
157 -336 178 -341 203 -341 ct 245 -341 277 -327 297 -298 ct 317 -270 326 -227 326 -169 ct 
p
268 -167 m  268 -214 262 -247 249 -268 ct 237 -288 217 -298 189 -298 ct 157 -298 135 -287 120 -266 ct 
106 -244 99 -210 99 -163 ct 99 -119 106 -87 120 -66 ct 134 -45 157 -34 188 -34 ct 
216 -34 237 -45 249 -65 ct 262 -86 268 -120 268 -167 ct p ef
pom
0.996 c 20715 9525 m  21055 9525 21315 9785 21315 10125 ct 21315 10465 21055 10725 20715 10725 ct 
20375 10725 20115 10465 20115 10125 ct 20115 9785 20375 9525 20715 9525 ct p
20115 9525 m  20115 9525 l  p
21316 10726 m  21316 10726 l  p ef
34.99153 lw 0.000 c 20714 9525 m  21054 9525 21314 9785 21314 10125 ct 21314 10465 21054 10724 20714 10724 ct 
20374 10724 20114 10465 20114 10125 ct 20114 9785 20374 9525 20714 9525 ct pc
20114 9525 m  20114 9525 l  pc
21315 10725 m  21315 10725 l  pc
0.996 c 18315 9525 m  18655 9525 18915 9785 18915 10125 ct 18915 10465 18655 10725 18315 10725 ct 
17975 10725 17715 10465 17715 10125 ct 17715 9785 17975 9525 18315 9525 ct p
17715 9525 m  17715 9525 l  p
18916 10726 m  18916 10726 l  p ef
0.000 c 18315 9525 m  18655 9525 18915 9785 18915 10125 ct 18915 10465 18655 10724 18315 10724 ct 
17975 10724 17715 10465 17715 10125 ct 17715 9785 17975 9525 18315 9525 ct pc
17715 9525 m  17715 9525 l  pc
18916 10725 m  18916 10725 l  pc
36 lw 18915 10125 m  19610 10125 l  ps
20115 10125 m  19587 9949 l  19587 10301 l  20115 10125 l  p ef
21315 10125 m  21909 10124 l  ps
22414 10124 m  21886 9948 l  21886 10300 l  22414 10124 l  p ef
pum
19064 10009 t
326 -169 m  326 -52 285 7 203 7 ct 178 7 157 2 140 -7 ct 123 -16 109 -31 99 -51 ct 
98 -51 l  98 -45 98 -35 97 -22 ct 96 -9 95 -1 95 1 ct 41 1 l  42 -10 43 -33 43 -68 ct 
43 -460 l  99 -460 l  99 -328 l  99 -315 98 -299 97 -281 ct 99 -281 l  109 -302 123 -318 140 -327 ct 
157 -336 178 -341 203 -341 ct 245 -341 277 -327 297 -298 ct 317 -270 326 -227 326 -169 ct 
p
268 -167 m  268 -214 262 -247 249 -268 ct 237 -288 217 -298 189 -298 ct 157 -298 135 -287 120 -266 ct 
106 -244 99 -210 99 -163 ct 99 -119 106 -87 120 -66 ct 134 -45 157 -34 188 -34 ct 
216 -34 237 -45 249 -65 ct 262 -86 268 -120 268 -167 ct p ef
pom
pum
21464 10009 t
141 -36 m  159 -36 177 -40 194 -49 ct 212 -59 226 -71 238 -86 ct 271 -55 l  254 -34 235 -19 212 -9 ct 
190 1 165 6 138 6 ct 100 6 72 -3 52 -20 ct 32 -37 22 -61 22 -92 ct 22 -115 29 -134 45 -149 ct 
60 -164 80 -173 104 -175 ct 104 -176 l  82 -179 64 -187 51 -201 ct 38 -215 32 -232 32 -253 ct 
32 -279 42 -301 63 -317 ct 84 -334 112 -342 146 -342 ct 198 -342 237 -323 263 -285 ct 
223 -257 l  204 -286 178 -300 146 -300 ct 128 -300 113 -296 103 -287 ct 93 -279 88 -267 88 -251 ct 
88 -233 96 -219 113 -210 ct 129 -201 158 -197 199 -197 ct 199 -155 l  168 -155 144 -153 128 -149 ct 
113 -145 101 -138 92 -130 ct 84 -121 80 -108 80 -93 ct 80 -75 85 -61 96 -51 ct 
107 -41 122 -36 141 -36 ct p ef
pom
0.996 c 18316 7527 m  18656 7527 18916 7787 18916 8127 ct 18916 8467 18656 8727 18316 8727 ct 
17976 8727 17716 8467 17716 8127 ct 17716 7787 17976 7527 18316 7527 ct p
17716 7527 m  17716 7527 l  p
18917 8728 m  18917 8728 l  p ef
34.99153 lw 0.000 c 18316 7527 m  18656 7527 18916 7787 18916 8126 ct 18916 8466 18656 8726 18316 8726 ct 
17976 8726 17716 8466 17716 8126 ct 17716 7787 17976 7527 18316 7527 ct pc
17716 7527 m  17716 7527 l  pc
18917 8727 m  18917 8727 l  pc
0.996 c 25316 7528 m  25656 7528 25916 7788 25916 8128 ct 25916 8468 25656 8728 25316 8728 ct 
24976 8728 24716 8468 24716 8128 ct 24716 7788 24976 7528 25316 7528 ct p
24716 7528 m  24716 7528 l  p
25917 8729 m  25917 8729 l  p ef
105.97435 lw 0.000 c 25316 7528 m  25656 7528 25916 7788 25916 8127 ct 25916 8467 25656 8727 25316 8727 ct 
24976 8727 24716 8467 24716 8127 ct 24716 7788 24976 7528 25316 7528 ct pc
24716 7528 m  24716 7528 l  pc
25917 8728 m  25917 8728 l  pc
36 lw 18316 7527 m  18310 7303 l  ps
18296 6799 m  18135 7332 l  18486 7322 l  18296 6799 l  p ef
18316 8727 m  18316 9021 l  ps
18315 9525 m  18492 8998 l  18140 8998 l  18315 9525 l  p ef
25295 6799 m  25301 7024 l  ps
25316 7528 m  25477 6995 l  25125 7005 l  25316 7528 l  p ef
25314 9525 m  25315 9232 l  ps
25316 8728 m  25139 9255 l  25491 9255 l  25316 8728 l  p ef
pum
17745 7383 t
141 -36 m  159 -36 177 -40 194 -49 ct 212 -59 226 -71 238 -86 ct 271 -55 l  254 -34 235 -19 212 -9 ct 
190 1 165 6 138 6 ct 100 6 72 -3 52 -20 ct 32 -37 22 -61 22 -92 ct 22 -115 29 -134 45 -149 ct 
60 -164 80 -173 104 -175 ct 104 -176 l  82 -179 64 -187 51 -201 ct 38 -215 32 -232 32 -253 ct 
32 -279 42 -301 63 -317 ct 84 -334 112 -342 146 -342 ct 198 -342 237 -323 263 -285 ct 
223 -257 l  204 -286 178 -300 146 -300 ct 128 -300 113 -296 103 -287 ct 93 -279 88 -267 88 -251 ct 
88 -233 96 -219 113 -210 ct 129 -201 158 -197 199 -197 ct 199 -155 l  168 -155 144 -153 128 -149 ct 
113 -145 101 -138 92 -130 ct 84 -121 80 -108 80 -93 ct 80 -75 85 -61 96 -51 ct 
107 -41 122 -36 141 -36 ct p ef
pom
pum
17745 9382 t
141 -36 m  159 -36 177 -40 194 -49 ct 212 -59 226 -71 238 -86 ct 271 -55 l  254 -34 235 -19 212 -9 ct 
190 1 165 6 138 6 ct 100 6 72 -3 52 -20 ct 32 -37 22 -61 22 -92 ct 22 -115 29 -134 45 -149 ct 
60 -164 80 -173 104 -175 ct 104 -176 l  82 -179 64 -187 51 -201 ct 38 -215 32 -232 32 -253 ct 
32 -279 42 -301 63 -317 ct 84 -334 112 -342 146 -342 ct 198 -342 237 -323 263 -285 ct 
223 -257 l  204 -286 178 -300 146 -300 ct 128 -300 113 -296 103 -287 ct 93 -279 88 -267 88 -251 ct 
88 -233 96 -219 113 -210 ct 129 -201 158 -197 199 -197 ct 199 -155 l  168 -155 144 -153 128 -149 ct 
113 -145 101 -138 92 -130 ct 84 -121 80 -108 80 -93 ct 80 -75 85 -61 96 -51 ct 
107 -41 122 -36 141 -36 ct p ef
pom
pum
25544 9382 t
141 -36 m  159 -36 177 -40 194 -49 ct 212 -59 226 -71 238 -86 ct 271 -55 l  254 -34 235 -19 212 -9 ct 
190 1 165 6 138 6 ct 100 6 72 -3 52 -20 ct 32 -37 22 -61 22 -92 ct 22 -115 29 -134 45 -149 ct 
60 -164 80 -173 104 -175 ct 104 -176 l  82 -179 64 -187 51 -201 ct 38 -215 32 -232 32 -253 ct 
32 -279 42 -301 63 -317 ct 84 -334 112 -342 146 -342 ct 198 -342 237 -323 263 -285 ct 
223 -257 l  204 -286 178 -300 146 -300 ct 128 -300 113 -296 103 -287 ct 93 -279 88 -267 88 -251 ct 
88 -233 96 -219 113 -210 ct 129 -201 158 -197 199 -197 ct 199 -155 l  168 -155 144 -153 128 -149 ct 
113 -145 101 -138 92 -130 ct 84 -121 80 -108 80 -93 ct 80 -75 85 -61 96 -51 ct 
107 -41 122 -36 141 -36 ct p ef
pom
pum
25544 7383 t
141 -36 m  159 -36 177 -40 194 -49 ct 212 -59 226 -71 238 -86 ct 271 -55 l  254 -34 235 -19 212 -9 ct 
190 1 165 6 138 6 ct 100 6 72 -3 52 -20 ct 32 -37 22 -61 22 -92 ct 22 -115 29 -134 45 -149 ct 
60 -164 80 -173 104 -175 ct 104 -176 l  82 -179 64 -187 51 -201 ct 38 -215 32 -232 32 -253 ct 
32 -279 42 -301 63 -317 ct 84 -334 112 -342 146 -342 ct 198 -342 237 -323 263 -285 ct 
223 -257 l  204 -286 178 -300 146 -300 ct 128 -300 113 -296 103 -287 ct 93 -279 88 -267 88 -251 ct 
88 -233 96 -219 113 -210 ct 129 -201 158 -197 199 -197 ct 199 -155 l  168 -155 144 -153 128 -149 ct 
113 -145 101 -138 92 -130 ct 84 -121 80 -108 80 -93 ct 80 -75 85 -61 96 -51 ct 
107 -41 122 -36 141 -36 ct p ef
pom
0.996 c 10657 7499 m  10997 7499 11257 7759 11257 8099 ct 11257 8439 10997 8699 10657 8699 ct 
10317 8699 10057 8439 10057 8099 ct 10057 7759 10317 7499 10657 7499 ct p
10057 7499 m  10057 7499 l  p
11258 8700 m  11258 8700 l  p ef
34.99153 lw 0.000 c 10656 7499 m  10996 7499 11256 7759 11256 8098 ct 11256 8438 10996 8698 10656 8698 ct 
10316 8698 10056 8438 10056 8098 ct 10056 7759 10316 7499 10656 7499 ct pc
10056 7499 m  10056 7499 l  pc
11257 8699 m  11257 8699 l  pc
0.996 c 13357 7499 m  13697 7499 13957 7759 13957 8099 ct 13957 8439 13697 8699 13357 8699 ct 
13017 8699 12757 8439 12757 8099 ct 12757 7759 13017 7499 13357 7499 ct p
12757 7499 m  12757 7499 l  p
13958 8700 m  13958 8700 l  p ef
0.000 c 13356 7499 m  13696 7499 13956 7759 13956 8098 ct 13956 8438 13696 8698 13356 8698 ct 
13016 8698 12756 8438 12756 8098 ct 12756 7759 13016 7499 13356 7499 ct pc
12756 7499 m  12756 7499 l  pc
13957 8699 m  13957 8699 l  pc
36 lw 8958 8100 m  9552 8099 l  ps
10057 8099 m  9529 7923 l  9529 8275 l  10057 8099 l  p ef
0.996 c 8358 7500 m  8698 7500 8958 7760 8958 8100 ct 8958 8440 8698 8700 8358 8700 ct 
8018 8700 7758 8440 7758 8100 ct 7758 7760 8018 7500 8358 7500 ct p
7758 7500 m  7758 7500 l  p
8959 8701 m  8959 8701 l  p ef
34.99153 lw 0.000 c 8358 7500 m  8698 7500 8958 7760 8958 8099 ct 8958 8439 8698 8699 8358 8699 ct 
8018 8699 7758 8439 7758 8099 ct 7758 7760 8018 7500 8358 7500 ct pc
7758 7500 m  7758 7500 l  pc
8959 8700 m  8959 8700 l  pc
0.996 c 15757 7500 m  16097 7500 16357 7760 16357 8100 ct 16357 8440 16097 8700 15757 8700 ct 
15417 8700 15157 8440 15157 8100 ct 15157 7760 15417 7500 15757 7500 ct p
15157 7500 m  15157 7500 l  p
16358 8701 m  16358 8701 l  p ef
0.000 c 15757 7500 m  16097 7500 16357 7760 16357 8099 ct 16357 8439 16097 8699 15757 8699 ct 
15417 8699 15157 8439 15157 8099 ct 15157 7760 15417 7500 15757 7500 ct pc
15157 7500 m  15157 7500 l  pc
16358 8700 m  16358 8700 l  pc
36 lw 13957 8099 m  14652 8100 l  ps
15157 8100 m  14629 7924 l  14629 8276 l  15157 8100 l  p ef
13357 8699 m  13357 9496 l  10657 9496 l  10657 9203 l  ps
10657 8699 m  10481 9226 l  10833 9226 l  10657 8699 l  p ef
8358 7500 m  8358 6832 l  15757 6832 l  15757 6995 l  ps
15757 7500 m  15933 6972 l  15581 6972 l  15757 7500 l  p ef
6699 8120 m  7254 8110 l  ps
7758 8100 m  7227 7934 l  7233 8286 l  7758 8100 l  p ef
pum
11805 6683 t
141 -36 m  159 -36 177 -40 194 -49 ct 212 -59 226 -71 238 -86 ct 271 -55 l  254 -34 235 -19 212 -9 ct 
190 1 165 6 138 6 ct 100 6 72 -3 52 -20 ct 32 -37 22 -61 22 -92 ct 22 -115 29 -134 45 -149 ct 
60 -164 80 -173 104 -175 ct 104 -176 l  82 -179 64 -187 51 -201 ct 38 -215 32 -232 32 -253 ct 
32 -279 42 -301 63 -317 ct 84 -334 112 -342 146 -342 ct 198 -342 237 -323 263 -285 ct 
223 -257 l  204 -286 178 -300 146 -300 ct 128 -300 113 -296 103 -287 ct 93 -279 88 -267 88 -251 ct 
88 -233 96 -219 113 -210 ct 129 -201 158 -197 199 -197 ct 199 -155 l  168 -155 144 -153 128 -149 ct 
113 -145 101 -138 92 -130 ct 84 -121 80 -108 80 -93 ct 80 -75 85 -61 96 -51 ct 
107 -41 122 -36 141 -36 ct p ef
pom
pum
11805 9982 t
141 -36 m  159 -36 177 -40 194 -49 ct 212 -59 226 -71 238 -86 ct 271 -55 l  254 -34 235 -19 212 -9 ct 
190 1 165 6 138 6 ct 100 6 72 -3 52 -20 ct 32 -37 22 -61 22 -92 ct 22 -115 29 -134 45 -149 ct 
60 -164 80 -173 104 -175 ct 104 -176 l  82 -179 64 -187 51 -201 ct 38 -215 32 -232 32 -253 ct 
32 -279 42 -301 63 -317 ct 84 -334 112 -342 146 -342 ct 198 -342 237 -323 263 -285 ct 
223 -257 l  204 -286 178 -300 146 -300 ct 128 -300 113 -296 103 -287 ct 93 -279 88 -267 88 -251 ct 
88 -233 96 -219 113 -210 ct 129 -201 158 -197 199 -197 ct 199 -155 l  168 -155 144 -153 128 -149 ct 
113 -145 101 -138 92 -130 ct 84 -121 80 -108 80 -93 ct 80 -75 85 -61 96 -51 ct 
107 -41 122 -36 141 -36 ct p ef
pom
pum
14105 8583 t
141 -36 m  159 -36 177 -40 194 -49 ct 212 -59 226 -71 238 -86 ct 271 -55 l  254 -34 235 -19 212 -9 ct 
190 1 165 6 138 6 ct 100 6 72 -3 52 -20 ct 32 -37 22 -61 22 -92 ct 22 -115 29 -134 45 -149 ct 
60 -164 80 -173 104 -175 ct 104 -176 l  82 -179 64 -187 51 -201 ct 38 -215 32 -232 32 -253 ct 
32 -279 42 -301 63 -317 ct 84 -334 112 -342 146 -342 ct 198 -342 237 -323 263 -285 ct 
223 -257 l  204 -286 178 -300 146 -300 ct 128 -300 113 -296 103 -287 ct 93 -279 88 -267 88 -251 ct 
88 -233 96 -219 113 -210 ct 129 -201 158 -197 199 -197 ct 199 -155 l  168 -155 144 -153 128 -149 ct 
113 -145 101 -138 92 -130 ct 84 -121 80 -108 80 -93 ct 80 -75 85 -61 96 -51 ct 
107 -41 122 -36 141 -36 ct p ef
pom
pum
9105 8583 t
141 -36 m  159 -36 177 -40 194 -49 ct 212 -59 226 -71 238 -86 ct 271 -55 l  254 -34 235 -19 212 -9 ct 
190 1 165 6 138 6 ct 100 6 72 -3 52 -20 ct 32 -37 22 -61 22 -92 ct 22 -115 29 -134 45 -149 ct 
60 -164 80 -173 104 -175 ct 104 -176 l  82 -179 64 -187 51 -201 ct 38 -215 32 -232 32 -253 ct 
32 -279 42 -301 63 -317 ct 84 -334 112 -342 146 -342 ct 198 -342 237 -323 263 -285 ct 
223 -257 l  204 -286 178 -300 146 -300 ct 128 -300 113 -296 103 -287 ct 93 -279 88 -267 88 -251 ct 
88 -233 96 -219 113 -210 ct 129 -201 158 -197 199 -197 ct 199 -155 l  168 -155 144 -153 128 -149 ct 
113 -145 101 -138 92 -130 ct 84 -121 80 -108 80 -93 ct 80 -75 85 -61 96 -51 ct 
107 -41 122 -36 141 -36 ct p ef
pom
1 lw 11257 8099 m  12327 8099 l  ps
12757 8099 m  12307 7949 l  12307 8249 l  12757 8099 l  p ef
pum
11805 7983 t
128 6 m  95 6 69 -3 52 -21 ct 35 -38 27 -63 27 -94 ct 27 -129 38 -155 61 -174 ct 
84 -192 121 -202 172 -204 ct 247 -205 l  247 -223 l  247 -250 241 -270 230 -282 ct 
218 -294 200 -299 175 -299 ct 150 -299 132 -295 121 -287 ct 109 -278 102 -265 100 -246 ct 
42 -251 l  51 -312 96 -342 176 -342 ct 219 -342 250 -332 272 -313 ct 293 -294 304 -266 304 -229 ct 
304 -85 l  304 -68 306 -55 310 -47 ct 314 -39 323 -35 335 -35 ct 340 -35 346 -35 353 -37 ct 
353 -2 l  339 1 325 3 310 3 ct 289 3 274 -2 265 -13 ct 256 -24 250 -41 249 -64 ct 
247 -64 l  233 -39 216 -21 197 -10 ct 178 1 155 6 128 6 ct p
141 -36 m  162 -36 180 -41 196 -50 ct 212 -59 224 -72 233 -88 ct 243 -104 247 -121 247 -138 ct 
247 -166 l  186 -165 l  160 -164 140 -161 126 -157 ct 113 -152 102 -144 95 -134 ct 
88 -123 84 -110 84 -93 ct 84 -75 89 -61 99 -51 ct 109 -41 123 -36 141 -36 ct p ef
pom
36 lw 16357 8100 m  17212 8117 l  ps
17716 8127 m  17192 7941 l  17185 8292 l  17716 8127 l  p ef
pum
16645 7983 t
141 -36 m  159 -36 177 -40 194 -49 ct 212 -59 226 -71 238 -86 ct 271 -55 l  254 -34 235 -19 212 -9 ct 
190 1 165 6 138 6 ct 100 6 72 -3 52 -20 ct 32 -37 22 -61 22 -92 ct 22 -115 29 -134 45 -149 ct 
60 -164 80 -173 104 -175 ct 104 -176 l  82 -179 64 -187 51 -201 ct 38 -215 32 -232 32 -253 ct 
32 -279 42 -301 63 -317 ct 84 -334 112 -342 146 -342 ct 198 -342 237 -323 263 -285 ct 
223 -257 l  204 -286 178 -300 146 -300 ct 128 -300 113 -296 103 -287 ct 93 -279 88 -267 88 -251 ct 
88 -233 96 -219 113 -210 ct 129 -201 158 -197 199 -197 ct 199 -155 l  168 -155 144 -153 128 -149 ct 
113 -145 101 -138 92 -130 ct 84 -121 80 -108 80 -93 ct 80 -75 85 -61 96 -51 ct 
107 -41 122 -36 141 -36 ct p ef
pom
0 5247 t 
pom
count op_count sub {pop} repeat countdictstack dict_count sub {end} repeat b4_inc_state restore
%%PageTrailer
%%Trailer
%%EOF
