%!PS-Adobe-3.0 EPSF-3.0 
%%BoundingBox: 0 0 652 268
%%Pages: 0
%%Creator: LibreOffice 5.4
%%Title: none
%%CreationDate: none
%%LanguageLevel: 2
%%EndComments
%%BeginProlog
%%BeginResource: procset SDRes-Prolog 1.0 0
/b4_inc_state save def
/dict_count countdictstack def
/op_count count 1 sub def
userdict begin
0 setgray 0 setlinecap 1 setlinewidth 0 setlinejoin 10 setmiterlimit[] 0 setdash newpath
/languagelevel where {pop languagelevel 1 ne {false setstrokeadjust false setoverprint} if} if
/bdef {bind def} bind def
/c {setgray} bdef
/l {neg lineto} bdef
/rl {neg rlineto} bdef
/lc {setlinecap} bdef
/lj {setlinejoin} bdef
/lw {setlinewidth} bdef
/ml {setmiterlimit} bdef
/ld {setdash} bdef
/m {neg moveto} bdef
/ct {6 2 roll neg 6 2 roll neg 6 2 roll neg curveto} bdef
/r {rotate} bdef
/t {neg translate} bdef
/s {scale} bdef
/sw {show} bdef
/gs {gsave} bdef
/gr {grestore} bdef
/f {findfont dup length dict begin
{1 index /FID ne {def} {pop pop} ifelse} forall /Encoding ISOLatin1Encoding def
currentdict end /NFont exch definefont pop /NFont findfont} bdef
/p {closepath} bdef
/sf {scalefont setfont} bdef
/ef {eofill}bdef
/pc {closepath stroke}bdef
/ps {stroke}bdef
/pum {matrix currentmatrix}bdef
/pom {setmatrix}bdef
/bs {/aString exch def /nXOfs exch def /nWidth exch def currentpoint nXOfs 0 rmoveto pum nWidth aString stringwidth pop div 1 scale aString show pom moveto} bdef
%%EndResource
%%EndProlog
%%BeginSetup
%%EndSetup
%%Page: 1 1
%%BeginPageSetup
%%EndPageSetup
pum
0.02834 0.02836 s 
0 -9448 t
/tm matrix currentmatrix def
tm setmatrix
-2949 -4801 t 
1 1 s 
gs
249.98133 lw 1 lj 0.000 c 4212 8168 m  4559 8168 4825 8411 4825 8730 ct 4825 9049 4559 9293 4212 9293 ct 
3865 9293 3600 9049 3600 8730 ct 3600 8411 3865 8168 4212 8168 ct pc
gr
gs
249.98133 lw 1 lj 0.000 c 3600 8168 m  3600 8168 l  pc
gr
gs
249.98133 lw 1 lj 0.000 c 4826 9294 m  4826 9294 l  pc
gr
pum
4038 8893 t
0.000 c 48 0 m  48 -47 l  160 -47 l  160 -384 l  61 -314 l  61 -366 l  164 -438 l 
216 -438 l  216 -47 l  322 -47 l  322 0 l  48 0 l  p ef
pom
gs
0 lw 1 lj 9987 8687 m  10334 8687 10600 8930 10600 9249 ct 10600 9567 10334 9811 9987 9811 ct 
9640 9811 9375 9567 9375 9249 ct 9375 8930 9640 8687 9987 8687 ct pc
gr
gs
0 lw 1 lj 9375 8687 m  9375 8687 l  pc
gr
gs
0 lw 1 lj 10601 9812 m  10601 9812 l  pc
gr
pum
9813 9412 t
32 0 m  32 -39 l  42 -64 55 -85 71 -104 ct 86 -122 102 -139 118 -154 ct 135 -169 152 -183 168 -196 ct 
185 -208 199 -221 213 -234 ct 226 -247 237 -260 245 -274 ct 253 -289 257 -304 257 -322 ct 
257 -346 250 -365 236 -378 ct 222 -391 202 -398 177 -398 ct 154 -398 134 -392 119 -379 ct 
103 -366 94 -348 91 -324 ct 34 -329 l  39 -364 53 -392 79 -413 ct 104 -434 137 -444 177 -444 ct 
221 -444 255 -434 279 -413 ct 303 -392 314 -362 314 -324 ct 314 -307 311 -290 303 -274 ct 
295 -257 283 -240 268 -223 ct 253 -206 224 -180 180 -145 ct 157 -126 138 -108 124 -93 ct 
110 -77 100 -62 93 -47 ct 321 -47 l  321 0 l  32 0 l  p ef
pom
gs
249.98133 lw 1 lj 6662 12061 m  7009 12061 7275 12305 7275 12623 ct 7275 12941 7009 13185 6662 13185 ct 
6315 13185 6050 12941 6050 12623 ct 6050 12305 6315 12061 6662 12061 ct pc
gr
gs
249.98133 lw 1 lj 6050 12061 m  6050 12061 l  pc
gr
gs
249.98133 lw 1 lj 7276 13186 m  7276 13186 l  pc
gr
pum
6488 12787 t
273 -99 m  273 0 l  220 0 l  220 -99 l  15 -99 l  15 -142 l  215 -438 l 
273 -438 l  273 -143 l  335 -143 l  335 -99 l  273 -99 l  p
220 -374 m  220 -373 217 -368 212 -358 ct 206 -348 202 -341 200 -338 ct 88 -172 l 
71 -149 l  66 -143 l  220 -143 l  220 -374 l  p ef
pom
gs
0 lw 1 lj 7537 5400 m  7884 5400 8150 5643 8150 5962 ct 8150 6281 7884 6525 7537 6525 ct 
7190 6525 6925 6281 6925 5962 ct 6925 5643 7190 5400 7537 5400 ct pc
gr
gs
0 lw 1 lj 6925 5400 m  6925 5400 l  pc
gr
gs
0 lw 1 lj 8151 6526 m  8151 6526 l  pc
gr
pum
7363 6125 t
325 -121 m  325 -81 312 -49 287 -27 ct 261 -5 225 6 177 6 ct 133 6 98 -4 71 -24 ct 
45 -44 29 -73 24 -113 ct 82 -118 l  89 -66 121 -40 177 -40 ct 205 -40 227 -47 243 -61 ct 
259 -75 267 -96 267 -123 ct 267 -147 258 -165 240 -179 ct 222 -192 195 -199 161 -199 ct 
129 -199 l  129 -247 l  159 -247 l  190 -247 214 -254 231 -267 ct 247 -280 256 -299 256 -322 ct 
256 -346 249 -364 235 -378 ct 221 -391 201 -398 174 -398 ct 149 -398 129 -392 114 -379 ct 
99 -367 90 -349 88 -326 ct 32 -330 l  36 -366 51 -394 76 -414 ct 102 -434 134 -444 175 -444 ct 
218 -444 252 -434 277 -413 ct 301 -393 313 -365 313 -328 ct 313 -300 305 -278 290 -260 ct 
274 -243 251 -231 222 -225 ct 222 -223 l  254 -220 280 -209 298 -191 ct 316 -172 325 -149 325 -121 ct 
p ef
pom
gs
249.98133 lw 1 lj 10512 11369 m  10859 11369 11125 11613 11125 11931 ct 
11125 12249 10859 12493 10512 12493 ct 10165 12493 9900 12249 9900 11931 ct 
9900 11613 10165 11369 10512 11369 ct pc
gr
gs
249.98133 lw 1 lj 9900 11369 m  9900 11369 l  pc
gr
gs
249.98133 lw 1 lj 11126 12494 m  11126 12494 l  pc
gr
pum
10338 12095 t
325 -143 m  325 -97 313 -61 288 -34 ct 263 -7 228 6 184 6 ct 135 6 97 -12 71 -49 ct 
45 -86 32 -139 32 -209 ct 32 -284 46 -343 73 -383 ct 100 -424 139 -444 189 -444 ct 
254 -444 296 -414 313 -355 ct 260 -345 l  249 -381 225 -399 188 -399 ct 156 -399 131 -384 114 -354 ct 
96 -324 88 -282 88 -225 ct 98 -244 112 -258 131 -268 ct 149 -278 170 -283 194 -283 ct 
234 -283 266 -270 290 -245 ct 313 -220 325 -186 325 -143 ct p
269 -141 m  269 -173 261 -197 245 -214 ct 230 -231 208 -240 180 -240 ct 154 -240 133 -232 117 -217 ct 
101 -202 93 -181 93 -154 ct 93 -120 102 -93 118 -71 ct 135 -50 156 -39 182 -39 ct 
209 -39 230 -48 246 -66 ct 261 -84 269 -109 269 -141 ct p ef
pom
gs
0 lw 1 lj 11562 5747 m  11909 5747 12175 5991 12175 6309 ct 12175 6627 11909 6871 11562 6871 ct 
11215 6871 10950 6627 10950 6309 ct 10950 5991 11215 5747 11562 5747 ct pc
gr
gs
0 lw 1 lj 10950 5747 m  10950 5747 l  pc
gr
gs
0 lw 1 lj 12176 6872 m  12176 6872 l  pc
gr
pum
11388 6472 t
326 -143 m  326 -96 313 -60 285 -34 ct 258 -7 220 6 171 6 ct 131 6 98 -3 73 -21 ct 
48 -38 32 -64 25 -98 ct 82 -104 l  94 -61 124 -40 173 -40 ct 203 -40 226 -49 243 -67 ct 
260 -85 269 -110 269 -141 ct 269 -169 260 -191 243 -208 ct 226 -225 203 -233 174 -233 ct 
159 -233 145 -231 132 -226 ct 119 -221 106 -213 93 -202 ct 38 -202 l  53 -437 l 
301 -437 l  301 -390 l  104 -390 l  95 -251 l  119 -270 149 -279 185 -279 ct 
228 -279 263 -266 288 -241 ct 314 -216 326 -183 326 -143 ct p ef
pom
gs
0 lw 1 lj 4647 8333 m  7105 6362 l  ps
gr
gs
0 lw 1 lj 4647 9130 m  6230 12225 l  ps
gr
gs
0 lw 1 lj 4826 8732 m  11130 6707 l  ps
gr
gs
0 lw 1 lj [ 26.94999 457 ] 0 ld
8151 5964 m  10951 6309 l  ps
gr
gs
0 lw 1 lj 7276 12623 m  10080 12329 l  ps
gr
gs
0 lw 1 lj 10514 11369 m  9989 9812 l  ps
gr
gs
0 lw 1 lj [ 26.94999 457 ] 0 ld
9989 8688 m  11564 6871 l  ps
gr
gs
0 lw 1 lj [ 26.94999 457 ] 0 ld
11126 11931 m  11997 6707 l  ps
gr
pum
5030 11052 t
326 -143 m  326 -96 313 -60 285 -34 ct 258 -7 220 6 171 6 ct 131 6 98 -3 73 -21 ct 
48 -38 32 -64 25 -98 ct 82 -104 l  94 -61 124 -40 173 -40 ct 203 -40 226 -49 243 -67 ct 
260 -85 269 -110 269 -141 ct 269 -169 260 -191 243 -208 ct 226 -225 203 -233 174 -233 ct 
159 -233 145 -231 132 -226 ct 119 -221 106 -213 93 -202 ct 38 -202 l  53 -437 l 
301 -437 l  301 -390 l  104 -390 l  95 -251 l  119 -270 149 -279 185 -279 ct 
228 -279 263 -266 288 -241 ct 314 -216 326 -183 326 -143 ct p ef
pom
pum
8443 13128 t
273 -99 m  273 0 l  220 0 l  220 -99 l  15 -99 l  15 -142 l  215 -438 l 
273 -438 l  273 -143 l  335 -143 l  335 -99 l  273 -99 l  p
220 -374 m  220 -373 217 -368 212 -358 ct 206 -348 202 -341 200 -338 ct 88 -172 l 
71 -149 l  66 -143 l  220 -143 l  220 -374 l  p ef
pom
pum
7873 8371 t
48 0 m  48 -47 l  160 -47 l  160 -384 l  61 -314 l  61 -366 l  164 -438 l 
216 -438 l  216 -47 l  322 -47 l  322 0 l  48 0 l  p ef
677 -143 m  677 -96 664 -60 636 -34 ct 609 -7 571 6 522 6 ct 482 6 449 -3 424 -21 ct 
399 -38 383 -64 376 -98 ct 433 -104 l  445 -61 475 -40 524 -40 ct 554 -40 577 -49 594 -67 ct 
611 -85 620 -110 620 -141 ct 620 -169 611 -191 594 -208 ct 577 -225 554 -233 525 -233 ct 
510 -233 496 -231 483 -226 ct 470 -221 457 -213 444 -202 ct 389 -202 l  404 -437 l 
652 -437 l  652 -390 l  455 -390 l  446 -251 l  470 -270 500 -279 536 -279 ct 
579 -279 614 -266 639 -241 ct 665 -216 677 -183 677 -143 ct p ef
pom
pum
5423 7246 t
48 0 m  48 -47 l  160 -47 l  160 -384 l  61 -314 l  61 -366 l  164 -438 l 
216 -438 l  216 -47 l  322 -47 l  322 0 l  48 0 l  p ef
672 -392 m  628 -324 596 -270 578 -232 ct 559 -193 545 -155 536 -117 ct 527 -79 522 -40 522 0 ct 
464 0 l  464 -56 476 -115 500 -177 ct 523 -238 563 -309 618 -390 ct 384 -390 l 
384 -437 l  672 -437 l  672 -392 l  p ef
pom
pum
11897 9409 t
32 0 m  32 -39 l  42 -64 55 -85 71 -104 ct 86 -122 102 -139 118 -154 ct 135 -169 152 -183 168 -196 ct 
185 -208 199 -221 213 -234 ct 226 -247 237 -260 245 -274 ct 253 -289 257 -304 257 -322 ct 
257 -346 250 -365 236 -378 ct 222 -391 202 -398 177 -398 ct 154 -398 134 -392 119 -379 ct 
103 -366 94 -348 91 -324 ct 34 -329 l  39 -364 53 -392 79 -413 ct 104 -434 137 -444 177 -444 ct 
221 -444 255 -434 279 -413 ct 303 -392 314 -362 314 -324 ct 314 -307 311 -290 303 -274 ct 
295 -257 283 -240 268 -223 ct 253 -206 224 -180 180 -145 ct 157 -126 138 -108 124 -93 ct 
110 -77 100 -62 93 -47 ct 321 -47 l  321 0 l  32 0 l  p ef
399 0 m  399 -47 l  511 -47 l  511 -384 l  412 -314 l  412 -366 l  515 -438 l 
567 -438 l  567 -47 l  673 -47 l  673 0 l  399 0 l  p ef
pom
pum
10893 8458 t
321 -392 m  277 -324 245 -270 227 -232 ct 208 -193 194 -155 185 -117 ct 176 -79 171 -40 171 0 ct 
113 0 l  113 -56 125 -115 149 -177 ct 172 -238 212 -309 267 -390 ct 33 -390 l 
33 -437 l  321 -437 l  321 -392 l  p ef
pom
pum
9406 6160 t
32 0 m  32 -39 l  42 -64 55 -85 71 -104 ct 86 -122 102 -139 118 -154 ct 135 -169 152 -183 168 -196 ct 
185 -208 199 -221 213 -234 ct 226 -247 237 -260 245 -274 ct 253 -289 257 -304 257 -322 ct 
257 -346 250 -365 236 -378 ct 222 -391 202 -398 177 -398 ct 154 -398 134 -392 119 -379 ct 
103 -366 94 -348 91 -324 ct 34 -329 l  39 -364 53 -392 79 -413 ct 104 -434 137 -444 177 -444 ct 
221 -444 255 -434 279 -413 ct 303 -392 314 -362 314 -324 ct 314 -307 311 -290 303 -274 ct 
295 -257 283 -240 268 -223 ct 253 -206 224 -180 180 -145 ct 157 -126 138 -108 124 -93 ct 
110 -77 100 -62 93 -47 ct 321 -47 l  321 0 l  32 0 l  p ef
pom
pum
9889 10831 t
325 -121 m  325 -81 312 -49 287 -27 ct 261 -5 225 6 177 6 ct 133 6 98 -4 71 -24 ct 
45 -44 29 -73 24 -113 ct 82 -118 l  89 -66 121 -40 177 -40 ct 205 -40 227 -47 243 -61 ct 
259 -75 267 -96 267 -123 ct 267 -147 258 -165 240 -179 ct 222 -192 195 -199 161 -199 ct 
129 -199 l  129 -247 l  159 -247 l  190 -247 214 -254 231 -267 ct 247 -280 256 -299 256 -322 ct 
256 -346 249 -364 235 -378 ct 221 -391 201 -398 174 -398 ct 149 -398 129 -392 114 -379 ct 
99 -367 90 -349 88 -326 ct 32 -330 l  36 -366 51 -394 76 -414 ct 102 -434 134 -444 175 -444 ct 
218 -444 252 -434 277 -413 ct 301 -393 313 -365 313 -328 ct 313 -300 305 -278 290 -260 ct 
274 -243 251 -231 222 -225 ct 222 -223 l  254 -220 280 -209 298 -191 ct 316 -172 325 -149 325 -121 ct 
p ef
pom
pum
3199 8439 t
328 -219 m  328 -146 315 -90 290 -52 ct 264 -13 226 6 176 6 ct 126 6 88 -13 63 -51 ct 
37 -90 25 -146 25 -219 ct 25 -294 37 -350 62 -388 ct 86 -425 125 -444 178 -444 ct 
229 -444 267 -425 292 -387 ct 316 -349 328 -293 328 -219 ct p
272 -219 m  272 -282 264 -328 250 -356 ct 235 -385 211 -399 178 -399 ct 143 -399 119 -385 104 -357 ct 
89 -329 81 -283 81 -219 ct 81 -157 89 -112 104 -83 ct 119 -54 143 -40 176 -40 ct 
209 -40 233 -54 249 -84 ct 264 -113 272 -158 272 -219 ct p ef
pom
pum
10794 12972 t
323 -228 m  323 -153 309 -95 282 -55 ct 255 -14 216 6 165 6 ct 131 6 104 -1 83 -16 ct 
62 -30 48 -53 39 -85 ct 92 -94 l  103 -57 128 -39 166 -39 ct 198 -39 223 -54 240 -84 ct 
258 -114 267 -156 268 -212 ct 260 -193 245 -178 225 -167 ct 205 -156 183 -150 159 -150 ct 
120 -150 89 -163 65 -190 ct 42 -217 30 -253 30 -297 ct 30 -343 43 -379 68 -405 ct 
94 -431 130 -444 175 -444 ct 224 -444 261 -426 286 -390 ct 311 -354 323 -300 323 -228 ct 
p
262 -282 m  262 -317 254 -345 238 -367 ct 222 -388 200 -399 173 -399 ct 146 -399 125 -390 110 -371 ct 
94 -353 87 -328 87 -297 ct 87 -265 94 -240 110 -222 ct 125 -203 146 -194 173 -194 ct 
189 -194 204 -198 218 -205 ct 232 -212 242 -223 250 -236 ct 258 -250 262 -265 262 -282 ct 
p ef
pom
pum
6594 13987 t
326 -143 m  326 -96 313 -60 285 -34 ct 258 -7 220 6 171 6 ct 131 6 98 -3 73 -21 ct 
48 -38 32 -64 25 -98 ct 82 -104 l  94 -61 124 -40 173 -40 ct 203 -40 226 -49 243 -67 ct 
260 -85 269 -110 269 -141 ct 269 -169 260 -191 243 -208 ct 226 -225 203 -233 174 -233 ct 
159 -233 145 -231 132 -226 ct 119 -221 106 -213 93 -202 ct 38 -202 l  53 -437 l 
301 -437 l  301 -390 l  104 -390 l  95 -251 l  119 -270 149 -279 185 -279 ct 
228 -279 263 -266 288 -241 ct 314 -216 326 -183 326 -143 ct p ef
pom
pum
8552 9687 t
48 0 m  48 -47 l  160 -47 l  160 -384 l  61 -314 l  61 -366 l  164 -438 l 
216 -438 l  216 -47 l  322 -47 l  322 0 l  48 0 l  p ef
383 0 m  383 -39 l  393 -64 406 -85 422 -104 ct 437 -122 453 -139 469 -154 ct 
486 -169 503 -183 519 -196 ct 536 -208 550 -221 564 -234 ct 577 -247 588 -260 596 -274 ct 
604 -289 608 -304 608 -322 ct 608 -346 601 -365 587 -378 ct 573 -391 553 -398 528 -398 ct 
505 -398 485 -392 470 -379 ct 454 -366 445 -348 442 -324 ct 385 -329 l  390 -364 404 -392 430 -413 ct 
455 -434 488 -444 528 -444 ct 572 -444 606 -434 630 -413 ct 654 -392 665 -362 665 -324 ct 
665 -307 662 -290 654 -274 ct 646 -257 634 -240 619 -223 ct 604 -206 575 -180 531 -145 ct 
508 -126 489 -108 475 -93 ct 461 -77 451 -62 444 -47 ct 672 -47 l  672 0 l  383 0 l 
p ef
pom
pum
12493 6087 t
48 0 m  48 -47 l  160 -47 l  160 -384 l  61 -314 l  61 -366 l  164 -438 l 
216 -438 l  216 -47 l  322 -47 l  322 0 l  48 0 l  p ef
677 -143 m  677 -96 664 -60 636 -34 ct 609 -7 571 6 522 6 ct 482 6 449 -3 424 -21 ct 
399 -38 383 -64 376 -98 ct 433 -104 l  445 -61 475 -40 524 -40 ct 554 -40 577 -49 594 -67 ct 
611 -85 620 -110 620 -141 ct 620 -169 611 -191 594 -208 ct 577 -225 554 -233 525 -233 ct 
510 -233 496 -231 483 -226 ct 470 -221 457 -213 444 -202 ct 389 -202 l  404 -437 l 
652 -437 l  652 -390 l  455 -390 l  446 -251 l  470 -270 500 -279 536 -279 ct 
579 -279 614 -266 639 -241 ct 665 -216 677 -183 677 -143 ct p ef
pom
pum
6452 5387 t
48 0 m  48 -47 l  160 -47 l  160 -384 l  61 -314 l  61 -366 l  164 -438 l 
216 -438 l  216 -47 l  322 -47 l  322 0 l  48 0 l  p ef
672 -392 m  628 -324 596 -270 578 -232 ct 559 -193 545 -155 536 -117 ct 527 -79 522 -40 522 0 ct 
464 0 l  464 -56 476 -115 500 -177 ct 523 -238 563 -309 618 -390 ct 384 -390 l 
384 -437 l  672 -437 l  672 -392 l  p ef
pom
gs
249.98133 lw 1 lj 4212 8168 m  4559 8168 4825 8411 4825 8730 ct 4825 9049 4559 9293 4212 9293 ct 
3865 9293 3600 9049 3600 8730 ct 3600 8411 3865 8168 4212 8168 ct pc
gr
gs
249.98133 lw 1 lj 3600 8168 m  3600 8168 l  pc
gr
gs
249.98133 lw 1 lj 4826 9294 m  4826 9294 l  pc
gr
pum
4038 8893 t
48 0 m  48 -47 l  160 -47 l  160 -384 l  61 -314 l  61 -366 l  164 -438 l 
216 -438 l  216 -47 l  322 -47 l  322 0 l  48 0 l  p ef
pom
gs
249.98133 lw 1 lj 9987 8687 m  10334 8687 10600 8930 10600 9249 ct 10600 9567 10334 9811 9987 9811 ct 
9640 9811 9375 9567 9375 9249 ct 9375 8930 9640 8687 9987 8687 ct pc
gr
gs
249.98133 lw 1 lj 9375 8687 m  9375 8687 l  pc
gr
gs
249.98133 lw 1 lj 10601 9812 m  10601 9812 l  pc
gr
pum
9813 9412 t
32 0 m  32 -39 l  42 -64 55 -85 71 -104 ct 86 -122 102 -139 118 -154 ct 135 -169 152 -183 168 -196 ct 
185 -208 199 -221 213 -234 ct 226 -247 237 -260 245 -274 ct 253 -289 257 -304 257 -322 ct 
257 -346 250 -365 236 -378 ct 222 -391 202 -398 177 -398 ct 154 -398 134 -392 119 -379 ct 
103 -366 94 -348 91 -324 ct 34 -329 l  39 -364 53 -392 79 -413 ct 104 -434 137 -444 177 -444 ct 
221 -444 255 -434 279 -413 ct 303 -392 314 -362 314 -324 ct 314 -307 311 -290 303 -274 ct 
295 -257 283 -240 268 -223 ct 253 -206 224 -180 180 -145 ct 157 -126 138 -108 124 -93 ct 
110 -77 100 -62 93 -47 ct 321 -47 l  321 0 l  32 0 l  p ef
pom
gs
249.98133 lw 1 lj 6662 12061 m  7009 12061 7275 12305 7275 12623 ct 7275 12941 7009 13185 6662 13185 ct 
6315 13185 6050 12941 6050 12623 ct 6050 12305 6315 12061 6662 12061 ct pc
gr
gs
249.98133 lw 1 lj 6050 12061 m  6050 12061 l  pc
gr
gs
249.98133 lw 1 lj 7276 13186 m  7276 13186 l  pc
gr
pum
6488 12787 t
273 -99 m  273 0 l  220 0 l  220 -99 l  15 -99 l  15 -142 l  215 -438 l 
273 -438 l  273 -143 l  335 -143 l  335 -99 l  273 -99 l  p
220 -374 m  220 -373 217 -368 212 -358 ct 206 -348 202 -341 200 -338 ct 88 -172 l 
71 -149 l  66 -143 l  220 -143 l  220 -374 l  p ef
pom
gs
249.98133 lw 1 lj 7537 5400 m  7884 5400 8150 5643 8150 5962 ct 8150 6281 7884 6525 7537 6525 ct 
7190 6525 6925 6281 6925 5962 ct 6925 5643 7190 5400 7537 5400 ct pc
gr
gs
249.98133 lw 1 lj 6925 5400 m  6925 5400 l  pc
gr
gs
249.98133 lw 1 lj 8151 6526 m  8151 6526 l  pc
gr
pum
7363 6125 t
325 -121 m  325 -81 312 -49 287 -27 ct 261 -5 225 6 177 6 ct 133 6 98 -4 71 -24 ct 
45 -44 29 -73 24 -113 ct 82 -118 l  89 -66 121 -40 177 -40 ct 205 -40 227 -47 243 -61 ct 
259 -75 267 -96 267 -123 ct 267 -147 258 -165 240 -179 ct 222 -192 195 -199 161 -199 ct 
129 -199 l  129 -247 l  159 -247 l  190 -247 214 -254 231 -267 ct 247 -280 256 -299 256 -322 ct 
256 -346 249 -364 235 -378 ct 221 -391 201 -398 174 -398 ct 149 -398 129 -392 114 -379 ct 
99 -367 90 -349 88 -326 ct 32 -330 l  36 -366 51 -394 76 -414 ct 102 -434 134 -444 175 -444 ct 
218 -444 252 -434 277 -413 ct 301 -393 313 -365 313 -328 ct 313 -300 305 -278 290 -260 ct 
274 -243 251 -231 222 -225 ct 222 -223 l  254 -220 280 -209 298 -191 ct 316 -172 325 -149 325 -121 ct 
p ef
pom
gs
249.98133 lw 1 lj 10512 11369 m  10859 11369 11125 11613 11125 11931 ct 
11125 12249 10859 12493 10512 12493 ct 10165 12493 9900 12249 9900 11931 ct 
9900 11613 10165 11369 10512 11369 ct pc
gr
gs
249.98133 lw 1 lj 9900 11369 m  9900 11369 l  pc
gr
gs
249.98133 lw 1 lj 11126 12494 m  11126 12494 l  pc
gr
pum
10338 12095 t
325 -143 m  325 -97 313 -61 288 -34 ct 263 -7 228 6 184 6 ct 135 6 97 -12 71 -49 ct 
45 -86 32 -139 32 -209 ct 32 -284 46 -343 73 -383 ct 100 -424 139 -444 189 -444 ct 
254 -444 296 -414 313 -355 ct 260 -345 l  249 -381 225 -399 188 -399 ct 156 -399 131 -384 114 -354 ct 
96 -324 88 -282 88 -225 ct 98 -244 112 -258 131 -268 ct 149 -278 170 -283 194 -283 ct 
234 -283 266 -270 290 -245 ct 313 -220 325 -186 325 -143 ct p
269 -141 m  269 -173 261 -197 245 -214 ct 230 -231 208 -240 180 -240 ct 154 -240 133 -232 117 -217 ct 
101 -202 93 -181 93 -154 ct 93 -120 102 -93 118 -71 ct 135 -50 156 -39 182 -39 ct 
209 -39 230 -48 246 -66 ct 261 -84 269 -109 269 -141 ct p ef
pom
gs
249.98133 lw 1 lj 11562 5747 m  11909 5747 12175 5991 12175 6309 ct 12175 6627 11909 6871 11562 6871 ct 
11215 6871 10950 6627 10950 6309 ct 10950 5991 11215 5747 11562 5747 ct pc
gr
gs
249.98133 lw 1 lj 10950 5747 m  10950 5747 l  pc
gr
gs
249.98133 lw 1 lj 12176 6872 m  12176 6872 l  pc
gr
pum
11388 6472 t
326 -143 m  326 -96 313 -60 285 -34 ct 258 -7 220 6 171 6 ct 131 6 98 -3 73 -21 ct 
48 -38 32 -64 25 -98 ct 82 -104 l  94 -61 124 -40 173 -40 ct 203 -40 226 -49 243 -67 ct 
260 -85 269 -110 269 -141 ct 269 -169 260 -191 243 -208 ct 226 -225 203 -233 174 -233 ct 
159 -233 145 -231 132 -226 ct 119 -221 106 -213 93 -202 ct 38 -202 l  53 -437 l 
301 -437 l  301 -390 l  104 -390 l  95 -251 l  119 -270 149 -279 185 -279 ct 
228 -279 263 -266 288 -241 ct 314 -216 326 -183 326 -143 ct p ef
pom
gs
0 lw 1 lj 4647 8333 m  7105 6362 l  ps
gr
gs
0 lw 1 lj 4647 9130 m  6230 12225 l  ps
gr
gs
0 lw 1 lj 4826 8732 m  11130 6707 l  ps
gr
gs
0 lw 1 lj [ 26.94999 457 ] 0 ld
8151 5964 m  10951 6309 l  ps
gr
gs
0 lw 1 lj 7276 12623 m  10080 12329 l  ps
gr
gs
0 lw 1 lj 10514 11369 m  9989 9812 l  ps
gr
gs
0 lw 1 lj [ 26.94999 457 ] 0 ld
9989 8688 m  11564 6871 l  ps
gr
gs
0 lw 1 lj [ 26.94999 457 ] 0 ld
11126 11931 m  11997 6707 l  ps
gr
pum
5030 11052 t
326 -143 m  326 -96 313 -60 285 -34 ct 258 -7 220 6 171 6 ct 131 6 98 -3 73 -21 ct 
48 -38 32 -64 25 -98 ct 82 -104 l  94 -61 124 -40 173 -40 ct 203 -40 226 -49 243 -67 ct 
260 -85 269 -110 269 -141 ct 269 -169 260 -191 243 -208 ct 226 -225 203 -233 174 -233 ct 
159 -233 145 -231 132 -226 ct 119 -221 106 -213 93 -202 ct 38 -202 l  53 -437 l 
301 -437 l  301 -390 l  104 -390 l  95 -251 l  119 -270 149 -279 185 -279 ct 
228 -279 263 -266 288 -241 ct 314 -216 326 -183 326 -143 ct p ef
pom
pum
8443 13128 t
273 -99 m  273 0 l  220 0 l  220 -99 l  15 -99 l  15 -142 l  215 -438 l 
273 -438 l  273 -143 l  335 -143 l  335 -99 l  273 -99 l  p
220 -374 m  220 -373 217 -368 212 -358 ct 206 -348 202 -341 200 -338 ct 88 -172 l 
71 -149 l  66 -143 l  220 -143 l  220 -374 l  p ef
pom
pum
7873 8371 t
48 0 m  48 -47 l  160 -47 l  160 -384 l  61 -314 l  61 -366 l  164 -438 l 
216 -438 l  216 -47 l  322 -47 l  322 0 l  48 0 l  p ef
677 -143 m  677 -96 664 -60 636 -34 ct 609 -7 571 6 522 6 ct 482 6 449 -3 424 -21 ct 
399 -38 383 -64 376 -98 ct 433 -104 l  445 -61 475 -40 524 -40 ct 554 -40 577 -49 594 -67 ct 
611 -85 620 -110 620 -141 ct 620 -169 611 -191 594 -208 ct 577 -225 554 -233 525 -233 ct 
510 -233 496 -231 483 -226 ct 470 -221 457 -213 444 -202 ct 389 -202 l  404 -437 l 
652 -437 l  652 -390 l  455 -390 l  446 -251 l  470 -270 500 -279 536 -279 ct 
579 -279 614 -266 639 -241 ct 665 -216 677 -183 677 -143 ct p ef
pom
pum
5423 7246 t
48 0 m  48 -47 l  160 -47 l  160 -384 l  61 -314 l  61 -366 l  164 -438 l 
216 -438 l  216 -47 l  322 -47 l  322 0 l  48 0 l  p ef
672 -392 m  628 -324 596 -270 578 -232 ct 559 -193 545 -155 536 -117 ct 527 -79 522 -40 522 0 ct 
464 0 l  464 -56 476 -115 500 -177 ct 523 -238 563 -309 618 -390 ct 384 -390 l 
384 -437 l  672 -437 l  672 -392 l  p ef
pom
pum
11897 9409 t
32 0 m  32 -39 l  42 -64 55 -85 71 -104 ct 86 -122 102 -139 118 -154 ct 135 -169 152 -183 168 -196 ct 
185 -208 199 -221 213 -234 ct 226 -247 237 -260 245 -274 ct 253 -289 257 -304 257 -322 ct 
257 -346 250 -365 236 -378 ct 222 -391 202 -398 177 -398 ct 154 -398 134 -392 119 -379 ct 
103 -366 94 -348 91 -324 ct 34 -329 l  39 -364 53 -392 79 -413 ct 104 -434 137 -444 177 -444 ct 
221 -444 255 -434 279 -413 ct 303 -392 314 -362 314 -324 ct 314 -307 311 -290 303 -274 ct 
295 -257 283 -240 268 -223 ct 253 -206 224 -180 180 -145 ct 157 -126 138 -108 124 -93 ct 
110 -77 100 -62 93 -47 ct 321 -47 l  321 0 l  32 0 l  p ef
399 0 m  399 -47 l  511 -47 l  511 -384 l  412 -314 l  412 -366 l  515 -438 l 
567 -438 l  567 -47 l  673 -47 l  673 0 l  399 0 l  p ef
pom
pum
10893 8458 t
321 -392 m  277 -324 245 -270 227 -232 ct 208 -193 194 -155 185 -117 ct 176 -79 171 -40 171 0 ct 
113 0 l  113 -56 125 -115 149 -177 ct 172 -238 212 -309 267 -390 ct 33 -390 l 
33 -437 l  321 -437 l  321 -392 l  p ef
pom
pum
9406 6160 t
32 0 m  32 -39 l  42 -64 55 -85 71 -104 ct 86 -122 102 -139 118 -154 ct 135 -169 152 -183 168 -196 ct 
185 -208 199 -221 213 -234 ct 226 -247 237 -260 245 -274 ct 253 -289 257 -304 257 -322 ct 
257 -346 250 -365 236 -378 ct 222 -391 202 -398 177 -398 ct 154 -398 134 -392 119 -379 ct 
103 -366 94 -348 91 -324 ct 34 -329 l  39 -364 53 -392 79 -413 ct 104 -434 137 -444 177 -444 ct 
221 -444 255 -434 279 -413 ct 303 -392 314 -362 314 -324 ct 314 -307 311 -290 303 -274 ct 
295 -257 283 -240 268 -223 ct 253 -206 224 -180 180 -145 ct 157 -126 138 -108 124 -93 ct 
110 -77 100 -62 93 -47 ct 321 -47 l  321 0 l  32 0 l  p ef
pom
pum
9889 10831 t
325 -121 m  325 -81 312 -49 287 -27 ct 261 -5 225 6 177 6 ct 133 6 98 -4 71 -24 ct 
45 -44 29 -73 24 -113 ct 82 -118 l  89 -66 121 -40 177 -40 ct 205 -40 227 -47 243 -61 ct 
259 -75 267 -96 267 -123 ct 267 -147 258 -165 240 -179 ct 222 -192 195 -199 161 -199 ct 
129 -199 l  129 -247 l  159 -247 l  190 -247 214 -254 231 -267 ct 247 -280 256 -299 256 -322 ct 
256 -346 249 -364 235 -378 ct 221 -391 201 -398 174 -398 ct 149 -398 129 -392 114 -379 ct 
99 -367 90 -349 88 -326 ct 32 -330 l  36 -366 51 -394 76 -414 ct 102 -434 134 -444 175 -444 ct 
218 -444 252 -434 277 -413 ct 301 -393 313 -365 313 -328 ct 313 -300 305 -278 290 -260 ct 
274 -243 251 -231 222 -225 ct 222 -223 l  254 -220 280 -209 298 -191 ct 316 -172 325 -149 325 -121 ct 
p ef
pom
pum
3199 8439 t
328 -219 m  328 -146 315 -90 290 -52 ct 264 -13 226 6 176 6 ct 126 6 88 -13 63 -51 ct 
37 -90 25 -146 25 -219 ct 25 -294 37 -350 62 -388 ct 86 -425 125 -444 178 -444 ct 
229 -444 267 -425 292 -387 ct 316 -349 328 -293 328 -219 ct p
272 -219 m  272 -282 264 -328 250 -356 ct 235 -385 211 -399 178 -399 ct 143 -399 119 -385 104 -357 ct 
89 -329 81 -283 81 -219 ct 81 -157 89 -112 104 -83 ct 119 -54 143 -40 176 -40 ct 
209 -40 233 -54 249 -84 ct 264 -113 272 -158 272 -219 ct p ef
pom
pum
10794 12972 t
323 -228 m  323 -153 309 -95 282 -55 ct 255 -14 216 6 165 6 ct 131 6 104 -1 83 -16 ct 
62 -30 48 -53 39 -85 ct 92 -94 l  103 -57 128 -39 166 -39 ct 198 -39 223 -54 240 -84 ct 
258 -114 267 -156 268 -212 ct 260 -193 245 -178 225 -167 ct 205 -156 183 -150 159 -150 ct 
120 -150 89 -163 65 -190 ct 42 -217 30 -253 30 -297 ct 30 -343 43 -379 68 -405 ct 
94 -431 130 -444 175 -444 ct 224 -444 261 -426 286 -390 ct 311 -354 323 -300 323 -228 ct 
p
262 -282 m  262 -317 254 -345 238 -367 ct 222 -388 200 -399 173 -399 ct 146 -399 125 -390 110 -371 ct 
94 -353 87 -328 87 -297 ct 87 -265 94 -240 110 -222 ct 125 -203 146 -194 173 -194 ct 
189 -194 204 -198 218 -205 ct 232 -212 242 -223 250 -236 ct 258 -250 262 -265 262 -282 ct 
p ef
pom
pum
6594 13987 t
326 -143 m  326 -96 313 -60 285 -34 ct 258 -7 220 6 171 6 ct 131 6 98 -3 73 -21 ct 
48 -38 32 -64 25 -98 ct 82 -104 l  94 -61 124 -40 173 -40 ct 203 -40 226 -49 243 -67 ct 
260 -85 269 -110 269 -141 ct 269 -169 260 -191 243 -208 ct 226 -225 203 -233 174 -233 ct 
159 -233 145 -231 132 -226 ct 119 -221 106 -213 93 -202 ct 38 -202 l  53 -437 l 
301 -437 l  301 -390 l  104 -390 l  95 -251 l  119 -270 149 -279 185 -279 ct 
228 -279 263 -266 288 -241 ct 314 -216 326 -183 326 -143 ct p ef
pom
pum
8552 9687 t
48 0 m  48 -47 l  160 -47 l  160 -384 l  61 -314 l  61 -366 l  164 -438 l 
216 -438 l  216 -47 l  322 -47 l  322 0 l  48 0 l  p ef
383 0 m  383 -39 l  393 -64 406 -85 422 -104 ct 437 -122 453 -139 469 -154 ct 
486 -169 503 -183 519 -196 ct 536 -208 550 -221 564 -234 ct 577 -247 588 -260 596 -274 ct 
604 -289 608 -304 608 -322 ct 608 -346 601 -365 587 -378 ct 573 -391 553 -398 528 -398 ct 
505 -398 485 -392 470 -379 ct 454 -366 445 -348 442 -324 ct 385 -329 l  390 -364 404 -392 430 -413 ct 
455 -434 488 -444 528 -444 ct 572 -444 606 -434 630 -413 ct 654 -392 665 -362 665 -324 ct 
665 -307 662 -290 654 -274 ct 646 -257 634 -240 619 -223 ct 604 -206 575 -180 531 -145 ct 
508 -126 489 -108 475 -93 ct 461 -77 451 -62 444 -47 ct 672 -47 l  672 0 l  383 0 l 
p ef
pom
pum
12493 6087 t
48 0 m  48 -47 l  160 -47 l  160 -384 l  61 -314 l  61 -366 l  164 -438 l 
216 -438 l  216 -47 l  322 -47 l  322 0 l  48 0 l  p ef
677 -143 m  677 -96 664 -60 636 -34 ct 609 -7 571 6 522 6 ct 482 6 449 -3 424 -21 ct 
399 -38 383 -64 376 -98 ct 433 -104 l  445 -61 475 -40 524 -40 ct 554 -40 577 -49 594 -67 ct 
611 -85 620 -110 620 -141 ct 620 -169 611 -191 594 -208 ct 577 -225 554 -233 525 -233 ct 
510 -233 496 -231 483 -226 ct 470 -221 457 -213 444 -202 ct 389 -202 l  404 -437 l 
652 -437 l  652 -390 l  455 -390 l  446 -251 l  470 -270 500 -279 536 -279 ct 
579 -279 614 -266 639 -241 ct 665 -216 677 -183 677 -143 ct p ef
pom
pum
6452 5387 t
48 0 m  48 -47 l  160 -47 l  160 -384 l  61 -314 l  61 -366 l  164 -438 l 
216 -438 l  216 -47 l  322 -47 l  322 0 l  48 0 l  p ef
672 -392 m  628 -324 596 -270 578 -232 ct 559 -193 545 -155 536 -117 ct 527 -79 522 -40 522 0 ct 
464 0 l  464 -56 476 -115 500 -177 ct 523 -238 563 -309 618 -390 ct 384 -390 l 
384 -437 l  672 -437 l  672 -392 l  p ef
pom
gs
249.98133 lw 1 lj 16712 8168 m  17059 8168 17325 8411 17325 8730 ct 17325 9049 17059 9293 16712 9293 ct 
16365 9293 16100 9049 16100 8730 ct 16100 8411 16365 8168 16712 8168 ct pc
gr
gs
249.98133 lw 1 lj 16100 8168 m  16100 8168 l  pc
gr
gs
249.98133 lw 1 lj 17326 9294 m  17326 9294 l  pc
gr
pum
16537 8893 t
48 0 m  48 -47 l  160 -47 l  160 -384 l  61 -314 l  61 -366 l  164 -438 l 
216 -438 l  216 -47 l  322 -47 l  322 0 l  48 0 l  p ef
pom
gs
0 lw 1 lj 22487 8687 m  22834 8687 23099 8930 23099 9249 ct 23099 9567 22834 9811 22487 9811 ct 
22140 9811 21875 9567 21875 9249 ct 21875 8930 22140 8687 22487 8687 ct pc
gr
gs
0 lw 1 lj 21875 8687 m  21875 8687 l  pc
gr
gs
0 lw 1 lj 23100 9812 m  23100 9812 l  pc
gr
pum
22312 9412 t
32 0 m  32 -39 l  42 -64 55 -85 71 -104 ct 86 -122 102 -139 118 -154 ct 135 -169 152 -183 168 -196 ct 
185 -208 199 -221 213 -234 ct 226 -247 237 -260 245 -274 ct 253 -289 257 -304 257 -322 ct 
257 -346 250 -365 236 -378 ct 222 -391 202 -398 177 -398 ct 154 -398 134 -392 119 -379 ct 
103 -366 94 -348 91 -324 ct 34 -329 l  39 -364 53 -392 79 -413 ct 104 -434 137 -444 177 -444 ct 
221 -444 255 -434 279 -413 ct 303 -392 314 -362 314 -324 ct 314 -307 311 -290 303 -274 ct 
295 -257 283 -240 268 -223 ct 253 -206 224 -180 180 -145 ct 157 -126 138 -108 124 -93 ct 
110 -77 100 -62 93 -47 ct 321 -47 l  321 0 l  32 0 l  p ef
pom
gs
249.98133 lw 1 lj 19162 12061 m  19509 12061 19775 12305 19775 12623 ct 
19775 12941 19509 13185 19162 13185 ct 18815 13185 18550 12941 18550 12623 ct 
18550 12305 18815 12061 19162 12061 ct pc
gr
gs
249.98133 lw 1 lj 18550 12061 m  18550 12061 l  pc
gr
gs
249.98133 lw 1 lj 19776 13186 m  19776 13186 l  pc
gr
pum
18987 12787 t
273 -99 m  273 0 l  220 0 l  220 -99 l  15 -99 l  15 -142 l  215 -438 l 
273 -438 l  273 -143 l  335 -143 l  335 -99 l  273 -99 l  p
220 -374 m  220 -373 217 -368 212 -358 ct 206 -348 202 -341 200 -338 ct 88 -172 l 
71 -149 l  66 -143 l  220 -143 l  220 -374 l  p ef
pom
gs
0 lw 1 lj 20037 5400 m  20384 5400 20650 5643 20650 5962 ct 20650 6281 20384 6525 20037 6525 ct 
19690 6525 19425 6281 19425 5962 ct 19425 5643 19690 5400 20037 5400 ct pc
gr
gs
0 lw 1 lj 19425 5400 m  19425 5400 l  pc
gr
gs
0 lw 1 lj 20651 6526 m  20651 6526 l  pc
gr
pum
19862 6125 t
325 -121 m  325 -81 312 -49 287 -27 ct 261 -5 225 6 177 6 ct 133 6 98 -4 71 -24 ct 
45 -44 29 -73 24 -113 ct 82 -118 l  89 -66 121 -40 177 -40 ct 205 -40 227 -47 243 -61 ct 
259 -75 267 -96 267 -123 ct 267 -147 258 -165 240 -179 ct 222 -192 195 -199 161 -199 ct 
129 -199 l  129 -247 l  159 -247 l  190 -247 214 -254 231 -267 ct 247 -280 256 -299 256 -322 ct 
256 -346 249 -364 235 -378 ct 221 -391 201 -398 174 -398 ct 149 -398 129 -392 114 -379 ct 
99 -367 90 -349 88 -326 ct 32 -330 l  36 -366 51 -394 76 -414 ct 102 -434 134 -444 175 -444 ct 
218 -444 252 -434 277 -413 ct 301 -393 313 -365 313 -328 ct 313 -300 305 -278 290 -260 ct 
274 -243 251 -231 222 -225 ct 222 -223 l  254 -220 280 -209 298 -191 ct 316 -172 325 -149 325 -121 ct 
p ef
pom
gs
249.98133 lw 1 lj 23011 11369 m  23358 11369 23624 11613 23624 11931 ct 
23624 12249 23358 12493 23011 12493 ct 22665 12493 22400 12249 22400 11931 ct 
22400 11613 22665 11369 23011 11369 ct pc
gr
gs
249.98133 lw 1 lj 22400 11369 m  22400 11369 l  pc
gr
gs
249.98133 lw 1 lj 23625 12494 m  23625 12494 l  pc
gr
pum
22837 12095 t
325 -143 m  325 -97 313 -61 288 -34 ct 263 -7 228 6 184 6 ct 135 6 97 -12 71 -49 ct 
45 -86 32 -139 32 -209 ct 32 -284 46 -343 73 -383 ct 100 -424 139 -444 189 -444 ct 
254 -444 296 -414 313 -355 ct 260 -345 l  249 -381 225 -399 188 -399 ct 156 -399 131 -384 114 -354 ct 
96 -324 88 -282 88 -225 ct 98 -244 112 -258 131 -268 ct 149 -278 170 -283 194 -283 ct 
234 -283 266 -270 290 -245 ct 313 -220 325 -186 325 -143 ct p
269 -141 m  269 -173 261 -197 245 -214 ct 230 -231 208 -240 180 -240 ct 154 -240 133 -232 117 -217 ct 
101 -202 93 -181 93 -154 ct 93 -120 102 -93 118 -71 ct 135 -50 156 -39 182 -39 ct 
209 -39 230 -48 246 -66 ct 261 -84 269 -109 269 -141 ct p ef
pom
gs
0 lw 1 lj 24061 5747 m  24408 5747 24674 5991 24674 6309 ct 24674 6627 24408 6871 24061 6871 ct 
23714 6871 23449 6627 23449 6309 ct 23449 5991 23714 5747 24061 5747 ct pc
gr
gs
0 lw 1 lj 23449 5747 m  23449 5747 l  pc
gr
gs
0 lw 1 lj 24675 6872 m  24675 6872 l  pc
gr
pum
23887 6472 t
326 -143 m  326 -96 313 -60 285 -34 ct 258 -7 220 6 171 6 ct 131 6 98 -3 73 -21 ct 
48 -38 32 -64 25 -98 ct 82 -104 l  94 -61 124 -40 173 -40 ct 203 -40 226 -49 243 -67 ct 
260 -85 269 -110 269 -141 ct 269 -169 260 -191 243 -208 ct 226 -225 203 -233 174 -233 ct 
159 -233 145 -231 132 -226 ct 119 -221 106 -213 93 -202 ct 38 -202 l  53 -437 l 
301 -437 l  301 -390 l  104 -390 l  95 -251 l  119 -270 149 -279 185 -279 ct 
228 -279 263 -266 288 -241 ct 314 -216 326 -183 326 -143 ct p ef
pom
gs
0 lw 1 lj [ 26.94999 457 ] 0 ld
17147 8333 m  19605 6362 l  ps
gr
gs
0 lw 1 lj 17147 9130 m  18730 12225 l  ps
gr
gs
0 lw 1 lj 17326 8732 m  23629 6707 l  ps
gr
gs
0 lw 1 lj [ 26.94999 457 ] 0 ld
20651 5964 m  23450 6309 l  ps
gr
gs
0 lw 1 lj 19776 12623 m  22580 12329 l  ps
gr
gs
0 lw 1 lj 23013 11369 m  22489 9812 l  ps
gr
gs
0 lw 1 lj [ 26.94999 457 ] 0 ld
22489 8688 m  24063 6871 l  ps
gr
gs
0 lw 1 lj [ 26.94999 457 ] 0 ld
23625 11931 m  24496 6707 l  ps
gr
pum
17529 11052 t
326 -143 m  326 -96 313 -60 285 -34 ct 258 -7 220 6 171 6 ct 131 6 98 -3 73 -21 ct 
48 -38 32 -64 25 -98 ct 82 -104 l  94 -61 124 -40 173 -40 ct 203 -40 226 -49 243 -67 ct 
260 -85 269 -110 269 -141 ct 269 -169 260 -191 243 -208 ct 226 -225 203 -233 174 -233 ct 
159 -233 145 -231 132 -226 ct 119 -221 106 -213 93 -202 ct 38 -202 l  53 -437 l 
301 -437 l  301 -390 l  104 -390 l  95 -251 l  119 -270 149 -279 185 -279 ct 
228 -279 263 -266 288 -241 ct 314 -216 326 -183 326 -143 ct p ef
pom
pum
20942 13128 t
273 -99 m  273 0 l  220 0 l  220 -99 l  15 -99 l  15 -142 l  215 -438 l 
273 -438 l  273 -143 l  335 -143 l  335 -99 l  273 -99 l  p
220 -374 m  220 -373 217 -368 212 -358 ct 206 -348 202 -341 200 -338 ct 88 -172 l 
71 -149 l  66 -143 l  220 -143 l  220 -374 l  p ef
pom
pum
20372 8371 t
48 0 m  48 -47 l  160 -47 l  160 -384 l  61 -314 l  61 -366 l  164 -438 l 
216 -438 l  216 -47 l  322 -47 l  322 0 l  48 0 l  p ef
677 -143 m  677 -96 664 -60 636 -34 ct 609 -7 571 6 522 6 ct 482 6 449 -3 424 -21 ct 
399 -38 383 -64 376 -98 ct 433 -104 l  445 -61 475 -40 524 -40 ct 554 -40 577 -49 594 -67 ct 
611 -85 620 -110 620 -141 ct 620 -169 611 -191 594 -208 ct 577 -225 554 -233 525 -233 ct 
510 -233 496 -231 483 -226 ct 470 -221 457 -213 444 -202 ct 389 -202 l  404 -437 l 
652 -437 l  652 -390 l  455 -390 l  446 -251 l  470 -270 500 -279 536 -279 ct 
579 -279 614 -266 639 -241 ct 665 -216 677 -183 677 -143 ct p ef
pom
pum
17922 7246 t
48 0 m  48 -47 l  160 -47 l  160 -384 l  61 -314 l  61 -366 l  164 -438 l 
216 -438 l  216 -47 l  322 -47 l  322 0 l  48 0 l  p ef
672 -392 m  628 -324 596 -270 578 -232 ct 559 -193 545 -155 536 -117 ct 527 -79 522 -40 522 0 ct 
464 0 l  464 -56 476 -115 500 -177 ct 523 -238 563 -309 618 -390 ct 384 -390 l 
384 -437 l  672 -437 l  672 -392 l  p ef
pom
pum
24397 9409 t
32 0 m  32 -39 l  42 -64 55 -85 71 -104 ct 86 -122 102 -139 118 -154 ct 135 -169 152 -183 168 -196 ct 
185 -208 199 -221 213 -234 ct 226 -247 237 -260 245 -274 ct 253 -289 257 -304 257 -322 ct 
257 -346 250 -365 236 -378 ct 222 -391 202 -398 177 -398 ct 154 -398 134 -392 119 -379 ct 
103 -366 94 -348 91 -324 ct 34 -329 l  39 -364 53 -392 79 -413 ct 104 -434 137 -444 177 -444 ct 
221 -444 255 -434 279 -413 ct 303 -392 314 -362 314 -324 ct 314 -307 311 -290 303 -274 ct 
295 -257 283 -240 268 -223 ct 253 -206 224 -180 180 -145 ct 157 -126 138 -108 124 -93 ct 
110 -77 100 -62 93 -47 ct 321 -47 l  321 0 l  32 0 l  p ef
399 0 m  399 -47 l  511 -47 l  511 -384 l  412 -314 l  412 -366 l  515 -438 l 
567 -438 l  567 -47 l  673 -47 l  673 0 l  399 0 l  p ef
pom
pum
23392 8458 t
321 -392 m  277 -324 245 -270 227 -232 ct 208 -193 194 -155 185 -117 ct 176 -79 171 -40 171 0 ct 
113 0 l  113 -56 125 -115 149 -177 ct 172 -238 212 -309 267 -390 ct 33 -390 l 
33 -437 l  321 -437 l  321 -392 l  p ef
pom
pum
21905 6160 t
32 0 m  32 -39 l  42 -64 55 -85 71 -104 ct 86 -122 102 -139 118 -154 ct 135 -169 152 -183 168 -196 ct 
185 -208 199 -221 213 -234 ct 226 -247 237 -260 245 -274 ct 253 -289 257 -304 257 -322 ct 
257 -346 250 -365 236 -378 ct 222 -391 202 -398 177 -398 ct 154 -398 134 -392 119 -379 ct 
103 -366 94 -348 91 -324 ct 34 -329 l  39 -364 53 -392 79 -413 ct 104 -434 137 -444 177 -444 ct 
221 -444 255 -434 279 -413 ct 303 -392 314 -362 314 -324 ct 314 -307 311 -290 303 -274 ct 
295 -257 283 -240 268 -223 ct 253 -206 224 -180 180 -145 ct 157 -126 138 -108 124 -93 ct 
110 -77 100 -62 93 -47 ct 321 -47 l  321 0 l  32 0 l  p ef
pom
pum
22388 10831 t
325 -121 m  325 -81 312 -49 287 -27 ct 261 -5 225 6 177 6 ct 133 6 98 -4 71 -24 ct 
45 -44 29 -73 24 -113 ct 82 -118 l  89 -66 121 -40 177 -40 ct 205 -40 227 -47 243 -61 ct 
259 -75 267 -96 267 -123 ct 267 -147 258 -165 240 -179 ct 222 -192 195 -199 161 -199 ct 
129 -199 l  129 -247 l  159 -247 l  190 -247 214 -254 231 -267 ct 247 -280 256 -299 256 -322 ct 
256 -346 249 -364 235 -378 ct 221 -391 201 -398 174 -398 ct 149 -398 129 -392 114 -379 ct 
99 -367 90 -349 88 -326 ct 32 -330 l  36 -366 51 -394 76 -414 ct 102 -434 134 -444 175 -444 ct 
218 -444 252 -434 277 -413 ct 301 -393 313 -365 313 -328 ct 313 -300 305 -278 290 -260 ct 
274 -243 251 -231 222 -225 ct 222 -223 l  254 -220 280 -209 298 -191 ct 316 -172 325 -149 325 -121 ct 
p ef
pom
pum
15698 8439 t
328 -219 m  328 -146 315 -90 290 -52 ct 264 -13 226 6 176 6 ct 126 6 88 -13 63 -51 ct 
37 -90 25 -146 25 -219 ct 25 -294 37 -350 62 -388 ct 86 -425 125 -444 178 -444 ct 
229 -444 267 -425 292 -387 ct 316 -349 328 -293 328 -219 ct p
272 -219 m  272 -282 264 -328 250 -356 ct 235 -385 211 -399 178 -399 ct 143 -399 119 -385 104 -357 ct 
89 -329 81 -283 81 -219 ct 81 -157 89 -112 104 -83 ct 119 -54 143 -40 176 -40 ct 
209 -40 233 -54 249 -84 ct 264 -113 272 -158 272 -219 ct p ef
pom
pum
23293 12972 t
323 -228 m  323 -153 309 -95 282 -55 ct 255 -14 216 6 165 6 ct 131 6 104 -1 83 -16 ct 
62 -30 48 -53 39 -85 ct 92 -94 l  103 -57 128 -39 166 -39 ct 198 -39 223 -54 240 -84 ct 
258 -114 267 -156 268 -212 ct 260 -193 245 -178 225 -167 ct 205 -156 183 -150 159 -150 ct 
120 -150 89 -163 65 -190 ct 42 -217 30 -253 30 -297 ct 30 -343 43 -379 68 -405 ct 
94 -431 130 -444 175 -444 ct 224 -444 261 -426 286 -390 ct 311 -354 323 -300 323 -228 ct 
p
262 -282 m  262 -317 254 -345 238 -367 ct 222 -388 200 -399 173 -399 ct 146 -399 125 -390 110 -371 ct 
94 -353 87 -328 87 -297 ct 87 -265 94 -240 110 -222 ct 125 -203 146 -194 173 -194 ct 
189 -194 204 -198 218 -205 ct 232 -212 242 -223 250 -236 ct 258 -250 262 -265 262 -282 ct 
p ef
pom
pum
19093 13987 t
326 -143 m  326 -96 313 -60 285 -34 ct 258 -7 220 6 171 6 ct 131 6 98 -3 73 -21 ct 
48 -38 32 -64 25 -98 ct 82 -104 l  94 -61 124 -40 173 -40 ct 203 -40 226 -49 243 -67 ct 
260 -85 269 -110 269 -141 ct 269 -169 260 -191 243 -208 ct 226 -225 203 -233 174 -233 ct 
159 -233 145 -231 132 -226 ct 119 -221 106 -213 93 -202 ct 38 -202 l  53 -437 l 
301 -437 l  301 -390 l  104 -390 l  95 -251 l  119 -270 149 -279 185 -279 ct 
228 -279 263 -266 288 -241 ct 314 -216 326 -183 326 -143 ct p ef
pom
pum
21051 9687 t
48 0 m  48 -47 l  160 -47 l  160 -384 l  61 -314 l  61 -366 l  164 -438 l 
216 -438 l  216 -47 l  322 -47 l  322 0 l  48 0 l  p ef
383 0 m  383 -39 l  393 -64 406 -85 422 -104 ct 437 -122 453 -139 469 -154 ct 
486 -169 503 -183 519 -196 ct 536 -208 550 -221 564 -234 ct 577 -247 588 -260 596 -274 ct 
604 -289 608 -304 608 -322 ct 608 -346 601 -365 587 -378 ct 573 -391 553 -398 528 -398 ct 
505 -398 485 -392 470 -379 ct 454 -366 445 -348 442 -324 ct 385 -329 l  390 -364 404 -392 430 -413 ct 
455 -434 488 -444 528 -444 ct 572 -444 606 -434 630 -413 ct 654 -392 665 -362 665 -324 ct 
665 -307 662 -290 654 -274 ct 646 -257 634 -240 619 -223 ct 604 -206 575 -180 531 -145 ct 
508 -126 489 -108 475 -93 ct 461 -77 451 -62 444 -47 ct 672 -47 l  672 0 l  383 0 l 
p ef
pom
pum
24993 6087 t
48 0 m  48 -47 l  160 -47 l  160 -384 l  61 -314 l  61 -366 l  164 -438 l 
216 -438 l  216 -47 l  322 -47 l  322 0 l  48 0 l  p ef
677 -143 m  677 -96 664 -60 636 -34 ct 609 -7 571 6 522 6 ct 482 6 449 -3 424 -21 ct 
399 -38 383 -64 376 -98 ct 433 -104 l  445 -61 475 -40 524 -40 ct 554 -40 577 -49 594 -67 ct 
611 -85 620 -110 620 -141 ct 620 -169 611 -191 594 -208 ct 577 -225 554 -233 525 -233 ct 
510 -233 496 -231 483 -226 ct 470 -221 457 -213 444 -202 ct 389 -202 l  404 -437 l 
652 -437 l  652 -390 l  455 -390 l  446 -251 l  470 -270 500 -279 536 -279 ct 
579 -279 614 -266 639 -241 ct 665 -216 677 -183 677 -143 ct p ef
pom
pum
18951 5387 t
48 0 m  48 -47 l  160 -47 l  160 -384 l  61 -314 l  61 -366 l  164 -438 l 
216 -438 l  216 -47 l  322 -47 l  322 0 l  48 0 l  p ef
672 -392 m  628 -324 596 -270 578 -232 ct 559 -193 545 -155 536 -117 ct 527 -79 522 -40 522 0 ct 
464 0 l  464 -56 476 -115 500 -177 ct 523 -238 563 -309 618 -390 ct 384 -390 l 
384 -437 l  672 -437 l  672 -392 l  p ef
pom
gs
249.98133 lw 1 lj 16712 8168 m  17059 8168 17325 8411 17325 8730 ct 17325 9049 17059 9293 16712 9293 ct 
16365 9293 16100 9049 16100 8730 ct 16100 8411 16365 8168 16712 8168 ct pc
gr
gs
249.98133 lw 1 lj 16100 8168 m  16100 8168 l  pc
gr
gs
249.98133 lw 1 lj 17326 9294 m  17326 9294 l  pc
gr
pum
16537 8893 t
48 0 m  48 -47 l  160 -47 l  160 -384 l  61 -314 l  61 -366 l  164 -438 l 
216 -438 l  216 -47 l  322 -47 l  322 0 l  48 0 l  p ef
pom
gs
249.98133 lw 1 lj 22487 8687 m  22834 8687 23099 8930 23099 9249 ct 23099 9567 22834 9811 22487 9811 ct 
22140 9811 21875 9567 21875 9249 ct 21875 8930 22140 8687 22487 8687 ct pc
gr
gs
249.98133 lw 1 lj 21875 8687 m  21875 8687 l  pc
gr
gs
249.98133 lw 1 lj 23100 9812 m  23100 9812 l  pc
gr
pum
22312 9412 t
32 0 m  32 -39 l  42 -64 55 -85 71 -104 ct 86 -122 102 -139 118 -154 ct 135 -169 152 -183 168 -196 ct 
185 -208 199 -221 213 -234 ct 226 -247 237 -260 245 -274 ct 253 -289 257 -304 257 -322 ct 
257 -346 250 -365 236 -378 ct 222 -391 202 -398 177 -398 ct 154 -398 134 -392 119 -379 ct 
103 -366 94 -348 91 -324 ct 34 -329 l  39 -364 53 -392 79 -413 ct 104 -434 137 -444 177 -444 ct 
221 -444 255 -434 279 -413 ct 303 -392 314 -362 314 -324 ct 314 -307 311 -290 303 -274 ct 
295 -257 283 -240 268 -223 ct 253 -206 224 -180 180 -145 ct 157 -126 138 -108 124 -93 ct 
110 -77 100 -62 93 -47 ct 321 -47 l  321 0 l  32 0 l  p ef
pom
gs
249.98133 lw 1 lj 19162 12061 m  19509 12061 19775 12305 19775 12623 ct 
19775 12941 19509 13185 19162 13185 ct 18815 13185 18550 12941 18550 12623 ct 
18550 12305 18815 12061 19162 12061 ct pc
gr
gs
249.98133 lw 1 lj 18550 12061 m  18550 12061 l  pc
gr
gs
249.98133 lw 1 lj 19776 13186 m  19776 13186 l  pc
gr
pum
18987 12787 t
273 -99 m  273 0 l  220 0 l  220 -99 l  15 -99 l  15 -142 l  215 -438 l 
273 -438 l  273 -143 l  335 -143 l  335 -99 l  273 -99 l  p
220 -374 m  220 -373 217 -368 212 -358 ct 206 -348 202 -341 200 -338 ct 88 -172 l 
71 -149 l  66 -143 l  220 -143 l  220 -374 l  p ef
pom
gs
249.98133 lw 1 lj 20037 5400 m  20384 5400 20650 5643 20650 5962 ct 20650 6281 20384 6525 20037 6525 ct 
19690 6525 19425 6281 19425 5962 ct 19425 5643 19690 5400 20037 5400 ct pc
gr
gs
249.98133 lw 1 lj 19425 5400 m  19425 5400 l  pc
gr
gs
249.98133 lw 1 lj 20651 6526 m  20651 6526 l  pc
gr
pum
19862 6125 t
325 -121 m  325 -81 312 -49 287 -27 ct 261 -5 225 6 177 6 ct 133 6 98 -4 71 -24 ct 
45 -44 29 -73 24 -113 ct 82 -118 l  89 -66 121 -40 177 -40 ct 205 -40 227 -47 243 -61 ct 
259 -75 267 -96 267 -123 ct 267 -147 258 -165 240 -179 ct 222 -192 195 -199 161 -199 ct 
129 -199 l  129 -247 l  159 -247 l  190 -247 214 -254 231 -267 ct 247 -280 256 -299 256 -322 ct 
256 -346 249 -364 235 -378 ct 221 -391 201 -398 174 -398 ct 149 -398 129 -392 114 -379 ct 
99 -367 90 -349 88 -326 ct 32 -330 l  36 -366 51 -394 76 -414 ct 102 -434 134 -444 175 -444 ct 
218 -444 252 -434 277 -413 ct 301 -393 313 -365 313 -328 ct 313 -300 305 -278 290 -260 ct 
274 -243 251 -231 222 -225 ct 222 -223 l  254 -220 280 -209 298 -191 ct 316 -172 325 -149 325 -121 ct 
p ef
pom
gs
249.98133 lw 1 lj 23011 11369 m  23358 11369 23624 11613 23624 11931 ct 
23624 12249 23358 12493 23011 12493 ct 22665 12493 22400 12249 22400 11931 ct 
22400 11613 22665 11369 23011 11369 ct pc
gr
gs
249.98133 lw 1 lj 22400 11369 m  22400 11369 l  pc
gr
gs
249.98133 lw 1 lj 23625 12494 m  23625 12494 l  pc
gr
pum
22837 12095 t
325 -143 m  325 -97 313 -61 288 -34 ct 263 -7 228 6 184 6 ct 135 6 97 -12 71 -49 ct 
45 -86 32 -139 32 -209 ct 32 -284 46 -343 73 -383 ct 100 -424 139 -444 189 -444 ct 
254 -444 296 -414 313 -355 ct 260 -345 l  249 -381 225 -399 188 -399 ct 156 -399 131 -384 114 -354 ct 
96 -324 88 -282 88 -225 ct 98 -244 112 -258 131 -268 ct 149 -278 170 -283 194 -283 ct 
234 -283 266 -270 290 -245 ct 313 -220 325 -186 325 -143 ct p
269 -141 m  269 -173 261 -197 245 -214 ct 230 -231 208 -240 180 -240 ct 154 -240 133 -232 117 -217 ct 
101 -202 93 -181 93 -154 ct 93 -120 102 -93 118 -71 ct 135 -50 156 -39 182 -39 ct 
209 -39 230 -48 246 -66 ct 261 -84 269 -109 269 -141 ct p ef
pom
gs
249.98133 lw 1 lj 24061 5747 m  24408 5747 24674 5991 24674 6309 ct 24674 6627 24408 6871 24061 6871 ct 
23714 6871 23449 6627 23449 6309 ct 23449 5991 23714 5747 24061 5747 ct pc
gr
gs
249.98133 lw 1 lj 23449 5747 m  23449 5747 l  pc
gr
gs
249.98133 lw 1 lj 24675 6872 m  24675 6872 l  pc
gr
pum
23887 6472 t
326 -143 m  326 -96 313 -60 285 -34 ct 258 -7 220 6 171 6 ct 131 6 98 -3 73 -21 ct 
48 -38 32 -64 25 -98 ct 82 -104 l  94 -61 124 -40 173 -40 ct 203 -40 226 -49 243 -67 ct 
260 -85 269 -110 269 -141 ct 269 -169 260 -191 243 -208 ct 226 -225 203 -233 174 -233 ct 
159 -233 145 -231 132 -226 ct 119 -221 106 -213 93 -202 ct 38 -202 l  53 -437 l 
301 -437 l  301 -390 l  104 -390 l  95 -251 l  119 -270 149 -279 185 -279 ct 
228 -279 263 -266 288 -241 ct 314 -216 326 -183 326 -143 ct p ef
pom
gs
0 lw 1 lj 17147 9130 m  18730 12225 l  ps
gr
gs
0 lw 1 lj 17326 8732 m  23629 6707 l  ps
gr
gs
0 lw 1 lj 20651 5964 m  23450 6309 l  ps
gr
gs
0 lw 1 lj 19776 12623 m  22580 12329 l  ps
gr
gs
0 lw 1 lj 23013 11369 m  22489 9812 l  ps
gr
gs
0 lw 1 lj [ 26.94999 457 ] 0 ld
22489 8688 m  24063 6871 l  ps
gr
gs
0 lw 1 lj [ 26.94999 457 ] 0 ld
23625 11931 m  24496 6707 l  ps
gr
pum
17529 11052 t
326 -143 m  326 -96 313 -60 285 -34 ct 258 -7 220 6 171 6 ct 131 6 98 -3 73 -21 ct 
48 -38 32 -64 25 -98 ct 82 -104 l  94 -61 124 -40 173 -40 ct 203 -40 226 -49 243 -67 ct 
260 -85 269 -110 269 -141 ct 269 -169 260 -191 243 -208 ct 226 -225 203 -233 174 -233 ct 
159 -233 145 -231 132 -226 ct 119 -221 106 -213 93 -202 ct 38 -202 l  53 -437 l 
301 -437 l  301 -390 l  104 -390 l  95 -251 l  119 -270 149 -279 185 -279 ct 
228 -279 263 -266 288 -241 ct 314 -216 326 -183 326 -143 ct p ef
pom
pum
20942 13128 t
273 -99 m  273 0 l  220 0 l  220 -99 l  15 -99 l  15 -142 l  215 -438 l 
273 -438 l  273 -143 l  335 -143 l  335 -99 l  273 -99 l  p
220 -374 m  220 -373 217 -368 212 -358 ct 206 -348 202 -341 200 -338 ct 88 -172 l 
71 -149 l  66 -143 l  220 -143 l  220 -374 l  p ef
pom
pum
20372 8371 t
48 0 m  48 -47 l  160 -47 l  160 -384 l  61 -314 l  61 -366 l  164 -438 l 
216 -438 l  216 -47 l  322 -47 l  322 0 l  48 0 l  p ef
677 -143 m  677 -96 664 -60 636 -34 ct 609 -7 571 6 522 6 ct 482 6 449 -3 424 -21 ct 
399 -38 383 -64 376 -98 ct 433 -104 l  445 -61 475 -40 524 -40 ct 554 -40 577 -49 594 -67 ct 
611 -85 620 -110 620 -141 ct 620 -169 611 -191 594 -208 ct 577 -225 554 -233 525 -233 ct 
510 -233 496 -231 483 -226 ct 470 -221 457 -213 444 -202 ct 389 -202 l  404 -437 l 
652 -437 l  652 -390 l  455 -390 l  446 -251 l  470 -270 500 -279 536 -279 ct 
579 -279 614 -266 639 -241 ct 665 -216 677 -183 677 -143 ct p ef
pom
pum
17922 7246 t
48 0 m  48 -47 l  160 -47 l  160 -384 l  61 -314 l  61 -366 l  164 -438 l 
216 -438 l  216 -47 l  322 -47 l  322 0 l  48 0 l  p ef
672 -392 m  628 -324 596 -270 578 -232 ct 559 -193 545 -155 536 -117 ct 527 -79 522 -40 522 0 ct 
464 0 l  464 -56 476 -115 500 -177 ct 523 -238 563 -309 618 -390 ct 384 -390 l 
384 -437 l  672 -437 l  672 -392 l  p ef
pom
pum
24397 9409 t
32 0 m  32 -39 l  42 -64 55 -85 71 -104 ct 86 -122 102 -139 118 -154 ct 135 -169 152 -183 168 -196 ct 
185 -208 199 -221 213 -234 ct 226 -247 237 -260 245 -274 ct 253 -289 257 -304 257 -322 ct 
257 -346 250 -365 236 -378 ct 222 -391 202 -398 177 -398 ct 154 -398 134 -392 119 -379 ct 
103 -366 94 -348 91 -324 ct 34 -329 l  39 -364 53 -392 79 -413 ct 104 -434 137 -444 177 -444 ct 
221 -444 255 -434 279 -413 ct 303 -392 314 -362 314 -324 ct 314 -307 311 -290 303 -274 ct 
295 -257 283 -240 268 -223 ct 253 -206 224 -180 180 -145 ct 157 -126 138 -108 124 -93 ct 
110 -77 100 -62 93 -47 ct 321 -47 l  321 0 l  32 0 l  p ef
399 0 m  399 -47 l  511 -47 l  511 -384 l  412 -314 l  412 -366 l  515 -438 l 
567 -438 l  567 -47 l  673 -47 l  673 0 l  399 0 l  p ef
pom
pum
23392 8458 t
321 -392 m  277 -324 245 -270 227 -232 ct 208 -193 194 -155 185 -117 ct 176 -79 171 -40 171 0 ct 
113 0 l  113 -56 125 -115 149 -177 ct 172 -238 212 -309 267 -390 ct 33 -390 l 
33 -437 l  321 -437 l  321 -392 l  p ef
pom
pum
21905 6160 t
32 0 m  32 -39 l  42 -64 55 -85 71 -104 ct 86 -122 102 -139 118 -154 ct 135 -169 152 -183 168 -196 ct 
185 -208 199 -221 213 -234 ct 226 -247 237 -260 245 -274 ct 253 -289 257 -304 257 -322 ct 
257 -346 250 -365 236 -378 ct 222 -391 202 -398 177 -398 ct 154 -398 134 -392 119 -379 ct 
103 -366 94 -348 91 -324 ct 34 -329 l  39 -364 53 -392 79 -413 ct 104 -434 137 -444 177 -444 ct 
221 -444 255 -434 279 -413 ct 303 -392 314 -362 314 -324 ct 314 -307 311 -290 303 -274 ct 
295 -257 283 -240 268 -223 ct 253 -206 224 -180 180 -145 ct 157 -126 138 -108 124 -93 ct 
110 -77 100 -62 93 -47 ct 321 -47 l  321 0 l  32 0 l  p ef
pom
pum
22388 10831 t
325 -121 m  325 -81 312 -49 287 -27 ct 261 -5 225 6 177 6 ct 133 6 98 -4 71 -24 ct 
45 -44 29 -73 24 -113 ct 82 -118 l  89 -66 121 -40 177 -40 ct 205 -40 227 -47 243 -61 ct 
259 -75 267 -96 267 -123 ct 267 -147 258 -165 240 -179 ct 222 -192 195 -199 161 -199 ct 
129 -199 l  129 -247 l  159 -247 l  190 -247 214 -254 231 -267 ct 247 -280 256 -299 256 -322 ct 
256 -346 249 -364 235 -378 ct 221 -391 201 -398 174 -398 ct 149 -398 129 -392 114 -379 ct 
99 -367 90 -349 88 -326 ct 32 -330 l  36 -366 51 -394 76 -414 ct 102 -434 134 -444 175 -444 ct 
218 -444 252 -434 277 -413 ct 301 -393 313 -365 313 -328 ct 313 -300 305 -278 290 -260 ct 
274 -243 251 -231 222 -225 ct 222 -223 l  254 -220 280 -209 298 -191 ct 316 -172 325 -149 325 -121 ct 
p ef
pom
pum
15698 8439 t
328 -219 m  328 -146 315 -90 290 -52 ct 264 -13 226 6 176 6 ct 126 6 88 -13 63 -51 ct 
37 -90 25 -146 25 -219 ct 25 -294 37 -350 62 -388 ct 86 -425 125 -444 178 -444 ct 
229 -444 267 -425 292 -387 ct 316 -349 328 -293 328 -219 ct p
272 -219 m  272 -282 264 -328 250 -356 ct 235 -385 211 -399 178 -399 ct 143 -399 119 -385 104 -357 ct 
89 -329 81 -283 81 -219 ct 81 -157 89 -112 104 -83 ct 119 -54 143 -40 176 -40 ct 
209 -40 233 -54 249 -84 ct 264 -113 272 -158 272 -219 ct p ef
pom
pum
23293 12972 t
323 -228 m  323 -153 309 -95 282 -55 ct 255 -14 216 6 165 6 ct 131 6 104 -1 83 -16 ct 
62 -30 48 -53 39 -85 ct 92 -94 l  103 -57 128 -39 166 -39 ct 198 -39 223 -54 240 -84 ct 
258 -114 267 -156 268 -212 ct 260 -193 245 -178 225 -167 ct 205 -156 183 -150 159 -150 ct 
120 -150 89 -163 65 -190 ct 42 -217 30 -253 30 -297 ct 30 -343 43 -379 68 -405 ct 
94 -431 130 -444 175 -444 ct 224 -444 261 -426 286 -390 ct 311 -354 323 -300 323 -228 ct 
p
262 -282 m  262 -317 254 -345 238 -367 ct 222 -388 200 -399 173 -399 ct 146 -399 125 -390 110 -371 ct 
94 -353 87 -328 87 -297 ct 87 -265 94 -240 110 -222 ct 125 -203 146 -194 173 -194 ct 
189 -194 204 -198 218 -205 ct 232 -212 242 -223 250 -236 ct 258 -250 262 -265 262 -282 ct 
p ef
pom
pum
19093 13987 t
326 -143 m  326 -96 313 -60 285 -34 ct 258 -7 220 6 171 6 ct 131 6 98 -3 73 -21 ct 
48 -38 32 -64 25 -98 ct 82 -104 l  94 -61 124 -40 173 -40 ct 203 -40 226 -49 243 -67 ct 
260 -85 269 -110 269 -141 ct 269 -169 260 -191 243 -208 ct 226 -225 203 -233 174 -233 ct 
159 -233 145 -231 132 -226 ct 119 -221 106 -213 93 -202 ct 38 -202 l  53 -437 l 
301 -437 l  301 -390 l  104 -390 l  95 -251 l  119 -270 149 -279 185 -279 ct 
228 -279 263 -266 288 -241 ct 314 -216 326 -183 326 -143 ct p ef
pom
pum
21051 9687 t
48 0 m  48 -47 l  160 -47 l  160 -384 l  61 -314 l  61 -366 l  164 -438 l 
216 -438 l  216 -47 l  322 -47 l  322 0 l  48 0 l  p ef
383 0 m  383 -39 l  393 -64 406 -85 422 -104 ct 437 -122 453 -139 469 -154 ct 
486 -169 503 -183 519 -196 ct 536 -208 550 -221 564 -234 ct 577 -247 588 -260 596 -274 ct 
604 -289 608 -304 608 -322 ct 608 -346 601 -365 587 -378 ct 573 -391 553 -398 528 -398 ct 
505 -398 485 -392 470 -379 ct 454 -366 445 -348 442 -324 ct 385 -329 l  390 -364 404 -392 430 -413 ct 
455 -434 488 -444 528 -444 ct 572 -444 606 -434 630 -413 ct 654 -392 665 -362 665 -324 ct 
665 -307 662 -290 654 -274 ct 646 -257 634 -240 619 -223 ct 604 -206 575 -180 531 -145 ct 
508 -126 489 -108 475 -93 ct 461 -77 451 -62 444 -47 ct 672 -47 l  672 0 l  383 0 l 
p ef
pom
pum
24993 6087 t
48 0 m  48 -47 l  160 -47 l  160 -384 l  61 -314 l  61 -366 l  164 -438 l 
216 -438 l  216 -47 l  322 -47 l  322 0 l  48 0 l  p ef
677 -143 m  677 -96 664 -60 636 -34 ct 609 -7 571 6 522 6 ct 482 6 449 -3 424 -21 ct 
399 -38 383 -64 376 -98 ct 433 -104 l  445 -61 475 -40 524 -40 ct 554 -40 577 -49 594 -67 ct 
611 -85 620 -110 620 -141 ct 620 -169 611 -191 594 -208 ct 577 -225 554 -233 525 -233 ct 
510 -233 496 -231 483 -226 ct 470 -221 457 -213 444 -202 ct 389 -202 l  404 -437 l 
652 -437 l  652 -390 l  455 -390 l  446 -251 l  470 -270 500 -279 536 -279 ct 
579 -279 614 -266 639 -241 ct 665 -216 677 -183 677 -143 ct p ef
pom
pum
18951 5387 t
48 0 m  48 -47 l  160 -47 l  160 -384 l  61 -314 l  61 -366 l  164 -438 l 
216 -438 l  216 -47 l  322 -47 l  322 0 l  48 0 l  p ef
672 -392 m  628 -324 596 -270 578 -232 ct 559 -193 545 -155 536 -117 ct 527 -79 522 -40 522 0 ct 
464 0 l  464 -56 476 -115 500 -177 ct 523 -238 563 -309 618 -390 ct 384 -390 l 
384 -437 l  672 -437 l  672 -392 l  p ef
pom
0 9448 t 
pom
count op_count sub {pop} repeat countdictstack dict_count sub {end} repeat b4_inc_state restore
%%PageTrailer
%%Trailer
%%EOF
