%!PS-Adobe-3.0 EPSF-3.0 
%%BoundingBox: 0 0 641 269
%%Pages: 0
%%Creator: LibreOffice 5.4
%%Title: none
%%CreationDate: none
%%LanguageLevel: 2
%%EndComments
%%BeginProlog
%%BeginResource: procset SDRes-Prolog 1.0 0
/b4_inc_state save def
/dict_count countdictstack def
/op_count count 1 sub def
userdict begin
0 setgray 0 setlinecap 1 setlinewidth 0 setlinejoin 10 setmiterlimit[] 0 setdash newpath
/languagelevel where {pop languagelevel 1 ne {false setstrokeadjust false setoverprint} if} if
/bdef {bind def} bind def
/c {setgray} bdef
/l {neg lineto} bdef
/rl {neg rlineto} bdef
/lc {setlinecap} bdef
/lj {setlinejoin} bdef
/lw {setlinewidth} bdef
/ml {setmiterlimit} bdef
/ld {setdash} bdef
/m {neg moveto} bdef
/ct {6 2 roll neg 6 2 roll neg 6 2 roll neg curveto} bdef
/r {rotate} bdef
/t {neg translate} bdef
/s {scale} bdef
/sw {show} bdef
/gs {gsave} bdef
/gr {grestore} bdef
/f {findfont dup length dict begin
{1 index /FID ne {def} {pop pop} ifelse} forall /Encoding ISOLatin1Encoding def
currentdict end /NFont exch definefont pop /NFont findfont} bdef
/p {closepath} bdef
/sf {scalefont setfont} bdef
/ef {eofill}bdef
/pc {closepath stroke}bdef
/ps {stroke}bdef
/pum {matrix currentmatrix}bdef
/pom {setmatrix}bdef
/bs {/aString exch def /nXOfs exch def /nWidth exch def currentpoint nXOfs 0 rmoveto pum nWidth aString stringwidth pop div 1 scale aString show pom moveto} bdef
%%EndResource
%%EndProlog
%%BeginSetup
%%EndSetup
%%Page: 1 1
%%BeginPageSetup
%%EndPageSetup
pum
0.02836 0.02834 s 
0 -9491 t
/tm matrix currentmatrix def
tm setmatrix
-4398 -5897 t 
1 1 s 
gs
0 lw 1 lj 0.000 c 5010 8665 m  5357 8665 5623 8908 5623 9227 ct 5623 9545 5357 9789 5010 9789 ct 
4663 9789 4398 9545 4398 9227 ct 4398 8908 4663 8665 5010 8665 ct pc
gr
gs
0 lw 1 lj 0.000 c 4398 8665 m  4398 8665 l  pc
gr
gs
0 lw 1 lj 0.000 c 5624 9790 m  5624 9790 l  pc
gr
pum
4836 9390 t
0.000 c 48 0 m  48 -47 l  160 -47 l  160 -384 l  61 -314 l  61 -366 l  164 -438 l 
216 -438 l  216 -47 l  322 -47 l  322 0 l  48 0 l  p ef
pom
gs
0 lw 1 lj 10785 9184 m  11132 9184 11397 9427 11397 9745 ct 11397 10064 11132 10308 10785 10308 ct 
10438 10308 10173 10064 10173 9745 ct 10173 9427 10438 9184 10785 9184 ct pc
gr
gs
0 lw 1 lj 10173 9184 m  10173 9184 l  pc
gr
gs
0 lw 1 lj 11398 10309 m  11398 10309 l  pc
gr
pum
10610 9909 t
32 0 m  32 -39 l  42 -64 55 -85 71 -104 ct 86 -122 102 -139 118 -154 ct 135 -169 152 -183 168 -196 ct 
185 -208 199 -221 213 -234 ct 226 -247 237 -260 245 -274 ct 253 -289 257 -304 257 -322 ct 
257 -346 250 -365 236 -378 ct 222 -391 202 -398 177 -398 ct 154 -398 134 -392 119 -379 ct 
103 -366 94 -348 91 -324 ct 34 -329 l  39 -364 53 -392 79 -413 ct 104 -434 137 -444 177 -444 ct 
221 -444 255 -434 279 -413 ct 303 -392 314 -362 314 -324 ct 314 -307 311 -290 303 -274 ct 
295 -257 283 -240 268 -223 ct 253 -206 224 -180 180 -145 ct 157 -126 138 -108 124 -93 ct 
110 -77 100 -62 93 -47 ct 321 -47 l  321 0 l  32 0 l  p ef
pom
gs
0 lw 1 lj 7460 12558 m  7807 12558 8073 12802 8073 13120 ct 8073 13438 7807 13682 7460 13682 ct 
7113 13682 6848 13438 6848 13120 ct 6848 12802 7113 12558 7460 12558 ct pc
gr
gs
0 lw 1 lj 6848 12558 m  6848 12558 l  pc
gr
gs
0 lw 1 lj 8074 13683 m  8074 13683 l  pc
gr
pum
7285 13283 t
273 -99 m  273 0 l  220 0 l  220 -99 l  15 -99 l  15 -142 l  215 -438 l 
273 -438 l  273 -143 l  335 -143 l  335 -99 l  273 -99 l  p
220 -374 m  220 -373 217 -368 212 -358 ct 206 -348 202 -341 200 -338 ct 88 -172 l 
71 -149 l  66 -143 l  220 -143 l  220 -374 l  p ef
pom
gs
0 lw 1 lj 8335 5897 m  8682 5897 8948 6140 8948 6459 ct 8948 6778 8682 7022 8335 7022 ct 
7988 7022 7723 6778 7723 6459 ct 7723 6140 7988 5897 8335 5897 ct pc
gr
gs
0 lw 1 lj 7723 5897 m  7723 5897 l  pc
gr
gs
0 lw 1 lj 8949 7023 m  8949 7023 l  pc
gr
pum
8160 6623 t
325 -121 m  325 -81 312 -49 287 -27 ct 261 -5 225 6 177 6 ct 133 6 98 -4 71 -24 ct 
45 -44 29 -73 24 -113 ct 82 -118 l  89 -66 121 -40 177 -40 ct 205 -40 227 -47 243 -61 ct 
259 -75 267 -96 267 -123 ct 267 -147 258 -165 240 -179 ct 222 -192 195 -199 161 -199 ct 
129 -199 l  129 -247 l  159 -247 l  190 -247 214 -254 231 -267 ct 247 -280 256 -299 256 -322 ct 
256 -346 249 -364 235 -378 ct 221 -391 201 -398 174 -398 ct 149 -398 129 -392 114 -379 ct 
99 -367 90 -349 88 -326 ct 32 -330 l  36 -366 51 -394 76 -414 ct 102 -434 134 -444 175 -444 ct 
218 -444 252 -434 277 -413 ct 301 -393 313 -365 313 -328 ct 313 -300 305 -278 290 -260 ct 
274 -243 251 -231 222 -225 ct 222 -223 l  254 -220 280 -209 298 -191 ct 316 -172 325 -149 325 -121 ct 
p ef
pom
gs
0 lw 1 lj 11309 11866 m  11656 11866 11922 12110 11922 12428 ct 11922 12746 11656 12990 11309 12990 ct 
10963 12990 10698 12746 10698 12428 ct 10698 12110 10963 11866 11309 11866 ct 
pc
gr
gs
0 lw 1 lj 10698 11866 m  10698 11866 l  pc
gr
gs
0 lw 1 lj 11923 12991 m  11923 12991 l  pc
gr
pum
11135 12591 t
325 -143 m  325 -97 313 -61 288 -34 ct 263 -7 228 6 184 6 ct 135 6 97 -12 71 -49 ct 
45 -86 32 -139 32 -209 ct 32 -284 46 -343 73 -383 ct 100 -424 139 -444 189 -444 ct 
254 -444 296 -414 313 -355 ct 260 -345 l  249 -381 225 -399 188 -399 ct 156 -399 131 -384 114 -354 ct 
96 -324 88 -282 88 -225 ct 98 -244 112 -258 131 -268 ct 149 -278 170 -283 194 -283 ct 
234 -283 266 -270 290 -245 ct 313 -220 325 -186 325 -143 ct p
269 -141 m  269 -173 261 -197 245 -214 ct 230 -231 208 -240 180 -240 ct 154 -240 133 -232 117 -217 ct 
101 -202 93 -181 93 -154 ct 93 -120 102 -93 118 -71 ct 135 -50 156 -39 182 -39 ct 
209 -39 230 -48 246 -66 ct 261 -84 269 -109 269 -141 ct p ef
pom
gs
0 lw 1 lj 12359 6244 m  12706 6244 12972 6488 12972 6806 ct 12972 7124 12706 7368 12359 7368 ct 
12012 7368 11747 7124 11747 6806 ct 11747 6488 12012 6244 12359 6244 ct pc
gr
gs
0 lw 1 lj 11747 6244 m  11747 6244 l  pc
gr
gs
0 lw 1 lj 12973 7369 m  12973 7369 l  pc
gr
pum
12185 6970 t
326 -143 m  326 -96 313 -60 285 -34 ct 258 -7 220 6 171 6 ct 131 6 98 -3 73 -21 ct 
48 -38 32 -64 25 -98 ct 82 -104 l  94 -61 124 -40 173 -40 ct 203 -40 226 -49 243 -67 ct 
260 -85 269 -110 269 -141 ct 269 -169 260 -191 243 -208 ct 226 -225 203 -233 174 -233 ct 
159 -233 145 -231 132 -226 ct 119 -221 106 -213 93 -202 ct 38 -202 l  53 -437 l 
301 -437 l  301 -390 l  104 -390 l  95 -251 l  119 -270 149 -279 185 -279 ct 
228 -279 263 -266 288 -241 ct 314 -216 326 -183 326 -143 ct p ef
pom
gs
0 lw 1 lj [ 26.94999 457 ] 0 ld
5445 8830 m  7903 6859 l  ps
gr
gs
0 lw 1 lj 5445 9626 m  7028 12722 l  ps
gr
gs
0 lw 1 lj [ 26.94999 457 ] 0 ld
5624 9229 m  11927 7204 l  ps
gr
gs
0 lw 1 lj 8949 6461 m  11748 6806 l  ps
gr
gs
0 lw 1 lj 8074 13120 m  10878 12826 l  ps
gr
gs
0 lw 1 lj 11311 11866 m  10787 10309 l  ps
gr
gs
0 lw 1 lj [ 26.94999 457 ] 0 ld
10787 9185 m  12361 7368 l  ps
gr
gs
0 lw 1 lj [ 26.94999 457 ] 0 ld
11923 12428 m  12794 7204 l  ps
gr
pum
5827 11549 t
326 -143 m  326 -96 313 -60 285 -34 ct 258 -7 220 6 171 6 ct 131 6 98 -3 73 -21 ct 
48 -38 32 -64 25 -98 ct 82 -104 l  94 -61 124 -40 173 -40 ct 203 -40 226 -49 243 -67 ct 
260 -85 269 -110 269 -141 ct 269 -169 260 -191 243 -208 ct 226 -225 203 -233 174 -233 ct 
159 -233 145 -231 132 -226 ct 119 -221 106 -213 93 -202 ct 38 -202 l  53 -437 l 
301 -437 l  301 -390 l  104 -390 l  95 -251 l  119 -270 149 -279 185 -279 ct 
228 -279 263 -266 288 -241 ct 314 -216 326 -183 326 -143 ct p ef
pom
pum
9240 13624 t
273 -99 m  273 0 l  220 0 l  220 -99 l  15 -99 l  15 -142 l  215 -438 l 
273 -438 l  273 -143 l  335 -143 l  335 -99 l  273 -99 l  p
220 -374 m  220 -373 217 -368 212 -358 ct 206 -348 202 -341 200 -338 ct 88 -172 l 
71 -149 l  66 -143 l  220 -143 l  220 -374 l  p ef
pom
pum
8670 8868 t
48 0 m  48 -47 l  160 -47 l  160 -384 l  61 -314 l  61 -366 l  164 -438 l 
216 -438 l  216 -47 l  322 -47 l  322 0 l  48 0 l  p ef
677 -143 m  677 -96 664 -60 636 -34 ct 609 -7 571 6 522 6 ct 482 6 449 -3 424 -21 ct 
399 -38 383 -64 376 -98 ct 433 -104 l  445 -61 475 -40 524 -40 ct 554 -40 577 -49 594 -67 ct 
611 -85 620 -110 620 -141 ct 620 -169 611 -191 594 -208 ct 577 -225 554 -233 525 -233 ct 
510 -233 496 -231 483 -226 ct 470 -221 457 -213 444 -202 ct 389 -202 l  404 -437 l 
652 -437 l  652 -390 l  455 -390 l  446 -251 l  470 -270 500 -279 536 -279 ct 
579 -279 614 -266 639 -241 ct 665 -216 677 -183 677 -143 ct p ef
pom
pum
6220 7743 t
48 0 m  48 -47 l  160 -47 l  160 -384 l  61 -314 l  61 -366 l  164 -438 l 
216 -438 l  216 -47 l  322 -47 l  322 0 l  48 0 l  p ef
672 -392 m  628 -324 596 -270 578 -232 ct 559 -193 545 -155 536 -117 ct 527 -79 522 -40 522 0 ct 
464 0 l  464 -56 476 -115 500 -177 ct 523 -238 563 -309 618 -390 ct 384 -390 l 
384 -437 l  672 -437 l  672 -392 l  p ef
pom
pum
12695 9906 t
32 0 m  32 -39 l  42 -64 55 -85 71 -104 ct 86 -122 102 -139 118 -154 ct 135 -169 152 -183 168 -196 ct 
185 -208 199 -221 213 -234 ct 226 -247 237 -260 245 -274 ct 253 -289 257 -304 257 -322 ct 
257 -346 250 -365 236 -378 ct 222 -391 202 -398 177 -398 ct 154 -398 134 -392 119 -379 ct 
103 -366 94 -348 91 -324 ct 34 -329 l  39 -364 53 -392 79 -413 ct 104 -434 137 -444 177 -444 ct 
221 -444 255 -434 279 -413 ct 303 -392 314 -362 314 -324 ct 314 -307 311 -290 303 -274 ct 
295 -257 283 -240 268 -223 ct 253 -206 224 -180 180 -145 ct 157 -126 138 -108 124 -93 ct 
110 -77 100 -62 93 -47 ct 321 -47 l  321 0 l  32 0 l  p ef
399 0 m  399 -47 l  511 -47 l  511 -384 l  412 -314 l  412 -366 l  515 -438 l 
567 -438 l  567 -47 l  673 -47 l  673 0 l  399 0 l  p ef
pom
pum
11690 8955 t
321 -392 m  277 -324 245 -270 227 -232 ct 208 -193 194 -155 185 -117 ct 176 -79 171 -40 171 0 ct 
113 0 l  113 -56 125 -115 149 -177 ct 172 -238 212 -309 267 -390 ct 33 -390 l 
33 -437 l  321 -437 l  321 -392 l  p ef
pom
pum
10203 6658 t
32 0 m  32 -39 l  42 -64 55 -85 71 -104 ct 86 -122 102 -139 118 -154 ct 135 -169 152 -183 168 -196 ct 
185 -208 199 -221 213 -234 ct 226 -247 237 -260 245 -274 ct 253 -289 257 -304 257 -322 ct 
257 -346 250 -365 236 -378 ct 222 -391 202 -398 177 -398 ct 154 -398 134 -392 119 -379 ct 
103 -366 94 -348 91 -324 ct 34 -329 l  39 -364 53 -392 79 -413 ct 104 -434 137 -444 177 -444 ct 
221 -444 255 -434 279 -413 ct 303 -392 314 -362 314 -324 ct 314 -307 311 -290 303 -274 ct 
295 -257 283 -240 268 -223 ct 253 -206 224 -180 180 -145 ct 157 -126 138 -108 124 -93 ct 
110 -77 100 -62 93 -47 ct 321 -47 l  321 0 l  32 0 l  p ef
pom
pum
10686 11328 t
325 -121 m  325 -81 312 -49 287 -27 ct 261 -5 225 6 177 6 ct 133 6 98 -4 71 -24 ct 
45 -44 29 -73 24 -113 ct 82 -118 l  89 -66 121 -40 177 -40 ct 205 -40 227 -47 243 -61 ct 
259 -75 267 -96 267 -123 ct 267 -147 258 -165 240 -179 ct 222 -192 195 -199 161 -199 ct 
129 -199 l  129 -247 l  159 -247 l  190 -247 214 -254 231 -267 ct 247 -280 256 -299 256 -322 ct 
256 -346 249 -364 235 -378 ct 221 -391 201 -398 174 -398 ct 149 -398 129 -392 114 -379 ct 
99 -367 90 -349 88 -326 ct 32 -330 l  36 -366 51 -394 76 -414 ct 102 -434 134 -444 175 -444 ct 
218 -444 252 -434 277 -413 ct 301 -393 313 -365 313 -328 ct 313 -300 305 -278 290 -260 ct 
274 -243 251 -231 222 -225 ct 222 -223 l  254 -220 280 -209 298 -191 ct 316 -172 325 -149 325 -121 ct 
p ef
pom
pum
9041 15124 t
39 -165 m  39 -224 49 -278 67 -326 ct 86 -373 115 -418 154 -460 ct 208 -460 l 
169 -417 141 -371 123 -323 ct 105 -274 96 -222 96 -164 ct 96 -107 104 -54 122 -6 ct 
140 42 169 88 208 132 ct 154 132 l  115 90 86 45 67 -3 ct 49 -50 39 -104 39 -163 ct 
39 -165 l  p ef
298 -156 m  298 -118 306 -88 321 -67 ct 337 -46 361 -36 391 -36 ct 415 -36 435 -41 449 -50 ct 
464 -60 474 -72 479 -87 ct 528 -73 l  508 -20 462 6 391 6 ct 342 6 304 -9 278 -38 ct 
252 -68 239 -112 239 -170 ct 239 -226 252 -268 278 -298 ct 304 -327 341 -342 389 -342 ct 
488 -342 537 -283 537 -164 ct 537 -156 l  298 -156 l  p
479 -199 m  476 -234 467 -260 452 -277 ct 437 -293 416 -301 388 -301 ct 361 -301 340 -292 324 -274 ct 
308 -256 299 -231 298 -199 ct 479 -199 l  p ef
735 -163 m  735 -104 726 -50 707 -2 ct 688 45 660 90 621 132 ct 567 132 l  606 89 634 43 652 -5 ct 
670 -53 679 -106 679 -164 ct 679 -222 670 -275 652 -323 ct 634 -371 605 -417 567 -460 ct 
621 -460 l  660 -418 689 -373 707 -325 ct 726 -278 735 -224 735 -165 ct 735 -163 l 
p ef
pom
pum
22041 15125 t
39 -165 m  39 -224 49 -278 67 -326 ct 86 -373 115 -418 154 -460 ct 208 -460 l 
169 -417 141 -371 123 -323 ct 105 -274 96 -222 96 -164 ct 96 -107 104 -54 122 -6 ct 
140 42 169 88 208 132 ct 154 132 l  115 90 86 45 67 -3 ct 49 -50 39 -104 39 -163 ct 
39 -165 l  p ef
324 -295 m  324 0 l  268 0 l  268 -295 l  221 -295 l  221 -336 l  268 -336 l 
268 -374 l  268 -404 275 -426 288 -440 ct 302 -453 322 -460 350 -460 ct 365 -460 379 -459 389 -456 ct 
389 -414 l  380 -415 372 -416 365 -416 ct 350 -416 340 -413 334 -405 ct 327 -398 324 -385 324 -366 ct 
324 -336 l  389 -336 l  389 -295 l  324 -295 l  p ef
561 -163 m  561 -104 552 -50 533 -2 ct 514 45 486 90 447 132 ct 393 132 l  432 89 460 43 478 -5 ct 
496 -53 505 -106 505 -164 ct 505 -222 496 -275 478 -323 ct 460 -371 431 -417 393 -460 ct 
447 -460 l  486 -418 515 -373 533 -325 ct 552 -278 561 -224 561 -165 ct 561 -163 l 
p ef
pom
gs
0 lw 1 lj 18108 8665 m  18455 8665 18721 8908 18721 9227 ct 18721 9545 18455 9789 18108 9789 ct 
17761 9789 17496 9545 17496 9227 ct 17496 8908 17761 8665 18108 8665 ct pc
gr
gs
0 lw 1 lj 17496 8665 m  17496 8665 l  pc
gr
gs
0 lw 1 lj 18722 9790 m  18722 9790 l  pc
gr
pum
17933 9390 t
48 0 m  48 -47 l  160 -47 l  160 -384 l  61 -314 l  61 -366 l  164 -438 l 
216 -438 l  216 -47 l  322 -47 l  322 0 l  48 0 l  p ef
pom
gs
0 lw 1 lj 23882 9184 m  24229 9184 24495 9427 24495 9745 ct 24495 10064 24229 10308 23882 10308 ct 
23535 10308 23270 10064 23270 9745 ct 23270 9427 23535 9184 23882 9184 ct pc
gr
gs
0 lw 1 lj 23270 9184 m  23270 9184 l  pc
gr
gs
0 lw 1 lj 24496 10309 m  24496 10309 l  pc
gr
pum
23708 9909 t
32 0 m  32 -39 l  42 -64 55 -85 71 -104 ct 86 -122 102 -139 118 -154 ct 135 -169 152 -183 168 -196 ct 
185 -208 199 -221 213 -234 ct 226 -247 237 -260 245 -274 ct 253 -289 257 -304 257 -322 ct 
257 -346 250 -365 236 -378 ct 222 -391 202 -398 177 -398 ct 154 -398 134 -392 119 -379 ct 
103 -366 94 -348 91 -324 ct 34 -329 l  39 -364 53 -392 79 -413 ct 104 -434 137 -444 177 -444 ct 
221 -444 255 -434 279 -413 ct 303 -392 314 -362 314 -324 ct 314 -307 311 -290 303 -274 ct 
295 -257 283 -240 268 -223 ct 253 -206 224 -180 180 -145 ct 157 -126 138 -108 124 -93 ct 
110 -77 100 -62 93 -47 ct 321 -47 l  321 0 l  32 0 l  p ef
pom
gs
0 lw 1 lj 20558 12558 m  20905 12558 21171 12802 21171 13120 ct 21171 13438 20905 13682 20558 13682 ct 
20211 13682 19946 13438 19946 13120 ct 19946 12802 20211 12558 20558 12558 ct 
pc
gr
gs
0 lw 1 lj 19946 12558 m  19946 12558 l  pc
gr
gs
0 lw 1 lj 21172 13683 m  21172 13683 l  pc
gr
pum
20383 13283 t
273 -99 m  273 0 l  220 0 l  220 -99 l  15 -99 l  15 -142 l  215 -438 l 
273 -438 l  273 -143 l  335 -143 l  335 -99 l  273 -99 l  p
220 -374 m  220 -373 217 -368 212 -358 ct 206 -348 202 -341 200 -338 ct 88 -172 l 
71 -149 l  66 -143 l  220 -143 l  220 -374 l  p ef
pom
gs
0 lw 1 lj 21433 5897 m  21780 5897 22046 6140 22046 6459 ct 22046 6778 21780 7022 21433 7022 ct 
21086 7022 20821 6778 20821 6459 ct 20821 6140 21086 5897 21433 5897 ct pc
gr
gs
0 lw 1 lj 20821 5897 m  20821 5897 l  pc
gr
gs
0 lw 1 lj 22047 7023 m  22047 7023 l  pc
gr
pum
21258 6623 t
325 -121 m  325 -81 312 -49 287 -27 ct 261 -5 225 6 177 6 ct 133 6 98 -4 71 -24 ct 
45 -44 29 -73 24 -113 ct 82 -118 l  89 -66 121 -40 177 -40 ct 205 -40 227 -47 243 -61 ct 
259 -75 267 -96 267 -123 ct 267 -147 258 -165 240 -179 ct 222 -192 195 -199 161 -199 ct 
129 -199 l  129 -247 l  159 -247 l  190 -247 214 -254 231 -267 ct 247 -280 256 -299 256 -322 ct 
256 -346 249 -364 235 -378 ct 221 -391 201 -398 174 -398 ct 149 -398 129 -392 114 -379 ct 
99 -367 90 -349 88 -326 ct 32 -330 l  36 -366 51 -394 76 -414 ct 102 -434 134 -444 175 -444 ct 
218 -444 252 -434 277 -413 ct 301 -393 313 -365 313 -328 ct 313 -300 305 -278 290 -260 ct 
274 -243 251 -231 222 -225 ct 222 -223 l  254 -220 280 -209 298 -191 ct 316 -172 325 -149 325 -121 ct 
p ef
pom
gs
0 lw 1 lj 24407 11866 m  24754 11866 25020 12110 25020 12428 ct 25020 12746 24754 12990 24407 12990 ct 
24060 12990 23795 12746 23795 12428 ct 23795 12110 24060 11866 24407 11866 ct 
pc
gr
gs
0 lw 1 lj 23795 11866 m  23795 11866 l  pc
gr
gs
0 lw 1 lj 25021 12991 m  25021 12991 l  pc
gr
pum
24233 12591 t
325 -143 m  325 -97 313 -61 288 -34 ct 263 -7 228 6 184 6 ct 135 6 97 -12 71 -49 ct 
45 -86 32 -139 32 -209 ct 32 -284 46 -343 73 -383 ct 100 -424 139 -444 189 -444 ct 
254 -444 296 -414 313 -355 ct 260 -345 l  249 -381 225 -399 188 -399 ct 156 -399 131 -384 114 -354 ct 
96 -324 88 -282 88 -225 ct 98 -244 112 -258 131 -268 ct 149 -278 170 -283 194 -283 ct 
234 -283 266 -270 290 -245 ct 313 -220 325 -186 325 -143 ct p
269 -141 m  269 -173 261 -197 245 -214 ct 230 -231 208 -240 180 -240 ct 154 -240 133 -232 117 -217 ct 
101 -202 93 -181 93 -154 ct 93 -120 102 -93 118 -71 ct 135 -50 156 -39 182 -39 ct 
209 -39 230 -48 246 -66 ct 261 -84 269 -109 269 -141 ct p ef
pom
gs
0 lw 1 lj 25457 6244 m  25804 6244 26070 6488 26070 6806 ct 26070 7124 25804 7368 25457 7368 ct 
25110 7368 24845 7124 24845 6806 ct 24845 6488 25110 6244 25457 6244 ct pc
gr
gs
0 lw 1 lj 24845 6244 m  24845 6244 l  pc
gr
gs
0 lw 1 lj 26071 7369 m  26071 7369 l  pc
gr
pum
25283 6970 t
326 -143 m  326 -96 313 -60 285 -34 ct 258 -7 220 6 171 6 ct 131 6 98 -3 73 -21 ct 
48 -38 32 -64 25 -98 ct 82 -104 l  94 -61 124 -40 173 -40 ct 203 -40 226 -49 243 -67 ct 
260 -85 269 -110 269 -141 ct 269 -169 260 -191 243 -208 ct 226 -225 203 -233 174 -233 ct 
159 -233 145 -231 132 -226 ct 119 -221 106 -213 93 -202 ct 38 -202 l  53 -437 l 
301 -437 l  301 -390 l  104 -390 l  95 -251 l  119 -270 149 -279 185 -279 ct 
228 -279 263 -266 288 -241 ct 314 -216 326 -183 326 -143 ct p ef
pom
gs
0 lw 1 lj [ 26.94999 457 ] 0 ld
18543 8830 m  21001 6859 l  ps
gr
gs
0 lw 1 lj 18543 9626 m  20126 12722 l  ps
gr
gs
0 lw 1 lj [ 26.94999 457 ] 0 ld
18722 9229 m  25025 7204 l  ps
gr
gs
0 lw 1 lj 22047 6461 m  24846 6806 l  ps
gr
gs
0 lw 1 lj 21172 13120 m  23975 12826 l  ps
gr
gs
0 lw 1 lj 24409 11866 m  23884 10309 l  ps
gr
gs
0 lw 1 lj 23884 9185 m  25459 7368 l  ps
gr
gs
0 lw 1 lj [ 26.94999 457 ] 0 ld
25021 12428 m  25892 7204 l  ps
gr
pum
18925 11549 t
326 -143 m  326 -96 313 -60 285 -34 ct 258 -7 220 6 171 6 ct 131 6 98 -3 73 -21 ct 
48 -38 32 -64 25 -98 ct 82 -104 l  94 -61 124 -40 173 -40 ct 203 -40 226 -49 243 -67 ct 
260 -85 269 -110 269 -141 ct 269 -169 260 -191 243 -208 ct 226 -225 203 -233 174 -233 ct 
159 -233 145 -231 132 -226 ct 119 -221 106 -213 93 -202 ct 38 -202 l  53 -437 l 
301 -437 l  301 -390 l  104 -390 l  95 -251 l  119 -270 149 -279 185 -279 ct 
228 -279 263 -266 288 -241 ct 314 -216 326 -183 326 -143 ct p ef
pom
pum
22338 13624 t
273 -99 m  273 0 l  220 0 l  220 -99 l  15 -99 l  15 -142 l  215 -438 l 
273 -438 l  273 -143 l  335 -143 l  335 -99 l  273 -99 l  p
220 -374 m  220 -373 217 -368 212 -358 ct 206 -348 202 -341 200 -338 ct 88 -172 l 
71 -149 l  66 -143 l  220 -143 l  220 -374 l  p ef
pom
pum
21768 8868 t
48 0 m  48 -47 l  160 -47 l  160 -384 l  61 -314 l  61 -366 l  164 -438 l 
216 -438 l  216 -47 l  322 -47 l  322 0 l  48 0 l  p ef
677 -143 m  677 -96 664 -60 636 -34 ct 609 -7 571 6 522 6 ct 482 6 449 -3 424 -21 ct 
399 -38 383 -64 376 -98 ct 433 -104 l  445 -61 475 -40 524 -40 ct 554 -40 577 -49 594 -67 ct 
611 -85 620 -110 620 -141 ct 620 -169 611 -191 594 -208 ct 577 -225 554 -233 525 -233 ct 
510 -233 496 -231 483 -226 ct 470 -221 457 -213 444 -202 ct 389 -202 l  404 -437 l 
652 -437 l  652 -390 l  455 -390 l  446 -251 l  470 -270 500 -279 536 -279 ct 
579 -279 614 -266 639 -241 ct 665 -216 677 -183 677 -143 ct p ef
pom
pum
19318 7743 t
48 0 m  48 -47 l  160 -47 l  160 -384 l  61 -314 l  61 -366 l  164 -438 l 
216 -438 l  216 -47 l  322 -47 l  322 0 l  48 0 l  p ef
672 -392 m  628 -324 596 -270 578 -232 ct 559 -193 545 -155 536 -117 ct 527 -79 522 -40 522 0 ct 
464 0 l  464 -56 476 -115 500 -177 ct 523 -238 563 -309 618 -390 ct 384 -390 l 
384 -437 l  672 -437 l  672 -392 l  p ef
pom
pum
25793 9906 t
32 0 m  32 -39 l  42 -64 55 -85 71 -104 ct 86 -122 102 -139 118 -154 ct 135 -169 152 -183 168 -196 ct 
185 -208 199 -221 213 -234 ct 226 -247 237 -260 245 -274 ct 253 -289 257 -304 257 -322 ct 
257 -346 250 -365 236 -378 ct 222 -391 202 -398 177 -398 ct 154 -398 134 -392 119 -379 ct 
103 -366 94 -348 91 -324 ct 34 -329 l  39 -364 53 -392 79 -413 ct 104 -434 137 -444 177 -444 ct 
221 -444 255 -434 279 -413 ct 303 -392 314 -362 314 -324 ct 314 -307 311 -290 303 -274 ct 
295 -257 283 -240 268 -223 ct 253 -206 224 -180 180 -145 ct 157 -126 138 -108 124 -93 ct 
110 -77 100 -62 93 -47 ct 321 -47 l  321 0 l  32 0 l  p ef
399 0 m  399 -47 l  511 -47 l  511 -384 l  412 -314 l  412 -366 l  515 -438 l 
567 -438 l  567 -47 l  673 -47 l  673 0 l  399 0 l  p ef
pom
pum
24788 8955 t
321 -392 m  277 -324 245 -270 227 -232 ct 208 -193 194 -155 185 -117 ct 176 -79 171 -40 171 0 ct 
113 0 l  113 -56 125 -115 149 -177 ct 172 -238 212 -309 267 -390 ct 33 -390 l 
33 -437 l  321 -437 l  321 -392 l  p ef
pom
pum
23301 6658 t
32 0 m  32 -39 l  42 -64 55 -85 71 -104 ct 86 -122 102 -139 118 -154 ct 135 -169 152 -183 168 -196 ct 
185 -208 199 -221 213 -234 ct 226 -247 237 -260 245 -274 ct 253 -289 257 -304 257 -322 ct 
257 -346 250 -365 236 -378 ct 222 -391 202 -398 177 -398 ct 154 -398 134 -392 119 -379 ct 
103 -366 94 -348 91 -324 ct 34 -329 l  39 -364 53 -392 79 -413 ct 104 -434 137 -444 177 -444 ct 
221 -444 255 -434 279 -413 ct 303 -392 314 -362 314 -324 ct 314 -307 311 -290 303 -274 ct 
295 -257 283 -240 268 -223 ct 253 -206 224 -180 180 -145 ct 157 -126 138 -108 124 -93 ct 
110 -77 100 -62 93 -47 ct 321 -47 l  321 0 l  32 0 l  p ef
pom
pum
23784 11328 t
325 -121 m  325 -81 312 -49 287 -27 ct 261 -5 225 6 177 6 ct 133 6 98 -4 71 -24 ct 
45 -44 29 -73 24 -113 ct 82 -118 l  89 -66 121 -40 177 -40 ct 205 -40 227 -47 243 -61 ct 
259 -75 267 -96 267 -123 ct 267 -147 258 -165 240 -179 ct 222 -192 195 -199 161 -199 ct 
129 -199 l  129 -247 l  159 -247 l  190 -247 214 -254 231 -267 ct 247 -280 256 -299 256 -322 ct 
256 -346 249 -364 235 -378 ct 221 -391 201 -398 174 -398 ct 149 -398 129 -392 114 -379 ct 
99 -367 90 -349 88 -326 ct 32 -330 l  36 -366 51 -394 76 -414 ct 102 -434 134 -444 175 -444 ct 
218 -444 252 -434 277 -413 ct 301 -393 313 -365 313 -328 ct 313 -300 305 -278 290 -260 ct 
274 -243 251 -231 222 -225 ct 222 -223 l  254 -220 280 -209 298 -191 ct 316 -172 325 -149 325 -121 ct 
p ef
pom
0 9491 t 
pom
count op_count sub {pop} repeat countdictstack dict_count sub {end} repeat b4_inc_state restore
%%PageTrailer
%%Trailer
%%EOF
