%!PS-Adobe-3.0 EPSF-3.0 
%%BoundingBox: 0 0 642 581
%%Pages: 0
%%Creator: LibreOffice 5.4
%%Title: none
%%CreationDate: none
%%LanguageLevel: 2
%%EndComments
%%BeginProlog
%%BeginResource: procset SDRes-Prolog 1.0 0
/b4_inc_state save def
/dict_count countdictstack def
/op_count count 1 sub def
userdict begin
0 setgray 0 setlinecap 1 setlinewidth 0 setlinejoin 10 setmiterlimit[] 0 setdash newpath
/languagelevel where {pop languagelevel 1 ne {false setstrokeadjust false setoverprint} if} if
/bdef {bind def} bind def
/c {setgray} bdef
/l {neg lineto} bdef
/rl {neg rlineto} bdef
/lc {setlinecap} bdef
/lj {setlinejoin} bdef
/lw {setlinewidth} bdef
/ml {setmiterlimit} bdef
/ld {setdash} bdef
/m {neg moveto} bdef
/ct {6 2 roll neg 6 2 roll neg 6 2 roll neg curveto} bdef
/r {rotate} bdef
/t {neg translate} bdef
/s {scale} bdef
/sw {show} bdef
/gs {gsave} bdef
/gr {grestore} bdef
/f {findfont dup length dict begin
{1 index /FID ne {def} {pop pop} ifelse} forall /Encoding ISOLatin1Encoding def
currentdict end /NFont exch definefont pop /NFont findfont} bdef
/p {closepath} bdef
/sf {scalefont setfont} bdef
/ef {eofill}bdef
/pc {closepath stroke}bdef
/ps {stroke}bdef
/pum {matrix currentmatrix}bdef
/pom {setmatrix}bdef
/bs {/aString exch def /nXOfs exch def /nWidth exch def currentpoint nXOfs 0 rmoveto pum nWidth aString stringwidth pop div 1 scale aString show pom moveto} bdef
%%EndResource
%%EndProlog
%%BeginSetup
%%EndSetup
%%Page: 1 1
%%BeginPageSetup
%%EndPageSetup
pum
0.02835 0.02835 s 
0 -20492 t
/tm matrix currentmatrix def
tm setmatrix
-4398 -1598 t 
1 1 s 
gs
0 lw 1 lj 0.000 c 5010 4366 m  5357 4366 5623 4609 5623 4928 ct 5623 5247 5357 5491 5010 5491 ct 
4663 5491 4398 5247 4398 4928 ct 4398 4609 4663 4366 5010 4366 ct pc
gr
gs
0 lw 1 lj 0.000 c 4398 4366 m  4398 4366 l  pc
gr
gs
0 lw 1 lj 0.000 c 5624 5492 m  5624 5492 l  pc
gr
pum
4836 5092 t
0.000 c 48 0 m  48 -47 l  160 -47 l  160 -384 l  61 -314 l  61 -366 l  164 -438 l 
216 -438 l  216 -47 l  322 -47 l  322 0 l  48 0 l  p ef
pom
gs
0 lw 1 lj 10785 4885 m  11132 4885 11397 5128 11397 5447 ct 11397 5766 11132 6010 10785 6010 ct 
10438 6010 10173 5766 10173 5447 ct 10173 5128 10438 4885 10785 4885 ct pc
gr
gs
0 lw 1 lj 10173 4885 m  10173 4885 l  pc
gr
gs
0 lw 1 lj 11398 6011 m  11398 6011 l  pc
gr
pum
10610 5610 t
32 0 m  32 -39 l  42 -64 55 -85 71 -104 ct 86 -122 102 -139 118 -154 ct 135 -169 152 -183 168 -196 ct 
185 -208 199 -221 213 -234 ct 226 -247 237 -260 245 -274 ct 253 -289 257 -304 257 -322 ct 
257 -346 250 -365 236 -378 ct 222 -391 202 -398 177 -398 ct 154 -398 134 -392 119 -379 ct 
103 -366 94 -348 91 -324 ct 34 -329 l  39 -364 53 -392 79 -413 ct 104 -434 137 -444 177 -444 ct 
221 -444 255 -434 279 -413 ct 303 -392 314 -362 314 -324 ct 314 -307 311 -290 303 -274 ct 
295 -257 283 -240 268 -223 ct 253 -206 224 -180 180 -145 ct 157 -126 138 -108 124 -93 ct 
110 -77 100 -62 93 -47 ct 321 -47 l  321 0 l  32 0 l  p ef
pom
gs
0 lw 1 lj 7460 8260 m  7807 8260 8073 8504 8073 8822 ct 8073 9140 7807 9384 7460 9384 ct 
7113 9384 6848 9140 6848 8822 ct 6848 8504 7113 8260 7460 8260 ct pc
gr
gs
0 lw 1 lj 6848 8260 m  6848 8260 l  pc
gr
gs
0 lw 1 lj 8074 9385 m  8074 9385 l  pc
gr
pum
7285 8985 t
273 -99 m  273 0 l  220 0 l  220 -99 l  15 -99 l  15 -142 l  215 -438 l 
273 -438 l  273 -143 l  335 -143 l  335 -99 l  273 -99 l  p
220 -374 m  220 -373 217 -368 212 -358 ct 206 -348 202 -341 200 -338 ct 88 -172 l 
71 -149 l  66 -143 l  220 -143 l  220 -374 l  p ef
pom
gs
0 lw 1 lj 8335 1598 m  8682 1598 8948 1841 8948 2160 ct 8948 2479 8682 2723 8335 2723 ct 
7988 2723 7723 2479 7723 2160 ct 7723 1841 7988 1598 8335 1598 ct pc
gr
gs
0 lw 1 lj 7723 1598 m  7723 1598 l  pc
gr
gs
0 lw 1 lj 8949 2724 m  8949 2724 l  pc
gr
pum
8160 2324 t
325 -121 m  325 -81 312 -49 287 -27 ct 261 -5 225 6 177 6 ct 133 6 98 -4 71 -24 ct 
45 -44 29 -73 24 -113 ct 82 -118 l  89 -66 121 -40 177 -40 ct 205 -40 227 -47 243 -61 ct 
259 -75 267 -96 267 -123 ct 267 -147 258 -165 240 -179 ct 222 -192 195 -199 161 -199 ct 
129 -199 l  129 -247 l  159 -247 l  190 -247 214 -254 231 -267 ct 247 -280 256 -299 256 -322 ct 
256 -346 249 -364 235 -378 ct 221 -391 201 -398 174 -398 ct 149 -398 129 -392 114 -379 ct 
99 -367 90 -349 88 -326 ct 32 -330 l  36 -366 51 -394 76 -414 ct 102 -434 134 -444 175 -444 ct 
218 -444 252 -434 277 -413 ct 301 -393 313 -365 313 -328 ct 313 -300 305 -278 290 -260 ct 
274 -243 251 -231 222 -225 ct 222 -223 l  254 -220 280 -209 298 -191 ct 316 -172 325 -149 325 -121 ct 
p ef
pom
gs
0 lw 1 lj 11310 7568 m  11656 7568 11922 7812 11922 8130 ct 11922 8448 11656 8692 11310 8692 ct 
10963 8692 10698 8448 10698 8130 ct 10698 7812 10963 7568 11310 7568 ct pc
gr
gs
0 lw 1 lj 10698 7568 m  10698 7568 l  pc
gr
gs
0 lw 1 lj 11923 8693 m  11923 8693 l  pc
gr
pum
11135 8293 t
325 -143 m  325 -97 313 -61 288 -34 ct 263 -7 228 6 184 6 ct 135 6 97 -12 71 -49 ct 
45 -86 32 -139 32 -209 ct 32 -284 46 -343 73 -383 ct 100 -424 139 -444 189 -444 ct 
254 -444 296 -414 313 -355 ct 260 -345 l  249 -381 225 -399 188 -399 ct 156 -399 131 -384 114 -354 ct 
96 -324 88 -282 88 -225 ct 98 -244 112 -258 131 -268 ct 149 -278 170 -283 194 -283 ct 
234 -283 266 -270 290 -245 ct 313 -220 325 -186 325 -143 ct p
269 -141 m  269 -173 261 -197 245 -214 ct 230 -231 208 -240 180 -240 ct 154 -240 133 -232 117 -217 ct 
101 -202 93 -181 93 -154 ct 93 -120 102 -93 118 -71 ct 135 -50 156 -39 182 -39 ct 
209 -39 230 -48 246 -66 ct 261 -84 269 -109 269 -141 ct p ef
pom
gs
0 lw 1 lj 12359 1945 m  12706 1945 12972 2189 12972 2507 ct 12972 2825 12706 3069 12359 3069 ct 
12012 3069 11747 2825 11747 2507 ct 11747 2189 12012 1945 12359 1945 ct pc
gr
gs
0 lw 1 lj 11747 1945 m  11747 1945 l  pc
gr
gs
0 lw 1 lj 12973 3070 m  12973 3070 l  pc
gr
pum
12185 2671 t
326 -143 m  326 -96 313 -60 285 -34 ct 258 -7 220 6 171 6 ct 131 6 98 -3 73 -21 ct 
48 -38 32 -64 25 -98 ct 82 -104 l  94 -61 124 -40 173 -40 ct 203 -40 226 -49 243 -67 ct 
260 -85 269 -110 269 -141 ct 269 -169 260 -191 243 -208 ct 226 -225 203 -233 174 -233 ct 
159 -233 145 -231 132 -226 ct 119 -221 106 -213 93 -202 ct 38 -202 l  53 -437 l 
301 -437 l  301 -390 l  104 -390 l  95 -251 l  119 -270 149 -279 185 -279 ct 
228 -279 263 -266 288 -241 ct 314 -216 326 -183 326 -143 ct p ef
pom
gs
0 lw 1 lj [ 26.94999 457 ] 0 ld
5445 4531 m  7903 2560 l  ps
gr
gs
0 lw 1 lj [ 26.94999 457 ] 0 ld
5445 5328 m  7028 8424 l  ps
gr
gs
0 lw 1 lj [ 26.94999 457 ] 0 ld
5624 4930 m  11927 2905 l  ps
gr
gs
0 lw 1 lj [ 26.94999 457 ] 0 ld
8949 2162 m  11748 2507 l  ps
gr
gs
0 lw 1 lj [ 26.94999 457 ] 0 ld
8074 8822 m  10878 8528 l  ps
gr
gs
0 lw 1 lj [ 26.94999 457 ] 0 ld
11312 7568 m  10787 6011 l  ps
gr
gs
0 lw 1 lj [ 26.94999 457 ] 0 ld
10787 4886 m  12361 3069 l  ps
gr
gs
0 lw 1 lj [ 26.94999 457 ] 0 ld
11923 8130 m  12794 2905 l  ps
gr
pum
5827 7250 t
326 -143 m  326 -96 313 -60 285 -34 ct 258 -7 220 6 171 6 ct 131 6 98 -3 73 -21 ct 
48 -38 32 -64 25 -98 ct 82 -104 l  94 -61 124 -40 173 -40 ct 203 -40 226 -49 243 -67 ct 
260 -85 269 -110 269 -141 ct 269 -169 260 -191 243 -208 ct 226 -225 203 -233 174 -233 ct 
159 -233 145 -231 132 -226 ct 119 -221 106 -213 93 -202 ct 38 -202 l  53 -437 l 
301 -437 l  301 -390 l  104 -390 l  95 -251 l  119 -270 149 -279 185 -279 ct 
228 -279 263 -266 288 -241 ct 314 -216 326 -183 326 -143 ct p ef
pom
pum
9240 9326 t
273 -99 m  273 0 l  220 0 l  220 -99 l  15 -99 l  15 -142 l  215 -438 l 
273 -438 l  273 -143 l  335 -143 l  335 -99 l  273 -99 l  p
220 -374 m  220 -373 217 -368 212 -358 ct 206 -348 202 -341 200 -338 ct 88 -172 l 
71 -149 l  66 -143 l  220 -143 l  220 -374 l  p ef
pom
pum
8670 4570 t
48 0 m  48 -47 l  160 -47 l  160 -384 l  61 -314 l  61 -366 l  164 -438 l 
216 -438 l  216 -47 l  322 -47 l  322 0 l  48 0 l  p ef
677 -143 m  677 -96 664 -60 636 -34 ct 609 -7 571 6 522 6 ct 482 6 449 -3 424 -21 ct 
399 -38 383 -64 376 -98 ct 433 -104 l  445 -61 475 -40 524 -40 ct 554 -40 577 -49 594 -67 ct 
611 -85 620 -110 620 -141 ct 620 -169 611 -191 594 -208 ct 577 -225 554 -233 525 -233 ct 
510 -233 496 -231 483 -226 ct 470 -221 457 -213 444 -202 ct 389 -202 l  404 -437 l 
652 -437 l  652 -390 l  455 -390 l  446 -251 l  470 -270 500 -279 536 -279 ct 
579 -279 614 -266 639 -241 ct 665 -216 677 -183 677 -143 ct p ef
pom
pum
6220 3445 t
48 0 m  48 -47 l  160 -47 l  160 -384 l  61 -314 l  61 -366 l  164 -438 l 
216 -438 l  216 -47 l  322 -47 l  322 0 l  48 0 l  p ef
672 -392 m  628 -324 596 -270 578 -232 ct 559 -193 545 -155 536 -117 ct 527 -79 522 -40 522 0 ct 
464 0 l  464 -56 476 -115 500 -177 ct 523 -238 563 -309 618 -390 ct 384 -390 l 
384 -437 l  672 -437 l  672 -392 l  p ef
pom
pum
12695 5607 t
32 0 m  32 -39 l  42 -64 55 -85 71 -104 ct 86 -122 102 -139 118 -154 ct 135 -169 152 -183 168 -196 ct 
185 -208 199 -221 213 -234 ct 226 -247 237 -260 245 -274 ct 253 -289 257 -304 257 -322 ct 
257 -346 250 -365 236 -378 ct 222 -391 202 -398 177 -398 ct 154 -398 134 -392 119 -379 ct 
103 -366 94 -348 91 -324 ct 34 -329 l  39 -364 53 -392 79 -413 ct 104 -434 137 -444 177 -444 ct 
221 -444 255 -434 279 -413 ct 303 -392 314 -362 314 -324 ct 314 -307 311 -290 303 -274 ct 
295 -257 283 -240 268 -223 ct 253 -206 224 -180 180 -145 ct 157 -126 138 -108 124 -93 ct 
110 -77 100 -62 93 -47 ct 321 -47 l  321 0 l  32 0 l  p ef
399 0 m  399 -47 l  511 -47 l  511 -384 l  412 -314 l  412 -366 l  515 -438 l 
567 -438 l  567 -47 l  673 -47 l  673 0 l  399 0 l  p ef
pom
pum
11690 4657 t
321 -392 m  277 -324 245 -270 227 -232 ct 208 -193 194 -155 185 -117 ct 176 -79 171 -40 171 0 ct 
113 0 l  113 -56 125 -115 149 -177 ct 172 -238 212 -309 267 -390 ct 33 -390 l 
33 -437 l  321 -437 l  321 -392 l  p ef
pom
pum
10203 2359 t
32 0 m  32 -39 l  42 -64 55 -85 71 -104 ct 86 -122 102 -139 118 -154 ct 135 -169 152 -183 168 -196 ct 
185 -208 199 -221 213 -234 ct 226 -247 237 -260 245 -274 ct 253 -289 257 -304 257 -322 ct 
257 -346 250 -365 236 -378 ct 222 -391 202 -398 177 -398 ct 154 -398 134 -392 119 -379 ct 
103 -366 94 -348 91 -324 ct 34 -329 l  39 -364 53 -392 79 -413 ct 104 -434 137 -444 177 -444 ct 
221 -444 255 -434 279 -413 ct 303 -392 314 -362 314 -324 ct 314 -307 311 -290 303 -274 ct 
295 -257 283 -240 268 -223 ct 253 -206 224 -180 180 -145 ct 157 -126 138 -108 124 -93 ct 
110 -77 100 -62 93 -47 ct 321 -47 l  321 0 l  32 0 l  p ef
pom
pum
10686 7029 t
325 -121 m  325 -81 312 -49 287 -27 ct 261 -5 225 6 177 6 ct 133 6 98 -4 71 -24 ct 
45 -44 29 -73 24 -113 ct 82 -118 l  89 -66 121 -40 177 -40 ct 205 -40 227 -47 243 -61 ct 
259 -75 267 -96 267 -123 ct 267 -147 258 -165 240 -179 ct 222 -192 195 -199 161 -199 ct 
129 -199 l  129 -247 l  159 -247 l  190 -247 214 -254 231 -267 ct 247 -280 256 -299 256 -322 ct 
256 -346 249 -364 235 -378 ct 221 -391 201 -398 174 -398 ct 149 -398 129 -392 114 -379 ct 
99 -367 90 -349 88 -326 ct 32 -330 l  36 -366 51 -394 76 -414 ct 102 -434 134 -444 175 -444 ct 
218 -444 252 -434 277 -413 ct 301 -393 313 -365 313 -328 ct 313 -300 305 -278 290 -260 ct 
274 -243 251 -231 222 -225 ct 222 -223 l  254 -220 280 -209 298 -191 ct 316 -172 325 -149 325 -121 ct 
p ef
pom
gs
0 lw 1 lj 18110 4367 m  18457 4367 18723 4610 18723 4929 ct 18723 5248 18457 5492 18110 5492 ct 
17763 5492 17498 5248 17498 4929 ct 17498 4610 17763 4367 18110 4367 ct pc
gr
gs
0 lw 1 lj 17498 4367 m  17498 4367 l  pc
gr
gs
0 lw 1 lj 18724 5493 m  18724 5493 l  pc
gr
pum
17935 5093 t
48 0 m  48 -47 l  160 -47 l  160 -384 l  61 -314 l  61 -366 l  164 -438 l 
216 -438 l  216 -47 l  322 -47 l  322 0 l  48 0 l  p ef
pom
gs
0 lw 1 lj 23884 4886 m  24231 4886 24497 5129 24497 5448 ct 24497 5767 24231 6011 23884 6011 ct 
23537 6011 23272 5767 23272 5448 ct 23272 5129 23537 4886 23884 4886 ct pc
gr
gs
0 lw 1 lj 23272 4886 m  23272 4886 l  pc
gr
gs
0 lw 1 lj 24498 6012 m  24498 6012 l  pc
gr
pum
23710 5611 t
32 0 m  32 -39 l  42 -64 55 -85 71 -104 ct 86 -122 102 -139 118 -154 ct 135 -169 152 -183 168 -196 ct 
185 -208 199 -221 213 -234 ct 226 -247 237 -260 245 -274 ct 253 -289 257 -304 257 -322 ct 
257 -346 250 -365 236 -378 ct 222 -391 202 -398 177 -398 ct 154 -398 134 -392 119 -379 ct 
103 -366 94 -348 91 -324 ct 34 -329 l  39 -364 53 -392 79 -413 ct 104 -434 137 -444 177 -444 ct 
221 -444 255 -434 279 -413 ct 303 -392 314 -362 314 -324 ct 314 -307 311 -290 303 -274 ct 
295 -257 283 -240 268 -223 ct 253 -206 224 -180 180 -145 ct 157 -126 138 -108 124 -93 ct 
110 -77 100 -62 93 -47 ct 321 -47 l  321 0 l  32 0 l  p ef
pom
gs
0 lw 1 lj 20560 8261 m  20907 8261 21173 8505 21173 8823 ct 21173 9141 20907 9385 20560 9385 ct 
20213 9385 19948 9141 19948 8823 ct 19948 8505 20213 8261 20560 8261 ct pc
gr
gs
0 lw 1 lj 19948 8261 m  19948 8261 l  pc
gr
gs
0 lw 1 lj 21174 9386 m  21174 9386 l  pc
gr
pum
20385 8986 t
273 -99 m  273 0 l  220 0 l  220 -99 l  15 -99 l  15 -142 l  215 -438 l 
273 -438 l  273 -143 l  335 -143 l  335 -99 l  273 -99 l  p
220 -374 m  220 -373 217 -368 212 -358 ct 206 -348 202 -341 200 -338 ct 88 -172 l 
71 -149 l  66 -143 l  220 -143 l  220 -374 l  p ef
pom
gs
0 lw 1 lj 21435 1599 m  21782 1599 22048 1842 22048 2161 ct 22048 2480 21782 2724 21435 2724 ct 
21088 2724 20823 2480 20823 2161 ct 20823 1842 21088 1599 21435 1599 ct pc
gr
gs
0 lw 1 lj 20823 1599 m  20823 1599 l  pc
gr
gs
0 lw 1 lj 22049 2725 m  22049 2725 l  pc
gr
pum
21260 2325 t
325 -121 m  325 -81 312 -49 287 -27 ct 261 -5 225 6 177 6 ct 133 6 98 -4 71 -24 ct 
45 -44 29 -73 24 -113 ct 82 -118 l  89 -66 121 -40 177 -40 ct 205 -40 227 -47 243 -61 ct 
259 -75 267 -96 267 -123 ct 267 -147 258 -165 240 -179 ct 222 -192 195 -199 161 -199 ct 
129 -199 l  129 -247 l  159 -247 l  190 -247 214 -254 231 -267 ct 247 -280 256 -299 256 -322 ct 
256 -346 249 -364 235 -378 ct 221 -391 201 -398 174 -398 ct 149 -398 129 -392 114 -379 ct 
99 -367 90 -349 88 -326 ct 32 -330 l  36 -366 51 -394 76 -414 ct 102 -434 134 -444 175 -444 ct 
218 -444 252 -434 277 -413 ct 301 -393 313 -365 313 -328 ct 313 -300 305 -278 290 -260 ct 
274 -243 251 -231 222 -225 ct 222 -223 l  254 -220 280 -209 298 -191 ct 316 -172 325 -149 325 -121 ct 
p ef
pom
gs
0 lw 1 lj 24409 7569 m  24756 7569 25022 7813 25022 8131 ct 25022 8449 24756 8693 24409 8693 ct 
24062 8693 23797 8449 23797 8131 ct 23797 7813 24062 7569 24409 7569 ct pc
gr
gs
0 lw 1 lj 23797 7569 m  23797 7569 l  pc
gr
gs
0 lw 1 lj 25023 8694 m  25023 8694 l  pc
gr
pum
24235 8294 t
325 -143 m  325 -97 313 -61 288 -34 ct 263 -7 228 6 184 6 ct 135 6 97 -12 71 -49 ct 
45 -86 32 -139 32 -209 ct 32 -284 46 -343 73 -383 ct 100 -424 139 -444 189 -444 ct 
254 -444 296 -414 313 -355 ct 260 -345 l  249 -381 225 -399 188 -399 ct 156 -399 131 -384 114 -354 ct 
96 -324 88 -282 88 -225 ct 98 -244 112 -258 131 -268 ct 149 -278 170 -283 194 -283 ct 
234 -283 266 -270 290 -245 ct 313 -220 325 -186 325 -143 ct p
269 -141 m  269 -173 261 -197 245 -214 ct 230 -231 208 -240 180 -240 ct 154 -240 133 -232 117 -217 ct 
101 -202 93 -181 93 -154 ct 93 -120 102 -93 118 -71 ct 135 -50 156 -39 182 -39 ct 
209 -39 230 -48 246 -66 ct 261 -84 269 -109 269 -141 ct p ef
pom
gs
0 lw 1 lj 25459 1946 m  25806 1946 26072 2190 26072 2508 ct 26072 2826 25806 3070 25459 3070 ct 
25112 3070 24847 2826 24847 2508 ct 24847 2190 25112 1946 25459 1946 ct pc
gr
gs
0 lw 1 lj 24847 1946 m  24847 1946 l  pc
gr
gs
0 lw 1 lj 26073 3071 m  26073 3071 l  pc
gr
pum
25285 2672 t
326 -143 m  326 -96 313 -60 285 -34 ct 258 -7 220 6 171 6 ct 131 6 98 -3 73 -21 ct 
48 -38 32 -64 25 -98 ct 82 -104 l  94 -61 124 -40 173 -40 ct 203 -40 226 -49 243 -67 ct 
260 -85 269 -110 269 -141 ct 269 -169 260 -191 243 -208 ct 226 -225 203 -233 174 -233 ct 
159 -233 145 -231 132 -226 ct 119 -221 106 -213 93 -202 ct 38 -202 l  53 -437 l 
301 -437 l  301 -390 l  104 -390 l  95 -251 l  119 -270 149 -279 185 -279 ct 
228 -279 263 -266 288 -241 ct 314 -216 326 -183 326 -143 ct p ef
pom
gs
0 lw 1 lj [ 26.94999 457 ] 0 ld
18545 4532 m  21003 2561 l  ps
gr
gs
0 lw 1 lj [ 26.94999 457 ] 0 ld
18545 5329 m  20128 8425 l  ps
gr
gs
0 lw 1 lj [ 26.94999 457 ] 0 ld
18724 4931 m  25027 2906 l  ps
gr
gs
0 lw 1 lj 22049 2163 m  24848 2508 l  ps
gr
gs
0 lw 1 lj [ 26.94999 457 ] 0 ld
21174 8823 m  23977 8529 l  ps
gr
gs
0 lw 1 lj [ 26.94999 457 ] 0 ld
24411 7569 m  23886 6012 l  ps
gr
gs
0 lw 1 lj [ 26.94999 457 ] 0 ld
23886 4887 m  25461 3070 l  ps
gr
gs
0 lw 1 lj [ 26.94999 457 ] 0 ld
25023 8131 m  25894 2906 l  ps
gr
pum
18927 7251 t
326 -143 m  326 -96 313 -60 285 -34 ct 258 -7 220 6 171 6 ct 131 6 98 -3 73 -21 ct 
48 -38 32 -64 25 -98 ct 82 -104 l  94 -61 124 -40 173 -40 ct 203 -40 226 -49 243 -67 ct 
260 -85 269 -110 269 -141 ct 269 -169 260 -191 243 -208 ct 226 -225 203 -233 174 -233 ct 
159 -233 145 -231 132 -226 ct 119 -221 106 -213 93 -202 ct 38 -202 l  53 -437 l 
301 -437 l  301 -390 l  104 -390 l  95 -251 l  119 -270 149 -279 185 -279 ct 
228 -279 263 -266 288 -241 ct 314 -216 326 -183 326 -143 ct p ef
pom
pum
22340 9327 t
273 -99 m  273 0 l  220 0 l  220 -99 l  15 -99 l  15 -142 l  215 -438 l 
273 -438 l  273 -143 l  335 -143 l  335 -99 l  273 -99 l  p
220 -374 m  220 -373 217 -368 212 -358 ct 206 -348 202 -341 200 -338 ct 88 -172 l 
71 -149 l  66 -143 l  220 -143 l  220 -374 l  p ef
pom
pum
21770 4571 t
48 0 m  48 -47 l  160 -47 l  160 -384 l  61 -314 l  61 -366 l  164 -438 l 
216 -438 l  216 -47 l  322 -47 l  322 0 l  48 0 l  p ef
677 -143 m  677 -96 664 -60 636 -34 ct 609 -7 571 6 522 6 ct 482 6 449 -3 424 -21 ct 
399 -38 383 -64 376 -98 ct 433 -104 l  445 -61 475 -40 524 -40 ct 554 -40 577 -49 594 -67 ct 
611 -85 620 -110 620 -141 ct 620 -169 611 -191 594 -208 ct 577 -225 554 -233 525 -233 ct 
510 -233 496 -231 483 -226 ct 470 -221 457 -213 444 -202 ct 389 -202 l  404 -437 l 
652 -437 l  652 -390 l  455 -390 l  446 -251 l  470 -270 500 -279 536 -279 ct 
579 -279 614 -266 639 -241 ct 665 -216 677 -183 677 -143 ct p ef
pom
pum
19320 3446 t
48 0 m  48 -47 l  160 -47 l  160 -384 l  61 -314 l  61 -366 l  164 -438 l 
216 -438 l  216 -47 l  322 -47 l  322 0 l  48 0 l  p ef
672 -392 m  628 -324 596 -270 578 -232 ct 559 -193 545 -155 536 -117 ct 527 -79 522 -40 522 0 ct 
464 0 l  464 -56 476 -115 500 -177 ct 523 -238 563 -309 618 -390 ct 384 -390 l 
384 -437 l  672 -437 l  672 -392 l  p ef
pom
pum
25795 5608 t
32 0 m  32 -39 l  42 -64 55 -85 71 -104 ct 86 -122 102 -139 118 -154 ct 135 -169 152 -183 168 -196 ct 
185 -208 199 -221 213 -234 ct 226 -247 237 -260 245 -274 ct 253 -289 257 -304 257 -322 ct 
257 -346 250 -365 236 -378 ct 222 -391 202 -398 177 -398 ct 154 -398 134 -392 119 -379 ct 
103 -366 94 -348 91 -324 ct 34 -329 l  39 -364 53 -392 79 -413 ct 104 -434 137 -444 177 -444 ct 
221 -444 255 -434 279 -413 ct 303 -392 314 -362 314 -324 ct 314 -307 311 -290 303 -274 ct 
295 -257 283 -240 268 -223 ct 253 -206 224 -180 180 -145 ct 157 -126 138 -108 124 -93 ct 
110 -77 100 -62 93 -47 ct 321 -47 l  321 0 l  32 0 l  p ef
399 0 m  399 -47 l  511 -47 l  511 -384 l  412 -314 l  412 -366 l  515 -438 l 
567 -438 l  567 -47 l  673 -47 l  673 0 l  399 0 l  p ef
pom
pum
24790 4658 t
321 -392 m  277 -324 245 -270 227 -232 ct 208 -193 194 -155 185 -117 ct 176 -79 171 -40 171 0 ct 
113 0 l  113 -56 125 -115 149 -177 ct 172 -238 212 -309 267 -390 ct 33 -390 l 
33 -437 l  321 -437 l  321 -392 l  p ef
pom
pum
23303 2360 t
32 0 m  32 -39 l  42 -64 55 -85 71 -104 ct 86 -122 102 -139 118 -154 ct 135 -169 152 -183 168 -196 ct 
185 -208 199 -221 213 -234 ct 226 -247 237 -260 245 -274 ct 253 -289 257 -304 257 -322 ct 
257 -346 250 -365 236 -378 ct 222 -391 202 -398 177 -398 ct 154 -398 134 -392 119 -379 ct 
103 -366 94 -348 91 -324 ct 34 -329 l  39 -364 53 -392 79 -413 ct 104 -434 137 -444 177 -444 ct 
221 -444 255 -434 279 -413 ct 303 -392 314 -362 314 -324 ct 314 -307 311 -290 303 -274 ct 
295 -257 283 -240 268 -223 ct 253 -206 224 -180 180 -145 ct 157 -126 138 -108 124 -93 ct 
110 -77 100 -62 93 -47 ct 321 -47 l  321 0 l  32 0 l  p ef
pom
pum
23786 7030 t
325 -121 m  325 -81 312 -49 287 -27 ct 261 -5 225 6 177 6 ct 133 6 98 -4 71 -24 ct 
45 -44 29 -73 24 -113 ct 82 -118 l  89 -66 121 -40 177 -40 ct 205 -40 227 -47 243 -61 ct 
259 -75 267 -96 267 -123 ct 267 -147 258 -165 240 -179 ct 222 -192 195 -199 161 -199 ct 
129 -199 l  129 -247 l  159 -247 l  190 -247 214 -254 231 -267 ct 247 -280 256 -299 256 -322 ct 
256 -346 249 -364 235 -378 ct 221 -391 201 -398 174 -398 ct 149 -398 129 -392 114 -379 ct 
99 -367 90 -349 88 -326 ct 32 -330 l  36 -366 51 -394 76 -414 ct 102 -434 134 -444 175 -444 ct 
218 -444 252 -434 277 -413 ct 301 -393 313 -365 313 -328 ct 313 -300 305 -278 290 -260 ct 
274 -243 251 -231 222 -225 ct 222 -223 l  254 -220 280 -209 298 -191 ct 316 -172 325 -149 325 -121 ct 
p ef
pom
pum
9041 10826 t
39 -165 m  39 -224 49 -278 67 -326 ct 86 -373 115 -418 154 -460 ct 208 -460 l 
169 -417 141 -371 123 -323 ct 105 -274 96 -222 96 -164 ct 96 -107 104 -54 122 -6 ct 
140 42 169 88 208 132 ct 154 132 l  115 90 86 45 67 -3 ct 49 -50 39 -104 39 -163 ct 
39 -165 l  p ef
340 6 m  307 6 281 -3 264 -21 ct 247 -38 239 -63 239 -94 ct 239 -129 250 -155 273 -174 ct 
296 -192 333 -202 384 -204 ct 459 -205 l  459 -223 l  459 -250 453 -270 442 -282 ct 
430 -294 412 -299 387 -299 ct 362 -299 344 -295 333 -287 ct 321 -278 314 -265 312 -246 ct 
254 -251 l  263 -312 308 -342 388 -342 ct 431 -342 462 -332 484 -313 ct 505 -294 516 -266 516 -229 ct 
516 -85 l  516 -68 518 -55 522 -47 ct 526 -39 535 -35 547 -35 ct 552 -35 558 -35 565 -37 ct 
565 -2 l  551 1 537 3 522 3 ct 501 3 486 -2 477 -13 ct 468 -24 462 -41 461 -64 ct 
459 -64 l  445 -39 428 -21 409 -10 ct 390 1 367 6 340 6 ct p
353 -36 m  374 -36 392 -41 408 -50 ct 424 -59 436 -72 445 -88 ct 455 -104 459 -121 459 -138 ct 
459 -166 l  398 -165 l  372 -164 352 -161 338 -157 ct 325 -152 314 -144 307 -134 ct 
300 -123 296 -110 296 -93 ct 296 -75 301 -61 311 -51 ct 321 -41 335 -36 353 -36 ct 
p ef
735 -163 m  735 -104 726 -50 707 -2 ct 688 45 660 90 621 132 ct 567 132 l  606 89 634 43 652 -5 ct 
670 -53 679 -106 679 -164 ct 679 -222 670 -275 652 -323 ct 634 -371 605 -417 567 -460 ct 
621 -460 l  660 -418 689 -373 707 -325 ct 726 -278 735 -224 735 -165 ct 735 -163 l 
p ef
pom
pum
22041 10827 t
39 -165 m  39 -224 49 -278 67 -326 ct 86 -373 115 -418 154 -460 ct 208 -460 l 
169 -417 141 -371 123 -323 ct 105 -274 96 -222 96 -164 ct 96 -107 104 -54 122 -6 ct 
140 42 169 88 208 132 ct 154 132 l  115 90 86 45 67 -3 ct 49 -50 39 -104 39 -163 ct 
39 -165 l  p ef
538 -169 m  538 -52 497 7 415 7 ct 390 7 369 2 352 -7 ct 335 -16 321 -31 311 -51 ct 
310 -51 l  310 -45 310 -35 309 -22 ct 308 -9 307 -1 307 1 ct 253 1 l  254 -10 255 -33 255 -68 ct 
255 -460 l  311 -460 l  311 -328 l  311 -315 310 -299 309 -281 ct 311 -281 l 
321 -302 335 -318 352 -327 ct 369 -336 390 -341 415 -341 ct 457 -341 489 -327 509 -298 ct 
529 -270 538 -227 538 -169 ct p
480 -167 m  480 -214 474 -247 461 -268 ct 449 -288 429 -298 401 -298 ct 369 -298 347 -287 332 -266 ct 
318 -244 311 -210 311 -163 ct 311 -119 318 -87 332 -66 ct 346 -45 369 -34 400 -34 ct 
428 -34 449 -45 461 -65 ct 474 -86 480 -120 480 -167 ct p ef
735 -163 m  735 -104 726 -50 707 -2 ct 688 45 660 90 621 132 ct 567 132 l  606 89 634 43 652 -5 ct 
670 -53 679 -106 679 -164 ct 679 -222 670 -275 652 -323 ct 634 -371 605 -417 567 -460 ct 
621 -460 l  660 -418 689 -373 707 -325 ct 726 -278 735 -224 735 -165 ct 735 -163 l 
p ef
pom
pum
9041 21826 t
39 -165 m  39 -224 49 -278 67 -326 ct 86 -373 115 -418 154 -460 ct 208 -460 l 
169 -417 141 -371 123 -323 ct 105 -274 96 -222 96 -164 ct 96 -107 104 -54 122 -6 ct 
140 42 169 88 208 132 ct 154 132 l  115 90 86 45 67 -3 ct 49 -50 39 -104 39 -163 ct 
39 -165 l  p ef
297 -170 m  297 -125 304 -92 318 -70 ct 332 -49 354 -38 382 -38 ct 402 -38 418 -43 432 -54 ct 
445 -65 453 -81 456 -104 ct 513 -100 l  508 -68 495 -42 472 -23 ct 448 -4 419 6 383 6 ct 
337 6 301 -9 276 -39 ct 251 -68 239 -111 239 -168 ct 239 -225 251 -268 276 -297 ct 
301 -327 337 -342 383 -342 ct 417 -342 446 -333 468 -315 ct 491 -298 505 -273 511 -242 ct 
454 -237 l  451 -256 443 -271 432 -282 ct 420 -293 403 -298 381 -298 ct 352 -298 330 -288 317 -269 ct 
304 -249 297 -216 297 -170 ct p ef
701 -163 m  701 -104 692 -50 673 -2 ct 654 45 626 90 587 132 ct 533 132 l  572 89 600 43 618 -5 ct 
636 -53 645 -106 645 -164 ct 645 -222 636 -275 618 -323 ct 600 -371 571 -417 533 -460 ct 
587 -460 l  626 -418 655 -373 673 -325 ct 692 -278 701 -224 701 -165 ct 701 -163 l 
p ef
pom
pum
23041 21827 t
39 -165 m  39 -224 49 -278 67 -326 ct 86 -373 115 -418 154 -460 ct 208 -460 l 
169 -417 141 -371 123 -323 ct 105 -274 96 -222 96 -164 ct 96 -107 104 -54 122 -6 ct 
140 42 169 88 208 132 ct 154 132 l  115 90 86 45 67 -3 ct 49 -50 39 -104 39 -163 ct 
39 -165 l  p ef
467 -53 m  456 -32 443 -16 425 -7 ct 408 2 387 7 362 7 ct 320 7 289 -7 269 -36 ct 
249 -64 239 -108 239 -166 ct 239 -283 280 -341 362 -341 ct 387 -341 409 -337 426 -327 ct 
443 -318 456 -303 467 -283 ct 467 -283 l  467 -321 l  467 -460 l  522 -460 l 
522 -68 l  522 -33 523 -10 524 1 ct 471 1 l  470 -3 470 -10 469 -22 ct 468 -34 468 -45 468 -53 ct 
467 -53 l  p
297 -167 m  297 -120 303 -87 316 -67 ct 328 -46 348 -36 376 -36 ct 408 -36 431 -47 445 -69 ct 
459 -91 467 -125 467 -171 ct 467 -216 459 -248 445 -269 ct 431 -290 408 -300 377 -300 ct 
349 -300 329 -290 316 -269 ct 304 -248 297 -214 297 -167 ct p ef
735 -163 m  735 -104 726 -50 707 -2 ct 688 45 660 90 621 132 ct 567 132 l  606 89 634 43 652 -5 ct 
670 -53 679 -106 679 -164 ct 679 -222 670 -275 652 -323 ct 634 -371 605 -417 567 -460 ct 
621 -460 l  660 -418 689 -373 707 -325 ct 726 -278 735 -224 735 -165 ct 735 -163 l 
p ef
pom
gs
0 lw 1 lj 5048 15266 m  5395 15266 5661 15509 5661 15828 ct 5661 16147 5395 16391 5048 16391 ct 
4701 16391 4436 16147 4436 15828 ct 4436 15509 4701 15266 5048 15266 ct pc
gr
gs
0 lw 1 lj 4436 15266 m  4436 15266 l  pc
gr
gs
0 lw 1 lj 5662 16392 m  5662 16392 l  pc
gr
pum
4874 15991 t
48 0 m  48 -47 l  160 -47 l  160 -384 l  61 -314 l  61 -366 l  164 -438 l 
216 -438 l  216 -47 l  322 -47 l  322 0 l  48 0 l  p ef
pom
gs
0 lw 1 lj 10823 15785 m  11170 15785 11435 16028 11435 16347 ct 11435 16666 11170 16910 10823 16910 ct 
10476 16910 10211 16666 10211 16347 ct 10211 16028 10476 15785 10823 15785 ct 
pc
gr
gs
0 lw 1 lj 10211 15785 m  10211 15785 l  pc
gr
gs
0 lw 1 lj 11436 16911 m  11436 16911 l  pc
gr
pum
10648 16510 t
32 0 m  32 -39 l  42 -64 55 -85 71 -104 ct 86 -122 102 -139 118 -154 ct 135 -169 152 -183 168 -196 ct 
185 -208 199 -221 213 -234 ct 226 -247 237 -260 245 -274 ct 253 -289 257 -304 257 -322 ct 
257 -346 250 -365 236 -378 ct 222 -391 202 -398 177 -398 ct 154 -398 134 -392 119 -379 ct 
103 -366 94 -348 91 -324 ct 34 -329 l  39 -364 53 -392 79 -413 ct 104 -434 137 -444 177 -444 ct 
221 -444 255 -434 279 -413 ct 303 -392 314 -362 314 -324 ct 314 -307 311 -290 303 -274 ct 
295 -257 283 -240 268 -223 ct 253 -206 224 -180 180 -145 ct 157 -126 138 -108 124 -93 ct 
110 -77 100 -62 93 -47 ct 321 -47 l  321 0 l  32 0 l  p ef
pom
gs
0 lw 1 lj 7498 19160 m  7845 19160 8111 19404 8111 19722 ct 8111 20040 7845 20284 7498 20284 ct 
7151 20284 6886 20040 6886 19722 ct 6886 19404 7151 19160 7498 19160 ct pc
gr
gs
0 lw 1 lj 6886 19160 m  6886 19160 l  pc
gr
gs
0 lw 1 lj 8112 20285 m  8112 20285 l  pc
gr
pum
7323 19885 t
273 -99 m  273 0 l  220 0 l  220 -99 l  15 -99 l  15 -142 l  215 -438 l 
273 -438 l  273 -143 l  335 -143 l  335 -99 l  273 -99 l  p
220 -374 m  220 -373 217 -368 212 -358 ct 206 -348 202 -341 200 -338 ct 88 -172 l 
71 -149 l  66 -143 l  220 -143 l  220 -374 l  p ef
pom
gs
0 lw 1 lj 8373 12498 m  8720 12498 8986 12741 8986 13060 ct 8986 13379 8720 13623 8373 13623 ct 
8026 13623 7761 13379 7761 13060 ct 7761 12741 8026 12498 8373 12498 ct pc
gr
gs
0 lw 1 lj 7761 12498 m  7761 12498 l  pc
gr
gs
0 lw 1 lj 8987 13624 m  8987 13624 l  pc
gr
pum
8198 13224 t
325 -121 m  325 -81 312 -49 287 -27 ct 261 -5 225 6 177 6 ct 133 6 98 -4 71 -24 ct 
45 -44 29 -73 24 -113 ct 82 -118 l  89 -66 121 -40 177 -40 ct 205 -40 227 -47 243 -61 ct 
259 -75 267 -96 267 -123 ct 267 -147 258 -165 240 -179 ct 222 -192 195 -199 161 -199 ct 
129 -199 l  129 -247 l  159 -247 l  190 -247 214 -254 231 -267 ct 247 -280 256 -299 256 -322 ct 
256 -346 249 -364 235 -378 ct 221 -391 201 -398 174 -398 ct 149 -398 129 -392 114 -379 ct 
99 -367 90 -349 88 -326 ct 32 -330 l  36 -366 51 -394 76 -414 ct 102 -434 134 -444 175 -444 ct 
218 -444 252 -434 277 -413 ct 301 -393 313 -365 313 -328 ct 313 -300 305 -278 290 -260 ct 
274 -243 251 -231 222 -225 ct 222 -223 l  254 -220 280 -209 298 -191 ct 316 -172 325 -149 325 -121 ct 
p ef
pom
gs
0 lw 1 lj 11347 18468 m  11694 18468 11960 18712 11960 19030 ct 11960 19348 11694 19592 11347 19592 ct 
11001 19592 10736 19348 10736 19030 ct 10736 18712 11001 18468 11347 18468 ct 
pc
gr
gs
0 lw 1 lj 10736 18468 m  10736 18468 l  pc
gr
gs
0 lw 1 lj 11961 19593 m  11961 19593 l  pc
gr
pum
11173 19193 t
325 -143 m  325 -97 313 -61 288 -34 ct 263 -7 228 6 184 6 ct 135 6 97 -12 71 -49 ct 
45 -86 32 -139 32 -209 ct 32 -284 46 -343 73 -383 ct 100 -424 139 -444 189 -444 ct 
254 -444 296 -414 313 -355 ct 260 -345 l  249 -381 225 -399 188 -399 ct 156 -399 131 -384 114 -354 ct 
96 -324 88 -282 88 -225 ct 98 -244 112 -258 131 -268 ct 149 -278 170 -283 194 -283 ct 
234 -283 266 -270 290 -245 ct 313 -220 325 -186 325 -143 ct p
269 -141 m  269 -173 261 -197 245 -214 ct 230 -231 208 -240 180 -240 ct 154 -240 133 -232 117 -217 ct 
101 -202 93 -181 93 -154 ct 93 -120 102 -93 118 -71 ct 135 -50 156 -39 182 -39 ct 
209 -39 230 -48 246 -66 ct 261 -84 269 -109 269 -141 ct p ef
pom
gs
0 lw 1 lj 12397 12845 m  12744 12845 13010 13089 13010 13407 ct 13010 13725 12744 13969 12397 13969 ct 
12050 13969 11785 13725 11785 13407 ct 11785 13089 12050 12845 12397 12845 ct 
pc
gr
gs
0 lw 1 lj 11785 12845 m  11785 12845 l  pc
gr
gs
0 lw 1 lj 13011 13970 m  13011 13970 l  pc
gr
pum
12223 13571 t
326 -143 m  326 -96 313 -60 285 -34 ct 258 -7 220 6 171 6 ct 131 6 98 -3 73 -21 ct 
48 -38 32 -64 25 -98 ct 82 -104 l  94 -61 124 -40 173 -40 ct 203 -40 226 -49 243 -67 ct 
260 -85 269 -110 269 -141 ct 269 -169 260 -191 243 -208 ct 226 -225 203 -233 174 -233 ct 
159 -233 145 -231 132 -226 ct 119 -221 106 -213 93 -202 ct 38 -202 l  53 -437 l 
301 -437 l  301 -390 l  104 -390 l  95 -251 l  119 -270 149 -279 185 -279 ct 
228 -279 263 -266 288 -241 ct 314 -216 326 -183 326 -143 ct p ef
pom
gs
0 lw 1 lj [ 26.94999 457 ] 0 ld
5483 15431 m  7941 13460 l  ps
gr
gs
0 lw 1 lj [ 26.94999 457 ] 0 ld
5483 16228 m  7066 19324 l  ps
gr
gs
0 lw 1 lj [ 26.94999 457 ] 0 ld
5662 15830 m  11965 13805 l  ps
gr
gs
0 lw 1 lj 8987 13062 m  11786 13407 l  ps
gr
gs
0 lw 1 lj [ 26.94999 457 ] 0 ld
8112 19722 m  10916 19428 l  ps
gr
gs
0 lw 1 lj 11349 18468 m  10825 16911 l  ps
gr
gs
0 lw 1 lj [ 26.94999 457 ] 0 ld
10825 15786 m  12399 13969 l  ps
gr
gs
0 lw 1 lj [ 26.94999 457 ] 0 ld
11961 19030 m  12832 13805 l  ps
gr
pum
5865 18150 t
326 -143 m  326 -96 313 -60 285 -34 ct 258 -7 220 6 171 6 ct 131 6 98 -3 73 -21 ct 
48 -38 32 -64 25 -98 ct 82 -104 l  94 -61 124 -40 173 -40 ct 203 -40 226 -49 243 -67 ct 
260 -85 269 -110 269 -141 ct 269 -169 260 -191 243 -208 ct 226 -225 203 -233 174 -233 ct 
159 -233 145 -231 132 -226 ct 119 -221 106 -213 93 -202 ct 38 -202 l  53 -437 l 
301 -437 l  301 -390 l  104 -390 l  95 -251 l  119 -270 149 -279 185 -279 ct 
228 -279 263 -266 288 -241 ct 314 -216 326 -183 326 -143 ct p ef
pom
pum
9278 20226 t
273 -99 m  273 0 l  220 0 l  220 -99 l  15 -99 l  15 -142 l  215 -438 l 
273 -438 l  273 -143 l  335 -143 l  335 -99 l  273 -99 l  p
220 -374 m  220 -373 217 -368 212 -358 ct 206 -348 202 -341 200 -338 ct 88 -172 l 
71 -149 l  66 -143 l  220 -143 l  220 -374 l  p ef
pom
pum
8708 15469 t
48 0 m  48 -47 l  160 -47 l  160 -384 l  61 -314 l  61 -366 l  164 -438 l 
216 -438 l  216 -47 l  322 -47 l  322 0 l  48 0 l  p ef
677 -143 m  677 -96 664 -60 636 -34 ct 609 -7 571 6 522 6 ct 482 6 449 -3 424 -21 ct 
399 -38 383 -64 376 -98 ct 433 -104 l  445 -61 475 -40 524 -40 ct 554 -40 577 -49 594 -67 ct 
611 -85 620 -110 620 -141 ct 620 -169 611 -191 594 -208 ct 577 -225 554 -233 525 -233 ct 
510 -233 496 -231 483 -226 ct 470 -221 457 -213 444 -202 ct 389 -202 l  404 -437 l 
652 -437 l  652 -390 l  455 -390 l  446 -251 l  470 -270 500 -279 536 -279 ct 
579 -279 614 -266 639 -241 ct 665 -216 677 -183 677 -143 ct p ef
pom
pum
6258 14345 t
48 0 m  48 -47 l  160 -47 l  160 -384 l  61 -314 l  61 -366 l  164 -438 l 
216 -438 l  216 -47 l  322 -47 l  322 0 l  48 0 l  p ef
672 -392 m  628 -324 596 -270 578 -232 ct 559 -193 545 -155 536 -117 ct 527 -79 522 -40 522 0 ct 
464 0 l  464 -56 476 -115 500 -177 ct 523 -238 563 -309 618 -390 ct 384 -390 l 
384 -437 l  672 -437 l  672 -392 l  p ef
pom
pum
12733 16507 t
32 0 m  32 -39 l  42 -64 55 -85 71 -104 ct 86 -122 102 -139 118 -154 ct 135 -169 152 -183 168 -196 ct 
185 -208 199 -221 213 -234 ct 226 -247 237 -260 245 -274 ct 253 -289 257 -304 257 -322 ct 
257 -346 250 -365 236 -378 ct 222 -391 202 -398 177 -398 ct 154 -398 134 -392 119 -379 ct 
103 -366 94 -348 91 -324 ct 34 -329 l  39 -364 53 -392 79 -413 ct 104 -434 137 -444 177 -444 ct 
221 -444 255 -434 279 -413 ct 303 -392 314 -362 314 -324 ct 314 -307 311 -290 303 -274 ct 
295 -257 283 -240 268 -223 ct 253 -206 224 -180 180 -145 ct 157 -126 138 -108 124 -93 ct 
110 -77 100 -62 93 -47 ct 321 -47 l  321 0 l  32 0 l  p ef
399 0 m  399 -47 l  511 -47 l  511 -384 l  412 -314 l  412 -366 l  515 -438 l 
567 -438 l  567 -47 l  673 -47 l  673 0 l  399 0 l  p ef
pom
pum
11728 15556 t
321 -392 m  277 -324 245 -270 227 -232 ct 208 -193 194 -155 185 -117 ct 176 -79 171 -40 171 0 ct 
113 0 l  113 -56 125 -115 149 -177 ct 172 -238 212 -309 267 -390 ct 33 -390 l 
33 -437 l  321 -437 l  321 -392 l  p ef
pom
pum
10241 13259 t
32 0 m  32 -39 l  42 -64 55 -85 71 -104 ct 86 -122 102 -139 118 -154 ct 135 -169 152 -183 168 -196 ct 
185 -208 199 -221 213 -234 ct 226 -247 237 -260 245 -274 ct 253 -289 257 -304 257 -322 ct 
257 -346 250 -365 236 -378 ct 222 -391 202 -398 177 -398 ct 154 -398 134 -392 119 -379 ct 
103 -366 94 -348 91 -324 ct 34 -329 l  39 -364 53 -392 79 -413 ct 104 -434 137 -444 177 -444 ct 
221 -444 255 -434 279 -413 ct 303 -392 314 -362 314 -324 ct 314 -307 311 -290 303 -274 ct 
295 -257 283 -240 268 -223 ct 253 -206 224 -180 180 -145 ct 157 -126 138 -108 124 -93 ct 
110 -77 100 -62 93 -47 ct 321 -47 l  321 0 l  32 0 l  p ef
pom
pum
10724 17929 t
325 -121 m  325 -81 312 -49 287 -27 ct 261 -5 225 6 177 6 ct 133 6 98 -4 71 -24 ct 
45 -44 29 -73 24 -113 ct 82 -118 l  89 -66 121 -40 177 -40 ct 205 -40 227 -47 243 -61 ct 
259 -75 267 -96 267 -123 ct 267 -147 258 -165 240 -179 ct 222 -192 195 -199 161 -199 ct 
129 -199 l  129 -247 l  159 -247 l  190 -247 214 -254 231 -267 ct 247 -280 256 -299 256 -322 ct 
256 -346 249 -364 235 -378 ct 221 -391 201 -398 174 -398 ct 149 -398 129 -392 114 -379 ct 
99 -367 90 -349 88 -326 ct 32 -330 l  36 -366 51 -394 76 -414 ct 102 -434 134 -444 175 -444 ct 
218 -444 252 -434 277 -413 ct 301 -393 313 -365 313 -328 ct 313 -300 305 -278 290 -260 ct 
274 -243 251 -231 222 -225 ct 222 -223 l  254 -220 280 -209 298 -191 ct 316 -172 325 -149 325 -121 ct 
p ef
pom
gs
0 lw 1 lj 18146 15266 m  18493 15266 18759 15509 18759 15828 ct 18759 16147 18493 16391 18146 16391 ct 
17799 16391 17534 16147 17534 15828 ct 17534 15509 17799 15266 18146 15266 ct 
pc
gr
gs
0 lw 1 lj 17534 15266 m  17534 15266 l  pc
gr
gs
0 lw 1 lj 18760 16392 m  18760 16392 l  pc
gr
pum
17971 15991 t
48 0 m  48 -47 l  160 -47 l  160 -384 l  61 -314 l  61 -366 l  164 -438 l 
216 -438 l  216 -47 l  322 -47 l  322 0 l  48 0 l  p ef
pom
gs
0 lw 1 lj 23920 15785 m  24267 15785 24533 16028 24533 16347 ct 24533 16666 24267 16910 23920 16910 ct 
23573 16910 23308 16666 23308 16347 ct 23308 16028 23573 15785 23920 15785 ct 
pc
gr
gs
0 lw 1 lj 23308 15785 m  23308 15785 l  pc
gr
gs
0 lw 1 lj 24534 16911 m  24534 16911 l  pc
gr
pum
23746 16510 t
32 0 m  32 -39 l  42 -64 55 -85 71 -104 ct 86 -122 102 -139 118 -154 ct 135 -169 152 -183 168 -196 ct 
185 -208 199 -221 213 -234 ct 226 -247 237 -260 245 -274 ct 253 -289 257 -304 257 -322 ct 
257 -346 250 -365 236 -378 ct 222 -391 202 -398 177 -398 ct 154 -398 134 -392 119 -379 ct 
103 -366 94 -348 91 -324 ct 34 -329 l  39 -364 53 -392 79 -413 ct 104 -434 137 -444 177 -444 ct 
221 -444 255 -434 279 -413 ct 303 -392 314 -362 314 -324 ct 314 -307 311 -290 303 -274 ct 
295 -257 283 -240 268 -223 ct 253 -206 224 -180 180 -145 ct 157 -126 138 -108 124 -93 ct 
110 -77 100 -62 93 -47 ct 321 -47 l  321 0 l  32 0 l  p ef
pom
gs
0 lw 1 lj 20596 19160 m  20943 19160 21209 19404 21209 19722 ct 21209 20040 20943 20284 20596 20284 ct 
20249 20284 19984 20040 19984 19722 ct 19984 19404 20249 19160 20596 19160 ct 
pc
gr
gs
0 lw 1 lj 19984 19160 m  19984 19160 l  pc
gr
gs
0 lw 1 lj 21210 20285 m  21210 20285 l  pc
gr
pum
20421 19885 t
273 -99 m  273 0 l  220 0 l  220 -99 l  15 -99 l  15 -142 l  215 -438 l 
273 -438 l  273 -143 l  335 -143 l  335 -99 l  273 -99 l  p
220 -374 m  220 -373 217 -368 212 -358 ct 206 -348 202 -341 200 -338 ct 88 -172 l 
71 -149 l  66 -143 l  220 -143 l  220 -374 l  p ef
pom
gs
0 lw 1 lj 21471 12498 m  21818 12498 22084 12741 22084 13060 ct 22084 13379 21818 13623 21471 13623 ct 
21124 13623 20859 13379 20859 13060 ct 20859 12741 21124 12498 21471 12498 ct 
pc
gr
gs
0 lw 1 lj 20859 12498 m  20859 12498 l  pc
gr
gs
0 lw 1 lj 22085 13624 m  22085 13624 l  pc
gr
pum
21296 13224 t
325 -121 m  325 -81 312 -49 287 -27 ct 261 -5 225 6 177 6 ct 133 6 98 -4 71 -24 ct 
45 -44 29 -73 24 -113 ct 82 -118 l  89 -66 121 -40 177 -40 ct 205 -40 227 -47 243 -61 ct 
259 -75 267 -96 267 -123 ct 267 -147 258 -165 240 -179 ct 222 -192 195 -199 161 -199 ct 
129 -199 l  129 -247 l  159 -247 l  190 -247 214 -254 231 -267 ct 247 -280 256 -299 256 -322 ct 
256 -346 249 -364 235 -378 ct 221 -391 201 -398 174 -398 ct 149 -398 129 -392 114 -379 ct 
99 -367 90 -349 88 -326 ct 32 -330 l  36 -366 51 -394 76 -414 ct 102 -434 134 -444 175 -444 ct 
218 -444 252 -434 277 -413 ct 301 -393 313 -365 313 -328 ct 313 -300 305 -278 290 -260 ct 
274 -243 251 -231 222 -225 ct 222 -223 l  254 -220 280 -209 298 -191 ct 316 -172 325 -149 325 -121 ct 
p ef
pom
gs
0 lw 1 lj 24445 18468 m  24792 18468 25058 18712 25058 19030 ct 25058 19348 24792 19592 24445 19592 ct 
24098 19592 23833 19348 23833 19030 ct 23833 18712 24098 18468 24445 18468 ct 
pc
gr
gs
0 lw 1 lj 23833 18468 m  23833 18468 l  pc
gr
gs
0 lw 1 lj 25059 19593 m  25059 19593 l  pc
gr
pum
24271 19193 t
325 -143 m  325 -97 313 -61 288 -34 ct 263 -7 228 6 184 6 ct 135 6 97 -12 71 -49 ct 
45 -86 32 -139 32 -209 ct 32 -284 46 -343 73 -383 ct 100 -424 139 -444 189 -444 ct 
254 -444 296 -414 313 -355 ct 260 -345 l  249 -381 225 -399 188 -399 ct 156 -399 131 -384 114 -354 ct 
96 -324 88 -282 88 -225 ct 98 -244 112 -258 131 -268 ct 149 -278 170 -283 194 -283 ct 
234 -283 266 -270 290 -245 ct 313 -220 325 -186 325 -143 ct p
269 -141 m  269 -173 261 -197 245 -214 ct 230 -231 208 -240 180 -240 ct 154 -240 133 -232 117 -217 ct 
101 -202 93 -181 93 -154 ct 93 -120 102 -93 118 -71 ct 135 -50 156 -39 182 -39 ct 
209 -39 230 -48 246 -66 ct 261 -84 269 -109 269 -141 ct p ef
pom
gs
0 lw 1 lj 25495 12845 m  25842 12845 26108 13089 26108 13407 ct 26108 13725 25842 13969 25495 13969 ct 
25148 13969 24883 13725 24883 13407 ct 24883 13089 25148 12845 25495 12845 ct 
pc
gr
gs
0 lw 1 lj 24883 12845 m  24883 12845 l  pc
gr
gs
0 lw 1 lj 26109 13970 m  26109 13970 l  pc
gr
pum
25321 13571 t
326 -143 m  326 -96 313 -60 285 -34 ct 258 -7 220 6 171 6 ct 131 6 98 -3 73 -21 ct 
48 -38 32 -64 25 -98 ct 82 -104 l  94 -61 124 -40 173 -40 ct 203 -40 226 -49 243 -67 ct 
260 -85 269 -110 269 -141 ct 269 -169 260 -191 243 -208 ct 226 -225 203 -233 174 -233 ct 
159 -233 145 -231 132 -226 ct 119 -221 106 -213 93 -202 ct 38 -202 l  53 -437 l 
301 -437 l  301 -390 l  104 -390 l  95 -251 l  119 -270 149 -279 185 -279 ct 
228 -279 263 -266 288 -241 ct 314 -216 326 -183 326 -143 ct p ef
pom
gs
0 lw 1 lj [ 26.94999 457 ] 0 ld
18581 15431 m  21039 13460 l  ps
gr
gs
0 lw 1 lj [ 26.94999 457 ] 0 ld
18581 16228 m  20164 19324 l  ps
gr
gs
0 lw 1 lj [ 26.94999 457 ] 0 ld
18760 15830 m  25063 13805 l  ps
gr
gs
0 lw 1 lj 22085 13062 m  24884 13407 l  ps
gr
gs
0 lw 1 lj 21210 19722 m  24013 19428 l  ps
gr
gs
0 lw 1 lj 24447 18468 m  23922 16911 l  ps
gr
gs
0 lw 1 lj [ 26.94999 457 ] 0 ld
23922 15786 m  25497 13969 l  ps
gr
gs
0 lw 1 lj [ 26.94999 457 ] 0 ld
25059 19030 m  25930 13805 l  ps
gr
pum
18963 18150 t
326 -143 m  326 -96 313 -60 285 -34 ct 258 -7 220 6 171 6 ct 131 6 98 -3 73 -21 ct 
48 -38 32 -64 25 -98 ct 82 -104 l  94 -61 124 -40 173 -40 ct 203 -40 226 -49 243 -67 ct 
260 -85 269 -110 269 -141 ct 269 -169 260 -191 243 -208 ct 226 -225 203 -233 174 -233 ct 
159 -233 145 -231 132 -226 ct 119 -221 106 -213 93 -202 ct 38 -202 l  53 -437 l 
301 -437 l  301 -390 l  104 -390 l  95 -251 l  119 -270 149 -279 185 -279 ct 
228 -279 263 -266 288 -241 ct 314 -216 326 -183 326 -143 ct p ef
pom
pum
22376 20226 t
273 -99 m  273 0 l  220 0 l  220 -99 l  15 -99 l  15 -142 l  215 -438 l 
273 -438 l  273 -143 l  335 -143 l  335 -99 l  273 -99 l  p
220 -374 m  220 -373 217 -368 212 -358 ct 206 -348 202 -341 200 -338 ct 88 -172 l 
71 -149 l  66 -143 l  220 -143 l  220 -374 l  p ef
pom
pum
21806 15469 t
48 0 m  48 -47 l  160 -47 l  160 -384 l  61 -314 l  61 -366 l  164 -438 l 
216 -438 l  216 -47 l  322 -47 l  322 0 l  48 0 l  p ef
677 -143 m  677 -96 664 -60 636 -34 ct 609 -7 571 6 522 6 ct 482 6 449 -3 424 -21 ct 
399 -38 383 -64 376 -98 ct 433 -104 l  445 -61 475 -40 524 -40 ct 554 -40 577 -49 594 -67 ct 
611 -85 620 -110 620 -141 ct 620 -169 611 -191 594 -208 ct 577 -225 554 -233 525 -233 ct 
510 -233 496 -231 483 -226 ct 470 -221 457 -213 444 -202 ct 389 -202 l  404 -437 l 
652 -437 l  652 -390 l  455 -390 l  446 -251 l  470 -270 500 -279 536 -279 ct 
579 -279 614 -266 639 -241 ct 665 -216 677 -183 677 -143 ct p ef
pom
pum
19356 14345 t
48 0 m  48 -47 l  160 -47 l  160 -384 l  61 -314 l  61 -366 l  164 -438 l 
216 -438 l  216 -47 l  322 -47 l  322 0 l  48 0 l  p ef
672 -392 m  628 -324 596 -270 578 -232 ct 559 -193 545 -155 536 -117 ct 527 -79 522 -40 522 0 ct 
464 0 l  464 -56 476 -115 500 -177 ct 523 -238 563 -309 618 -390 ct 384 -390 l 
384 -437 l  672 -437 l  672 -392 l  p ef
pom
pum
25831 16507 t
32 0 m  32 -39 l  42 -64 55 -85 71 -104 ct 86 -122 102 -139 118 -154 ct 135 -169 152 -183 168 -196 ct 
185 -208 199 -221 213 -234 ct 226 -247 237 -260 245 -274 ct 253 -289 257 -304 257 -322 ct 
257 -346 250 -365 236 -378 ct 222 -391 202 -398 177 -398 ct 154 -398 134 -392 119 -379 ct 
103 -366 94 -348 91 -324 ct 34 -329 l  39 -364 53 -392 79 -413 ct 104 -434 137 -444 177 -444 ct 
221 -444 255 -434 279 -413 ct 303 -392 314 -362 314 -324 ct 314 -307 311 -290 303 -274 ct 
295 -257 283 -240 268 -223 ct 253 -206 224 -180 180 -145 ct 157 -126 138 -108 124 -93 ct 
110 -77 100 -62 93 -47 ct 321 -47 l  321 0 l  32 0 l  p ef
399 0 m  399 -47 l  511 -47 l  511 -384 l  412 -314 l  412 -366 l  515 -438 l 
567 -438 l  567 -47 l  673 -47 l  673 0 l  399 0 l  p ef
pom
pum
24826 15556 t
321 -392 m  277 -324 245 -270 227 -232 ct 208 -193 194 -155 185 -117 ct 176 -79 171 -40 171 0 ct 
113 0 l  113 -56 125 -115 149 -177 ct 172 -238 212 -309 267 -390 ct 33 -390 l 
33 -437 l  321 -437 l  321 -392 l  p ef
pom
pum
23339 13259 t
32 0 m  32 -39 l  42 -64 55 -85 71 -104 ct 86 -122 102 -139 118 -154 ct 135 -169 152 -183 168 -196 ct 
185 -208 199 -221 213 -234 ct 226 -247 237 -260 245 -274 ct 253 -289 257 -304 257 -322 ct 
257 -346 250 -365 236 -378 ct 222 -391 202 -398 177 -398 ct 154 -398 134 -392 119 -379 ct 
103 -366 94 -348 91 -324 ct 34 -329 l  39 -364 53 -392 79 -413 ct 104 -434 137 -444 177 -444 ct 
221 -444 255 -434 279 -413 ct 303 -392 314 -362 314 -324 ct 314 -307 311 -290 303 -274 ct 
295 -257 283 -240 268 -223 ct 253 -206 224 -180 180 -145 ct 157 -126 138 -108 124 -93 ct 
110 -77 100 -62 93 -47 ct 321 -47 l  321 0 l  32 0 l  p ef
pom
pum
23822 17929 t
325 -121 m  325 -81 312 -49 287 -27 ct 261 -5 225 6 177 6 ct 133 6 98 -4 71 -24 ct 
45 -44 29 -73 24 -113 ct 82 -118 l  89 -66 121 -40 177 -40 ct 205 -40 227 -47 243 -61 ct 
259 -75 267 -96 267 -123 ct 267 -147 258 -165 240 -179 ct 222 -192 195 -199 161 -199 ct 
129 -199 l  129 -247 l  159 -247 l  190 -247 214 -254 231 -267 ct 247 -280 256 -299 256 -322 ct 
256 -346 249 -364 235 -378 ct 221 -391 201 -398 174 -398 ct 149 -398 129 -392 114 -379 ct 
99 -367 90 -349 88 -326 ct 32 -330 l  36 -366 51 -394 76 -414 ct 102 -434 134 -444 175 -444 ct 
218 -444 252 -434 277 -413 ct 301 -393 313 -365 313 -328 ct 313 -300 305 -278 290 -260 ct 
274 -243 251 -231 222 -225 ct 222 -223 l  254 -220 280 -209 298 -191 ct 316 -172 325 -149 325 -121 ct 
p ef
pom
0 20492 t 
pom
count op_count sub {pop} repeat countdictstack dict_count sub {end} repeat b4_inc_state restore
%%PageTrailer
%%Trailer
%%EOF
