%!PS-Adobe-3.0 EPSF-3.0 
%%BoundingBox: 0 0 230 40
%%Pages: 0
%%Creator: LibreOffice 5.3
%%Title: none
%%CreationDate: none
%%LanguageLevel: 2
%%EndComments
%%BeginProlog
%%BeginResource: procset SDRes-Prolog 1.0 0
/b4_inc_state save def
/dict_count countdictstack def
/op_count count 1 sub def
userdict begin
0 setgray 0 setlinecap 1 setlinewidth 0 setlinejoin 10 setmiterlimit[] 0 setdash newpath
/languagelevel where {pop languagelevel 1 ne {false setstrokeadjust false setoverprint} if} if
/bdef {bind def} bind def
/c {setgray} bdef
/l {neg lineto} bdef
/rl {neg rlineto} bdef
/lc {setlinecap} bdef
/lj {setlinejoin} bdef
/lw {setlinewidth} bdef
/ml {setmiterlimit} bdef
/ld {setdash} bdef
/m {neg moveto} bdef
/ct {6 2 roll neg 6 2 roll neg 6 2 roll neg curveto} bdef
/r {rotate} bdef
/t {neg translate} bdef
/s {scale} bdef
/sw {show} bdef
/gs {gsave} bdef
/gr {grestore} bdef
/f {findfont dup length dict begin
{1 index /FID ne {def} {pop pop} ifelse} forall /Encoding ISOLatin1Encoding def
currentdict end /NFont exch definefont pop /NFont findfont} bdef
/p {closepath} bdef
/sf {scalefont setfont} bdef
/ef {eofill}bdef
/pc {closepath stroke}bdef
/ps {stroke}bdef
/pum {matrix currentmatrix}bdef
/pom {setmatrix}bdef
/bs {/aString exch def /nXOfs exch def /nWidth exch def currentpoint nXOfs 0 rmoveto pum nWidth aString stringwidth pop div 1 scale aString show pom moveto} bdef
%%EndResource
%%EndProlog
%%BeginSetup
%%EndSetup
%%Page: 1 1
%%BeginPageSetup
%%EndPageSetup
pum
0.02839 0.02855 s 
0 -1401 t
/tm matrix currentmatrix def
tm setmatrix
-5198 -9086 t 
1 1 s 
0.996 c 5649 10485 m  5199 10485 l  5199 9087 l  6098 9087 l  6098 10485 l 
5649 10485 l  p ef
0 lw 1 lj 0.000 c 5648 10485 m  5198 10485 l  5198 9087 l  6098 9087 l  6098 10485 l 
5648 10485 l  pc
pum
5474 9951 t
48 0 m  48 -47 l  159 -47 l  159 -383 l  61 -313 l  61 -365 l  164 -436 l 
215 -436 l  215 -47 l  322 -47 l  322 0 l  48 0 l  p ef
pom
0.996 c 6548 10485 m  6098 10485 l  6098 9087 l  6998 9087 l  6998 10485 l 
6548 10485 l  p ef
0.000 c 6548 10485 m  6098 10485 l  6098 9087 l  6998 9087 l  6998 10485 l 
6548 10485 l  pc
pum
6373 9951 t
48 0 m  48 -47 l  159 -47 l  159 -383 l  61 -313 l  61 -365 l  164 -436 l 
215 -436 l  215 -47 l  322 -47 l  322 0 l  48 0 l  p ef
pom
0.996 c 7448 10485 m  6998 10485 l  6998 9087 l  7898 9087 l  7898 10485 l 
7448 10485 l  p ef
0.000 c 7448 10485 m  6998 10485 l  6998 9087 l  7898 9087 l  7898 10485 l 
7448 10485 l  pc
pum
7273 9951 t
32 0 m  32 -39 l  42 -63 55 -85 70 -103 ct 86 -122 102 -138 118 -153 ct 135 -168 152 -182 168 -195 ct 
184 -208 199 -221 212 -233 ct 226 -246 236 -260 244 -274 ct 253 -288 257 -304 257 -321 ct 
257 -345 250 -364 236 -377 ct 222 -390 202 -397 177 -397 ct 153 -397 134 -391 118 -378 ct 
103 -365 94 -347 91 -323 ct 34 -329 l  38 -363 53 -391 79 -412 ct 104 -432 137 -443 177 -443 ct 
221 -443 255 -432 278 -412 ct 302 -391 314 -361 314 -323 ct 314 -306 310 -290 302 -273 ct 
295 -256 283 -239 268 -223 ct 253 -206 223 -180 180 -145 ct 156 -125 138 -108 124 -92 ct 
109 -77 99 -62 93 -47 ct 321 -47 l  321 0 l  32 0 l  p ef
pom
0.996 c 8348 10485 m  7898 10485 l  7898 9087 l  8798 9087 l  8798 10485 l 
8348 10485 l  p ef
0.000 c 8347 10485 m  7898 10485 l  7898 9087 l  8797 9087 l  8797 10485 l 
8347 10485 l  pc
pum
8173 9951 t
325 -121 m  325 -80 312 -49 286 -27 ct 261 -5 224 6 177 6 ct 133 6 97 -4 71 -24 ct 
45 -44 29 -73 24 -112 ct 82 -118 l  89 -66 121 -40 177 -40 ct 205 -40 227 -47 243 -61 ct 
259 -75 267 -95 267 -122 ct 267 -146 258 -165 239 -178 ct 221 -191 195 -198 160 -198 ct 
129 -198 l  129 -246 l  159 -246 l  190 -246 213 -253 230 -266 ct 247 -280 255 -298 255 -321 ct 
255 -345 249 -363 235 -377 ct 221 -390 201 -397 174 -397 ct 149 -397 129 -391 114 -378 ct 
99 -366 90 -348 88 -325 ct 32 -329 l  36 -365 51 -393 76 -413 ct 101 -433 134 -443 174 -443 ct 
218 -443 252 -433 276 -412 ct 301 -392 313 -364 313 -327 ct 313 -300 305 -277 289 -259 ct 
274 -242 251 -230 221 -224 ct 221 -223 l  254 -219 279 -208 297 -190 ct 316 -172 325 -148 325 -121 ct 
p ef
pom
0.996 c 9248 10485 m  8798 10485 l  8798 9087 l  9698 9087 l  9698 10485 l 
9248 10485 l  p ef
0.000 c 9247 10485 m  8797 10485 l  8797 9087 l  9697 9087 l  9697 10485 l 
9247 10485 l  pc
pum
9073 9951 t
326 -142 m  326 -96 312 -60 285 -34 ct 258 -7 220 6 171 6 ct 131 6 98 -3 73 -21 ct 
48 -38 32 -64 25 -98 ct 82 -104 l  94 -61 124 -39 172 -39 ct 202 -39 226 -49 243 -67 ct 
260 -85 268 -109 268 -141 ct 268 -169 260 -191 243 -208 ct 226 -225 203 -233 174 -233 ct 
159 -233 145 -231 132 -226 ct 119 -221 106 -213 93 -202 ct 38 -202 l  53 -436 l 
301 -436 l  301 -389 l  103 -389 l  95 -251 l  119 -269 149 -278 185 -278 ct 
228 -278 262 -266 288 -241 ct 313 -216 326 -183 326 -142 ct p ef
pom
0.996 c 10147 10485 m  9698 10485 l  9698 9087 l  10597 9087 l  10597 10485 l 
10147 10485 l  p ef
0.000 c 10147 10485 m  9697 10485 l  9697 9087 l  10597 9087 l  10597 10485 l 
10147 10485 l  pc
pum
9973 9951 t
325 -122 m  325 -82 312 -50 287 -28 ct 261 -5 224 6 176 6 ct 130 6 93 -5 67 -27 ct 
41 -49 28 -81 28 -121 ct 28 -150 36 -174 52 -193 ct 68 -213 89 -224 115 -229 ct 
115 -230 l  91 -235 72 -247 58 -266 ct 45 -284 38 -306 38 -331 ct 38 -364 50 -391 75 -412 ct 
100 -432 133 -442 175 -442 ct 218 -442 252 -432 277 -412 ct 302 -392 314 -365 314 -330 ct 
314 -305 307 -284 293 -265 ct 280 -247 261 -235 237 -230 ct 237 -229 l  265 -225 286 -213 302 -194 ct 
317 -175 325 -151 325 -122 ct p
256 -327 m  256 -376 229 -401 175 -401 ct 149 -401 129 -395 115 -382 ct 102 -370 95 -352 95 -327 ct 
95 -302 102 -283 116 -270 ct 130 -257 150 -251 176 -251 ct 202 -251 222 -257 236 -269 ct 
249 -281 256 -300 256 -327 ct p
267 -127 m  267 -154 259 -175 243 -188 ct 227 -202 204 -209 175 -209 ct 147 -209 125 -202 109 -187 ct 
93 -172 85 -152 85 -126 ct 85 -66 116 -36 177 -36 ct 207 -36 230 -43 245 -58 ct 
260 -72 267 -95 267 -127 ct p ef
pom
0.996 c 11047 10485 m  10597 10485 l  10597 9087 l  11497 9087 l  11497 10485 l 
11047 10485 l  p ef
0.000 c 11047 10485 m  10597 10485 l  10597 9087 l  11497 9087 l  11497 10485 l 
11047 10485 l  pc
pum
10695 9951 t
48 0 m  48 -47 l  159 -47 l  159 -383 l  61 -313 l  61 -365 l  164 -436 l 
215 -436 l  215 -47 l  322 -47 l  322 0 l  48 0 l  p ef
676 -121 m  676 -80 663 -49 637 -27 ct 612 -5 575 6 528 6 ct 484 6 448 -4 422 -24 ct 
396 -44 380 -73 375 -112 ct 433 -118 l  440 -66 472 -40 528 -40 ct 556 -40 578 -47 594 -61 ct 
610 -75 618 -95 618 -122 ct 618 -146 609 -165 590 -178 ct 572 -191 546 -198 511 -198 ct 
480 -198 l  480 -246 l  510 -246 l  541 -246 564 -253 581 -266 ct 598 -280 606 -298 606 -321 ct 
606 -345 600 -363 586 -377 ct 572 -390 552 -397 525 -397 ct 500 -397 480 -391 465 -378 ct 
450 -366 441 -348 439 -325 ct 383 -329 l  387 -365 402 -393 427 -413 ct 452 -433 485 -443 525 -443 ct 
569 -443 603 -433 627 -412 ct 652 -392 664 -364 664 -327 ct 664 -300 656 -277 640 -259 ct 
625 -242 602 -230 572 -224 ct 572 -223 l  605 -219 630 -208 648 -190 ct 667 -172 676 -148 676 -121 ct 
p ef
pom
0.996 c 11947 10485 m  11497 10485 l  11497 9087 l  12397 9087 l  12397 10485 l 
11947 10485 l  p ef
0.000 c 11947 10485 m  11497 10485 l  11497 9087 l  12396 9087 l  12396 10485 l 
11947 10485 l  pc
pum
11595 9951 t
32 0 m  32 -39 l  42 -63 55 -85 70 -103 ct 86 -122 102 -138 118 -153 ct 135 -168 152 -182 168 -195 ct 
184 -208 199 -221 212 -233 ct 226 -246 236 -260 244 -274 ct 253 -288 257 -304 257 -321 ct 
257 -345 250 -364 236 -377 ct 222 -390 202 -397 177 -397 ct 153 -397 134 -391 118 -378 ct 
103 -365 94 -347 91 -323 ct 34 -329 l  38 -363 53 -391 79 -412 ct 104 -432 137 -443 177 -443 ct 
221 -443 255 -432 278 -412 ct 302 -391 314 -361 314 -323 ct 314 -306 310 -290 302 -273 ct 
295 -256 283 -239 268 -223 ct 253 -206 223 -180 180 -145 ct 156 -125 138 -108 124 -92 ct 
109 -77 99 -62 93 -47 ct 321 -47 l  321 0 l  32 0 l  p ef
399 0 m  399 -47 l  510 -47 l  510 -383 l  412 -313 l  412 -365 l  515 -436 l 
566 -436 l  566 -47 l  673 -47 l  673 0 l  399 0 l  p ef
pom
0.996 c 12847 10485 m  12397 10485 l  12397 9087 l  13297 9087 l  13297 10485 l 
12847 10485 l  p ef
0.000 c 12846 10485 m  12396 10485 l  12396 9087 l  13296 9087 l  13296 10485 l 
12846 10485 l  pc
pum
12495 9951 t
325 -121 m  325 -80 312 -49 286 -27 ct 261 -5 224 6 177 6 ct 133 6 97 -4 71 -24 ct 
45 -44 29 -73 24 -112 ct 82 -118 l  89 -66 121 -40 177 -40 ct 205 -40 227 -47 243 -61 ct 
259 -75 267 -95 267 -122 ct 267 -146 258 -165 239 -178 ct 221 -191 195 -198 160 -198 ct 
129 -198 l  129 -246 l  159 -246 l  190 -246 213 -253 230 -266 ct 247 -280 255 -298 255 -321 ct 
255 -345 249 -363 235 -377 ct 221 -390 201 -397 174 -397 ct 149 -397 129 -391 114 -378 ct 
99 -366 90 -348 88 -325 ct 32 -329 l  36 -365 51 -393 76 -413 ct 101 -433 134 -443 174 -443 ct 
218 -443 252 -433 276 -412 ct 301 -392 313 -364 313 -327 ct 313 -300 305 -277 289 -259 ct 
274 -242 251 -230 221 -224 ct 221 -223 l  254 -219 279 -208 297 -190 ct 316 -172 325 -148 325 -121 ct 
p ef
624 -99 m  624 -1 l  571 -1 l  571 -99 l  366 -99 l  366 -142 l  565 -437 l 
624 -437 l  624 -143 l  685 -143 l  685 -99 l  624 -99 l  p
571 -374 m  571 -372 568 -367 562 -357 ct 557 -348 553 -341 550 -337 ct 439 -172 l 
422 -149 l  417 -143 l  571 -143 l  571 -374 l  p ef
pom
0 1401 t 
pom
count op_count sub {pop} repeat countdictstack dict_count sub {end} repeat b4_inc_state restore
%%PageTrailer
%%Trailer
%%EOF
