%!PS-Adobe-3.0 EPSF-3.0 
%%BoundingBox: 0 0 316 139
%%Pages: 0
%%Creator: LibreOffice 5.3
%%Title: none
%%CreationDate: none
%%LanguageLevel: 2
%%EndComments
%%BeginProlog
%%BeginResource: procset SDRes-Prolog 1.0 0
/b4_inc_state save def
/dict_count countdictstack def
/op_count count 1 sub def
userdict begin
0 setgray 0 setlinecap 1 setlinewidth 0 setlinejoin 10 setmiterlimit[] 0 setdash newpath
/languagelevel where {pop languagelevel 1 ne {false setstrokeadjust false setoverprint} if} if
/bdef {bind def} bind def
/c {setgray} bdef
/l {neg lineto} bdef
/rl {neg rlineto} bdef
/lc {setlinecap} bdef
/lj {setlinejoin} bdef
/lw {setlinewidth} bdef
/ml {setmiterlimit} bdef
/ld {setdash} bdef
/m {neg moveto} bdef
/ct {6 2 roll neg 6 2 roll neg 6 2 roll neg curveto} bdef
/r {rotate} bdef
/t {neg translate} bdef
/s {scale} bdef
/sw {show} bdef
/gs {gsave} bdef
/gr {grestore} bdef
/f {findfont dup length dict begin
{1 index /FID ne {def} {pop pop} ifelse} forall /Encoding ISOLatin1Encoding def
currentdict end /NFont exch definefont pop /NFont findfont} bdef
/p {closepath} bdef
/sf {scalefont setfont} bdef
/ef {eofill}bdef
/pc {closepath stroke}bdef
/ps {stroke}bdef
/pum {matrix currentmatrix}bdef
/pom {setmatrix}bdef
/bs {/aString exch def /nXOfs exch def /nWidth exch def currentpoint nXOfs 0 rmoveto pum nWidth aString stringwidth pop div 1 scale aString show pom moveto} bdef
%%EndResource
%%EndProlog
%%BeginSetup
%%EndSetup
%%Page: 1 1
%%BeginPageSetup
%%EndPageSetup
pum
0.02834 0.02836 s 
0 -4901 t
/tm matrix currentmatrix def
tm setmatrix
-4151 -7496 t 
1 1 s 
0.996 c 5649 10496 m  5199 10496 l  5199 9096 l  6099 9096 l  6099 10496 l 
5649 10496 l  p ef
0 lw 1 lj 0.000 c 5648 10495 m  5199 10495 l  5199 9096 l  6098 9096 l  6098 10495 l 
5648 10495 l  pc
pum
5474 9961 t
48 0 m  48 -47 l  160 -47 l  160 -384 l  61 -314 l  61 -366 l  164 -438 l 
216 -438 l  216 -47 l  322 -47 l  322 0 l  48 0 l  p ef
pom
0.996 c 6749 12395 m  6299 12395 l  6299 10996 l  7199 10996 l  7199 12395 l 
6749 12395 l  p ef
0.000 c 6748 12394 m  6298 12394 l  6298 10995 l  7198 10995 l  7198 12394 l 
6748 12394 l  pc
pum
6574 11860 t
48 0 m  48 -47 l  160 -47 l  160 -384 l  61 -314 l  61 -366 l  164 -438 l 
216 -438 l  216 -47 l  322 -47 l  322 0 l  48 0 l  p ef
pom
0.996 c 7149 8896 m  6699 8896 l  6699 7497 l  7599 7497 l  7599 8896 l 
7149 8896 l  p ef
0.000 c 7148 8896 m  6698 8896 l  6698 7496 l  7598 7496 l  7598 8896 l 
7148 8896 l  pc
pum
6974 8362 t
32 0 m  32 -39 l  42 -64 55 -85 71 -104 ct 86 -122 102 -139 118 -154 ct 135 -169 152 -183 168 -196 ct 
185 -208 199 -221 213 -234 ct 226 -247 237 -260 245 -274 ct 253 -289 257 -304 257 -322 ct 
257 -346 250 -365 236 -378 ct 222 -391 202 -398 177 -398 ct 154 -398 134 -392 119 -379 ct 
103 -366 94 -348 91 -324 ct 34 -329 l  39 -364 53 -392 79 -413 ct 104 -434 137 -444 177 -444 ct 
221 -444 255 -434 279 -413 ct 303 -392 314 -362 314 -324 ct 314 -307 311 -290 303 -274 ct 
295 -257 283 -240 268 -223 ct 253 -206 224 -180 180 -145 ct 157 -126 138 -108 124 -93 ct 
110 -77 100 -62 93 -47 ct 321 -47 l  321 0 l  32 0 l  p ef
pom
0.996 c 8349 11395 m  7899 11395 l  7899 9996 l  8798 9996 l  8798 11395 l 
8349 11395 l  p ef
0.000 c 8348 11395 m  7898 11395 l  7898 9995 l  8798 9995 l  8798 11395 l 
8348 11395 l  pc
pum
8174 10861 t
325 -121 m  325 -81 312 -49 287 -27 ct 261 -5 225 6 177 6 ct 133 6 98 -4 71 -24 ct 
45 -44 29 -73 24 -113 ct 82 -118 l  89 -66 121 -40 177 -40 ct 205 -40 227 -47 243 -61 ct 
259 -75 267 -96 267 -123 ct 267 -147 258 -165 240 -179 ct 222 -192 195 -199 161 -199 ct 
129 -199 l  129 -247 l  159 -247 l  190 -247 214 -254 231 -267 ct 247 -280 256 -299 256 -322 ct 
256 -346 249 -364 235 -378 ct 221 -391 201 -398 174 -398 ct 149 -398 129 -392 114 -379 ct 
99 -367 90 -349 88 -326 ct 32 -330 l  36 -366 51 -394 76 -414 ct 102 -434 134 -444 175 -444 ct 
218 -444 252 -434 277 -413 ct 301 -393 313 -365 313 -328 ct 313 -300 305 -278 290 -260 ct 
274 -243 251 -231 222 -225 ct 222 -223 l  254 -220 280 -209 298 -191 ct 316 -172 325 -149 325 -121 ct 
p ef
pom
0.996 c 10548 8996 m  10098 8996 l  10098 7597 l  10998 7597 l  10998 8996 l 
10548 8996 l  p ef
0.000 c 10548 8996 m  10098 8996 l  10098 7596 l  10998 7596 l  10998 8996 l 
10548 8996 l  pc
pum
10373 8462 t
326 -143 m  326 -96 313 -60 285 -34 ct 258 -7 220 6 171 6 ct 131 6 98 -3 73 -21 ct 
48 -38 32 -64 25 -98 ct 82 -104 l  94 -61 124 -40 173 -40 ct 203 -40 226 -49 243 -67 ct 
260 -85 269 -110 269 -141 ct 269 -169 260 -191 243 -208 ct 226 -225 203 -233 174 -233 ct 
159 -233 145 -231 132 -226 ct 119 -221 106 -213 93 -202 ct 38 -202 l  53 -437 l 
301 -437 l  301 -390 l  104 -390 l  95 -251 l  119 -270 149 -279 185 -279 ct 
228 -279 263 -266 288 -241 ct 314 -216 326 -183 326 -143 ct p ef
pom
0.996 c 10148 12295 m  9698 12295 l  9698 10896 l  10598 10896 l  10598 12295 l 
10148 12295 l  p ef
0.000 c 10148 12294 m  9698 12294 l  9698 10895 l  10598 10895 l  10598 12294 l 
10148 12294 l  pc
pum
9973 11760 t
326 -122 m  326 -82 313 -50 287 -28 ct 261 -5 225 6 177 6 ct 130 6 93 -5 67 -27 ct 
41 -49 28 -81 28 -121 ct 28 -150 36 -174 52 -193 ct 68 -213 89 -225 115 -229 ct 
115 -230 l  91 -236 72 -248 58 -266 ct 45 -285 38 -307 38 -332 ct 38 -365 50 -392 75 -413 ct 
100 -434 134 -444 176 -444 ct 218 -444 252 -434 277 -414 ct 302 -393 315 -366 315 -331 ct 
315 -306 308 -284 294 -266 ct 280 -247 261 -235 237 -231 ct 237 -229 l  265 -225 287 -213 302 -194 ct 
318 -175 326 -151 326 -122 ct p
257 -328 m  257 -378 230 -402 176 -402 ct 149 -402 129 -396 115 -384 ct 102 -371 95 -353 95 -328 ct 
95 -303 102 -284 116 -271 ct 130 -258 150 -251 176 -251 ct 202 -251 222 -257 236 -269 ct 
250 -281 257 -301 257 -328 ct p
268 -127 m  268 -154 260 -175 243 -189 ct 227 -202 205 -209 176 -209 ct 147 -209 125 -202 109 -187 ct 
93 -172 85 -152 85 -126 ct 85 -66 116 -36 177 -36 ct 208 -36 230 -43 245 -58 ct 
260 -72 268 -96 268 -127 ct p ef
pom
0.996 c 12048 12295 m  11598 12295 l  11598 10896 l  12498 10896 l  12498 12295 l 
12048 12295 l  p ef
0.000 c 12047 12294 m  11597 12294 l  11597 10895 l  12497 10895 l  12497 12294 l 
12047 12294 l  pc
pum
11696 11760 t
48 0 m  48 -47 l  160 -47 l  160 -384 l  61 -314 l  61 -366 l  164 -438 l 
216 -438 l  216 -47 l  322 -47 l  322 0 l  48 0 l  p ef
676 -121 m  676 -81 663 -49 638 -27 ct 612 -5 576 6 528 6 ct 484 6 449 -4 422 -24 ct 
396 -44 380 -73 375 -113 ct 433 -118 l  440 -66 472 -40 528 -40 ct 556 -40 578 -47 594 -61 ct 
610 -75 618 -96 618 -123 ct 618 -147 609 -165 591 -179 ct 573 -192 546 -199 512 -199 ct 
480 -199 l  480 -247 l  510 -247 l  541 -247 565 -254 582 -267 ct 598 -280 607 -299 607 -322 ct 
607 -346 600 -364 586 -378 ct 572 -391 552 -398 525 -398 ct 500 -398 480 -392 465 -379 ct 
450 -367 441 -349 439 -326 ct 383 -330 l  387 -366 402 -394 427 -414 ct 453 -434 485 -444 526 -444 ct 
569 -444 603 -434 628 -413 ct 652 -393 664 -365 664 -328 ct 664 -300 656 -278 641 -260 ct 
625 -243 602 -231 573 -225 ct 573 -223 l  605 -220 631 -209 649 -191 ct 667 -172 676 -149 676 -121 ct 
p ef
pom
0.996 c 13048 10496 m  12598 10496 l  12598 9096 l  13498 9096 l  13498 10496 l 
13048 10496 l  p ef
0.000 c 13047 10495 m  12597 10495 l  12597 9096 l  13497 9096 l  13497 10495 l 
13047 10495 l  pc
pum
12696 9961 t
32 0 m  32 -39 l  42 -64 55 -85 71 -104 ct 86 -122 102 -139 118 -154 ct 135 -169 152 -183 168 -196 ct 
185 -208 199 -221 213 -234 ct 226 -247 237 -260 245 -274 ct 253 -289 257 -304 257 -322 ct 
257 -346 250 -365 236 -378 ct 222 -391 202 -398 177 -398 ct 154 -398 134 -392 119 -379 ct 
103 -366 94 -348 91 -324 ct 34 -329 l  39 -364 53 -392 79 -413 ct 104 -434 137 -444 177 -444 ct 
221 -444 255 -434 279 -413 ct 303 -392 314 -362 314 -324 ct 314 -307 311 -290 303 -274 ct 
295 -257 283 -240 268 -223 ct 253 -206 224 -180 180 -145 ct 157 -126 138 -108 124 -93 ct 
110 -77 100 -62 93 -47 ct 321 -47 l  321 0 l  32 0 l  p ef
399 0 m  399 -47 l  511 -47 l  511 -384 l  412 -314 l  412 -366 l  515 -438 l 
567 -438 l  567 -47 l  673 -47 l  673 0 l  399 0 l  p ef
pom
0.996 c 14847 10496 m  14397 10496 l  14397 9096 l  15297 9096 l  15297 10496 l 
14847 10496 l  p ef
0.000 c 14847 10495 m  14397 10495 l  14397 9096 l  15297 9096 l  15297 10495 l 
14847 10495 l  pc
pum
14495 9961 t
325 -121 m  325 -81 312 -49 287 -27 ct 261 -5 225 6 177 6 ct 133 6 98 -4 71 -24 ct 
45 -44 29 -73 24 -113 ct 82 -118 l  89 -66 121 -40 177 -40 ct 205 -40 227 -47 243 -61 ct 
259 -75 267 -96 267 -123 ct 267 -147 258 -165 240 -179 ct 222 -192 195 -199 161 -199 ct 
129 -199 l  129 -247 l  159 -247 l  190 -247 214 -254 231 -267 ct 247 -280 256 -299 256 -322 ct 
256 -346 249 -364 235 -378 ct 221 -391 201 -398 174 -398 ct 149 -398 129 -392 114 -379 ct 
99 -367 90 -349 88 -326 ct 32 -330 l  36 -366 51 -394 76 -414 ct 102 -434 134 -444 175 -444 ct 
218 -444 252 -434 277 -413 ct 301 -393 313 -365 313 -328 ct 313 -300 305 -278 290 -260 ct 
274 -243 251 -231 222 -225 ct 222 -223 l  254 -220 280 -209 298 -191 ct 316 -172 325 -149 325 -121 ct 
p ef
624 -99 m  624 0 l  571 0 l  571 -99 l  366 -99 l  366 -142 l  566 -438 l 
624 -438 l  624 -143 l  686 -143 l  686 -99 l  624 -99 l  p
571 -374 m  571 -373 568 -368 563 -358 ct 557 -348 553 -341 551 -338 ct 439 -172 l 
422 -149 l  417 -143 l  571 -143 l  571 -374 l  p ef
pom
1 lw 5649 10496 m  5649 11695 l  5869 11695 l  ps
6299 11695 m  5849 11545 l  5849 11845 l  6299 11695 l  p ef
6749 10996 m  6749 9946 l  7149 9946 l  7149 9326 l  ps
7149 8896 m  6999 9346 l  7299 9346 l  7149 8896 l  p ef
7599 8197 m  8349 8197 l  8349 9566 l  ps
8349 9996 m  8498 9546 l  8199 9546 l  8349 9996 l  p ef
8798 10696 m  9448 10696 l  9448 8297 l  9668 8297 l  ps
10098 8297 m  9648 8147 l  9648 8447 l  10098 8297 l  p ef
10548 8996 m  10548 9946 l  10148 9946 l  10148 10466 l  ps
10148 10896 m  10298 10446 l  9998 10446 l  10148 10896 l  p ef
10598 11595 m  11168 11595 l  ps
11598 11595 m  11148 11445 l  11148 11745 l  11598 11595 l  p ef
12048 10896 m  12048 9796 l  12168 9796 l  ps
12598 9796 m  12148 9646 l  12148 9946 l  12598 9796 l  p ef
13498 9796 m  13967 9796 l  ps
14397 9796 m  13947 9646 l  13947 9946 l  14397 9796 l  p ef
4152 9793 m  4769 9795 l  ps
5199 9796 m  4749 9645 l  4749 9945 l  5199 9796 l  p ef
0 4901 t 
pom
count op_count sub {pop} repeat countdictstack dict_count sub {end} repeat b4_inc_state restore
%%PageTrailer
%%Trailer
%%EOF
