%!PS-Adobe-3.0 EPSF-3.0 
%%BoundingBox: 0 0 298 268
%%Pages: 0
%%Creator: LibreOffice 5.4
%%Title: none
%%CreationDate: none
%%LanguageLevel: 2
%%EndComments
%%BeginProlog
%%BeginResource: procset SDRes-Prolog 1.0 0
/b4_inc_state save def
/dict_count countdictstack def
/op_count count 1 sub def
userdict begin
0 setgray 0 setlinecap 1 setlinewidth 0 setlinejoin 10 setmiterlimit[] 0 setdash newpath
/languagelevel where {pop languagelevel 1 ne {false setstrokeadjust false setoverprint} if} if
/bdef {bind def} bind def
/c {setgray} bdef
/l {neg lineto} bdef
/rl {neg rlineto} bdef
/lc {setlinecap} bdef
/lj {setlinejoin} bdef
/lw {setlinewidth} bdef
/ml {setmiterlimit} bdef
/ld {setdash} bdef
/m {neg moveto} bdef
/ct {6 2 roll neg 6 2 roll neg 6 2 roll neg curveto} bdef
/r {rotate} bdef
/t {neg translate} bdef
/s {scale} bdef
/sw {show} bdef
/gs {gsave} bdef
/gr {grestore} bdef
/f {findfont dup length dict begin
{1 index /FID ne {def} {pop pop} ifelse} forall /Encoding ISOLatin1Encoding def
currentdict end /NFont exch definefont pop /NFont findfont} bdef
/p {closepath} bdef
/sf {scalefont setfont} bdef
/ef {eofill}bdef
/pc {closepath stroke}bdef
/ps {stroke}bdef
/pum {matrix currentmatrix}bdef
/pom {setmatrix}bdef
/bs {/aString exch def /nXOfs exch def /nWidth exch def currentpoint nXOfs 0 rmoveto pum nWidth aString stringwidth pop div 1 scale aString show pom moveto} bdef
%%EndResource
%%EndProlog
%%BeginSetup
%%EndSetup
%%Page: 1 1
%%BeginPageSetup
%%EndPageSetup
pum
0.02838 0.02836 s 
0 -9448 t
/tm matrix currentmatrix def
tm setmatrix
-9048 -5401 t 
1 1 s 
gs
249.97486 lw 1 lj 0.000 c 10312 8768 m  10658 8768 10924 9011 10924 9330 ct 
10924 9648 10658 9892 10312 9892 ct 9965 9892 9700 9648 9700 9330 ct 9700 9011 9965 8768 10312 8768 ct 
pc
gr
gs
249.97486 lw 1 lj 0.000 c 9700 8768 m  9700 8768 l  pc
gr
gs
249.97486 lw 1 lj 0.000 c 10925 9893 m  10925 9893 l  pc
gr
pum
10137 9493 t
0.000 c 48 0 m  48 -47 l  160 -47 l  160 -384 l  61 -314 l  61 -366 l  164 -438 l 
216 -438 l  216 -47 l  322 -47 l  322 0 l  48 0 l  p ef
pom
gs
249.97486 lw 1 lj 16086 9287 m  16433 9287 16699 9529 16699 9848 ct 16699 10167 16433 10411 16086 10411 ct 
15739 10411 15474 10167 15474 9848 ct 15474 9529 15739 9287 16086 9287 ct pc
gr
gs
249.97486 lw 1 lj 15474 9287 m  15474 9287 l  pc
gr
gs
249.97486 lw 1 lj 16700 10412 m  16700 10412 l  pc
gr
pum
15911 10012 t
32 0 m  32 -39 l  42 -64 55 -85 71 -104 ct 86 -122 102 -139 118 -154 ct 135 -169 152 -183 168 -196 ct 
185 -208 199 -221 213 -234 ct 226 -247 237 -260 245 -274 ct 253 -289 257 -304 257 -322 ct 
257 -346 250 -365 236 -378 ct 222 -391 202 -398 177 -398 ct 154 -398 134 -392 119 -379 ct 
103 -366 94 -348 91 -324 ct 34 -329 l  39 -364 53 -392 79 -413 ct 104 -434 137 -444 177 -444 ct 
221 -444 255 -434 279 -413 ct 303 -392 314 -362 314 -324 ct 314 -307 311 -290 303 -274 ct 
295 -257 283 -240 268 -223 ct 253 -206 224 -180 180 -145 ct 157 -126 138 -108 124 -93 ct 
110 -77 100 -62 93 -47 ct 321 -47 l  321 0 l  32 0 l  p ef
pom
gs
249.97486 lw 1 lj 12761 12661 m  13108 12661 13374 12905 13374 13223 ct 
13374 13541 13108 13785 12761 13785 ct 12414 13785 12149 13541 12149 13223 ct 
12149 12905 12414 12661 12761 12661 ct pc
gr
gs
249.97486 lw 1 lj 12149 12661 m  12149 12661 l  pc
gr
gs
249.97486 lw 1 lj 13375 13786 m  13375 13786 l  pc
gr
pum
12587 13387 t
273 -99 m  273 0 l  220 0 l  220 -99 l  15 -99 l  15 -142 l  215 -438 l 
273 -438 l  273 -143 l  335 -143 l  335 -99 l  273 -99 l  p
220 -374 m  220 -373 217 -368 212 -358 ct 206 -348 202 -341 200 -338 ct 88 -172 l 
71 -149 l  66 -143 l  220 -143 l  220 -374 l  p ef
pom
gs
249.97486 lw 1 lj 13636 6000 m  13983 6000 14249 6243 14249 6562 ct 14249 6881 13983 7125 13636 7125 ct 
13289 7125 13024 6881 13024 6562 ct 13024 6243 13289 6000 13636 6000 ct pc
gr
gs
249.97486 lw 1 lj 13024 6000 m  13024 6000 l  pc
gr
gs
249.97486 lw 1 lj 14250 7126 m  14250 7126 l  pc
gr
pum
13462 6725 t
325 -121 m  325 -81 312 -49 287 -27 ct 261 -5 225 6 177 6 ct 133 6 98 -4 71 -24 ct 
45 -44 29 -73 24 -113 ct 82 -118 l  89 -66 121 -40 177 -40 ct 205 -40 227 -47 243 -61 ct 
259 -75 267 -96 267 -123 ct 267 -147 258 -165 240 -179 ct 222 -192 195 -199 161 -199 ct 
129 -199 l  129 -247 l  159 -247 l  190 -247 214 -254 231 -267 ct 247 -280 256 -299 256 -322 ct 
256 -346 249 -364 235 -378 ct 221 -391 201 -398 174 -398 ct 149 -398 129 -392 114 -379 ct 
99 -367 90 -349 88 -326 ct 32 -330 l  36 -366 51 -394 76 -414 ct 102 -434 134 -444 175 -444 ct 
218 -444 252 -434 277 -413 ct 301 -393 313 -365 313 -328 ct 313 -300 305 -278 290 -260 ct 
274 -243 251 -231 222 -225 ct 222 -223 l  254 -220 280 -209 298 -191 ct 316 -172 325 -149 325 -121 ct 
p ef
pom
gs
249.97486 lw 1 lj 16611 11969 m  16958 11969 17224 12213 17224 12531 ct 
17224 12849 16958 13093 16611 13093 ct 16264 13093 15999 12849 15999 12531 ct 
15999 12213 16264 11969 16611 11969 ct pc
gr
gs
249.97486 lw 1 lj 15999 11969 m  15999 11969 l  pc
gr
gs
249.97486 lw 1 lj 17225 13094 m  17225 13094 l  pc
gr
pum
16436 12695 t
325 -143 m  325 -97 313 -61 288 -34 ct 263 -7 228 6 184 6 ct 135 6 97 -12 71 -49 ct 
45 -86 32 -139 32 -209 ct 32 -284 46 -343 73 -383 ct 100 -424 139 -444 189 -444 ct 
254 -444 296 -414 313 -355 ct 260 -345 l  249 -381 225 -399 188 -399 ct 156 -399 131 -384 114 -354 ct 
96 -324 88 -282 88 -225 ct 98 -244 112 -258 131 -268 ct 149 -278 170 -283 194 -283 ct 
234 -283 266 -270 290 -245 ct 313 -220 325 -186 325 -143 ct p
269 -141 m  269 -173 261 -197 245 -214 ct 230 -231 208 -240 180 -240 ct 154 -240 133 -232 117 -217 ct 
101 -202 93 -181 93 -154 ct 93 -120 102 -93 118 -71 ct 135 -50 156 -39 182 -39 ct 
209 -39 230 -48 246 -66 ct 261 -84 269 -109 269 -141 ct p ef
pom
gs
249.97486 lw 1 lj 17661 6347 m  18008 6347 18274 6591 18274 6909 ct 18274 7227 18008 7471 17661 7471 ct 
17314 7471 17049 7227 17049 6909 ct 17049 6591 17314 6347 17661 6347 ct pc
gr
gs
249.97486 lw 1 lj 17049 6347 m  17049 6347 l  pc
gr
gs
249.97486 lw 1 lj 18275 7472 m  18275 7472 l  pc
gr
pum
17486 7072 t
326 -143 m  326 -96 313 -60 285 -34 ct 258 -7 220 6 171 6 ct 131 6 98 -3 73 -21 ct 
48 -38 32 -64 25 -98 ct 82 -104 l  94 -61 124 -40 173 -40 ct 203 -40 226 -49 243 -67 ct 
260 -85 269 -110 269 -141 ct 269 -169 260 -191 243 -208 ct 226 -225 203 -233 174 -233 ct 
159 -233 145 -231 132 -226 ct 119 -221 106 -213 93 -202 ct 38 -202 l  53 -437 l 
301 -437 l  301 -390 l  104 -390 l  95 -251 l  119 -270 149 -279 185 -279 ct 
228 -279 263 -266 288 -241 ct 314 -216 326 -183 326 -143 ct p ef
pom
gs
0 lw 1 lj [ 26.94999 457 ] 0 ld
10746 8933 m  13204 6962 l  ps
gr
gs
0 lw 1 lj 10746 9729 m  12329 12825 l  ps
gr
gs
0 lw 1 lj [ 26.94999 457 ] 0 ld
10925 9332 m  17229 7307 l  ps
gr
gs
0 lw 1 lj 14250 6564 m  17050 6909 l  ps
gr
gs
0 lw 1 lj 13375 13223 m  16179 12929 l  ps
gr
gs
0 lw 1 lj 16613 11969 m  16088 10412 l  ps
gr
gs
0 lw 1 lj 16088 9288 m  17663 7471 l  ps
gr
gs
0 lw 1 lj [ 26.94999 457 ] 0 ld
17225 12531 m  18096 7307 l  ps
gr
pum
11129 11652 t
326 -143 m  326 -96 313 -60 285 -34 ct 258 -7 220 6 171 6 ct 131 6 98 -3 73 -21 ct 
48 -38 32 -64 25 -98 ct 82 -104 l  94 -61 124 -40 173 -40 ct 203 -40 226 -49 243 -67 ct 
260 -85 269 -110 269 -141 ct 269 -169 260 -191 243 -208 ct 226 -225 203 -233 174 -233 ct 
159 -233 145 -231 132 -226 ct 119 -221 106 -213 93 -202 ct 38 -202 l  53 -437 l 
301 -437 l  301 -390 l  104 -390 l  95 -251 l  119 -270 149 -279 185 -279 ct 
228 -279 263 -266 288 -241 ct 314 -216 326 -183 326 -143 ct p ef
pom
pum
14542 13728 t
273 -99 m  273 0 l  220 0 l  220 -99 l  15 -99 l  15 -142 l  215 -438 l 
273 -438 l  273 -143 l  335 -143 l  335 -99 l  273 -99 l  p
220 -374 m  220 -373 217 -368 212 -358 ct 206 -348 202 -341 200 -338 ct 88 -172 l 
71 -149 l  66 -143 l  220 -143 l  220 -374 l  p ef
pom
pum
13972 8971 t
48 0 m  48 -47 l  160 -47 l  160 -384 l  61 -314 l  61 -366 l  164 -438 l 
216 -438 l  216 -47 l  322 -47 l  322 0 l  48 0 l  p ef
677 -143 m  677 -96 664 -60 636 -34 ct 609 -7 571 6 522 6 ct 482 6 449 -3 424 -21 ct 
399 -38 383 -64 376 -98 ct 433 -104 l  445 -61 475 -40 524 -40 ct 554 -40 577 -49 594 -67 ct 
611 -85 620 -110 620 -141 ct 620 -169 611 -191 594 -208 ct 577 -225 554 -233 525 -233 ct 
510 -233 496 -231 483 -226 ct 470 -221 457 -213 444 -202 ct 389 -202 l  404 -437 l 
652 -437 l  652 -390 l  455 -390 l  446 -251 l  470 -270 500 -279 536 -279 ct 
579 -279 614 -266 639 -241 ct 665 -216 677 -183 677 -143 ct p ef
pom
pum
11522 7846 t
48 0 m  48 -47 l  160 -47 l  160 -384 l  61 -314 l  61 -366 l  164 -438 l 
216 -438 l  216 -47 l  322 -47 l  322 0 l  48 0 l  p ef
672 -392 m  628 -324 596 -270 578 -232 ct 559 -193 545 -155 536 -117 ct 527 -79 522 -40 522 0 ct 
464 0 l  464 -56 476 -115 500 -177 ct 523 -238 563 -309 618 -390 ct 384 -390 l 
384 -437 l  672 -437 l  672 -392 l  p ef
pom
pum
17996 10009 t
32 0 m  32 -39 l  42 -64 55 -85 71 -104 ct 86 -122 102 -139 118 -154 ct 135 -169 152 -183 168 -196 ct 
185 -208 199 -221 213 -234 ct 226 -247 237 -260 245 -274 ct 253 -289 257 -304 257 -322 ct 
257 -346 250 -365 236 -378 ct 222 -391 202 -398 177 -398 ct 154 -398 134 -392 119 -379 ct 
103 -366 94 -348 91 -324 ct 34 -329 l  39 -364 53 -392 79 -413 ct 104 -434 137 -444 177 -444 ct 
221 -444 255 -434 279 -413 ct 303 -392 314 -362 314 -324 ct 314 -307 311 -290 303 -274 ct 
295 -257 283 -240 268 -223 ct 253 -206 224 -180 180 -145 ct 157 -126 138 -108 124 -93 ct 
110 -77 100 -62 93 -47 ct 321 -47 l  321 0 l  32 0 l  p ef
399 0 m  399 -47 l  511 -47 l  511 -384 l  412 -314 l  412 -366 l  515 -438 l 
567 -438 l  567 -47 l  673 -47 l  673 0 l  399 0 l  p ef
pom
pum
16991 9058 t
321 -392 m  277 -324 245 -270 227 -232 ct 208 -193 194 -155 185 -117 ct 176 -79 171 -40 171 0 ct 
113 0 l  113 -56 125 -115 149 -177 ct 172 -238 212 -309 267 -390 ct 33 -390 l 
33 -437 l  321 -437 l  321 -392 l  p ef
pom
pum
15505 6760 t
32 0 m  32 -39 l  42 -64 55 -85 71 -104 ct 86 -122 102 -139 118 -154 ct 135 -169 152 -183 168 -196 ct 
185 -208 199 -221 213 -234 ct 226 -247 237 -260 245 -274 ct 253 -289 257 -304 257 -322 ct 
257 -346 250 -365 236 -378 ct 222 -391 202 -398 177 -398 ct 154 -398 134 -392 119 -379 ct 
103 -366 94 -348 91 -324 ct 34 -329 l  39 -364 53 -392 79 -413 ct 104 -434 137 -444 177 -444 ct 
221 -444 255 -434 279 -413 ct 303 -392 314 -362 314 -324 ct 314 -307 311 -290 303 -274 ct 
295 -257 283 -240 268 -223 ct 253 -206 224 -180 180 -145 ct 157 -126 138 -108 124 -93 ct 
110 -77 100 -62 93 -47 ct 321 -47 l  321 0 l  32 0 l  p ef
pom
pum
15987 11431 t
325 -121 m  325 -81 312 -49 287 -27 ct 261 -5 225 6 177 6 ct 133 6 98 -4 71 -24 ct 
45 -44 29 -73 24 -113 ct 82 -118 l  89 -66 121 -40 177 -40 ct 205 -40 227 -47 243 -61 ct 
259 -75 267 -96 267 -123 ct 267 -147 258 -165 240 -179 ct 222 -192 195 -199 161 -199 ct 
129 -199 l  129 -247 l  159 -247 l  190 -247 214 -254 231 -267 ct 247 -280 256 -299 256 -322 ct 
256 -346 249 -364 235 -378 ct 221 -391 201 -398 174 -398 ct 149 -398 129 -392 114 -379 ct 
99 -367 90 -349 88 -326 ct 32 -330 l  36 -366 51 -394 76 -414 ct 102 -434 134 -444 175 -444 ct 
218 -444 252 -434 277 -413 ct 301 -393 313 -365 313 -328 ct 313 -300 305 -278 290 -260 ct 
274 -243 251 -231 222 -225 ct 222 -223 l  254 -220 280 -209 298 -191 ct 316 -172 325 -149 325 -121 ct 
p ef
pom
pum
9298 9039 t
328 -219 m  328 -146 315 -90 290 -52 ct 264 -13 226 6 176 6 ct 126 6 88 -13 63 -51 ct 
37 -90 25 -146 25 -219 ct 25 -294 37 -350 62 -388 ct 86 -425 125 -444 178 -444 ct 
229 -444 267 -425 292 -387 ct 316 -349 328 -293 328 -219 ct p
272 -219 m  272 -282 264 -328 250 -356 ct 235 -385 211 -399 178 -399 ct 143 -399 119 -385 104 -357 ct 
89 -329 81 -283 81 -219 ct 81 -157 89 -112 104 -83 ct 119 -54 143 -40 176 -40 ct 
209 -40 233 -54 249 -84 ct 264 -113 272 -158 272 -219 ct p ef
pom
pum
16892 13572 t
273 -99 m  273 0 l  220 0 l  220 -99 l  15 -99 l  15 -142 l  215 -438 l 
273 -438 l  273 -143 l  335 -143 l  335 -99 l  273 -99 l  p
220 -374 m  220 -373 217 -368 212 -358 ct 206 -348 202 -341 200 -338 ct 88 -172 l 
71 -149 l  66 -143 l  220 -143 l  220 -374 l  p ef
pom
pum
12693 14586 t
326 -143 m  326 -96 313 -60 285 -34 ct 258 -7 220 6 171 6 ct 131 6 98 -3 73 -21 ct 
48 -38 32 -64 25 -98 ct 82 -104 l  94 -61 124 -40 173 -40 ct 203 -40 226 -49 243 -67 ct 
260 -85 269 -110 269 -141 ct 269 -169 260 -191 243 -208 ct 226 -225 203 -233 174 -233 ct 
159 -233 145 -231 132 -226 ct 119 -221 106 -213 93 -202 ct 38 -202 l  53 -437 l 
301 -437 l  301 -390 l  104 -390 l  95 -251 l  119 -270 149 -279 185 -279 ct 
228 -279 263 -266 288 -241 ct 314 -216 326 -183 326 -143 ct p ef
pom
pum
15051 10287 t
325 -121 m  325 -81 312 -49 287 -27 ct 261 -5 225 6 177 6 ct 133 6 98 -4 71 -24 ct 
45 -44 29 -73 24 -113 ct 82 -118 l  89 -66 121 -40 177 -40 ct 205 -40 227 -47 243 -61 ct 
259 -75 267 -96 267 -123 ct 267 -147 258 -165 240 -179 ct 222 -192 195 -199 161 -199 ct 
129 -199 l  129 -247 l  159 -247 l  190 -247 214 -254 231 -267 ct 247 -280 256 -299 256 -322 ct 
256 -346 249 -364 235 -378 ct 221 -391 201 -398 174 -398 ct 149 -398 129 -392 114 -379 ct 
99 -367 90 -349 88 -326 ct 32 -330 l  36 -366 51 -394 76 -414 ct 102 -434 134 -444 175 -444 ct 
218 -444 252 -434 277 -413 ct 301 -393 313 -365 313 -328 ct 313 -300 305 -278 290 -260 ct 
274 -243 251 -231 222 -225 ct 222 -223 l  254 -220 280 -209 298 -191 ct 316 -172 325 -149 325 -121 ct 
p ef
pom
pum
18592 6687 t
321 -392 m  277 -324 245 -270 227 -232 ct 208 -193 194 -155 185 -117 ct 176 -79 171 -40 171 0 ct 
113 0 l  113 -56 125 -115 149 -177 ct 172 -238 212 -309 267 -390 ct 33 -390 l 
33 -437 l  321 -437 l  321 -392 l  p ef
pom
pum
12551 5987 t
32 0 m  32 -39 l  42 -64 55 -85 71 -104 ct 86 -122 102 -139 118 -154 ct 135 -169 152 -183 168 -196 ct 
185 -208 199 -221 213 -234 ct 226 -247 237 -260 245 -274 ct 253 -289 257 -304 257 -322 ct 
257 -346 250 -365 236 -378 ct 222 -391 202 -398 177 -398 ct 154 -398 134 -392 119 -379 ct 
103 -366 94 -348 91 -324 ct 34 -329 l  39 -364 53 -392 79 -413 ct 104 -434 137 -444 177 -444 ct 
221 -444 255 -434 279 -413 ct 303 -392 314 -362 314 -324 ct 314 -307 311 -290 303 -274 ct 
295 -257 283 -240 268 -223 ct 253 -206 224 -180 180 -145 ct 157 -126 138 -108 124 -93 ct 
110 -77 100 -62 93 -47 ct 321 -47 l  321 0 l  32 0 l  p ef
pom
0 9448 t 
pom
count op_count sub {pop} repeat countdictstack dict_count sub {end} repeat b4_inc_state restore
%%PageTrailer
%%Trailer
%%EOF
