%!PS-Adobe-3.0 EPSF-3.0 
%%BoundingBox: 0 0 350 297
%%Pages: 0
%%Creator: LibreOffice 5.4
%%Title: none
%%CreationDate: none
%%LanguageLevel: 2
%%EndComments
%%BeginProlog
%%BeginResource: procset SDRes-Prolog 1.0 0
/b4_inc_state save def
/dict_count countdictstack def
/op_count count 1 sub def
userdict begin
0 setgray 0 setlinecap 1 setlinewidth 0 setlinejoin 10 setmiterlimit[] 0 setdash newpath
/languagelevel where {pop languagelevel 1 ne {false setstrokeadjust false setoverprint} if} if
/bdef {bind def} bind def
/c {setgray} bdef
/l {neg lineto} bdef
/rl {neg rlineto} bdef
/lc {setlinecap} bdef
/lj {setlinejoin} bdef
/lw {setlinewidth} bdef
/ml {setmiterlimit} bdef
/ld {setdash} bdef
/m {neg moveto} bdef
/ct {6 2 roll neg 6 2 roll neg 6 2 roll neg curveto} bdef
/r {rotate} bdef
/t {neg translate} bdef
/s {scale} bdef
/sw {show} bdef
/gs {gsave} bdef
/gr {grestore} bdef
/f {findfont dup length dict begin
{1 index /FID ne {def} {pop pop} ifelse} forall /Encoding ISOLatin1Encoding def
currentdict end /NFont exch definefont pop /NFont findfont} bdef
/p {closepath} bdef
/sf {scalefont setfont} bdef
/ef {eofill}bdef
/pc {closepath stroke}bdef
/ps {stroke}bdef
/pum {matrix currentmatrix}bdef
/pom {setmatrix}bdef
/bs {/aString exch def /nXOfs exch def /nWidth exch def currentpoint nXOfs 0 rmoveto pum nWidth aString stringwidth pop div 1 scale aString show pom moveto} bdef
%%EndResource
%%EndProlog
%%BeginSetup
%%EndSetup
%%Page: 1 1
%%BeginPageSetup
%%EndPageSetup
pum
0.02837 0.02833 s 
0 -10481 t
/tm matrix currentmatrix def
tm setmatrix
-1964 -5391 t 
1 1 s 
0 lw 1 lj 0.000 c 2991 6003 m  2999 14998 l  ps
14000 14998 m  2999 14998 l  ps
pum
2214 5876 t
87 -302 m  87 -176 l  276 -176 l  276 -138 l  87 -138 l  87 0 l  41 0 l 
41 -340 l  282 -340 l  282 -302 l  87 -302 l  p ef
377 -261 m  377 -95 l  377 -78 378 -65 382 -55 ct 385 -46 391 -39 398 -35 ct 
405 -31 416 -29 431 -29 ct 451 -29 468 -36 480 -50 ct 492 -64 498 -84 498 -110 ct 
498 -261 l  541 -261 l  541 -56 l  541 -25 542 -7 543 0 ct 502 0 l  502 -1 502 -3 501 -6 ct 
501 -10 501 -14 501 -19 ct 501 -23 500 -32 500 -44 ct 499 -44 l  489 -26 478 -14 465 -6 ct 
452 1 435 5 416 5 ct 387 5 366 -2 353 -16 ct 340 -31 333 -54 333 -87 ct 333 -261 l 
377 -261 l  p ef
775 0 m  775 -166 l  775 -183 773 -196 770 -206 ct 767 -215 761 -222 754 -226 ct 
746 -230 736 -232 721 -232 ct 700 -232 684 -225 672 -211 ct 660 -197 654 -177 654 -151 ct 
654 0 l  610 0 l  610 -205 l  610 -236 610 -254 609 -261 ct 650 -261 l  650 -260 650 -258 650 -255 ct 
650 -251 651 -247 651 -242 ct 651 -238 651 -229 652 -217 ct 652 -217 l  662 -235 674 -247 687 -255 ct 
700 -262 716 -266 736 -266 ct 765 -266 785 -259 799 -245 ct 812 -230 819 -207 819 -174 ct 
819 0 l  775 0 l  p ef
917 -132 m  917 -97 923 -71 934 -54 ct 945 -38 961 -29 983 -29 ct 999 -29 1012 -33 1022 -42 ct 
1032 -50 1039 -63 1041 -81 ct 1085 -78 l  1082 -52 1071 -32 1053 -17 ct 1035 -2 1012 5 984 5 ct 
948 5 920 -7 901 -30 ct 882 -53 872 -86 872 -131 ct 872 -175 882 -208 901 -231 ct 
920 -254 948 -266 984 -266 ct 1011 -266 1033 -259 1050 -245 ct 1068 -231 1079 -212 1084 -188 ct 
1039 -185 l  1037 -199 1031 -211 1022 -219 ct 1013 -228 1000 -232 983 -232 ct 
960 -232 943 -224 933 -209 ct 922 -194 917 -168 917 -132 ct p
1032 61 m  1032 90 1010 105 966 105 ct 957 105 950 105 944 104 ct 944 80 l  952 81 959 82 965 82 ct 
989 82 1001 75 1001 62 ct 1001 50 990 44 968 44 ct 962 44 957 44 955 44 ct 970 0 l 
996 0 l  987 25 l  1002 25 1013 28 1021 35 ct 1028 41 1032 50 1032 61 ct p ef
1201 5 m  1175 5 1155 -2 1142 -16 ct 1129 -30 1122 -49 1122 -73 ct 1122 -100 1131 -121 1149 -135 ct 
1166 -150 1195 -157 1235 -158 ct 1293 -159 l  1293 -174 l  1293 -195 1289 -210 1280 -219 ct 
1271 -228 1257 -233 1237 -233 ct 1218 -233 1204 -230 1195 -223 ct 1186 -216 1181 -206 1179 -191 ct 
1134 -196 l  1141 -243 1176 -266 1238 -266 ct 1271 -266 1296 -258 1312 -243 ct 
1329 -228 1337 -207 1337 -178 ct 1337 -66 l  1337 -53 1339 -43 1342 -37 ct 1346 -30 1352 -27 1362 -27 ct 
1366 -27 1370 -27 1376 -28 ct 1376 -2 l  1365 1 1354 2 1342 2 ct 1326 2 1314 -2 1307 -10 ct 
1300 -19 1296 -32 1295 -50 ct 1293 -50 l  1282 -30 1269 -16 1255 -7 ct 1240 1 1222 5 1201 5 ct 
p
1211 -28 m  1227 -28 1241 -31 1253 -38 ct 1266 -46 1275 -56 1283 -68 ct 1290 -81 1293 -94 1293 -107 ct 
1293 -129 l  1246 -128 l  1225 -128 1210 -125 1199 -122 ct 1189 -118 1181 -112 1175 -104 ct 
1169 -96 1167 -85 1167 -72 ct 1167 -58 1170 -47 1178 -39 ct 1186 -31 1197 -28 1211 -28 ct 
p
1279 -290 m  1272 -290 1265 -291 1259 -294 ct 1252 -297 1245 -300 1239 -304 ct 
1233 -308 1227 -311 1221 -314 ct 1215 -317 1210 -318 1205 -318 ct 1196 -318 1190 -316 1185 -311 ct 
1181 -306 1178 -299 1177 -290 ct 1155 -290 l  1156 -306 1159 -319 1163 -327 ct 
1167 -335 1172 -342 1179 -347 ct 1185 -352 1193 -354 1204 -354 ct 1211 -354 1218 -353 1224 -350 ct 
1231 -347 1238 -344 1244 -340 ct 1250 -336 1256 -333 1262 -330 ct 1267 -327 1272 -326 1277 -326 ct 
1293 -326 1303 -335 1305 -354 ct 1328 -354 l  1325 -330 1319 -314 1311 -304 ct 
1303 -295 1292 -290 1279 -290 ct p ef
1630 -131 m  1630 -85 1620 -51 1600 -29 ct 1580 -6 1551 5 1512 5 ct 1474 5 1445 -7 1426 -30 ct 
1406 -53 1397 -87 1397 -131 ct 1397 -221 1436 -266 1514 -266 ct 1554 -266 1583 -255 1602 -233 ct 
1621 -211 1630 -177 1630 -131 ct p
1584 -131 m  1584 -167 1579 -193 1568 -209 ct 1558 -226 1540 -234 1514 -234 ct 
1489 -234 1471 -226 1459 -209 ct 1448 -192 1442 -166 1442 -131 ct 1442 -96 1448 -70 1459 -53 ct 
1470 -36 1488 -27 1512 -27 ct 1538 -27 1556 -35 1568 -52 ct 1579 -69 1584 -95 1584 -131 ct 
p ef
2152 -171 m  2152 -136 2145 -105 2131 -78 ct 2118 -51 2098 -31 2073 -16 ct 2047 -2 2017 5 1983 5 ct 
1948 5 1918 -2 1892 -16 ct 1867 -30 1848 -51 1834 -78 ct 1821 -104 1814 -136 1814 -171 ct 
1814 -226 1829 -268 1859 -299 ct 1889 -330 1930 -345 1983 -345 ct 2018 -345 2048 -338 2073 -324 ct 
2099 -311 2118 -291 2131 -264 ct 2145 -238 2152 -207 2152 -171 ct p
2105 -171 m  2105 -214 2094 -247 2073 -271 ct 2052 -295 2022 -307 1983 -307 ct 
1944 -307 1914 -295 1893 -272 ct 1872 -248 1861 -214 1861 -171 ct 1861 -129 1872 -95 1893 -70 ct 
1915 -45 1945 -32 1983 -32 ct 2022 -32 2052 -45 2073 -69 ct 2094 -93 2105 -127 2105 -171 ct 
p ef
2430 -132 m  2430 -41 2398 5 2334 5 ct 2314 5 2298 1 2285 -6 ct 2272 -13 2261 -24 2253 -40 ct 
2252 -40 l  2252 -35 2252 -28 2251 -18 ct 2251 -7 2250 -1 2250 0 ct 2208 0 l 
2209 -9 2209 -26 2209 -54 ct 2209 -358 l  2253 -358 l  2253 -256 l  2253 -246 2252 -233 2252 -219 ct 
2253 -219 l  2261 -236 2271 -248 2285 -255 ct 2298 -262 2314 -266 2334 -266 ct 
2367 -266 2391 -255 2407 -233 ct 2422 -210 2430 -177 2430 -132 ct p
2384 -130 m  2384 -167 2380 -193 2370 -209 ct 2360 -225 2345 -232 2323 -232 ct 
2298 -232 2281 -224 2269 -207 ct 2258 -191 2253 -164 2253 -128 ct 2253 -93 2258 -68 2269 -52 ct 
2280 -35 2298 -27 2322 -27 ct 2344 -27 2360 -35 2370 -51 ct 2380 -68 2384 -94 2384 -130 ct 
p ef
2484 -316 m  2484 -358 l  2527 -358 l  2527 -316 l  2484 -316 l  p
2527 33 m  2527 57 2523 75 2513 86 ct 2503 97 2489 103 2470 103 ct 2457 103 2447 102 2439 101 ct 
2439 67 l  2454 69 l  2465 69 2473 66 2477 60 ct 2482 54 2484 43 2484 26 ct 
2484 -261 l  2527 -261 l  2527 33 l  p ef
2628 -121 m  2628 -91 2634 -68 2646 -52 ct 2659 -36 2677 -28 2700 -28 ct 2719 -28 2734 -31 2746 -39 ct 
2757 -46 2765 -56 2769 -68 ct 2807 -57 l  2791 -16 2756 5 2700 5 ct 2662 5 2632 -7 2612 -30 ct 
2592 -53 2582 -87 2582 -132 ct 2582 -175 2592 -208 2612 -231 ct 2632 -254 2661 -266 2699 -266 ct 
2775 -266 2814 -220 2814 -127 ct 2814 -121 l  2628 -121 l  p
2769 -154 m  2767 -182 2760 -202 2748 -215 ct 2736 -228 2720 -234 2698 -234 ct 
2677 -234 2660 -227 2648 -213 ct 2636 -199 2629 -179 2628 -154 ct 2769 -154 l 
p ef
2970 -2 m  2955 2 2941 4 2926 4 ct 2891 4 2874 -16 2874 -55 ct 2874 -229 l  2843 -229 l 
2843 -261 l  2875 -261 l  2888 -320 l  2917 -320 l  2917 -261 l  2965 -261 l 
2965 -229 l  2917 -229 l  2917 -65 l  2917 -52 2919 -43 2923 -38 ct 2927 -33 2934 -31 2945 -31 ct 
2950 -31 2959 -32 2970 -34 ct 2970 -2 l  p ef
3009 -316 m  3009 -358 l  3052 -358 l  3052 -316 l  3009 -316 l  p
3009 0 m  3009 -261 l  3052 -261 l  3052 0 l  3009 0 l  p ef
3234 0 m  3182 0 l  3088 -261 l  3134 -261 l  3191 -91 l  3194 -85 3199 -66 3208 -34 ct 
3217 -62 l  3226 -91 l  3285 -261 l  3331 -261 l  3234 0 l  p ef
3590 -131 m  3590 -85 3580 -51 3560 -29 ct 3540 -6 3511 5 3472 5 ct 3434 5 3405 -7 3386 -30 ct 
3366 -53 3357 -87 3357 -131 ct 3357 -221 3396 -266 3474 -266 ct 3514 -266 3543 -255 3562 -233 ct 
3581 -211 3590 -177 3590 -131 ct p
3544 -131 m  3544 -167 3539 -193 3528 -209 ct 3518 -226 3500 -234 3474 -234 ct 
3449 -234 3431 -226 3419 -209 ct 3408 -192 3402 -166 3402 -131 ct 3402 -96 3408 -70 3419 -53 ct 
3430 -36 3448 -27 3472 -27 ct 3498 -27 3516 -35 3528 -52 ct 3539 -69 3544 -95 3544 -131 ct 
p ef
pom
pum
12249 15484 t
41 0 m  41 -340 l  298 -340 l  298 -302 l  87 -302 l  87 -193 l  284 -193 l 
284 -156 l  87 -156 l  87 -38 l  308 -38 l  308 0 l  41 0 l  p ef
559 -72 m  559 -47 550 -28 531 -15 ct 513 -2 487 5 453 5 ct 421 5 396 0 378 -11 ct 
361 -22 349 -38 344 -61 ct 382 -69 l  386 -55 393 -44 405 -38 ct 417 -31 433 -28 453 -28 ct 
475 -28 491 -31 502 -38 ct 512 -45 517 -55 517 -69 ct 517 -79 513 -87 506 -94 ct 
499 -100 488 -105 472 -110 ct 441 -118 l  416 -124 398 -131 388 -137 ct 377 -143 369 -150 363 -159 ct 
357 -168 354 -179 354 -192 ct 354 -216 363 -234 380 -246 ct 397 -259 421 -265 454 -265 ct 
483 -265 505 -260 522 -250 ct 539 -240 550 -223 555 -201 ct 515 -196 l  513 -208 507 -217 496 -223 ct 
486 -229 471 -232 454 -232 ct 434 -232 420 -229 410 -223 ct 401 -217 396 -208 396 -196 ct 
396 -189 398 -183 402 -178 ct 406 -173 412 -169 419 -166 ct 427 -162 443 -158 467 -152 ct 
490 -146 507 -140 517 -136 ct 527 -131 535 -125 541 -119 ct 547 -113 551 -106 554 -99 ct 
558 -91 559 -82 559 -72 ct p ef
714 -2 m  699 2 685 4 670 4 ct 635 4 618 -16 618 -55 ct 618 -229 l  587 -229 l 
587 -261 l  619 -261 l  632 -320 l  661 -320 l  661 -261 l  709 -261 l 
709 -229 l  661 -229 l  661 -65 l  661 -52 663 -43 667 -38 ct 671 -33 678 -31 689 -31 ct 
694 -31 703 -32 714 -34 ct 714 -2 l  p ef
820 5 m  794 5 774 -2 761 -16 ct 748 -30 741 -49 741 -73 ct 741 -100 750 -121 768 -135 ct 
785 -150 814 -157 854 -158 ct 912 -159 l  912 -174 l  912 -195 908 -210 899 -219 ct 
890 -228 876 -233 856 -233 ct 837 -233 823 -230 814 -223 ct 805 -216 800 -206 798 -191 ct 
753 -196 l  760 -243 795 -266 857 -266 ct 890 -266 915 -258 931 -243 ct 948 -228 956 -207 956 -178 ct 
956 -66 l  956 -53 958 -43 961 -37 ct 965 -30 971 -27 981 -27 ct 985 -27 989 -27 995 -28 ct 
995 -2 l  984 1 973 2 961 2 ct 945 2 933 -2 926 -10 ct 919 -19 915 -32 914 -50 ct 
912 -50 l  901 -30 888 -16 874 -7 ct 859 1 841 5 820 5 ct p
830 -28 m  846 -28 860 -31 872 -38 ct 885 -46 894 -56 902 -68 ct 909 -81 912 -94 912 -107 ct 
912 -129 l  865 -128 l  844 -128 829 -125 818 -122 ct 808 -118 800 -112 794 -104 ct 
788 -96 786 -85 786 -72 ct 786 -58 789 -47 797 -39 ct 805 -31 816 -28 830 -28 ct 
p ef
1193 -42 m  1185 -25 1174 -13 1161 -6 ct 1148 1 1131 5 1112 5 ct 1079 5 1055 -6 1039 -28 ct 
1024 -51 1016 -84 1016 -129 ct 1016 -220 1048 -266 1112 -266 ct 1132 -266 1148 -262 1161 -255 ct 
1174 -248 1185 -236 1193 -221 ct 1194 -221 l  1193 -250 l  1193 -358 l  1236 -358 l 
1236 -54 l  1236 -26 1237 -9 1238 0 ct 1196 0 l  1196 -2 1195 -8 1195 -18 ct 
1194 -27 1194 -35 1194 -42 ct 1193 -42 l  p
1061 -131 m  1061 -94 1066 -68 1076 -52 ct 1085 -36 1101 -29 1123 -29 ct 1147 -29 1165 -37 1176 -54 ct 
1187 -71 1193 -98 1193 -134 ct 1193 -168 1187 -194 1176 -210 ct 1165 -226 1148 -234 1123 -234 ct 
1101 -234 1086 -226 1076 -210 ct 1066 -193 1061 -167 1061 -131 ct p ef
1524 -131 m  1524 -85 1514 -51 1494 -29 ct 1474 -6 1445 5 1406 5 ct 1368 5 1339 -7 1320 -30 ct 
1300 -53 1291 -87 1291 -131 ct 1291 -221 1330 -266 1408 -266 ct 1448 -266 1477 -255 1496 -233 ct 
1515 -211 1524 -177 1524 -131 ct p
1478 -131 m  1478 -167 1473 -193 1462 -209 ct 1452 -226 1434 -234 1408 -234 ct 
1383 -234 1365 -226 1353 -209 ct 1342 -192 1336 -166 1336 -131 ct 1336 -96 1342 -70 1353 -53 ct 
1364 -36 1382 -27 1406 -27 ct 1432 -27 1450 -35 1462 -52 ct 1473 -69 1478 -95 1478 -131 ct 
p ef
1774 -72 m  1774 -47 1765 -28 1746 -15 ct 1728 -2 1702 5 1668 5 ct 1636 5 1611 0 1593 -11 ct 
1576 -22 1564 -38 1559 -61 ct 1597 -69 l  1601 -55 1608 -44 1620 -38 ct 1632 -31 1648 -28 1668 -28 ct 
1690 -28 1706 -31 1717 -38 ct 1727 -45 1732 -55 1732 -69 ct 1732 -79 1728 -87 1721 -94 ct 
1714 -100 1703 -105 1687 -110 ct 1656 -118 l  1631 -124 1613 -131 1603 -137 ct 
1592 -143 1584 -150 1578 -159 ct 1572 -168 1569 -179 1569 -192 ct 1569 -216 1578 -234 1595 -246 ct 
1612 -259 1636 -265 1669 -265 ct 1698 -265 1720 -260 1737 -250 ct 1754 -240 1765 -223 1770 -201 ct 
1730 -196 l  1728 -208 1722 -217 1711 -223 ct 1701 -229 1686 -232 1669 -232 ct 
1649 -232 1635 -229 1625 -223 ct 1616 -217 1611 -208 1611 -196 ct 1611 -189 1613 -183 1617 -178 ct 
1621 -173 1627 -169 1634 -166 ct 1642 -162 1658 -158 1682 -152 ct 1705 -146 1722 -140 1732 -136 ct 
1742 -131 1750 -125 1756 -119 ct 1762 -113 1766 -106 1769 -99 ct 1773 -91 1774 -82 1774 -72 ct 
p ef
pom
3479 12248 m  3593 11833 3815 11461 4012 11082 ct 4131 10853 4200 10592 4361 10395 ct 
4531 10186 4854 10202 5058 10312 ct 5288 10437 5402 10759 5386 11040 ct 5372 11278 5412 11509 5406 11748 ct 
5401 11976 5450 12246 5673 12373 ct 5895 12499 6213 12438 6349 12186 ct 6482 11942 6725 11773 6822 11498 ct 
6910 11247 6933 10985 6924 10727 ct 6916 10464 6906 10024 7314 10062 ct 7549 10084 7854 9945 8011 10208 ct 
8139 10422 8205 10674 8216 10936 ct 8225 11159 8255 11381 8236 11602 ct 8216 11845 8304 12059 8339 12290 ct 
8383 12588 8709 12735 8852 12977 ct 9000 13228 9262 13330 9508 13311 ct 9765 13291 9977 13049 10041 12790 ct 
10102 12541 10036 12285 10082 12040 ct 10132 11778 9984 11600 9938 11352 ct 
9891 11095 9794 10855 9775 10602 ct 9752 10291 9738 9975 9775 9666 ct 9803 9437 9604 9085 10000 9020 ct 
10261 8977 10526 9126 10616 9374 ct 10698 9603 10765 9857 10697 10083 ct 10573 10496 10976 10325 11129 10333 ct 
11440 10350 11319 9902 11477 9749 ct 11633 9599 11912 9631 12092 9937 ct 12250 10206 12268 10431 12358 10686 ct 
12431 10892 12455 11219 12747 11248 ct 12965 11270 13231 11450 13403 11311 ct 
13622 11134 13853 11031 13937 10748 ct 13937 10498 l  13958 10270 l  13998 10270 l 
ps
5399 11599 m  5455 11599 5499 11642 5499 11698 ct 5499 11754 5455 11798 5399 11798 ct 
5343 11798 5300 11754 5300 11698 ct 5300 11642 5343 11599 5399 11599 ct p
5300 11599 m  5300 11599 l  p
5501 11800 m  5501 11800 l  p ef
5398 11598 m  5454 11598 5498 11641 5498 11697 ct 5498 11753 5454 11797 5398 11797 ct 
5342 11797 5299 11753 5299 11697 ct 5299 11641 5342 11598 5398 11598 ct pc
5299 11598 m  5299 11598 l  pc
5500 11799 m  5500 11799 l  pc
4414 12898 m  4206 12898 3999 12981 3999 13064 ct 3999 13189 l  3999 13313 l 
3999 13483 l  3999 13607 l  3999 13732 l  3999 13815 4206 13899 4414 13899 ct 
4726 13899 l  5037 13899 l  5461 13899 l  5772 13899 l  6084 13899 l  6292 13899 6500 13815 6500 13732 ct 
6500 13607 l  6500 13483 l  6500 13313 l  6500 13189 l  6500 13064 l  6500 12981 6292 12898 6084 12898 ct 
5772 12898 l  5461 12898 l  5037 12898 l  5166 11958 l  4414 12898 l  pc
3999 12898 m  3999 12898 l  pc
6500 13899 m  6500 13899 l  pc
pum
4482 13310 t
263 -81 m  263 -54 252 -33 231 -18 ct 210 -3 181 4 143 4 ct 72 4 31 -21 19 -70 ct 
57 -78 l  62 -60 71 -47 86 -39 ct 100 -31 119 -27 144 -27 ct 169 -27 189 -31 203 -40 ct 
217 -49 224 -62 224 -79 ct 224 -88 222 -96 217 -102 ct 213 -108 207 -113 199 -116 ct 
191 -120 182 -124 171 -126 ct 160 -129 148 -132 135 -135 ct 112 -140 94 -145 82 -150 ct 
70 -155 61 -161 54 -167 ct 47 -173 42 -181 38 -189 ct 35 -197 33 -207 33 -218 ct 
33 -243 42 -262 61 -276 ct 81 -289 108 -296 143 -296 ct 176 -296 202 -291 219 -281 ct 
237 -271 249 -253 256 -229 ct 217 -222 l  213 -238 205 -249 193 -256 ct 181 -263 164 -266 143 -266 ct 
120 -266 102 -262 90 -255 ct 77 -247 71 -235 71 -220 ct 71 -211 74 -204 78 -198 ct 
83 -192 90 -187 99 -183 ct 108 -179 126 -174 152 -168 ct 161 -166 170 -164 179 -162 ct 
188 -159 197 -157 205 -154 ct 213 -151 220 -148 228 -144 ct 235 -140 241 -135 246 -129 ct 
251 -123 255 -116 258 -108 ct 261 -100 263 -91 263 -81 ct p ef
501 -112 m  501 -73 493 -44 476 -25 ct 458 -6 433 4 401 4 ct 368 4 343 -6 327 -26 ct 
310 -46 302 -75 302 -112 ct 302 -189 335 -228 402 -228 ct 436 -228 461 -219 477 -200 ct 
493 -181 501 -152 501 -112 ct p
462 -112 m  462 -143 458 -166 449 -180 ct 440 -193 424 -200 403 -200 ct 381 -200 365 -193 355 -179 ct 
346 -165 341 -143 341 -112 ct 341 -83 346 -61 355 -46 ct 365 -31 380 -24 400 -24 ct 
423 -24 439 -31 448 -45 ct 458 -59 462 -82 462 -112 ct p ef
550 0 m  550 -307 l  587 -307 l  587 0 l  550 0 l  p ef
679 -224 m  679 -82 l  679 -67 680 -56 683 -48 ct 686 -40 691 -34 697 -30 ct 
703 -27 713 -25 725 -25 ct 743 -25 757 -31 767 -43 ct 778 -55 783 -72 783 -94 ct 
783 -224 l  820 -224 l  820 -48 l  820 -22 820 -6 821 0 ct 786 0 l  786 -1 786 -3 786 -6 ct 
786 -9 785 -12 785 -16 ct 785 -20 785 -28 784 -38 ct 784 -38 l  775 -23 765 -12 754 -6 ct 
743 1 729 4 712 4 ct 688 4 670 -2 659 -14 ct 647 -27 641 -47 641 -75 ct 641 -224 l 
679 -224 l  p ef
908 -113 m  908 -83 912 -61 922 -47 ct 931 -32 945 -25 964 -25 ct 977 -25 988 -29 997 -36 ct 
1006 -43 1012 -54 1014 -69 ct 1051 -66 l  1048 -45 1039 -28 1024 -15 ct 1008 -2 989 4 965 4 ct 
934 4 910 -6 894 -25 ct 877 -45 869 -74 869 -112 ct 869 -150 877 -178 894 -198 ct 
910 -218 934 -228 965 -228 ct 988 -228 1007 -222 1022 -210 ct 1037 -198 1046 -182 1050 -161 ct 
1012 -158 l  1010 -171 1005 -181 997 -188 ct 989 -195 978 -199 964 -199 ct 944 -199 930 -192 921 -179 ct 
912 -166 908 -144 908 -113 ct p
1006 52 m  1006 77 987 90 950 90 ct 942 90 935 90 931 89 ct 931 69 l  938 70 944 70 949 70 ct 
969 70 979 65 979 53 ct 979 43 970 37 952 37 ct 946 37 942 38 940 38 ct 953 0 l 
975 0 l  967 21 l  980 21 990 24 996 30 ct 1003 35 1006 43 1006 52 ct p ef
1149 4 m  1126 4 1109 -2 1098 -14 ct 1087 -26 1081 -42 1081 -63 ct 1081 -86 1089 -104 1104 -116 ct 
1119 -128 1144 -135 1177 -136 ct 1228 -137 l  1228 -149 l  1228 -167 1224 -180 1216 -188 ct 
1208 -196 1196 -200 1180 -200 ct 1163 -200 1151 -197 1143 -191 ct 1136 -186 1131 -177 1130 -164 ct 
1091 -168 l  1097 -208 1127 -228 1181 -228 ct 1209 -228 1230 -222 1244 -209 ct 
1258 -196 1265 -177 1265 -153 ct 1265 -56 l  1265 -45 1267 -37 1270 -31 ct 1272 -26 1278 -23 1286 -23 ct 
1290 -23 1294 -24 1298 -25 ct 1298 -1 l  1289 1 1279 2 1270 2 ct 1256 2 1246 -2 1239 -9 ct 
1233 -16 1230 -27 1229 -43 ct 1228 -43 l  1218 -26 1207 -14 1194 -7 ct 1182 0 1167 4 1149 4 ct 
p
1157 -24 m  1171 -24 1183 -27 1193 -33 ct 1204 -39 1212 -48 1218 -59 ct 1225 -70 1228 -81 1228 -92 ct 
1228 -111 l  1187 -110 l  1169 -109 1156 -108 1147 -104 ct 1138 -101 1131 -96 1126 -89 ct 
1122 -82 1119 -73 1119 -62 ct 1119 -50 1122 -40 1129 -34 ct 1136 -27 1145 -24 1157 -24 ct 
p
1215 -249 m  1209 -249 1204 -250 1198 -253 ct 1192 -255 1187 -258 1181 -261 ct 
1176 -264 1171 -267 1166 -269 ct 1161 -272 1156 -273 1152 -273 ct 1144 -273 1139 -271 1135 -267 ct 
1131 -263 1129 -257 1128 -249 ct 1109 -249 l  1110 -263 1113 -274 1116 -281 ct 
1119 -288 1124 -294 1129 -298 ct 1135 -302 1142 -304 1151 -304 ct 1157 -304 1163 -303 1169 -300 ct 
1174 -298 1180 -295 1185 -292 ct 1191 -289 1196 -286 1200 -284 ct 1205 -281 1210 -280 1214 -280 ct 
1228 -280 1236 -288 1238 -304 ct 1257 -304 l  1255 -284 1250 -270 1243 -261 ct 
1236 -253 1227 -249 1215 -249 ct p ef
1517 -112 m  1517 -73 1509 -44 1492 -25 ct 1474 -6 1449 4 1417 4 ct 1384 4 1359 -6 1343 -26 ct 
1326 -46 1318 -75 1318 -112 ct 1318 -189 1351 -228 1418 -228 ct 1452 -228 1477 -219 1493 -200 ct 
1509 -181 1517 -152 1517 -112 ct p
1478 -112 m  1478 -143 1474 -166 1465 -180 ct 1456 -193 1440 -200 1419 -200 ct 
1397 -200 1381 -193 1371 -179 ct 1362 -165 1357 -143 1357 -112 ct 1357 -83 1362 -61 1371 -46 ct 
1381 -31 1396 -24 1416 -24 ct 1439 -24 1455 -31 1464 -45 ct 1474 -59 1478 -82 1478 -112 ct 
p ef
pom
pum
4708 13704 t
39 0 m  39 -292 l  78 -292 l  78 0 l  39 0 l  p ef
289 0 m  289 -142 l  289 -157 288 -168 285 -176 ct 282 -184 278 -190 271 -194 ct 
265 -197 256 -199 243 -199 ct 225 -199 211 -193 201 -181 ct 191 -169 186 -152 186 -130 ct 
186 0 l  148 0 l  148 -176 l  148 -202 148 -218 147 -224 ct 182 -224 l  182 -223 182 -221 183 -218 ct 
183 -215 183 -212 183 -208 ct 183 -204 184 -196 184 -186 ct 184 -186 l  193 -201 203 -212 214 -218 ct 
225 -225 239 -228 256 -228 ct 280 -228 298 -222 310 -210 ct 321 -197 327 -177 327 -149 ct 
327 0 l  289 0 l  p ef
384 -271 m  384 -307 l  421 -307 l  421 -271 l  384 -271 l  p
384 0 m  384 -224 l  421 -224 l  421 0 l  384 0 l  p ef
506 -113 m  506 -83 510 -61 520 -47 ct 529 -33 543 -25 562 -25 ct 575 -25 586 -29 595 -36 ct 
604 -43 610 -54 612 -69 ct 649 -67 l  646 -45 637 -28 622 -15 ct 606 -2 587 4 563 4 ct 
532 4 508 -6 492 -26 ct 475 -45 467 -74 467 -112 ct 467 -150 475 -179 492 -198 ct 
508 -218 532 -228 563 -228 ct 586 -228 605 -222 620 -210 ct 635 -199 644 -182 648 -161 ct 
610 -158 l  608 -171 603 -181 595 -188 ct 587 -195 576 -199 562 -199 ct 542 -199 528 -192 519 -179 ct 
510 -166 506 -144 506 -113 ct p ef
688 -271 m  688 -307 l  725 -307 l  725 -271 l  688 -271 l  p
688 0 m  688 -224 l  725 -224 l  725 0 l  688 0 l  p ef
840 4 m  817 4 800 -2 789 -14 ct 778 -26 772 -42 772 -63 ct 772 -86 780 -104 795 -116 ct 
810 -128 835 -135 868 -136 ct 919 -137 l  919 -149 l  919 -167 915 -180 907 -188 ct 
899 -196 887 -200 871 -200 ct 854 -200 842 -197 834 -191 ct 827 -186 822 -177 821 -164 ct 
782 -168 l  788 -208 818 -228 872 -228 ct 900 -228 921 -222 935 -209 ct 949 -196 956 -177 956 -153 ct 
956 -56 l  956 -45 958 -37 961 -31 ct 963 -26 969 -23 977 -23 ct 981 -23 985 -24 989 -25 ct 
989 -1 l  980 1 970 2 961 2 ct 947 2 937 -2 930 -9 ct 924 -16 921 -27 920 -43 ct 
919 -43 l  909 -26 898 -14 885 -7 ct 873 0 858 4 840 4 ct p
848 -24 m  862 -24 874 -27 884 -33 ct 895 -39 903 -48 909 -59 ct 916 -70 919 -81 919 -92 ct 
919 -111 l  878 -110 l  860 -109 847 -108 838 -104 ct 829 -101 822 -96 817 -89 ct 
813 -82 810 -73 810 -62 ct 810 -50 813 -40 820 -34 ct 827 -27 836 -24 848 -24 ct 
p ef
1020 0 m  1020 -307 l  1057 -307 l  1057 0 l  1020 0 l  p ef
pom
0 10481 t 
pom
count op_count sub {pop} repeat countdictstack dict_count sub {end} repeat b4_inc_state restore
%%PageTrailer
%%Trailer
%%EOF
