%!PS-Adobe-3.0 EPSF-3.0 
%%BoundingBox: 0 0 350 297
%%Pages: 0
%%Creator: LibreOffice 5.4
%%Title: none
%%CreationDate: none
%%LanguageLevel: 2
%%EndComments
%%BeginProlog
%%BeginResource: procset SDRes-Prolog 1.0 0
/b4_inc_state save def
/dict_count countdictstack def
/op_count count 1 sub def
userdict begin
0 setgray 0 setlinecap 1 setlinewidth 0 setlinejoin 10 setmiterlimit[] 0 setdash newpath
/languagelevel where {pop languagelevel 1 ne {false setstrokeadjust false setoverprint} if} if
/bdef {bind def} bind def
/c {setgray} bdef
/l {neg lineto} bdef
/rl {neg rlineto} bdef
/lc {setlinecap} bdef
/lj {setlinejoin} bdef
/lw {setlinewidth} bdef
/ml {setmiterlimit} bdef
/ld {setdash} bdef
/m {neg moveto} bdef
/ct {6 2 roll neg 6 2 roll neg 6 2 roll neg curveto} bdef
/r {rotate} bdef
/t {neg translate} bdef
/s {scale} bdef
/sw {show} bdef
/gs {gsave} bdef
/gr {grestore} bdef
/f {findfont dup length dict begin
{1 index /FID ne {def} {pop pop} ifelse} forall /Encoding ISOLatin1Encoding def
currentdict end /NFont exch definefont pop /NFont findfont} bdef
/p {closepath} bdef
/sf {scalefont setfont} bdef
/ef {eofill}bdef
/pc {closepath stroke}bdef
/ps {stroke}bdef
/pum {matrix currentmatrix}bdef
/pom {setmatrix}bdef
/bs {/aString exch def /nXOfs exch def /nWidth exch def currentpoint nXOfs 0 rmoveto pum nWidth aString stringwidth pop div 1 scale aString show pom moveto} bdef
%%EndResource
%%EndProlog
%%BeginSetup
%%EndSetup
%%Page: 1 1
%%BeginPageSetup
%%EndPageSetup
pum
0.02837 0.02833 s 
0 -10481 t
/tm matrix currentmatrix def
tm setmatrix
-1964 -5391 t 
1 1 s 
0 lw 1 lj 0.000 c 2991 6003 m  2999 14998 l  ps
14000 14998 m  2999 14998 l  ps
pum
2214 5876 t
87 -302 m  87 -176 l  276 -176 l  276 -138 l  87 -138 l  87 0 l  41 0 l 
41 -340 l  282 -340 l  282 -302 l  87 -302 l  p ef
377 -261 m  377 -95 l  377 -78 378 -65 382 -55 ct 385 -46 391 -39 398 -35 ct 
405 -31 416 -29 431 -29 ct 451 -29 468 -36 480 -50 ct 492 -64 498 -84 498 -110 ct 
498 -261 l  541 -261 l  541 -56 l  541 -25 542 -7 543 0 ct 502 0 l  502 -1 502 -3 501 -6 ct 
501 -10 501 -14 501 -19 ct 501 -23 500 -32 500 -44 ct 499 -44 l  489 -26 478 -14 465 -6 ct 
452 1 435 5 416 5 ct 387 5 366 -2 353 -16 ct 340 -31 333 -54 333 -87 ct 333 -261 l 
377 -261 l  p ef
775 0 m  775 -166 l  775 -183 773 -196 770 -206 ct 767 -215 761 -222 754 -226 ct 
746 -230 736 -232 721 -232 ct 700 -232 684 -225 672 -211 ct 660 -197 654 -177 654 -151 ct 
654 0 l  610 0 l  610 -205 l  610 -236 610 -254 609 -261 ct 650 -261 l  650 -260 650 -258 650 -255 ct 
650 -251 651 -247 651 -242 ct 651 -238 651 -229 652 -217 ct 652 -217 l  662 -235 674 -247 687 -255 ct 
700 -262 716 -266 736 -266 ct 765 -266 785 -259 799 -245 ct 812 -230 819 -207 819 -174 ct 
819 0 l  775 0 l  p ef
917 -132 m  917 -97 923 -71 934 -54 ct 945 -38 961 -29 983 -29 ct 999 -29 1012 -33 1022 -42 ct 
1032 -50 1039 -63 1041 -81 ct 1085 -78 l  1082 -52 1071 -32 1053 -17 ct 1035 -2 1012 5 984 5 ct 
948 5 920 -7 901 -30 ct 882 -53 872 -86 872 -131 ct 872 -175 882 -208 901 -231 ct 
920 -254 948 -266 984 -266 ct 1011 -266 1033 -259 1050 -245 ct 1068 -231 1079 -212 1084 -188 ct 
1039 -185 l  1037 -199 1031 -211 1022 -219 ct 1013 -228 1000 -232 983 -232 ct 
960 -232 943 -224 933 -209 ct 922 -194 917 -168 917 -132 ct p
1032 61 m  1032 90 1010 105 966 105 ct 957 105 950 105 944 104 ct 944 80 l  952 81 959 82 965 82 ct 
989 82 1001 75 1001 62 ct 1001 50 990 44 968 44 ct 962 44 957 44 955 44 ct 970 0 l 
996 0 l  987 25 l  1002 25 1013 28 1021 35 ct 1028 41 1032 50 1032 61 ct p ef
1201 5 m  1175 5 1155 -2 1142 -16 ct 1129 -30 1122 -49 1122 -73 ct 1122 -100 1131 -121 1149 -135 ct 
1166 -150 1195 -157 1235 -158 ct 1293 -159 l  1293 -174 l  1293 -195 1289 -210 1280 -219 ct 
1271 -228 1257 -233 1237 -233 ct 1218 -233 1204 -230 1195 -223 ct 1186 -216 1181 -206 1179 -191 ct 
1134 -196 l  1141 -243 1176 -266 1238 -266 ct 1271 -266 1296 -258 1312 -243 ct 
1329 -228 1337 -207 1337 -178 ct 1337 -66 l  1337 -53 1339 -43 1342 -37 ct 1346 -30 1352 -27 1362 -27 ct 
1366 -27 1370 -27 1376 -28 ct 1376 -2 l  1365 1 1354 2 1342 2 ct 1326 2 1314 -2 1307 -10 ct 
1300 -19 1296 -32 1295 -50 ct 1293 -50 l  1282 -30 1269 -16 1255 -7 ct 1240 1 1222 5 1201 5 ct 
p
1211 -28 m  1227 -28 1241 -31 1253 -38 ct 1266 -46 1275 -56 1283 -68 ct 1290 -81 1293 -94 1293 -107 ct 
1293 -129 l  1246 -128 l  1225 -128 1210 -125 1199 -122 ct 1189 -118 1181 -112 1175 -104 ct 
1169 -96 1167 -85 1167 -72 ct 1167 -58 1170 -47 1178 -39 ct 1186 -31 1197 -28 1211 -28 ct 
p
1279 -290 m  1272 -290 1265 -291 1259 -294 ct 1252 -297 1245 -300 1239 -304 ct 
1233 -308 1227 -311 1221 -314 ct 1215 -317 1210 -318 1205 -318 ct 1196 -318 1190 -316 1185 -311 ct 
1181 -306 1178 -299 1177 -290 ct 1155 -290 l  1156 -306 1159 -319 1163 -327 ct 
1167 -335 1172 -342 1179 -347 ct 1185 -352 1193 -354 1204 -354 ct 1211 -354 1218 -353 1224 -350 ct 
1231 -347 1238 -344 1244 -340 ct 1250 -336 1256 -333 1262 -330 ct 1267 -327 1272 -326 1277 -326 ct 
1293 -326 1303 -335 1305 -354 ct 1328 -354 l  1325 -330 1319 -314 1311 -304 ct 
1303 -295 1292 -290 1279 -290 ct p ef
1630 -131 m  1630 -85 1620 -51 1600 -29 ct 1580 -6 1551 5 1512 5 ct 1474 5 1445 -7 1426 -30 ct 
1406 -53 1397 -87 1397 -131 ct 1397 -221 1436 -266 1514 -266 ct 1554 -266 1583 -255 1602 -233 ct 
1621 -211 1630 -177 1630 -131 ct p
1584 -131 m  1584 -167 1579 -193 1568 -209 ct 1558 -226 1540 -234 1514 -234 ct 
1489 -234 1471 -226 1459 -209 ct 1448 -192 1442 -166 1442 -131 ct 1442 -96 1448 -70 1459 -53 ct 
1470 -36 1488 -27 1512 -27 ct 1538 -27 1556 -35 1568 -52 ct 1579 -69 1584 -95 1584 -131 ct 
p ef
2152 -171 m  2152 -136 2145 -105 2131 -78 ct 2118 -51 2098 -31 2073 -16 ct 2047 -2 2017 5 1983 5 ct 
1948 5 1918 -2 1892 -16 ct 1867 -30 1848 -51 1834 -78 ct 1821 -104 1814 -136 1814 -171 ct 
1814 -226 1829 -268 1859 -299 ct 1889 -330 1930 -345 1983 -345 ct 2018 -345 2048 -338 2073 -324 ct 
2099 -311 2118 -291 2131 -264 ct 2145 -238 2152 -207 2152 -171 ct p
2105 -171 m  2105 -214 2094 -247 2073 -271 ct 2052 -295 2022 -307 1983 -307 ct 
1944 -307 1914 -295 1893 -272 ct 1872 -248 1861 -214 1861 -171 ct 1861 -129 1872 -95 1893 -70 ct 
1915 -45 1945 -32 1983 -32 ct 2022 -32 2052 -45 2073 -69 ct 2094 -93 2105 -127 2105 -171 ct 
p ef
2430 -132 m  2430 -41 2398 5 2334 5 ct 2314 5 2298 1 2285 -6 ct 2272 -13 2261 -24 2253 -40 ct 
2252 -40 l  2252 -35 2252 -28 2251 -18 ct 2251 -7 2250 -1 2250 0 ct 2208 0 l 
2209 -9 2209 -26 2209 -54 ct 2209 -358 l  2253 -358 l  2253 -256 l  2253 -246 2252 -233 2252 -219 ct 
2253 -219 l  2261 -236 2271 -248 2285 -255 ct 2298 -262 2314 -266 2334 -266 ct 
2367 -266 2391 -255 2407 -233 ct 2422 -210 2430 -177 2430 -132 ct p
2384 -130 m  2384 -167 2380 -193 2370 -209 ct 2360 -225 2345 -232 2323 -232 ct 
2298 -232 2281 -224 2269 -207 ct 2258 -191 2253 -164 2253 -128 ct 2253 -93 2258 -68 2269 -52 ct 
2280 -35 2298 -27 2322 -27 ct 2344 -27 2360 -35 2370 -51 ct 2380 -68 2384 -94 2384 -130 ct 
p ef
2484 -316 m  2484 -358 l  2527 -358 l  2527 -316 l  2484 -316 l  p
2527 33 m  2527 57 2523 75 2513 86 ct 2503 97 2489 103 2470 103 ct 2457 103 2447 102 2439 101 ct 
2439 67 l  2454 69 l  2465 69 2473 66 2477 60 ct 2482 54 2484 43 2484 26 ct 
2484 -261 l  2527 -261 l  2527 33 l  p ef
2628 -121 m  2628 -91 2634 -68 2646 -52 ct 2659 -36 2677 -28 2700 -28 ct 2719 -28 2734 -31 2746 -39 ct 
2757 -46 2765 -56 2769 -68 ct 2807 -57 l  2791 -16 2756 5 2700 5 ct 2662 5 2632 -7 2612 -30 ct 
2592 -53 2582 -87 2582 -132 ct 2582 -175 2592 -208 2612 -231 ct 2632 -254 2661 -266 2699 -266 ct 
2775 -266 2814 -220 2814 -127 ct 2814 -121 l  2628 -121 l  p
2769 -154 m  2767 -182 2760 -202 2748 -215 ct 2736 -228 2720 -234 2698 -234 ct 
2677 -234 2660 -227 2648 -213 ct 2636 -199 2629 -179 2628 -154 ct 2769 -154 l 
p ef
2970 -2 m  2955 2 2941 4 2926 4 ct 2891 4 2874 -16 2874 -55 ct 2874 -229 l  2843 -229 l 
2843 -261 l  2875 -261 l  2888 -320 l  2917 -320 l  2917 -261 l  2965 -261 l 
2965 -229 l  2917 -229 l  2917 -65 l  2917 -52 2919 -43 2923 -38 ct 2927 -33 2934 -31 2945 -31 ct 
2950 -31 2959 -32 2970 -34 ct 2970 -2 l  p ef
3009 -316 m  3009 -358 l  3052 -358 l  3052 -316 l  3009 -316 l  p
3009 0 m  3009 -261 l  3052 -261 l  3052 0 l  3009 0 l  p ef
3234 0 m  3182 0 l  3088 -261 l  3134 -261 l  3191 -91 l  3194 -85 3199 -66 3208 -34 ct 
3217 -62 l  3226 -91 l  3285 -261 l  3331 -261 l  3234 0 l  p ef
3590 -131 m  3590 -85 3580 -51 3560 -29 ct 3540 -6 3511 5 3472 5 ct 3434 5 3405 -7 3386 -30 ct 
3366 -53 3357 -87 3357 -131 ct 3357 -221 3396 -266 3474 -266 ct 3514 -266 3543 -255 3562 -233 ct 
3581 -211 3590 -177 3590 -131 ct p
3544 -131 m  3544 -167 3539 -193 3528 -209 ct 3518 -226 3500 -234 3474 -234 ct 
3449 -234 3431 -226 3419 -209 ct 3408 -192 3402 -166 3402 -131 ct 3402 -96 3408 -70 3419 -53 ct 
3430 -36 3448 -27 3472 -27 ct 3498 -27 3516 -35 3528 -52 ct 3539 -69 3544 -95 3544 -131 ct 
p ef
pom
pum
12249 15484 t
41 0 m  41 -340 l  298 -340 l  298 -302 l  87 -302 l  87 -193 l  284 -193 l 
284 -156 l  87 -156 l  87 -38 l  308 -38 l  308 0 l  41 0 l  p ef
559 -72 m  559 -47 550 -28 531 -15 ct 513 -2 487 5 453 5 ct 421 5 396 0 378 -11 ct 
361 -22 349 -38 344 -61 ct 382 -69 l  386 -55 393 -44 405 -38 ct 417 -31 433 -28 453 -28 ct 
475 -28 491 -31 502 -38 ct 512 -45 517 -55 517 -69 ct 517 -79 513 -87 506 -94 ct 
499 -100 488 -105 472 -110 ct 441 -118 l  416 -124 398 -131 388 -137 ct 377 -143 369 -150 363 -159 ct 
357 -168 354 -179 354 -192 ct 354 -216 363 -234 380 -246 ct 397 -259 421 -265 454 -265 ct 
483 -265 505 -260 522 -250 ct 539 -240 550 -223 555 -201 ct 515 -196 l  513 -208 507 -217 496 -223 ct 
486 -229 471 -232 454 -232 ct 434 -232 420 -229 410 -223 ct 401 -217 396 -208 396 -196 ct 
396 -189 398 -183 402 -178 ct 406 -173 412 -169 419 -166 ct 427 -162 443 -158 467 -152 ct 
490 -146 507 -140 517 -136 ct 527 -131 535 -125 541 -119 ct 547 -113 551 -106 554 -99 ct 
558 -91 559 -82 559 -72 ct p ef
714 -2 m  699 2 685 4 670 4 ct 635 4 618 -16 618 -55 ct 618 -229 l  587 -229 l 
587 -261 l  619 -261 l  632 -320 l  661 -320 l  661 -261 l  709 -261 l 
709 -229 l  661 -229 l  661 -65 l  661 -52 663 -43 667 -38 ct 671 -33 678 -31 689 -31 ct 
694 -31 703 -32 714 -34 ct 714 -2 l  p ef
820 5 m  794 5 774 -2 761 -16 ct 748 -30 741 -49 741 -73 ct 741 -100 750 -121 768 -135 ct 
785 -150 814 -157 854 -158 ct 912 -159 l  912 -174 l  912 -195 908 -210 899 -219 ct 
890 -228 876 -233 856 -233 ct 837 -233 823 -230 814 -223 ct 805 -216 800 -206 798 -191 ct 
753 -196 l  760 -243 795 -266 857 -266 ct 890 -266 915 -258 931 -243 ct 948 -228 956 -207 956 -178 ct 
956 -66 l  956 -53 958 -43 961 -37 ct 965 -30 971 -27 981 -27 ct 985 -27 989 -27 995 -28 ct 
995 -2 l  984 1 973 2 961 2 ct 945 2 933 -2 926 -10 ct 919 -19 915 -32 914 -50 ct 
912 -50 l  901 -30 888 -16 874 -7 ct 859 1 841 5 820 5 ct p
830 -28 m  846 -28 860 -31 872 -38 ct 885 -46 894 -56 902 -68 ct 909 -81 912 -94 912 -107 ct 
912 -129 l  865 -128 l  844 -128 829 -125 818 -122 ct 808 -118 800 -112 794 -104 ct 
788 -96 786 -85 786 -72 ct 786 -58 789 -47 797 -39 ct 805 -31 816 -28 830 -28 ct 
p ef
1193 -42 m  1185 -25 1174 -13 1161 -6 ct 1148 1 1131 5 1112 5 ct 1079 5 1055 -6 1039 -28 ct 
1024 -51 1016 -84 1016 -129 ct 1016 -220 1048 -266 1112 -266 ct 1132 -266 1148 -262 1161 -255 ct 
1174 -248 1185 -236 1193 -221 ct 1194 -221 l  1193 -250 l  1193 -358 l  1236 -358 l 
1236 -54 l  1236 -26 1237 -9 1238 0 ct 1196 0 l  1196 -2 1195 -8 1195 -18 ct 
1194 -27 1194 -35 1194 -42 ct 1193 -42 l  p
1061 -131 m  1061 -94 1066 -68 1076 -52 ct 1085 -36 1101 -29 1123 -29 ct 1147 -29 1165 -37 1176 -54 ct 
1187 -71 1193 -98 1193 -134 ct 1193 -168 1187 -194 1176 -210 ct 1165 -226 1148 -234 1123 -234 ct 
1101 -234 1086 -226 1076 -210 ct 1066 -193 1061 -167 1061 -131 ct p ef
1524 -131 m  1524 -85 1514 -51 1494 -29 ct 1474 -6 1445 5 1406 5 ct 1368 5 1339 -7 1320 -30 ct 
1300 -53 1291 -87 1291 -131 ct 1291 -221 1330 -266 1408 -266 ct 1448 -266 1477 -255 1496 -233 ct 
1515 -211 1524 -177 1524 -131 ct p
1478 -131 m  1478 -167 1473 -193 1462 -209 ct 1452 -226 1434 -234 1408 -234 ct 
1383 -234 1365 -226 1353 -209 ct 1342 -192 1336 -166 1336 -131 ct 1336 -96 1342 -70 1353 -53 ct 
1364 -36 1382 -27 1406 -27 ct 1432 -27 1450 -35 1462 -52 ct 1473 -69 1478 -95 1478 -131 ct 
p ef
1774 -72 m  1774 -47 1765 -28 1746 -15 ct 1728 -2 1702 5 1668 5 ct 1636 5 1611 0 1593 -11 ct 
1576 -22 1564 -38 1559 -61 ct 1597 -69 l  1601 -55 1608 -44 1620 -38 ct 1632 -31 1648 -28 1668 -28 ct 
1690 -28 1706 -31 1717 -38 ct 1727 -45 1732 -55 1732 -69 ct 1732 -79 1728 -87 1721 -94 ct 
1714 -100 1703 -105 1687 -110 ct 1656 -118 l  1631 -124 1613 -131 1603 -137 ct 
1592 -143 1584 -150 1578 -159 ct 1572 -168 1569 -179 1569 -192 ct 1569 -216 1578 -234 1595 -246 ct 
1612 -259 1636 -265 1669 -265 ct 1698 -265 1720 -260 1737 -250 ct 1754 -240 1765 -223 1770 -201 ct 
1730 -196 l  1728 -208 1722 -217 1711 -223 ct 1701 -229 1686 -232 1669 -232 ct 
1649 -232 1635 -229 1625 -223 ct 1616 -217 1611 -208 1611 -196 ct 1611 -189 1613 -183 1617 -178 ct 
1621 -173 1627 -169 1634 -166 ct 1642 -162 1658 -158 1682 -152 ct 1705 -146 1722 -140 1732 -136 ct 
1742 -131 1750 -125 1756 -119 ct 1762 -113 1766 -106 1769 -99 ct 1773 -91 1774 -82 1774 -72 ct 
p ef
pom
3479 12248 m  3593 11833 3815 11461 4012 11082 ct 4131 10853 4200 10592 4361 10395 ct 
4531 10186 4854 10202 5058 10312 ct 5288 10437 5402 10759 5386 11040 ct 5372 11278 5412 11509 5406 11748 ct 
5401 11976 5450 12246 5673 12373 ct 5895 12499 6213 12438 6349 12186 ct 6482 11942 6725 11773 6822 11498 ct 
6910 11247 6933 10985 6924 10727 ct 6916 10464 6906 10024 7314 10062 ct 7549 10084 7854 9945 8011 10208 ct 
8139 10422 8205 10674 8216 10936 ct 8225 11159 8255 11381 8236 11602 ct 8216 11845 8304 12059 8339 12290 ct 
8383 12588 8709 12735 8852 12977 ct 9000 13228 9262 13330 9508 13311 ct 9765 13291 9977 13049 10041 12790 ct 
10102 12541 10036 12285 10082 12040 ct 10132 11778 9984 11600 9938 11352 ct 
9891 11095 9794 10855 9775 10602 ct 9752 10291 9738 9975 9775 9666 ct 9803 9437 9604 9085 10000 9020 ct 
10261 8977 10526 9126 10616 9374 ct 10698 9603 10765 9857 10697 10083 ct 10573 10496 10976 10325 11129 10333 ct 
11440 10350 11319 9902 11477 9749 ct 11633 9599 11912 9631 12092 9937 ct 12250 10206 12268 10431 12358 10686 ct 
12431 10892 12455 11219 12747 11248 ct 12965 11270 13231 11450 13403 11311 ct 
13622 11134 13853 11031 13937 10748 ct 13937 10498 l  13958 10270 l  13998 10270 l 
ps
5399 11599 m  5455 11599 5499 11642 5499 11698 ct 5499 11754 5455 11798 5399 11798 ct 
5343 11798 5300 11754 5300 11698 ct 5300 11642 5343 11599 5399 11599 ct p
5300 11599 m  5300 11599 l  p
5501 11800 m  5501 11800 l  p ef
5398 11598 m  5454 11598 5498 11641 5498 11697 ct 5498 11753 5454 11797 5398 11797 ct 
5342 11797 5299 11753 5299 11697 ct 5299 11641 5342 11598 5398 11598 ct pc
5299 11598 m  5299 11598 l  pc
5500 11799 m  5500 11799 l  pc
5164 13198 m  4931 13198 4699 13314 4699 13430 ct 4699 13605 l  4699 13779 l 
4699 14017 l  4699 14191 l  4699 14366 l  4699 14482 4931 14598 5164 14598 ct 
5513 14598 l  5862 14598 l  6336 14598 l  6685 14598 l  7034 14598 l  7267 14598 7500 14482 7500 14366 ct 
7500 14191 l  7500 14017 l  7500 13779 l  7500 13605 l  7500 13430 l  7500 13314 7267 13198 7034 13198 ct 
6685 13198 l  6336 13198 l  5862 13198 l  5865 12258 l  5164 13198 l  pc
4699 13198 m  4699 13198 l  pc
7500 14599 m  7500 14599 l  pc
pum
5073 13613 t
285 -149 m  285 -119 279 -92 268 -70 ct 256 -47 239 -30 218 -18 ct 196 -6 172 0 144 0 ct 
35 0 l  35 -292 l  131 -292 l  180 -292 218 -279 245 -255 ct 272 -230 285 -195 285 -149 ct 
p
246 -149 m  246 -185 236 -213 216 -232 ct 196 -251 168 -260 130 -260 ct 74 -260 l 
74 -32 l  139 -32 l  160 -32 179 -36 195 -46 ct 211 -55 224 -69 233 -86 ct 241 -104 246 -125 246 -149 ct 
p ef
333 -271 m  333 -307 l  370 -307 l  370 -271 l  333 -271 l  p
333 0 m  333 -224 l  370 -224 l  370 0 l  333 0 l  p ef
427 0 m  427 -172 l  427 -187 427 -205 426 -224 ct 461 -224 l  462 -198 463 -183 463 -178 ct 
464 -178 l  470 -197 476 -210 484 -217 ct 492 -224 503 -228 517 -228 ct 522 -228 527 -227 532 -226 ct 
532 -192 l  527 -193 520 -194 512 -194 ct 497 -194 485 -187 477 -174 ct 469 -161 465 -142 465 -117 ct 
465 0 l  427 0 l  p ef
595 -104 m  595 -78 600 -59 611 -45 ct 622 -31 637 -24 657 -24 ct 673 -24 686 -27 696 -34 ct 
706 -40 712 -48 716 -58 ct 748 -49 l  735 -14 705 4 657 4 ct 624 4 599 -6 582 -26 ct 
565 -45 556 -75 556 -113 ct 556 -150 565 -179 582 -198 ct 599 -218 624 -228 656 -228 ct 
722 -228 754 -188 754 -109 ct 754 -104 l  595 -104 l  p
716 -133 m  714 -156 708 -173 698 -184 ct 688 -195 674 -200 655 -200 ct 637 -200 623 -194 612 -182 ct 
602 -170 596 -154 595 -133 ct 716 -133 l  p ef
832 -113 m  832 -83 836 -61 846 -47 ct 855 -32 869 -25 888 -25 ct 901 -25 912 -29 921 -36 ct 
930 -43 936 -54 938 -69 ct 975 -66 l  972 -45 963 -28 948 -15 ct 932 -2 913 4 889 4 ct 
858 4 834 -6 818 -25 ct 801 -45 793 -74 793 -112 ct 793 -150 801 -178 818 -198 ct 
834 -218 858 -228 889 -228 ct 912 -228 931 -222 946 -210 ct 961 -198 970 -182 974 -161 ct 
936 -158 l  934 -171 929 -181 921 -188 ct 913 -195 902 -199 888 -199 ct 868 -199 854 -192 845 -179 ct 
836 -166 832 -144 832 -113 ct p
930 52 m  930 77 911 90 874 90 ct 866 90 859 90 855 89 ct 855 69 l  862 70 868 70 873 70 ct 
893 70 903 65 903 53 ct 903 43 894 37 876 37 ct 870 37 866 38 864 38 ct 877 0 l 
899 0 l  891 21 l  904 21 914 24 920 30 ct 927 35 930 43 930 52 ct p ef
1072 4 m  1049 4 1032 -2 1021 -14 ct 1010 -26 1004 -42 1004 -63 ct 1004 -86 1012 -104 1027 -116 ct 
1042 -128 1067 -135 1100 -136 ct 1151 -137 l  1151 -149 l  1151 -167 1147 -180 1139 -188 ct 
1131 -196 1119 -200 1103 -200 ct 1086 -200 1074 -197 1066 -191 ct 1059 -186 1054 -177 1053 -164 ct 
1014 -168 l  1020 -208 1050 -228 1104 -228 ct 1132 -228 1153 -222 1167 -209 ct 
1181 -196 1188 -177 1188 -153 ct 1188 -56 l  1188 -45 1190 -37 1193 -31 ct 1195 -26 1201 -23 1209 -23 ct 
1213 -23 1217 -24 1221 -25 ct 1221 -1 l  1212 1 1202 2 1193 2 ct 1179 2 1169 -2 1162 -9 ct 
1156 -16 1153 -27 1152 -43 ct 1151 -43 l  1141 -26 1130 -14 1117 -7 ct 1105 0 1090 4 1072 4 ct 
p
1080 -24 m  1094 -24 1106 -27 1116 -33 ct 1127 -39 1135 -48 1141 -59 ct 1148 -70 1151 -81 1151 -92 ct 
1151 -111 l  1110 -110 l  1092 -109 1079 -108 1070 -104 ct 1061 -101 1054 -96 1049 -89 ct 
1045 -82 1042 -73 1042 -62 ct 1042 -50 1045 -40 1052 -34 ct 1059 -27 1068 -24 1080 -24 ct 
p
1138 -249 m  1132 -249 1127 -250 1121 -253 ct 1115 -255 1110 -258 1104 -261 ct 
1099 -264 1094 -267 1089 -269 ct 1084 -272 1079 -273 1075 -273 ct 1067 -273 1062 -271 1058 -267 ct 
1054 -263 1052 -257 1051 -249 ct 1032 -249 l  1033 -263 1036 -274 1039 -281 ct 
1042 -288 1047 -294 1052 -298 ct 1058 -302 1065 -304 1074 -304 ct 1080 -304 1086 -303 1092 -300 ct 
1097 -298 1103 -295 1108 -292 ct 1114 -289 1119 -286 1123 -284 ct 1128 -281 1133 -280 1137 -280 ct 
1151 -280 1159 -288 1161 -304 ct 1180 -304 l  1178 -284 1173 -270 1166 -261 ct 
1159 -253 1150 -249 1138 -249 ct p ef
1440 -112 m  1440 -73 1432 -44 1415 -25 ct 1397 -6 1372 4 1340 4 ct 1307 4 1282 -6 1266 -26 ct 
1249 -46 1241 -75 1241 -112 ct 1241 -189 1274 -228 1341 -228 ct 1375 -228 1400 -219 1416 -200 ct 
1432 -181 1440 -152 1440 -112 ct p
1401 -112 m  1401 -143 1397 -166 1388 -180 ct 1379 -193 1363 -200 1342 -200 ct 
1320 -200 1304 -193 1294 -179 ct 1285 -165 1280 -143 1280 -112 ct 1280 -83 1285 -61 1294 -46 ct 
1304 -31 1319 -24 1339 -24 ct 1362 -24 1378 -31 1387 -45 ct 1397 -59 1401 -82 1401 -112 ct 
p ef
1749 -36 m  1742 -22 1733 -12 1721 -5 ct 1710 1 1696 4 1679 4 ct 1651 4 1630 -6 1617 -25 ct 
1603 -44 1597 -72 1597 -111 ct 1597 -189 1624 -228 1679 -228 ct 1696 -228 1710 -225 1721 -219 ct 
1733 -212 1742 -203 1749 -189 ct 1749 -189 l  1749 -214 l  1749 -307 l  1786 -307 l 
1786 -46 l  1786 -23 1786 -8 1787 0 ct 1751 0 l  1751 -2 1751 -7 1750 -15 ct 
1750 -23 1749 -30 1749 -36 ct 1749 -36 l  p
1636 -112 m  1636 -81 1640 -59 1648 -45 ct 1656 -32 1670 -25 1688 -25 ct 1710 -25 1725 -32 1734 -47 ct 
1744 -61 1749 -84 1749 -115 ct 1749 -144 1744 -166 1734 -180 ct 1725 -194 1710 -200 1689 -200 ct 
1670 -200 1657 -194 1648 -180 ct 1640 -166 1636 -143 1636 -112 ct p ef
1902 4 m  1879 4 1862 -2 1851 -14 ct 1840 -26 1834 -42 1834 -63 ct 1834 -86 1842 -104 1857 -116 ct 
1872 -128 1897 -135 1930 -136 ct 1981 -137 l  1981 -149 l  1981 -167 1977 -180 1969 -188 ct 
1961 -196 1949 -200 1933 -200 ct 1916 -200 1904 -197 1896 -191 ct 1889 -186 1884 -177 1883 -164 ct 
1844 -168 l  1850 -208 1880 -228 1934 -228 ct 1962 -228 1983 -222 1997 -209 ct 
2011 -196 2018 -177 2018 -153 ct 2018 -56 l  2018 -45 2020 -37 2023 -31 ct 2025 -26 2031 -23 2039 -23 ct 
2043 -23 2047 -24 2051 -25 ct 2051 -1 l  2042 1 2032 2 2023 2 ct 2009 2 1999 -2 1992 -9 ct 
1986 -16 1983 -27 1982 -43 ct 1981 -43 l  1971 -26 1960 -14 1947 -7 ct 1935 0 1920 4 1902 4 ct 
p
1910 -24 m  1924 -24 1936 -27 1946 -33 ct 1957 -39 1965 -48 1971 -59 ct 1978 -70 1981 -81 1981 -92 ct 
1981 -111 l  1940 -110 l  1922 -109 1909 -108 1900 -104 ct 1891 -101 1884 -96 1879 -89 ct 
1875 -82 1872 -73 1872 -62 ct 1872 -50 1875 -40 1882 -34 ct 1889 -27 1898 -24 1910 -24 ct 
p ef
pom
pum
5509 14007 t
260 -82 m  260 -56 250 -36 232 -22 ct 213 -7 186 0 153 0 ct 35 0 l  35 -292 l 
140 -292 l  209 -292 243 -268 243 -221 ct 243 -204 238 -189 228 -178 ct 219 -166 205 -158 188 -154 ct 
211 -151 229 -143 241 -131 ct 254 -118 260 -102 260 -82 ct p
203 -216 m  203 -232 198 -243 187 -250 ct 176 -257 161 -260 140 -260 ct 74 -260 l 
74 -168 l  140 -168 l  162 -168 177 -172 188 -180 ct 198 -188 203 -200 203 -216 ct 
p
220 -85 m  220 -120 196 -137 148 -137 ct 74 -137 l  74 -32 l  151 -32 l  175 -32 192 -36 203 -45 ct 
214 -54 220 -68 220 -85 ct p ef
349 -224 m  349 -82 l  349 -67 350 -56 353 -48 ct 356 -40 361 -34 367 -30 ct 
373 -27 383 -25 395 -25 ct 413 -25 427 -31 437 -43 ct 448 -55 453 -72 453 -94 ct 
453 -224 l  490 -224 l  490 -48 l  490 -22 490 -6 491 0 ct 456 0 l  456 -1 456 -3 456 -6 ct 
456 -9 455 -12 455 -16 ct 455 -20 455 -28 454 -38 ct 454 -38 l  445 -23 435 -12 424 -6 ct 
413 1 399 4 382 4 ct 358 4 340 -2 329 -14 ct 317 -27 311 -47 311 -75 ct 311 -224 l 
349 -224 l  p ef
717 -62 m  717 -41 709 -25 693 -13 ct 677 -2 655 4 627 4 ct 599 4 577 -1 562 -10 ct 
547 -19 537 -33 533 -53 ct 566 -59 l  569 -47 575 -38 585 -33 ct 595 -27 609 -24 627 -24 ct 
645 -24 659 -27 668 -33 ct 677 -39 681 -47 681 -59 ct 681 -68 678 -75 672 -81 ct 
666 -86 656 -91 643 -94 ct 616 -101 l  595 -107 579 -112 570 -117 ct 561 -123 554 -129 549 -137 ct 
544 -144 542 -154 542 -165 ct 542 -185 549 -200 563 -211 ct 578 -222 599 -227 627 -227 ct 
652 -227 671 -223 686 -214 ct 700 -205 709 -192 713 -172 ct 680 -168 l  678 -178 672 -186 663 -191 ct 
654 -196 642 -199 627 -199 ct 610 -199 598 -196 590 -191 ct 582 -186 578 -179 578 -168 ct 
578 -162 579 -157 583 -153 ct 586 -148 591 -145 597 -142 ct 604 -139 618 -135 638 -130 ct 
658 -125 672 -120 681 -116 ct 690 -112 696 -107 701 -102 ct 706 -97 710 -91 713 -85 ct 
716 -78 717 -70 717 -62 ct p ef
789 -113 m  789 -83 793 -61 803 -47 ct 812 -33 826 -25 845 -25 ct 858 -25 869 -29 878 -36 ct 
887 -43 893 -54 895 -69 ct 932 -67 l  929 -45 920 -28 905 -15 ct 889 -2 870 4 846 4 ct 
815 4 791 -6 775 -26 ct 758 -45 750 -74 750 -112 ct 750 -150 758 -179 775 -198 ct 
791 -218 815 -228 846 -228 ct 869 -228 888 -222 903 -210 ct 918 -199 927 -182 931 -161 ct 
893 -158 l  891 -171 886 -181 878 -188 ct 870 -195 859 -199 845 -199 ct 825 -199 811 -192 802 -179 ct 
793 -166 789 -144 789 -113 ct p ef
1030 4 m  1007 4 990 -2 979 -14 ct 968 -26 962 -42 962 -63 ct 962 -86 970 -104 985 -116 ct 
1000 -128 1025 -135 1058 -136 ct 1109 -137 l  1109 -149 l  1109 -167 1105 -180 1097 -188 ct 
1089 -196 1077 -200 1061 -200 ct 1044 -200 1032 -197 1024 -191 ct 1017 -186 1012 -177 1011 -164 ct 
972 -168 l  978 -208 1008 -228 1062 -228 ct 1090 -228 1111 -222 1125 -209 ct 
1139 -196 1146 -177 1146 -153 ct 1146 -56 l  1146 -45 1148 -37 1151 -31 ct 1153 -26 1159 -23 1167 -23 ct 
1171 -23 1175 -24 1179 -25 ct 1179 -1 l  1170 1 1160 2 1151 2 ct 1137 2 1127 -2 1120 -9 ct 
1114 -16 1111 -27 1110 -43 ct 1109 -43 l  1099 -26 1088 -14 1075 -7 ct 1063 0 1048 4 1030 4 ct 
p
1038 -24 m  1052 -24 1064 -27 1074 -33 ct 1085 -39 1093 -48 1099 -59 ct 1106 -70 1109 -81 1109 -92 ct 
1109 -111 l  1068 -110 l  1050 -109 1037 -108 1028 -104 ct 1019 -101 1012 -96 1007 -89 ct 
1003 -82 1000 -73 1000 -62 ct 1000 -50 1003 -40 1010 -34 ct 1017 -27 1026 -24 1038 -24 ct 
p ef
pom
pum
4783 14401 t
26 -110 m  26 -150 32 -186 45 -217 ct 57 -249 77 -279 102 -307 ct 138 -307 l 
113 -278 94 -248 82 -215 ct 70 -183 64 -148 64 -110 ct 64 -71 70 -36 81 -4 ct 93 28 112 59 138 88 ct 
102 88 l  76 60 57 30 45 -2 ct 32 -34 26 -69 26 -109 ct 26 -110 l  p ef
422 0 m  422 -194 l  422 -216 423 -237 424 -257 ct 417 -232 411 -213 406 -199 ct 
331 0 l  303 0 l  227 -199 l  215 -234 l  208 -257 l  209 -234 l  210 -194 l 
210 0 l  175 0 l  175 -292 l  227 -292 l  304 -89 l  307 -81 309 -73 312 -63 ct 
314 -54 316 -47 317 -43 ct 318 -49 320 -57 324 -68 ct 327 -79 330 -86 331 -89 ct 
407 -292 l  458 -292 l  458 0 l  422 0 l  p ef
519 -271 m  519 -307 l  556 -307 l  556 -271 l  519 -271 l  p
519 0 m  519 -224 l  556 -224 l  556 0 l  519 0 l  p ef
754 0 m  754 -142 l  754 -157 753 -168 750 -176 ct 747 -184 743 -190 736 -194 ct 
730 -197 721 -199 708 -199 ct 690 -199 676 -193 666 -181 ct 656 -169 651 -152 651 -130 ct 
651 0 l  613 0 l  613 -176 l  613 -202 613 -218 612 -224 ct 647 -224 l  647 -223 647 -221 648 -218 ct 
648 -215 648 -212 648 -208 ct 648 -204 649 -196 649 -186 ct 649 -186 l  658 -201 668 -212 679 -218 ct 
690 -225 704 -228 721 -228 ct 745 -228 763 -222 775 -210 ct 786 -197 792 -177 792 -149 ct 
792 0 l  754 0 l  p ef
849 -271 m  849 -307 l  886 -307 l  886 -271 l  849 -271 l  p
849 0 m  849 -224 l  886 -224 l  886 0 l  849 0 l  p ef
1073 0 m  1073 -142 l  1073 -164 1070 -179 1064 -187 ct 1058 -195 1047 -199 1032 -199 ct 
1016 -199 1003 -193 994 -181 ct 985 -169 980 -152 980 -130 ct 980 0 l  943 0 l 
943 -176 l  943 -202 943 -218 942 -224 ct 977 -224 l  977 -223 977 -221 978 -218 ct 
978 -215 978 -212 978 -208 ct 978 -204 979 -196 979 -186 ct 979 -186 l  987 -201 997 -212 1007 -219 ct 
1017 -225 1030 -228 1045 -228 ct 1062 -228 1075 -225 1085 -218 ct 1095 -211 1102 -200 1105 -186 ct 
1106 -186 l  1114 -201 1123 -211 1134 -218 ct 1145 -225 1158 -228 1174 -228 ct 
1196 -228 1213 -222 1223 -210 ct 1233 -197 1238 -177 1238 -149 ct 1238 0 l  1202 0 l 
1202 -142 l  1202 -164 1199 -179 1193 -187 ct 1187 -195 1176 -199 1161 -199 ct 
1145 -199 1132 -193 1123 -181 ct 1114 -169 1109 -152 1109 -130 ct 1109 0 l  1073 0 l 
p ef
1294 -271 m  1294 -307 l  1331 -307 l  1331 -271 l  1294 -271 l  p
1294 0 m  1294 -224 l  1331 -224 l  1331 0 l  1294 0 l  p ef
1376 0 m  1376 -28 l  1501 -195 l  1383 -195 l  1383 -224 l  1545 -224 l 
1545 -195 l  1420 -29 l  1549 -29 l  1549 0 l  1376 0 l  p ef
1657 4 m  1634 4 1617 -2 1606 -14 ct 1595 -26 1589 -42 1589 -63 ct 1589 -86 1597 -104 1612 -116 ct 
1627 -128 1652 -135 1685 -136 ct 1736 -137 l  1736 -149 l  1736 -167 1732 -180 1724 -188 ct 
1716 -196 1704 -200 1688 -200 ct 1671 -200 1659 -197 1651 -191 ct 1644 -186 1639 -177 1638 -164 ct 
1599 -168 l  1605 -208 1635 -228 1689 -228 ct 1717 -228 1738 -222 1752 -209 ct 
1766 -196 1773 -177 1773 -153 ct 1773 -56 l  1773 -45 1775 -37 1778 -31 ct 1780 -26 1786 -23 1794 -23 ct 
1798 -23 1802 -24 1806 -25 ct 1806 -1 l  1797 1 1787 2 1778 2 ct 1764 2 1754 -2 1747 -9 ct 
1741 -16 1738 -27 1737 -43 ct 1736 -43 l  1726 -26 1715 -14 1702 -7 ct 1690 0 1675 4 1657 4 ct 
p
1665 -24 m  1679 -24 1691 -27 1701 -33 ct 1712 -39 1720 -48 1726 -59 ct 1733 -70 1736 -81 1736 -92 ct 
1736 -111 l  1695 -110 l  1677 -109 1664 -108 1655 -104 ct 1646 -101 1639 -96 1634 -89 ct 
1630 -82 1627 -73 1627 -62 ct 1627 -50 1630 -40 1637 -34 ct 1644 -27 1653 -24 1665 -24 ct 
p ef
1865 -113 m  1865 -83 1869 -61 1879 -47 ct 1888 -32 1902 -25 1921 -25 ct 1934 -25 1945 -29 1954 -36 ct 
1963 -43 1969 -54 1971 -69 ct 2008 -66 l  2005 -45 1996 -28 1981 -15 ct 1965 -2 1946 4 1922 4 ct 
1891 4 1867 -6 1851 -25 ct 1834 -45 1826 -74 1826 -112 ct 1826 -150 1834 -178 1851 -198 ct 
1867 -218 1891 -228 1922 -228 ct 1945 -228 1964 -222 1979 -210 ct 1994 -198 2003 -182 2007 -161 ct 
1969 -158 l  1967 -171 1962 -181 1954 -188 ct 1946 -195 1935 -199 1921 -199 ct 
1901 -199 1887 -192 1878 -179 ct 1869 -166 1865 -144 1865 -113 ct p
1963 52 m  1963 77 1944 90 1907 90 ct 1899 90 1892 90 1888 89 ct 1888 69 l  1895 70 1901 70 1906 70 ct 
1926 70 1936 65 1936 53 ct 1936 43 1927 37 1909 37 ct 1903 37 1899 38 1897 38 ct 
1910 0 l  1932 0 l  1924 21 l  1937 21 1947 24 1953 30 ct 1960 35 1963 43 1963 52 ct 
p ef
2105 4 m  2082 4 2065 -2 2054 -14 ct 2043 -26 2037 -42 2037 -63 ct 2037 -86 2045 -104 2060 -116 ct 
2075 -128 2100 -135 2133 -136 ct 2184 -137 l  2184 -149 l  2184 -167 2180 -180 2172 -188 ct 
2164 -196 2152 -200 2136 -200 ct 2119 -200 2107 -197 2099 -191 ct 2092 -186 2087 -177 2086 -164 ct 
2047 -168 l  2053 -208 2083 -228 2137 -228 ct 2165 -228 2186 -222 2200 -209 ct 
2214 -196 2221 -177 2221 -153 ct 2221 -56 l  2221 -45 2223 -37 2226 -31 ct 2228 -26 2234 -23 2242 -23 ct 
2246 -23 2250 -24 2254 -25 ct 2254 -1 l  2245 1 2235 2 2226 2 ct 2212 2 2202 -2 2195 -9 ct 
2189 -16 2186 -27 2185 -43 ct 2184 -43 l  2174 -26 2163 -14 2150 -7 ct 2138 0 2123 4 2105 4 ct 
p
2113 -24 m  2127 -24 2139 -27 2149 -33 ct 2160 -39 2168 -48 2174 -59 ct 2181 -70 2184 -81 2184 -92 ct 
2184 -111 l  2143 -110 l  2125 -109 2112 -108 2103 -104 ct 2094 -101 2087 -96 2082 -89 ct 
2078 -82 2075 -73 2075 -62 ct 2075 -50 2078 -40 2085 -34 ct 2092 -27 2101 -24 2113 -24 ct 
p
2171 -249 m  2165 -249 2160 -250 2154 -253 ct 2148 -255 2143 -258 2137 -261 ct 
2132 -264 2127 -267 2122 -269 ct 2117 -272 2112 -273 2108 -273 ct 2100 -273 2095 -271 2091 -267 ct 
2087 -263 2085 -257 2084 -249 ct 2065 -249 l  2066 -263 2069 -274 2072 -281 ct 
2075 -288 2080 -294 2085 -298 ct 2091 -302 2098 -304 2107 -304 ct 2113 -304 2119 -303 2125 -300 ct 
2130 -298 2136 -295 2141 -292 ct 2147 -289 2152 -286 2156 -284 ct 2161 -281 2166 -280 2170 -280 ct 
2184 -280 2192 -288 2194 -304 ct 2213 -304 l  2211 -284 2206 -270 2199 -261 ct 
2192 -253 2183 -249 2171 -249 ct p ef
2473 -112 m  2473 -73 2465 -44 2448 -25 ct 2430 -6 2405 4 2373 4 ct 2340 4 2315 -6 2299 -26 ct 
2282 -46 2274 -75 2274 -112 ct 2274 -189 2307 -228 2374 -228 ct 2408 -228 2433 -219 2449 -200 ct 
2465 -181 2473 -152 2473 -112 ct p
2434 -112 m  2434 -143 2430 -166 2421 -180 ct 2412 -193 2396 -200 2375 -200 ct 
2353 -200 2337 -193 2327 -179 ct 2318 -165 2313 -143 2313 -112 ct 2313 -83 2318 -61 2327 -46 ct 
2337 -31 2352 -24 2372 -24 ct 2395 -24 2411 -31 2420 -45 ct 2430 -59 2434 -82 2434 -112 ct 
p ef
2608 -109 m  2608 -69 2601 -33 2589 -2 ct 2576 30 2557 60 2531 88 ct 2495 88 l 
2521 59 2540 28 2552 -4 ct 2564 -36 2570 -71 2570 -110 ct 2570 -148 2564 -183 2552 -215 ct 
2540 -248 2521 -278 2495 -307 ct 2531 -307 l  2557 -279 2577 -249 2589 -217 ct 
2601 -185 2608 -150 2608 -110 ct 2608 -109 l  p ef
pom
1 lw 5682 11599 m  5790 11814 l  ps
5982 12199 m  5915 11729 l  5647 11864 l  5982 12199 l  p ef
0 10481 t 
pom
count op_count sub {pop} repeat countdictstack dict_count sub {end} repeat b4_inc_state restore
%%PageTrailer
%%Trailer
%%EOF
