%!PS-Adobe-3.0 EPSF-3.0 
%%BoundingBox: 0 0 254 112
%%Pages: 0
%%Creator: LibreOffice 5.3
%%Title: none
%%CreationDate: none
%%LanguageLevel: 2
%%EndComments
%%BeginProlog
%%BeginResource: procset SDRes-Prolog 1.0 0
/b4_inc_state save def
/dict_count countdictstack def
/op_count count 1 sub def
userdict begin
0 setgray 0 setlinecap 1 setlinewidth 0 setlinejoin 10 setmiterlimit[] 0 setdash newpath
/languagelevel where {pop languagelevel 1 ne {false setstrokeadjust false setoverprint} if} if
/bdef {bind def} bind def
/c {setgray} bdef
/l {neg lineto} bdef
/rl {neg rlineto} bdef
/lc {setlinecap} bdef
/lj {setlinejoin} bdef
/lw {setlinewidth} bdef
/ml {setmiterlimit} bdef
/ld {setdash} bdef
/m {neg moveto} bdef
/ct {6 2 roll neg 6 2 roll neg 6 2 roll neg curveto} bdef
/r {rotate} bdef
/t {neg translate} bdef
/s {scale} bdef
/sw {show} bdef
/gs {gsave} bdef
/gr {grestore} bdef
/f {findfont dup length dict begin
{1 index /FID ne {def} {pop pop} ifelse} forall /Encoding ISOLatin1Encoding def
currentdict end /NFont exch definefont pop /NFont findfont} bdef
/p {closepath} bdef
/sf {scalefont setfont} bdef
/ef {eofill}bdef
/pc {closepath stroke}bdef
/ps {stroke}bdef
/pum {matrix currentmatrix}bdef
/pom {setmatrix}bdef
/bs {/aString exch def /nXOfs exch def /nWidth exch def currentpoint nXOfs 0 rmoveto pum nWidth aString stringwidth pop div 1 scale aString show pom moveto} bdef
%%EndResource
%%EndProlog
%%BeginSetup
%%EndSetup
%%Page: 1 1
%%BeginPageSetup
%%EndPageSetup
pum
0.02836 0.02825 s 
0 -3964 t
/tm matrix currentmatrix def
tm setmatrix
-5798 -13131 t 
1 1 s 
0.996 c 7598 13293 m  7938 13293 8198 13553 8198 13893 ct 8198 14233 7938 14493 7598 14493 ct 
7258 14493 6998 14233 6998 13893 ct 6998 13553 7258 13293 7598 13293 ct p
6998 13293 m  6998 13293 l  p
8199 14494 m  8199 14494 l  p ef
0 lw 1 lj 0.000 c 7598 13293 m  7938 13293 8198 13553 8198 13892 ct 8198 14232 7938 14492 7598 14492 ct 
7258 14492 6998 14232 6998 13892 ct 6998 13553 7258 13293 7598 13293 ct pc
6998 13293 m  6998 13293 l  pc
8199 14493 m  8199 14493 l  pc
pum
7386 14058 t
394 -121 m  394 -81 379 -49 347 -27 ct 316 -5 271 6 214 6 ct 107 6 46 -31 29 -105 ct 
86 -117 l  93 -90 107 -71 128 -59 ct 150 -46 179 -40 216 -40 ct 254 -40 284 -47 305 -60 ct 
325 -73 336 -92 336 -118 ct 336 -132 333 -144 326 -153 ct 320 -161 310 -169 299 -175 ct 
287 -180 273 -185 256 -189 ct 240 -193 222 -197 202 -202 ct 168 -210 141 -217 124 -225 ct 
106 -233 92 -241 81 -250 ct 71 -260 63 -271 58 -284 ct 52 -296 49 -311 49 -327 ct 
49 -364 64 -393 92 -414 ct 121 -434 162 -444 215 -444 ct 265 -444 303 -436 329 -421 ct 
355 -406 374 -380 384 -343 ct 326 -333 l  319 -356 307 -373 289 -384 ct 271 -394 246 -399 215 -399 ct 
180 -399 153 -394 135 -382 ct 116 -370 107 -353 107 -330 ct 107 -317 111 -306 118 -297 ct 
125 -288 135 -281 149 -274 ct 162 -268 189 -261 229 -252 ct 242 -249 256 -246 269 -242 ct 
282 -239 295 -235 307 -231 ct 319 -226 331 -221 342 -215 ct 352 -209 361 -202 369 -193 ct 
377 -185 383 -174 388 -163 ct 392 -151 394 -137 394 -121 ct p ef
pom
0.996 c 10798 13293 m  11138 13293 11397 13553 11397 13893 ct 11397 14233 11138 14493 10798 14493 ct 
10458 14493 10198 14233 10198 13893 ct 10198 13553 10458 13293 10798 13293 ct 
p
10198 13293 m  10198 13293 l  p
11398 14494 m  11398 14494 l  p ef
0.000 c 10797 13293 m  11137 13293 11397 13553 11397 13892 ct 11397 14232 11137 14492 10797 14492 ct 
10457 14492 10197 14232 10197 13892 ct 10197 13553 10457 13293 10797 13293 ct 
pc
10197 13293 m  10197 13293 l  pc
11398 14493 m  11398 14493 l  pc
pum
10586 14058 t
362 0 m  312 -128 l  113 -128 l  63 0 l  1 0 l  180 -438 l  247 -438 l 
422 0 l  362 0 l  p
212 -393 m  210 -384 l  204 -367 197 -345 187 -318 ct 131 -174 l  294 -174 l 
238 -319 l  232 -333 227 -349 221 -367 ct 212 -393 l  p ef
pom
0.996 c 14097 13293 m  14437 13293 14697 13553 14697 13893 ct 14697 14233 14437 14493 14097 14493 ct 
13757 14493 13497 14233 13497 13893 ct 13497 13553 13757 13293 14097 13293 ct 
p
13497 13293 m  13497 13293 l  p
14698 14494 m  14698 14494 l  p ef
105.96143 lw 0.000 c 14096 13293 m  14436 13293 14696 13553 14696 13892 ct 
14696 14232 14436 14492 14096 14492 ct 13756 14492 13496 14232 13496 13892 ct 
13496 13553 13756 13293 14096 13293 ct pc
13496 13293 m  13496 13293 l  pc
14697 14493 m  14697 14493 l  pc
pum
13870 13953 t
150 6 m  107 6 76 -8 56 -37 ct 37 -66 27 -109 27 -166 ct 27 -283 68 -342 150 -342 ct 
175 -342 196 -338 213 -329 ct 230 -320 243 -305 255 -284 ct 255 -284 l  255 -290 256 -301 256 -316 ct 
257 -332 258 -339 259 -339 ct 313 -339 l  311 -327 310 -297 310 -248 ct 310 132 l 
255 132 l  255 -4 l  256 -55 l  255 -55 l  244 -33 230 -17 214 -8 ct 198 1 176 6 150 6 ct 
p
255 -172 m  255 -216 247 -248 233 -269 ct 219 -290 196 -301 165 -301 ct 137 -301 116 -290 104 -269 ct 
91 -248 85 -214 85 -168 ct 85 -121 92 -88 104 -67 ct 117 -47 137 -37 164 -37 ct 
196 -37 219 -48 233 -71 ct 247 -93 255 -127 255 -172 ct p ef
pom
pum
14221 14220 t
65 -170 m  65 0 l  33 0 l  33 -170 l  5 -170 l  5 -194 l  33 -194 l  33 -216 l 
33 -234 36 -247 44 -254 ct 52 -262 64 -266 80 -266 ct 89 -266 97 -265 103 -264 ct 
103 -239 l  97 -240 93 -241 88 -241 ct 80 -241 74 -239 70 -234 ct 67 -230 65 -223 65 -211 ct 
65 -194 l  103 -194 l  103 -170 l  65 -170 l  p ef
pom
1 lw 5799 13893 m  6569 13893 l  ps
6998 13893 m  6549 13743 l  6549 14043 l  6998 13893 l  p ef
8198 13893 m  9768 13893 l  ps
10198 13893 m  9748 13743 l  9748 14043 l  10198 13893 l  p ef
pum
8788 13717 t
128 6 m  95 6 69 -3 52 -21 ct 35 -38 27 -63 27 -94 ct 27 -129 38 -155 61 -174 ct 
84 -192 121 -202 172 -204 ct 247 -205 l  247 -223 l  247 -250 241 -270 230 -282 ct 
218 -294 200 -299 175 -299 ct 150 -299 132 -295 121 -287 ct 109 -278 102 -265 100 -246 ct 
42 -251 l  51 -312 96 -342 176 -342 ct 219 -342 250 -332 272 -313 ct 293 -294 304 -266 304 -229 ct 
304 -85 l  304 -68 306 -55 310 -47 ct 314 -39 323 -35 335 -35 ct 340 -35 346 -35 353 -37 ct 
353 -2 l  339 1 325 3 310 3 ct 289 3 274 -2 265 -13 ct 256 -24 250 -41 249 -64 ct 
247 -64 l  233 -39 216 -21 197 -10 ct 178 1 155 6 128 6 ct p
141 -36 m  162 -36 180 -41 196 -50 ct 212 -59 224 -72 233 -88 ct 243 -104 247 -121 247 -138 ct 
247 -166 l  186 -165 l  160 -164 140 -161 126 -157 ct 113 -152 102 -144 95 -134 ct 
88 -123 84 -110 84 -93 ct 84 -75 89 -61 99 -51 ct 109 -41 123 -36 141 -36 ct p ef
pom
pum
12088 13717 t
141 -36 m  159 -36 177 -40 194 -49 ct 212 -59 226 -71 238 -86 ct 271 -55 l  254 -34 235 -19 212 -9 ct 
190 1 165 6 138 6 ct 100 6 72 -3 52 -20 ct 32 -37 22 -61 22 -92 ct 22 -115 29 -134 45 -149 ct 
60 -164 80 -173 104 -175 ct 104 -176 l  82 -179 64 -187 51 -201 ct 38 -215 32 -232 32 -253 ct 
32 -279 42 -301 63 -317 ct 84 -334 112 -342 146 -342 ct 198 -342 237 -323 263 -285 ct 
223 -257 l  204 -286 178 -300 146 -300 ct 128 -300 113 -296 103 -287 ct 93 -279 88 -267 88 -251 ct 
88 -233 96 -219 113 -210 ct 129 -201 158 -197 199 -197 ct 199 -155 l  168 -155 144 -153 128 -149 ct 
113 -145 101 -138 92 -130 ct 84 -121 80 -108 80 -93 ct 80 -75 85 -61 96 -51 ct 
107 -41 122 -36 141 -36 ct p ef
pom
11397 13893 m  13067 13893 l  ps
13497 13893 m  13047 13743 l  13047 14043 l  13497 13893 l  p ef
0.996 c 10799 15893 m  11139 15893 11398 16153 11398 16493 ct 11398 16833 11139 17092 10799 17092 ct 
10459 17092 10199 16833 10199 16493 ct 10199 16153 10459 15893 10799 15893 ct 
p
10199 15893 m  10199 15893 l  p
11399 17093 m  11399 17093 l  p ef
0 lw 0.000 c 10798 15892 m  11138 15892 11398 16152 11398 16492 ct 11398 16832 11138 17092 10798 17092 ct 
10458 17092 10198 16832 10198 16492 ct 10198 16152 10458 15892 10798 15892 ct 
pc
10198 15892 m  10198 15892 l  pc
11399 17093 m  11399 17093 l  pc
pum
10587 16658 t
390 -123 m  390 -84 376 -54 348 -32 ct 319 -11 280 0 229 0 ct 52 0 l  52 -437 l 
211 -437 l  313 -437 365 -402 365 -331 ct 365 -305 357 -284 343 -266 ct 328 -248 308 -236 282 -230 ct 
316 -226 343 -215 362 -196 ct 381 -176 390 -152 390 -123 ct p
305 -324 m  305 -348 297 -365 281 -375 ct 265 -385 241 -390 211 -390 ct 111 -390 l 
111 -251 l  211 -251 l  242 -251 266 -257 282 -269 ct 297 -281 305 -299 305 -324 ct 
p
330 -128 m  330 -179 294 -205 222 -205 ct 111 -205 l  111 -47 l  226 -47 l 
263 -47 289 -54 305 -68 ct 322 -81 330 -101 330 -128 ct p ef
pom
1 lw 11223 16068 m  11222 14748 l  ps
11222 14318 m  11073 14768 l  11372 14768 l  11222 14318 l  p ef
10373 14318 m  10374 15638 l  ps
10374 16068 m  10524 15618 l  10224 15618 l  10374 16068 l  p ef
pum
11288 15416 t
128 6 m  95 6 69 -3 52 -21 ct 35 -38 27 -63 27 -94 ct 27 -129 38 -155 61 -174 ct 
84 -192 121 -202 172 -204 ct 247 -205 l  247 -223 l  247 -250 241 -270 230 -282 ct 
218 -294 200 -299 175 -299 ct 150 -299 132 -295 121 -287 ct 109 -278 102 -265 100 -246 ct 
42 -251 l  51 -312 96 -342 176 -342 ct 219 -342 250 -332 272 -313 ct 293 -294 304 -266 304 -229 ct 
304 -85 l  304 -68 306 -55 310 -47 ct 314 -39 323 -35 335 -35 ct 340 -35 346 -35 353 -37 ct 
353 -2 l  339 1 325 3 310 3 ct 289 3 274 -2 265 -13 ct 256 -24 250 -41 249 -64 ct 
247 -64 l  233 -39 216 -21 197 -10 ct 178 1 155 6 128 6 ct p
141 -36 m  162 -36 180 -41 196 -50 ct 212 -59 224 -72 233 -88 ct 243 -104 247 -121 247 -138 ct 
247 -166 l  186 -165 l  160 -164 140 -161 126 -157 ct 113 -152 102 -144 95 -134 ct 
88 -123 84 -110 84 -93 ct 84 -75 89 -61 99 -51 ct 109 -41 123 -36 141 -36 ct p ef
pom
pum
9990 15416 t
326 -169 m  326 -52 285 7 203 7 ct 178 7 157 2 140 -7 ct 123 -16 109 -31 99 -51 ct 
98 -51 l  98 -45 98 -35 97 -22 ct 96 -9 95 -1 95 1 ct 41 1 l  42 -10 43 -33 43 -68 ct 
43 -460 l  99 -460 l  99 -328 l  99 -315 98 -299 97 -281 ct 99 -281 l  109 -302 123 -318 140 -327 ct 
157 -336 178 -341 203 -341 ct 245 -341 277 -327 297 -298 ct 317 -270 326 -227 326 -169 ct 
p
268 -167 m  268 -214 262 -247 249 -268 ct 237 -288 217 -298 189 -298 ct 157 -298 135 -287 120 -266 ct 
106 -244 99 -210 99 -163 ct 99 -119 106 -87 120 -66 ct 134 -45 157 -34 188 -34 ct 
216 -34 237 -45 249 -65 ct 262 -86 268 -120 268 -167 ct p ef
pom
0 3964 t 
pom
count op_count sub {pop} repeat countdictstack dict_count sub {end} repeat b4_inc_state restore
%%PageTrailer
%%Trailer
%%EOF
