%!PS-Adobe-3.0 EPSF-3.0 
%%BoundingBox: 0 0 364 291
%%Pages: 0
%%Creator: LibreOffice 5.3
%%Title: none
%%CreationDate: none
%%LanguageLevel: 2
%%EndComments
%%BeginProlog
%%BeginResource: procset SDRes-Prolog 1.0 0
/b4_inc_state save def
/dict_count countdictstack def
/op_count count 1 sub def
userdict begin
0 setgray 0 setlinecap 1 setlinewidth 0 setlinejoin 10 setmiterlimit[] 0 setdash newpath
/languagelevel where {pop languagelevel 1 ne {false setstrokeadjust false setoverprint} if} if
/bdef {bind def} bind def
/c {setrgbcolor} bdef
/l {neg lineto} bdef
/rl {neg rlineto} bdef
/lc {setlinecap} bdef
/lj {setlinejoin} bdef
/lw {setlinewidth} bdef
/ml {setmiterlimit} bdef
/ld {setdash} bdef
/m {neg moveto} bdef
/ct {6 2 roll neg 6 2 roll neg 6 2 roll neg curveto} bdef
/r {rotate} bdef
/t {neg translate} bdef
/s {scale} bdef
/sw {show} bdef
/gs {gsave} bdef
/gr {grestore} bdef
/f {findfont dup length dict begin
{1 index /FID ne {def} {pop pop} ifelse} forall /Encoding ISOLatin1Encoding def
currentdict end /NFont exch definefont pop /NFont findfont} bdef
/p {closepath} bdef
/sf {scalefont setfont} bdef
/ef {eofill}bdef
/pc {closepath stroke}bdef
/ps {stroke}bdef
/pum {matrix currentmatrix}bdef
/pom {setmatrix}bdef
/bs {/aString exch def /nXOfs exch def /nWidth exch def currentpoint nXOfs 0 rmoveto pum nWidth aString stringwidth pop div 1 scale aString show pom moveto} bdef
%%EndResource
%%EndProlog
%%BeginSetup
%%EndSetup
%%Page: 1 1
%%BeginPageSetup
%%EndPageSetup
pum
0.02835 0.02832 s 
0 -10273 t
/tm matrix currentmatrix def
tm setmatrix
-2048 -5391 t 
1 1 s 
0 lw 1 lj 0.003 0.003 0.003 c 2991 6003 m  2999 14998 l  ps
14000 14998 m  2999 14998 l  ps
6999 14998 m  2999 6999 l  ps
2999 9999 m  12998 14998 l  ps
pum
3813 8371 t
46 0 m  46 -339 l  91 -339 l  91 0 l  46 0 l  p ef
pom
pum
6849 15435 t
253 -94 m  253 -63 243 -39 223 -21 ct 203 -4 174 5 137 5 ct 101 5 73 -4 52 -21 ct 
32 -38 21 -62 21 -94 ct 21 -116 28 -135 40 -150 ct 53 -165 69 -174 89 -177 ct 89 -178 l 
71 -182 56 -192 45 -206 ct 35 -221 29 -238 29 -257 ct 29 -283 39 -304 58 -320 ct 
78 -336 104 -344 136 -344 ct 170 -344 196 -336 215 -320 ct 235 -305 244 -283 244 -257 ct 
244 -237 239 -220 228 -206 ct 217 -191 203 -182 184 -179 ct 184 -178 l  206 -174 223 -165 235 -150 ct 
247 -135 253 -117 253 -94 ct p
199 -254 m  199 -293 178 -312 136 -312 ct 116 -312 100 -307 90 -297 ct 79 -288 74 -273 74 -254 ct 
74 -235 79 -220 90 -210 ct 101 -200 117 -194 137 -194 ct 157 -194 173 -199 183 -209 ct 
194 -218 199 -233 199 -254 ct p
208 -98 m  208 -119 201 -135 189 -146 ct 176 -157 159 -162 136 -162 ct 114 -162 97 -156 85 -145 ct 
72 -133 66 -118 66 -98 ct 66 -51 90 -27 138 -27 ct 161 -27 179 -33 190 -44 ct 202 -56 208 -74 208 -98 ct 
p ef
pom
pum
2345 7136 t
38 0 m  38 -37 l  124 -37 l  124 -298 l  47 -243 l  47 -284 l  128 -339 l 
168 -339 l  168 -37 l  250 -37 l  250 0 l  38 0 l  p ef
528 -111 m  528 -75 518 -47 498 -26 ct 479 -5 452 5 418 5 ct 380 5 351 -9 330 -38 ct 
310 -66 300 -107 300 -162 ct 300 -220 311 -265 332 -297 ct 353 -328 383 -344 421 -344 ct 
473 -344 505 -321 518 -275 ct 477 -267 l  468 -295 450 -309 421 -309 ct 396 -309 377 -297 363 -274 ct 
350 -251 343 -218 343 -174 ct 351 -189 362 -200 376 -208 ct 391 -215 407 -219 425 -219 ct 
457 -219 482 -209 500 -190 ct 518 -170 528 -144 528 -111 ct p
483 -109 m  483 -133 477 -152 465 -166 ct 453 -179 437 -186 415 -186 ct 395 -186 379 -180 366 -168 ct 
354 -156 347 -140 347 -119 ct 347 -93 354 -72 367 -55 ct 380 -38 396 -30 417 -30 ct 
437 -30 454 -37 466 -51 ct 478 -65 483 -84 483 -109 ct p ef
pom
pum
12649 15380 t
25 0 m  25 -31 l  33 -49 43 -66 55 -80 ct 67 -95 79 -108 92 -119 ct 105 -131 118 -142 131 -152 ct 
143 -162 155 -171 165 -181 ct 175 -191 184 -202 190 -213 ct 196 -224 200 -236 200 -250 ct 
200 -268 194 -283 183 -293 ct 172 -303 157 -308 138 -308 ct 119 -308 104 -303 92 -293 ct 
80 -283 73 -269 71 -251 ct 27 -255 l  30 -282 41 -304 61 -320 ct 81 -336 107 -344 138 -344 ct 
172 -344 198 -336 217 -320 ct 235 -304 244 -281 244 -251 ct 244 -238 241 -225 235 -212 ct 
229 -199 220 -186 208 -173 ct 196 -160 174 -140 140 -113 ct 122 -97 107 -84 96 -72 ct 
85 -60 77 -48 72 -37 ct 249 -37 l  249 0 l  25 0 l  p ef
530 -170 m  530 -113 520 -70 500 -40 ct 480 -10 450 5 411 5 ct 373 5 343 -10 324 -40 ct 
304 -69 294 -113 294 -170 ct 294 -228 304 -271 323 -300 ct 342 -329 372 -344 413 -344 ct 
453 -344 482 -329 501 -300 ct 520 -271 530 -227 530 -170 ct p
486 -170 m  486 -218 480 -254 469 -276 ct 458 -298 439 -309 413 -309 ct 386 -309 367 -298 356 -276 ct 
344 -255 338 -219 338 -170 ct 338 -121 344 -86 356 -64 ct 368 -42 386 -30 412 -30 ct 
437 -30 456 -42 468 -65 ct 480 -87 486 -122 486 -170 ct p ef
pom
pum
2298 10171 t
38 0 m  38 -37 l  124 -37 l  124 -298 l  47 -243 l  47 -284 l  128 -339 l 
168 -339 l  168 -37 l  250 -37 l  250 0 l  38 0 l  p ef
530 -170 m  530 -113 520 -70 500 -40 ct 480 -10 450 5 411 5 ct 373 5 343 -10 324 -40 ct 
304 -69 294 -113 294 -170 ct 294 -228 304 -271 323 -300 ct 342 -329 372 -344 413 -344 ct 
453 -344 482 -329 501 -300 ct 520 -271 530 -227 530 -170 ct p
486 -170 m  486 -218 480 -254 469 -276 ct 458 -298 439 -309 413 -309 ct 386 -309 367 -298 356 -276 ct 
344 -255 338 -219 338 -170 ct 338 -121 344 -86 356 -64 ct 368 -42 386 -30 412 -30 ct 
437 -30 456 -42 468 -65 ct 480 -87 486 -122 486 -170 ct p ef
pom
pum
6250 11380 t
46 0 m  46 -339 l  91 -339 l  91 0 l  46 0 l  p ef
181 0 m  181 -339 l  226 -339 l  226 0 l  181 0 l  p ef
pom
pum
2914 5872 t
268 0 m  166 -148 l  62 0 l  11 0 l  140 -176 l  21 -339 l  72 -339 l 
166 -206 l  258 -339 l  309 -339 l  193 -178 l  318 0 l  268 0 l  p ef
pom
pum
3240 6079 t
14 0 m  14 -18 l  19 -29 25 -38 32 -47 ct 39 -55 46 -63 53 -69 ct 61 -76 68 -82 76 -88 ct 
83 -94 90 -100 96 -105 ct 102 -111 107 -117 110 -124 ct 114 -130 116 -137 116 -145 ct 
116 -156 113 -164 106 -170 ct 100 -176 91 -179 80 -179 ct 69 -179 60 -176 53 -171 ct 
46 -165 42 -157 41 -146 ct 16 -148 l  17 -164 24 -177 36 -186 ct 47 -195 62 -200 80 -200 ct 
100 -200 115 -195 126 -186 ct 136 -177 142 -163 142 -146 ct 142 -138 140 -131 136 -123 ct 
133 -116 128 -108 121 -101 ct 114 -93 101 -81 81 -65 ct 71 -57 62 -49 56 -42 ct 
49 -35 45 -28 42 -21 ct 145 -21 l  145 0 l  14 0 l  p ef
pom
pum
14149 15080 t
268 0 m  166 -148 l  62 0 l  11 0 l  140 -176 l  21 -339 l  72 -339 l 
166 -206 l  258 -339 l  309 -339 l  193 -178 l  318 0 l  268 0 l  p ef
pom
pum
14475 15287 t
22 0 m  22 -21 l  72 -21 l  72 -173 l  28 -141 l  28 -165 l  74 -197 l 
97 -197 l  97 -21 l  145 -21 l  145 0 l  22 0 l  p ef
pom
0.003 0.003 0.503 c 2999 14898 m  3055 14898 3099 14941 3099 14998 ct 3099 15055 3055 15099 2999 15099 ct 
2943 15099 2900 15055 2900 14998 ct 2900 14941 2943 14898 2999 14898 ct p
2900 14898 m  2900 14898 l  p
3100 15100 m  3100 15100 l  p ef
0.003 0.003 1.000 c 2998 14897 m  3054 14897 3098 14940 3098 14997 ct 3098 15054 3054 15098 2998 15098 ct 
2942 15098 2899 15054 2899 14997 ct 2899 14940 2942 14897 2998 14897 ct pc
2899 14897 m  2899 14897 l  pc
3099 15099 m  3099 15099 l  pc
0.003 0.003 0.503 c 3499 14898 m  3555 14898 3599 14941 3599 14998 ct 3599 15055 3555 15099 3499 15099 ct 
3443 15099 3400 15055 3400 14998 ct 3400 14941 3443 14898 3499 14898 ct p
3400 14898 m  3400 14898 l  p
3600 15100 m  3600 15100 l  p ef
0.003 0.003 1.000 c 3498 14897 m  3554 14897 3598 14940 3598 14997 ct 3598 15054 3554 15098 3498 15098 ct 
3442 15098 3399 15054 3399 14997 ct 3399 14940 3442 14897 3498 14897 ct pc
3399 14897 m  3399 14897 l  pc
3599 15099 m  3599 15099 l  pc
0.003 0.003 0.503 c 3999 14898 m  4055 14898 4099 14941 4099 14998 ct 4099 15055 4055 15099 3999 15099 ct 
3943 15099 3900 15055 3900 14998 ct 3900 14941 3943 14898 3999 14898 ct p
3900 14898 m  3900 14898 l  p
4100 15100 m  4100 15100 l  p ef
0.003 0.003 1.000 c 3998 14897 m  4054 14897 4098 14940 4098 14997 ct 4098 15054 4054 15098 3998 15098 ct 
3942 15098 3899 15054 3899 14997 ct 3899 14940 3942 14897 3998 14897 ct pc
3899 14897 m  3899 14897 l  pc
4099 15099 m  4099 15099 l  pc
0.003 0.003 0.503 c 4499 14898 m  4555 14898 4599 14941 4599 14998 ct 4599 15055 4555 15099 4499 15099 ct 
4443 15099 4400 15055 4400 14998 ct 4400 14941 4443 14898 4499 14898 ct p
4400 14898 m  4400 14898 l  p
4600 15100 m  4600 15100 l  p ef
0.003 0.003 1.000 c 4498 14897 m  4554 14897 4598 14940 4598 14997 ct 4598 15054 4554 15098 4498 15098 ct 
4442 15098 4399 15054 4399 14997 ct 4399 14940 4442 14897 4498 14897 ct pc
4399 14897 m  4399 14897 l  pc
4599 15099 m  4599 15099 l  pc
0.003 0.003 0.503 c 4999 14898 m  5055 14898 5099 14941 5099 14998 ct 5099 15055 5055 15099 4999 15099 ct 
4943 15099 4900 15055 4900 14998 ct 4900 14941 4943 14898 4999 14898 ct p
4900 14898 m  4900 14898 l  p
5100 15100 m  5100 15100 l  p ef
0.003 0.003 1.000 c 4998 14897 m  5054 14897 5098 14940 5098 14997 ct 5098 15054 5054 15098 4998 15098 ct 
4942 15098 4899 15054 4899 14997 ct 4899 14940 4942 14897 4998 14897 ct pc
4899 14897 m  4899 14897 l  pc
5099 15099 m  5099 15099 l  pc
0.003 0.003 0.503 c 5499 14898 m  5555 14898 5599 14941 5599 14998 ct 5599 15055 5555 15099 5499 15099 ct 
5443 15099 5400 15055 5400 14998 ct 5400 14941 5443 14898 5499 14898 ct p
5400 14898 m  5400 14898 l  p
5600 15100 m  5600 15100 l  p ef
0.003 0.003 1.000 c 5498 14897 m  5554 14897 5598 14940 5598 14997 ct 5598 15054 5554 15098 5498 15098 ct 
5442 15098 5399 15054 5399 14997 ct 5399 14940 5442 14897 5498 14897 ct pc
5399 14897 m  5399 14897 l  pc
5599 15099 m  5599 15099 l  pc
0.003 0.003 0.503 c 5999 14898 m  6055 14898 6099 14941 6099 14998 ct 6099 15055 6055 15099 5999 15099 ct 
5943 15099 5900 15055 5900 14998 ct 5900 14941 5943 14898 5999 14898 ct p
5900 14898 m  5900 14898 l  p
6100 15100 m  6100 15100 l  p ef
0.003 0.003 1.000 c 5998 14897 m  6054 14897 6098 14940 6098 14997 ct 6098 15054 6054 15098 5998 15098 ct 
5942 15098 5899 15054 5899 14997 ct 5899 14940 5942 14897 5998 14897 ct pc
5899 14897 m  5899 14897 l  pc
6099 15099 m  6099 15099 l  pc
0.003 0.003 0.503 c 6498 14898 m  6554 14898 6598 14941 6598 14998 ct 6598 15055 6554 15099 6498 15099 ct 
6442 15099 6400 15055 6400 14998 ct 6400 14941 6442 14898 6498 14898 ct p
6400 14898 m  6400 14898 l  p
6599 15100 m  6599 15100 l  p ef
0.003 0.003 1.000 c 6498 14897 m  6554 14897 6598 14940 6598 14997 ct 6598 15054 6554 15098 6498 15098 ct 
6442 15098 6399 15054 6399 14997 ct 6399 14940 6442 14897 6498 14897 ct pc
6399 14897 m  6399 14897 l  pc
6599 15099 m  6599 15099 l  pc
0.003 0.003 0.503 c 6998 14898 m  7054 14898 7098 14941 7098 14998 ct 7098 15055 7054 15099 6998 15099 ct 
6942 15099 6899 15055 6899 14998 ct 6899 14941 6942 14898 6998 14898 ct p
6899 14898 m  6899 14898 l  p
7099 15100 m  7099 15100 l  p ef
0.003 0.003 1.000 c 6998 14897 m  7054 14897 7098 14940 7098 14997 ct 7098 15054 7054 15098 6998 15098 ct 
6942 15098 6899 15054 6899 14997 ct 6899 14940 6942 14897 6998 14897 ct pc
6899 14897 m  6899 14897 l  pc
7099 15099 m  7099 15099 l  pc
0.003 0.003 0.503 c 2999 14398 m  3055 14398 3099 14441 3099 14498 ct 3099 14555 3055 14599 2999 14599 ct 
2943 14599 2900 14555 2900 14498 ct 2900 14441 2943 14398 2999 14398 ct p
2900 14398 m  2900 14398 l  p
3100 14600 m  3100 14600 l  p ef
0.003 0.003 1.000 c 2998 14397 m  3054 14397 3098 14440 3098 14497 ct 3098 14554 3054 14598 2998 14598 ct 
2942 14598 2899 14554 2899 14497 ct 2899 14440 2942 14397 2998 14397 ct pc
2899 14397 m  2899 14397 l  pc
3099 14599 m  3099 14599 l  pc
0.003 0.003 0.503 c 3499 14398 m  3555 14398 3599 14441 3599 14498 ct 3599 14555 3555 14599 3499 14599 ct 
3443 14599 3400 14555 3400 14498 ct 3400 14441 3443 14398 3499 14398 ct p
3400 14398 m  3400 14398 l  p
3600 14600 m  3600 14600 l  p ef
0.003 0.003 1.000 c 3498 14397 m  3554 14397 3598 14440 3598 14497 ct 3598 14554 3554 14598 3498 14598 ct 
3442 14598 3399 14554 3399 14497 ct 3399 14440 3442 14397 3498 14397 ct pc
3399 14397 m  3399 14397 l  pc
3599 14599 m  3599 14599 l  pc
0.003 0.003 0.503 c 3999 14398 m  4055 14398 4099 14441 4099 14498 ct 4099 14555 4055 14599 3999 14599 ct 
3943 14599 3900 14555 3900 14498 ct 3900 14441 3943 14398 3999 14398 ct p
3900 14398 m  3900 14398 l  p
4100 14600 m  4100 14600 l  p ef
0.003 0.003 1.000 c 3998 14397 m  4054 14397 4098 14440 4098 14497 ct 4098 14554 4054 14598 3998 14598 ct 
3942 14598 3899 14554 3899 14497 ct 3899 14440 3942 14397 3998 14397 ct pc
3899 14397 m  3899 14397 l  pc
4099 14599 m  4099 14599 l  pc
0.003 0.003 0.503 c 4499 14398 m  4555 14398 4599 14441 4599 14498 ct 4599 14555 4555 14599 4499 14599 ct 
4443 14599 4400 14555 4400 14498 ct 4400 14441 4443 14398 4499 14398 ct p
4400 14398 m  4400 14398 l  p
4600 14600 m  4600 14600 l  p ef
0.003 0.003 1.000 c 4498 14397 m  4554 14397 4598 14440 4598 14497 ct 4598 14554 4554 14598 4498 14598 ct 
4442 14598 4399 14554 4399 14497 ct 4399 14440 4442 14397 4498 14397 ct pc
4399 14397 m  4399 14397 l  pc
4599 14599 m  4599 14599 l  pc
0.003 0.003 0.503 c 4999 14398 m  5055 14398 5099 14441 5099 14498 ct 5099 14555 5055 14599 4999 14599 ct 
4943 14599 4900 14555 4900 14498 ct 4900 14441 4943 14398 4999 14398 ct p
4900 14398 m  4900 14398 l  p
5100 14600 m  5100 14600 l  p ef
0.003 0.003 1.000 c 4998 14397 m  5054 14397 5098 14440 5098 14497 ct 5098 14554 5054 14598 4998 14598 ct 
4942 14598 4899 14554 4899 14497 ct 4899 14440 4942 14397 4998 14397 ct pc
4899 14397 m  4899 14397 l  pc
5099 14599 m  5099 14599 l  pc
0.003 0.003 0.503 c 5499 14398 m  5555 14398 5599 14441 5599 14498 ct 5599 14555 5555 14599 5499 14599 ct 
5443 14599 5400 14555 5400 14498 ct 5400 14441 5443 14398 5499 14398 ct p
5400 14398 m  5400 14398 l  p
5600 14600 m  5600 14600 l  p ef
0.003 0.003 1.000 c 5498 14397 m  5554 14397 5598 14440 5598 14497 ct 5598 14554 5554 14598 5498 14598 ct 
5442 14598 5399 14554 5399 14497 ct 5399 14440 5442 14397 5498 14397 ct pc
5399 14397 m  5399 14397 l  pc
5599 14599 m  5599 14599 l  pc
0.003 0.003 0.503 c 5999 14398 m  6055 14398 6099 14441 6099 14498 ct 6099 14555 6055 14599 5999 14599 ct 
5943 14599 5900 14555 5900 14498 ct 5900 14441 5943 14398 5999 14398 ct p
5900 14398 m  5900 14398 l  p
6100 14600 m  6100 14600 l  p ef
0.003 0.003 1.000 c 5998 14397 m  6054 14397 6098 14440 6098 14497 ct 6098 14554 6054 14598 5998 14598 ct 
5942 14598 5899 14554 5899 14497 ct 5899 14440 5942 14397 5998 14397 ct pc
5899 14397 m  5899 14397 l  pc
6099 14599 m  6099 14599 l  pc
0.003 0.003 0.503 c 6498 14398 m  6554 14398 6598 14441 6598 14498 ct 6598 14555 6554 14599 6498 14599 ct 
6442 14599 6400 14555 6400 14498 ct 6400 14441 6442 14398 6498 14398 ct p
6400 14398 m  6400 14398 l  p
6599 14600 m  6599 14600 l  p ef
0.003 0.003 1.000 c 6498 14397 m  6554 14397 6598 14440 6598 14497 ct 6598 14554 6554 14598 6498 14598 ct 
6442 14598 6399 14554 6399 14497 ct 6399 14440 6442 14397 6498 14397 ct pc
6399 14397 m  6399 14397 l  pc
6599 14599 m  6599 14599 l  pc
0.003 0.003 0.503 c 2999 13898 m  3055 13898 3099 13941 3099 13998 ct 3099 14055 3055 14099 2999 14099 ct 
2943 14099 2900 14055 2900 13998 ct 2900 13941 2943 13898 2999 13898 ct p
2900 13898 m  2900 13898 l  p
3100 14100 m  3100 14100 l  p ef
0.003 0.003 1.000 c 2998 13897 m  3054 13897 3098 13940 3098 13997 ct 3098 14054 3054 14098 2998 14098 ct 
2942 14098 2899 14054 2899 13997 ct 2899 13940 2942 13897 2998 13897 ct pc
2899 13897 m  2899 13897 l  pc
3099 14099 m  3099 14099 l  pc
0.003 0.003 0.503 c 3499 13898 m  3555 13898 3599 13941 3599 13998 ct 3599 14055 3555 14099 3499 14099 ct 
3443 14099 3400 14055 3400 13998 ct 3400 13941 3443 13898 3499 13898 ct p
3400 13898 m  3400 13898 l  p
3600 14100 m  3600 14100 l  p ef
0.003 0.003 1.000 c 3498 13897 m  3554 13897 3598 13940 3598 13997 ct 3598 14054 3554 14098 3498 14098 ct 
3442 14098 3399 14054 3399 13997 ct 3399 13940 3442 13897 3498 13897 ct pc
3399 13897 m  3399 13897 l  pc
3599 14099 m  3599 14099 l  pc
0.003 0.003 0.503 c 3999 13898 m  4055 13898 4099 13941 4099 13998 ct 4099 14055 4055 14099 3999 14099 ct 
3943 14099 3900 14055 3900 13998 ct 3900 13941 3943 13898 3999 13898 ct p
3900 13898 m  3900 13898 l  p
4100 14100 m  4100 14100 l  p ef
0.003 0.003 1.000 c 3998 13897 m  4054 13897 4098 13940 4098 13997 ct 4098 14054 4054 14098 3998 14098 ct 
3942 14098 3899 14054 3899 13997 ct 3899 13940 3942 13897 3998 13897 ct pc
3899 13897 m  3899 13897 l  pc
4099 14099 m  4099 14099 l  pc
0.003 0.003 0.503 c 4499 13898 m  4555 13898 4599 13941 4599 13998 ct 4599 14055 4555 14099 4499 14099 ct 
4443 14099 4400 14055 4400 13998 ct 4400 13941 4443 13898 4499 13898 ct p
4400 13898 m  4400 13898 l  p
4600 14100 m  4600 14100 l  p ef
0.003 0.003 1.000 c 4498 13897 m  4554 13897 4598 13940 4598 13997 ct 4598 14054 4554 14098 4498 14098 ct 
4442 14098 4399 14054 4399 13997 ct 4399 13940 4442 13897 4498 13897 ct pc
4399 13897 m  4399 13897 l  pc
4599 14099 m  4599 14099 l  pc
0.003 0.003 0.503 c 4999 13898 m  5055 13898 5099 13941 5099 13998 ct 5099 14055 5055 14099 4999 14099 ct 
4943 14099 4900 14055 4900 13998 ct 4900 13941 4943 13898 4999 13898 ct p
4900 13898 m  4900 13898 l  p
5100 14100 m  5100 14100 l  p ef
0.003 0.003 1.000 c 4998 13897 m  5054 13897 5098 13940 5098 13997 ct 5098 14054 5054 14098 4998 14098 ct 
4942 14098 4899 14054 4899 13997 ct 4899 13940 4942 13897 4998 13897 ct pc
4899 13897 m  4899 13897 l  pc
5099 14099 m  5099 14099 l  pc
0.003 0.003 0.503 c 5499 13898 m  5555 13898 5599 13941 5599 13998 ct 5599 14055 5555 14099 5499 14099 ct 
5443 14099 5400 14055 5400 13998 ct 5400 13941 5443 13898 5499 13898 ct p
5400 13898 m  5400 13898 l  p
5600 14100 m  5600 14100 l  p ef
0.003 0.003 1.000 c 5498 13897 m  5554 13897 5598 13940 5598 13997 ct 5598 14054 5554 14098 5498 14098 ct 
5442 14098 5399 14054 5399 13997 ct 5399 13940 5442 13897 5498 13897 ct pc
5399 13897 m  5399 13897 l  pc
5599 14099 m  5599 14099 l  pc
0.003 0.003 0.503 c 5999 13898 m  6055 13898 6099 13941 6099 13998 ct 6099 14055 6055 14099 5999 14099 ct 
5943 14099 5900 14055 5900 13998 ct 5900 13941 5943 13898 5999 13898 ct p
5900 13898 m  5900 13898 l  p
6100 14100 m  6100 14100 l  p ef
0.003 0.003 1.000 c 5998 13897 m  6054 13897 6098 13940 6098 13997 ct 6098 14054 6054 14098 5998 14098 ct 
5942 14098 5899 14054 5899 13997 ct 5899 13940 5942 13897 5998 13897 ct pc
5899 13897 m  5899 13897 l  pc
6099 14099 m  6099 14099 l  pc
0.003 0.003 0.503 c 6498 13898 m  6554 13898 6598 13941 6598 13998 ct 6598 14055 6554 14099 6498 14099 ct 
6442 14099 6400 14055 6400 13998 ct 6400 13941 6442 13898 6498 13898 ct p
6400 13898 m  6400 13898 l  p
6599 14100 m  6599 14100 l  p ef
0.003 0.003 1.000 c 6498 13897 m  6554 13897 6598 13940 6598 13997 ct 6598 14054 6554 14098 6498 14098 ct 
6442 14098 6399 14054 6399 13997 ct 6399 13940 6442 13897 6498 13897 ct pc
6399 13897 m  6399 13897 l  pc
6599 14099 m  6599 14099 l  pc
0.003 0.003 0.503 c 2999 13298 m  3055 13298 3099 13341 3099 13398 ct 3099 13455 3055 13499 2999 13499 ct 
2943 13499 2900 13455 2900 13398 ct 2900 13341 2943 13298 2999 13298 ct p
2900 13298 m  2900 13298 l  p
3100 13500 m  3100 13500 l  p ef
0.003 0.003 1.000 c 2998 13297 m  3054 13297 3098 13340 3098 13397 ct 3098 13454 3054 13498 2998 13498 ct 
2942 13498 2899 13454 2899 13397 ct 2899 13340 2942 13297 2998 13297 ct pc
2899 13297 m  2899 13297 l  pc
3099 13499 m  3099 13499 l  pc
0.003 0.003 0.503 c 3499 13298 m  3555 13298 3599 13341 3599 13398 ct 3599 13455 3555 13499 3499 13499 ct 
3443 13499 3400 13455 3400 13398 ct 3400 13341 3443 13298 3499 13298 ct p
3400 13298 m  3400 13298 l  p
3600 13500 m  3600 13500 l  p ef
0.003 0.003 1.000 c 3498 13297 m  3554 13297 3598 13340 3598 13397 ct 3598 13454 3554 13498 3498 13498 ct 
3442 13498 3399 13454 3399 13397 ct 3399 13340 3442 13297 3498 13297 ct pc
3399 13297 m  3399 13297 l  pc
3599 13499 m  3599 13499 l  pc
0.003 0.003 0.503 c 3999 13298 m  4055 13298 4099 13341 4099 13398 ct 4099 13455 4055 13499 3999 13499 ct 
3943 13499 3900 13455 3900 13398 ct 3900 13341 3943 13298 3999 13298 ct p
3900 13298 m  3900 13298 l  p
4100 13500 m  4100 13500 l  p ef
0.003 0.003 1.000 c 3998 13297 m  4054 13297 4098 13340 4098 13397 ct 4098 13454 4054 13498 3998 13498 ct 
3942 13498 3899 13454 3899 13397 ct 3899 13340 3942 13297 3998 13297 ct pc
3899 13297 m  3899 13297 l  pc
4099 13499 m  4099 13499 l  pc
0.003 0.003 0.503 c 4499 13298 m  4555 13298 4599 13341 4599 13398 ct 4599 13455 4555 13499 4499 13499 ct 
4443 13499 4400 13455 4400 13398 ct 4400 13341 4443 13298 4499 13298 ct p
4400 13298 m  4400 13298 l  p
4600 13500 m  4600 13500 l  p ef
0.003 0.003 1.000 c 4498 13297 m  4554 13297 4598 13340 4598 13397 ct 4598 13454 4554 13498 4498 13498 ct 
4442 13498 4399 13454 4399 13397 ct 4399 13340 4442 13297 4498 13297 ct pc
4399 13297 m  4399 13297 l  pc
4599 13499 m  4599 13499 l  pc
0.003 0.003 0.503 c 4999 13298 m  5055 13298 5099 13341 5099 13398 ct 5099 13455 5055 13499 4999 13499 ct 
4943 13499 4900 13455 4900 13398 ct 4900 13341 4943 13298 4999 13298 ct p
4900 13298 m  4900 13298 l  p
5100 13500 m  5100 13500 l  p ef
0.003 0.003 1.000 c 4998 13297 m  5054 13297 5098 13340 5098 13397 ct 5098 13454 5054 13498 4998 13498 ct 
4942 13498 4899 13454 4899 13397 ct 4899 13340 4942 13297 4998 13297 ct pc
4899 13297 m  4899 13297 l  pc
5099 13499 m  5099 13499 l  pc
0.003 0.003 0.503 c 5499 13298 m  5555 13298 5599 13341 5599 13398 ct 5599 13455 5555 13499 5499 13499 ct 
5443 13499 5400 13455 5400 13398 ct 5400 13341 5443 13298 5499 13298 ct p
5400 13298 m  5400 13298 l  p
5600 13500 m  5600 13500 l  p ef
0.003 0.003 1.000 c 5498 13297 m  5554 13297 5598 13340 5598 13397 ct 5598 13454 5554 13498 5498 13498 ct 
5442 13498 5399 13454 5399 13397 ct 5399 13340 5442 13297 5498 13297 ct pc
5399 13297 m  5399 13297 l  pc
5599 13499 m  5599 13499 l  pc
0.003 0.003 0.503 c 5999 13298 m  6055 13298 6099 13341 6099 13398 ct 6099 13455 6055 13499 5999 13499 ct 
5943 13499 5900 13455 5900 13398 ct 5900 13341 5943 13298 5999 13298 ct p
5900 13298 m  5900 13298 l  p
6100 13500 m  6100 13500 l  p ef
0.003 0.003 1.000 c 5998 13297 m  6054 13297 6098 13340 6098 13397 ct 6098 13454 6054 13498 5998 13498 ct 
5942 13498 5899 13454 5899 13397 ct 5899 13340 5942 13297 5998 13297 ct pc
5899 13297 m  5899 13297 l  pc
6099 13499 m  6099 13499 l  pc
0.003 0.003 0.503 c 2999 12898 m  3055 12898 3099 12941 3099 12998 ct 3099 13055 3055 13099 2999 13099 ct 
2943 13099 2900 13055 2900 12998 ct 2900 12941 2943 12898 2999 12898 ct p
2900 12898 m  2900 12898 l  p
3100 13100 m  3100 13100 l  p ef
0.003 0.003 1.000 c 2998 12897 m  3054 12897 3098 12940 3098 12997 ct 3098 13054 3054 13098 2998 13098 ct 
2942 13098 2899 13054 2899 12997 ct 2899 12940 2942 12897 2998 12897 ct pc
2899 12897 m  2899 12897 l  pc
3099 13099 m  3099 13099 l  pc
0.003 0.003 0.503 c 3499 12898 m  3555 12898 3599 12941 3599 12998 ct 3599 13055 3555 13099 3499 13099 ct 
3443 13099 3400 13055 3400 12998 ct 3400 12941 3443 12898 3499 12898 ct p
3400 12898 m  3400 12898 l  p
3600 13100 m  3600 13100 l  p ef
0.003 0.003 1.000 c 3498 12897 m  3554 12897 3598 12940 3598 12997 ct 3598 13054 3554 13098 3498 13098 ct 
3442 13098 3399 13054 3399 12997 ct 3399 12940 3442 12897 3498 12897 ct pc
3399 12897 m  3399 12897 l  pc
3599 13099 m  3599 13099 l  pc
0.003 0.003 0.503 c 3999 12898 m  4055 12898 4099 12941 4099 12998 ct 4099 13055 4055 13099 3999 13099 ct 
3943 13099 3900 13055 3900 12998 ct 3900 12941 3943 12898 3999 12898 ct p
3900 12898 m  3900 12898 l  p
4100 13100 m  4100 13100 l  p ef
0.003 0.003 1.000 c 3998 12897 m  4054 12897 4098 12940 4098 12997 ct 4098 13054 4054 13098 3998 13098 ct 
3942 13098 3899 13054 3899 12997 ct 3899 12940 3942 12897 3998 12897 ct pc
3899 12897 m  3899 12897 l  pc
4099 13099 m  4099 13099 l  pc
0.003 0.003 0.503 c 4499 12898 m  4555 12898 4599 12941 4599 12998 ct 4599 13055 4555 13099 4499 13099 ct 
4443 13099 4400 13055 4400 12998 ct 4400 12941 4443 12898 4499 12898 ct p
4400 12898 m  4400 12898 l  p
4600 13100 m  4600 13100 l  p ef
0.003 0.003 1.000 c 4498 12897 m  4554 12897 4598 12940 4598 12997 ct 4598 13054 4554 13098 4498 13098 ct 
4442 13098 4399 13054 4399 12997 ct 4399 12940 4442 12897 4498 12897 ct pc
4399 12897 m  4399 12897 l  pc
4599 13099 m  4599 13099 l  pc
0.003 0.003 0.503 c 4999 12898 m  5055 12898 5099 12941 5099 12998 ct 5099 13055 5055 13099 4999 13099 ct 
4943 13099 4900 13055 4900 12998 ct 4900 12941 4943 12898 4999 12898 ct p
4900 12898 m  4900 12898 l  p
5100 13100 m  5100 13100 l  p ef
0.003 0.003 1.000 c 4998 12897 m  5054 12897 5098 12940 5098 12997 ct 5098 13054 5054 13098 4998 13098 ct 
4942 13098 4899 13054 4899 12997 ct 4899 12940 4942 12897 4998 12897 ct pc
4899 12897 m  4899 12897 l  pc
5099 13099 m  5099 13099 l  pc
0.003 0.003 0.503 c 5499 12898 m  5555 12898 5599 12941 5599 12998 ct 5599 13055 5555 13099 5499 13099 ct 
5443 13099 5400 13055 5400 12998 ct 5400 12941 5443 12898 5499 12898 ct p
5400 12898 m  5400 12898 l  p
5600 13100 m  5600 13100 l  p ef
0.003 0.003 1.000 c 5498 12897 m  5554 12897 5598 12940 5598 12997 ct 5598 13054 5554 13098 5498 13098 ct 
5442 13098 5399 13054 5399 12997 ct 5399 12940 5442 12897 5498 12897 ct pc
5399 12897 m  5399 12897 l  pc
5599 13099 m  5599 13099 l  pc
0.003 0.003 0.503 c 5999 12898 m  6055 12898 6099 12941 6099 12998 ct 6099 13055 6055 13099 5999 13099 ct 
5943 13099 5900 13055 5900 12998 ct 5900 12941 5943 12898 5999 12898 ct p
5900 12898 m  5900 12898 l  p
6100 13100 m  6100 13100 l  p ef
0.003 0.003 1.000 c 5998 12897 m  6054 12897 6098 12940 6098 12997 ct 6098 13054 6054 13098 5998 13098 ct 
5942 13098 5899 13054 5899 12997 ct 5899 12940 5942 12897 5998 12897 ct pc
5899 12897 m  5899 12897 l  pc
6099 13099 m  6099 13099 l  pc
0.003 0.003 0.503 c 2999 12398 m  3055 12398 3099 12441 3099 12498 ct 3099 12555 3055 12599 2999 12599 ct 
2943 12599 2900 12555 2900 12498 ct 2900 12441 2943 12398 2999 12398 ct p
2900 12398 m  2900 12398 l  p
3100 12600 m  3100 12600 l  p ef
0.003 0.003 1.000 c 2998 12397 m  3054 12397 3098 12440 3098 12497 ct 3098 12554 3054 12598 2998 12598 ct 
2942 12598 2899 12554 2899 12497 ct 2899 12440 2942 12397 2998 12397 ct pc
2899 12397 m  2899 12397 l  pc
3099 12599 m  3099 12599 l  pc
0.003 0.003 0.503 c 3499 12398 m  3555 12398 3599 12441 3599 12498 ct 3599 12555 3555 12599 3499 12599 ct 
3443 12599 3400 12555 3400 12498 ct 3400 12441 3443 12398 3499 12398 ct p
3400 12398 m  3400 12398 l  p
3600 12600 m  3600 12600 l  p ef
0.003 0.003 1.000 c 3498 12397 m  3554 12397 3598 12440 3598 12497 ct 3598 12554 3554 12598 3498 12598 ct 
3442 12598 3399 12554 3399 12497 ct 3399 12440 3442 12397 3498 12397 ct pc
3399 12397 m  3399 12397 l  pc
3599 12599 m  3599 12599 l  pc
0.003 0.003 0.503 c 3999 12398 m  4055 12398 4099 12441 4099 12498 ct 4099 12555 4055 12599 3999 12599 ct 
3943 12599 3900 12555 3900 12498 ct 3900 12441 3943 12398 3999 12398 ct p
3900 12398 m  3900 12398 l  p
4100 12600 m  4100 12600 l  p ef
0.003 0.003 1.000 c 3998 12397 m  4054 12397 4098 12440 4098 12497 ct 4098 12554 4054 12598 3998 12598 ct 
3942 12598 3899 12554 3899 12497 ct 3899 12440 3942 12397 3998 12397 ct pc
3899 12397 m  3899 12397 l  pc
4099 12599 m  4099 12599 l  pc
0.003 0.003 0.503 c 4499 12398 m  4555 12398 4599 12441 4599 12498 ct 4599 12555 4555 12599 4499 12599 ct 
4443 12599 4400 12555 4400 12498 ct 4400 12441 4443 12398 4499 12398 ct p
4400 12398 m  4400 12398 l  p
4600 12600 m  4600 12600 l  p ef
0.003 0.003 1.000 c 4498 12397 m  4554 12397 4598 12440 4598 12497 ct 4598 12554 4554 12598 4498 12598 ct 
4442 12598 4399 12554 4399 12497 ct 4399 12440 4442 12397 4498 12397 ct pc
4399 12397 m  4399 12397 l  pc
4599 12599 m  4599 12599 l  pc
0.003 0.003 0.503 c 4999 12398 m  5055 12398 5099 12441 5099 12498 ct 5099 12555 5055 12599 4999 12599 ct 
4943 12599 4900 12555 4900 12498 ct 4900 12441 4943 12398 4999 12398 ct p
4900 12398 m  4900 12398 l  p
5100 12600 m  5100 12600 l  p ef
0.003 0.003 1.000 c 4998 12397 m  5054 12397 5098 12440 5098 12497 ct 5098 12554 5054 12598 4998 12598 ct 
4942 12598 4899 12554 4899 12497 ct 4899 12440 4942 12397 4998 12397 ct pc
4899 12397 m  4899 12397 l  pc
5099 12599 m  5099 12599 l  pc
0.003 0.003 0.503 c 5499 12398 m  5555 12398 5599 12441 5599 12498 ct 5599 12555 5555 12599 5499 12599 ct 
5443 12599 5400 12555 5400 12498 ct 5400 12441 5443 12398 5499 12398 ct p
5400 12398 m  5400 12398 l  p
5600 12600 m  5600 12600 l  p ef
0.003 0.003 1.000 c 5498 12397 m  5554 12397 5598 12440 5598 12497 ct 5598 12554 5554 12598 5498 12598 ct 
5442 12598 5399 12554 5399 12497 ct 5399 12440 5442 12397 5498 12397 ct pc
5399 12397 m  5399 12397 l  pc
5599 12599 m  5599 12599 l  pc
0.003 0.003 0.503 c 2999 11898 m  3055 11898 3099 11941 3099 11998 ct 3099 12055 3055 12099 2999 12099 ct 
2943 12099 2900 12055 2900 11998 ct 2900 11941 2943 11898 2999 11898 ct p
2900 11898 m  2900 11898 l  p
3100 12100 m  3100 12100 l  p ef
0.003 0.003 1.000 c 2998 11897 m  3054 11897 3098 11940 3098 11997 ct 3098 12054 3054 12098 2998 12098 ct 
2942 12098 2899 12054 2899 11997 ct 2899 11940 2942 11897 2998 11897 ct pc
2899 11897 m  2899 11897 l  pc
3099 12099 m  3099 12099 l  pc
0.003 0.003 0.503 c 3499 11898 m  3555 11898 3599 11941 3599 11998 ct 3599 12055 3555 12099 3499 12099 ct 
3443 12099 3400 12055 3400 11998 ct 3400 11941 3443 11898 3499 11898 ct p
3400 11898 m  3400 11898 l  p
3600 12100 m  3600 12100 l  p ef
0.003 0.003 1.000 c 3498 11897 m  3554 11897 3598 11940 3598 11997 ct 3598 12054 3554 12098 3498 12098 ct 
3442 12098 3399 12054 3399 11997 ct 3399 11940 3442 11897 3498 11897 ct pc
3399 11897 m  3399 11897 l  pc
3599 12099 m  3599 12099 l  pc
0.003 0.003 0.503 c 3999 11898 m  4055 11898 4099 11941 4099 11998 ct 4099 12055 4055 12099 3999 12099 ct 
3943 12099 3900 12055 3900 11998 ct 3900 11941 3943 11898 3999 11898 ct p
3900 11898 m  3900 11898 l  p
4100 12100 m  4100 12100 l  p ef
0.003 0.003 1.000 c 3998 11897 m  4054 11897 4098 11940 4098 11997 ct 4098 12054 4054 12098 3998 12098 ct 
3942 12098 3899 12054 3899 11997 ct 3899 11940 3942 11897 3998 11897 ct pc
3899 11897 m  3899 11897 l  pc
4099 12099 m  4099 12099 l  pc
0.003 0.003 0.503 c 4499 11898 m  4555 11898 4599 11941 4599 11998 ct 4599 12055 4555 12099 4499 12099 ct 
4443 12099 4400 12055 4400 11998 ct 4400 11941 4443 11898 4499 11898 ct p
4400 11898 m  4400 11898 l  p
4600 12100 m  4600 12100 l  p ef
0.003 0.003 1.000 c 4498 11897 m  4554 11897 4598 11940 4598 11997 ct 4598 12054 4554 12098 4498 12098 ct 
4442 12098 4399 12054 4399 11997 ct 4399 11940 4442 11897 4498 11897 ct pc
4399 11897 m  4399 11897 l  pc
4599 12099 m  4599 12099 l  pc
0.003 0.003 0.503 c 4999 11898 m  5055 11898 5099 11941 5099 11998 ct 5099 12055 5055 12099 4999 12099 ct 
4943 12099 4900 12055 4900 11998 ct 4900 11941 4943 11898 4999 11898 ct p
4900 11898 m  4900 11898 l  p
5100 12100 m  5100 12100 l  p ef
0.003 0.003 1.000 c 4998 11897 m  5054 11897 5098 11940 5098 11997 ct 5098 12054 5054 12098 4998 12098 ct 
4942 12098 4899 12054 4899 11997 ct 4899 11940 4942 11897 4998 11897 ct pc
4899 11897 m  4899 11897 l  pc
5099 12099 m  5099 12099 l  pc
0.003 0.003 0.503 c 5499 11898 m  5555 11898 5599 11941 5599 11998 ct 5599 12055 5555 12099 5499 12099 ct 
5443 12099 5400 12055 5400 11998 ct 5400 11941 5443 11898 5499 11898 ct p
5400 11898 m  5400 11898 l  p
5600 12100 m  5600 12100 l  p ef
0.003 0.003 1.000 c 5498 11897 m  5554 11897 5598 11940 5598 11997 ct 5598 12054 5554 12098 5498 12098 ct 
5442 12098 5399 12054 5399 11997 ct 5399 11940 5442 11897 5498 11897 ct pc
5399 11897 m  5399 11897 l  pc
5599 12099 m  5599 12099 l  pc
0.003 0.003 0.503 c 2999 11398 m  3055 11398 3099 11441 3099 11498 ct 3099 11555 3055 11599 2999 11599 ct 
2943 11599 2900 11555 2900 11498 ct 2900 11441 2943 11398 2999 11398 ct p
2900 11398 m  2900 11398 l  p
3100 11600 m  3100 11600 l  p ef
0.003 0.003 1.000 c 2998 11397 m  3054 11397 3098 11440 3098 11497 ct 3098 11554 3054 11598 2998 11598 ct 
2942 11598 2899 11554 2899 11497 ct 2899 11440 2942 11397 2998 11397 ct pc
2899 11397 m  2899 11397 l  pc
3099 11599 m  3099 11599 l  pc
0.003 0.003 0.503 c 3499 11398 m  3555 11398 3599 11441 3599 11498 ct 3599 11555 3555 11599 3499 11599 ct 
3443 11599 3400 11555 3400 11498 ct 3400 11441 3443 11398 3499 11398 ct p
3400 11398 m  3400 11398 l  p
3600 11600 m  3600 11600 l  p ef
0.003 0.003 1.000 c 3498 11397 m  3554 11397 3598 11440 3598 11497 ct 3598 11554 3554 11598 3498 11598 ct 
3442 11598 3399 11554 3399 11497 ct 3399 11440 3442 11397 3498 11397 ct pc
3399 11397 m  3399 11397 l  pc
3599 11599 m  3599 11599 l  pc
0.003 0.003 0.503 c 3999 11398 m  4055 11398 4099 11441 4099 11498 ct 4099 11555 4055 11599 3999 11599 ct 
3943 11599 3900 11555 3900 11498 ct 3900 11441 3943 11398 3999 11398 ct p
3900 11398 m  3900 11398 l  p
4100 11600 m  4100 11600 l  p ef
0.003 0.003 1.000 c 3998 11397 m  4054 11397 4098 11440 4098 11497 ct 4098 11554 4054 11598 3998 11598 ct 
3942 11598 3899 11554 3899 11497 ct 3899 11440 3942 11397 3998 11397 ct pc
3899 11397 m  3899 11397 l  pc
4099 11599 m  4099 11599 l  pc
0.003 0.003 0.503 c 4499 11398 m  4555 11398 4599 11441 4599 11498 ct 4599 11555 4555 11599 4499 11599 ct 
4443 11599 4400 11555 4400 11498 ct 4400 11441 4443 11398 4499 11398 ct p
4400 11398 m  4400 11398 l  p
4600 11600 m  4600 11600 l  p ef
0.003 0.003 1.000 c 4498 11397 m  4554 11397 4598 11440 4598 11497 ct 4598 11554 4554 11598 4498 11598 ct 
4442 11598 4399 11554 4399 11497 ct 4399 11440 4442 11397 4498 11397 ct pc
4399 11397 m  4399 11397 l  pc
4599 11599 m  4599 11599 l  pc
0.003 0.003 0.503 c 4999 11398 m  5055 11398 5099 11441 5099 11498 ct 5099 11555 5055 11599 4999 11599 ct 
4943 11599 4900 11555 4900 11498 ct 4900 11441 4943 11398 4999 11398 ct p
4900 11398 m  4900 11398 l  p
5100 11600 m  5100 11600 l  p ef
0.003 0.003 1.000 c 4998 11397 m  5054 11397 5098 11440 5098 11497 ct 5098 11554 5054 11598 4998 11598 ct 
4942 11598 4899 11554 4899 11497 ct 4899 11440 4942 11397 4998 11397 ct pc
4899 11397 m  4899 11397 l  pc
5099 11599 m  5099 11599 l  pc
0.003 0.003 0.503 c 2999 10898 m  3055 10898 3099 10941 3099 10998 ct 3099 11055 3055 11099 2999 11099 ct 
2943 11099 2900 11055 2900 10998 ct 2900 10941 2943 10898 2999 10898 ct p
2900 10898 m  2900 10898 l  p
3100 11100 m  3100 11100 l  p ef
0.003 0.003 1.000 c 2998 10897 m  3054 10897 3098 10940 3098 10997 ct 3098 11054 3054 11098 2998 11098 ct 
2942 11098 2899 11054 2899 10997 ct 2899 10940 2942 10897 2998 10897 ct pc
2899 10897 m  2899 10897 l  pc
3099 11099 m  3099 11099 l  pc
0.003 0.003 0.503 c 3499 10898 m  3555 10898 3599 10941 3599 10998 ct 3599 11055 3555 11099 3499 11099 ct 
3443 11099 3400 11055 3400 10998 ct 3400 10941 3443 10898 3499 10898 ct p
3400 10898 m  3400 10898 l  p
3600 11100 m  3600 11100 l  p ef
0.003 0.003 1.000 c 3498 10897 m  3554 10897 3598 10940 3598 10997 ct 3598 11054 3554 11098 3498 11098 ct 
3442 11098 3399 11054 3399 10997 ct 3399 10940 3442 10897 3498 10897 ct pc
3399 10897 m  3399 10897 l  pc
3599 11099 m  3599 11099 l  pc
0.003 0.003 0.503 c 3999 10898 m  4055 10898 4099 10941 4099 10998 ct 4099 11055 4055 11099 3999 11099 ct 
3943 11099 3900 11055 3900 10998 ct 3900 10941 3943 10898 3999 10898 ct p
3900 10898 m  3900 10898 l  p
4100 11100 m  4100 11100 l  p ef
0.003 0.003 1.000 c 3998 10897 m  4054 10897 4098 10940 4098 10997 ct 4098 11054 4054 11098 3998 11098 ct 
3942 11098 3899 11054 3899 10997 ct 3899 10940 3942 10897 3998 10897 ct pc
3899 10897 m  3899 10897 l  pc
4099 11099 m  4099 11099 l  pc
0.003 0.003 0.503 c 4499 10898 m  4555 10898 4599 10941 4599 10998 ct 4599 11055 4555 11099 4499 11099 ct 
4443 11099 4400 11055 4400 10998 ct 4400 10941 4443 10898 4499 10898 ct p
4400 10898 m  4400 10898 l  p
4600 11100 m  4600 11100 l  p ef
0.003 0.003 1.000 c 4498 10897 m  4554 10897 4598 10940 4598 10997 ct 4598 11054 4554 11098 4498 11098 ct 
4442 11098 4399 11054 4399 10997 ct 4399 10940 4442 10897 4498 10897 ct pc
4399 10897 m  4399 10897 l  pc
4599 11099 m  4599 11099 l  pc
0.003 0.003 0.503 c 4999 10898 m  5055 10898 5099 10941 5099 10998 ct 5099 11055 5055 11099 4999 11099 ct 
4943 11099 4900 11055 4900 10998 ct 4900 10941 4943 10898 4999 10898 ct p
4900 10898 m  4900 10898 l  p
5100 11100 m  5100 11100 l  p ef
0.003 0.003 1.000 c 4998 10897 m  5054 10897 5098 10940 5098 10997 ct 5098 11054 5054 11098 4998 11098 ct 
4942 11098 4899 11054 4899 10997 ct 4899 10940 4942 10897 4998 10897 ct pc
4899 10897 m  4899 10897 l  pc
5099 11099 m  5099 11099 l  pc
0.003 0.003 0.503 c 2999 10398 m  3055 10398 3099 10441 3099 10498 ct 3099 10555 3055 10599 2999 10599 ct 
2943 10599 2900 10555 2900 10498 ct 2900 10441 2943 10398 2999 10398 ct p
2900 10398 m  2900 10398 l  p
3100 10600 m  3100 10600 l  p ef
0.003 0.003 1.000 c 2998 10397 m  3054 10397 3098 10440 3098 10497 ct 3098 10554 3054 10598 2998 10598 ct 
2942 10598 2899 10554 2899 10497 ct 2899 10440 2942 10397 2998 10397 ct pc
2899 10397 m  2899 10397 l  pc
3099 10599 m  3099 10599 l  pc
0.003 0.003 0.503 c 3499 10398 m  3555 10398 3599 10441 3599 10498 ct 3599 10555 3555 10599 3499 10599 ct 
3443 10599 3400 10555 3400 10498 ct 3400 10441 3443 10398 3499 10398 ct p
3400 10398 m  3400 10398 l  p
3600 10600 m  3600 10600 l  p ef
0.003 0.003 1.000 c 3498 10397 m  3554 10397 3598 10440 3598 10497 ct 3598 10554 3554 10598 3498 10598 ct 
3442 10598 3399 10554 3399 10497 ct 3399 10440 3442 10397 3498 10397 ct pc
3399 10397 m  3399 10397 l  pc
3599 10599 m  3599 10599 l  pc
0.003 0.003 0.503 c 3999 10398 m  4055 10398 4099 10441 4099 10498 ct 4099 10555 4055 10599 3999 10599 ct 
3943 10599 3900 10555 3900 10498 ct 3900 10441 3943 10398 3999 10398 ct p
3900 10398 m  3900 10398 l  p
4100 10600 m  4100 10600 l  p ef
0.003 0.003 1.000 c 3998 10397 m  4054 10397 4098 10440 4098 10497 ct 4098 10554 4054 10598 3998 10598 ct 
3942 10598 3899 10554 3899 10497 ct 3899 10440 3942 10397 3998 10397 ct pc
3899 10397 m  3899 10397 l  pc
4099 10599 m  4099 10599 l  pc
0.003 0.003 0.503 c 2999 9898 m  3055 9898 3099 9941 3099 9998 ct 3099 10055 3055 10099 2999 10099 ct 
2943 10099 2900 10055 2900 9998 ct 2900 9941 2943 9898 2999 9898 ct p
2900 9898 m  2900 9898 l  p
3100 10100 m  3100 10100 l  p ef
0.003 0.003 1.000 c 2998 9898 m  3054 9898 3098 9941 3098 9998 ct 3098 10055 3054 10099 2998 10099 ct 
2942 10099 2899 10055 2899 9998 ct 2899 9941 2942 9898 2998 9898 ct pc
2899 9898 m  2899 9898 l  pc
3099 10100 m  3099 10100 l  pc
0 10273 t 
pom
count op_count sub {pop} repeat countdictstack dict_count sub {end} repeat b4_inc_state restore
%%PageTrailer
%%Trailer
%%EOF
