%!PS-Adobe-3.0 EPSF-3.0 
%%BoundingBox: 0 0 364 291
%%Pages: 0
%%Creator: LibreOffice 5.3
%%Title: none
%%CreationDate: none
%%LanguageLevel: 2
%%EndComments
%%BeginProlog
%%BeginResource: procset SDRes-Prolog 1.0 0
/b4_inc_state save def
/dict_count countdictstack def
/op_count count 1 sub def
userdict begin
0 setgray 0 setlinecap 1 setlinewidth 0 setlinejoin 10 setmiterlimit[] 0 setdash newpath
/languagelevel where {pop languagelevel 1 ne {false setstrokeadjust false setoverprint} if} if
/bdef {bind def} bind def
/c {setrgbcolor} bdef
/l {neg lineto} bdef
/rl {neg rlineto} bdef
/lc {setlinecap} bdef
/lj {setlinejoin} bdef
/lw {setlinewidth} bdef
/ml {setmiterlimit} bdef
/ld {setdash} bdef
/m {neg moveto} bdef
/ct {6 2 roll neg 6 2 roll neg 6 2 roll neg curveto} bdef
/r {rotate} bdef
/t {neg translate} bdef
/s {scale} bdef
/sw {show} bdef
/gs {gsave} bdef
/gr {grestore} bdef
/f {findfont dup length dict begin
{1 index /FID ne {def} {pop pop} ifelse} forall /Encoding ISOLatin1Encoding def
currentdict end /NFont exch definefont pop /NFont findfont} bdef
/p {closepath} bdef
/sf {scalefont setfont} bdef
/ef {eofill}bdef
/pc {closepath stroke}bdef
/ps {stroke}bdef
/pum {matrix currentmatrix}bdef
/pom {setmatrix}bdef
/bs {/aString exch def /nXOfs exch def /nWidth exch def currentpoint nXOfs 0 rmoveto pum nWidth aString stringwidth pop div 1 scale aString show pom moveto} bdef
%%EndResource
%%EndProlog
%%BeginSetup
%%EndSetup
%%Page: 1 1
%%BeginPageSetup
%%EndPageSetup
pum
0.02835 0.02832 s 
0 -10273 t
/tm matrix currentmatrix def
tm setmatrix
-2048 -5391 t 
1 1 s 
0 lw 1 lj 0.003 0.003 0.003 c 2991 6003 m  2999 14998 l  ps
14000 14998 m  2999 14998 l  ps
6999 14998 m  2999 6999 l  ps
2999 9999 m  12998 14998 l  ps
pum
3813 8371 t
46 0 m  46 -339 l  91 -339 l  91 0 l  46 0 l  p ef
pom
pum
6849 15435 t
253 -94 m  253 -63 243 -39 223 -21 ct 203 -4 174 5 137 5 ct 101 5 73 -4 52 -21 ct 
32 -38 21 -62 21 -94 ct 21 -116 28 -135 40 -150 ct 53 -165 69 -174 89 -177 ct 89 -178 l 
71 -182 56 -192 45 -206 ct 35 -221 29 -238 29 -257 ct 29 -283 39 -304 58 -320 ct 
78 -336 104 -344 136 -344 ct 170 -344 196 -336 215 -320 ct 235 -305 244 -283 244 -257 ct 
244 -237 239 -220 228 -206 ct 217 -191 203 -182 184 -179 ct 184 -178 l  206 -174 223 -165 235 -150 ct 
247 -135 253 -117 253 -94 ct p
199 -254 m  199 -293 178 -312 136 -312 ct 116 -312 100 -307 90 -297 ct 79 -288 74 -273 74 -254 ct 
74 -235 79 -220 90 -210 ct 101 -200 117 -194 137 -194 ct 157 -194 173 -199 183 -209 ct 
194 -218 199 -233 199 -254 ct p
208 -98 m  208 -119 201 -135 189 -146 ct 176 -157 159 -162 136 -162 ct 114 -162 97 -156 85 -145 ct 
72 -133 66 -118 66 -98 ct 66 -51 90 -27 138 -27 ct 161 -27 179 -33 190 -44 ct 202 -56 208 -74 208 -98 ct 
p ef
pom
pum
2345 7136 t
38 0 m  38 -37 l  124 -37 l  124 -298 l  47 -243 l  47 -284 l  128 -339 l 
168 -339 l  168 -37 l  250 -37 l  250 0 l  38 0 l  p ef
528 -111 m  528 -75 518 -47 498 -26 ct 479 -5 452 5 418 5 ct 380 5 351 -9 330 -38 ct 
310 -66 300 -107 300 -162 ct 300 -220 311 -265 332 -297 ct 353 -328 383 -344 421 -344 ct 
473 -344 505 -321 518 -275 ct 477 -267 l  468 -295 450 -309 421 -309 ct 396 -309 377 -297 363 -274 ct 
350 -251 343 -218 343 -174 ct 351 -189 362 -200 376 -208 ct 391 -215 407 -219 425 -219 ct 
457 -219 482 -209 500 -190 ct 518 -170 528 -144 528 -111 ct p
483 -109 m  483 -133 477 -152 465 -166 ct 453 -179 437 -186 415 -186 ct 395 -186 379 -180 366 -168 ct 
354 -156 347 -140 347 -119 ct 347 -93 354 -72 367 -55 ct 380 -38 396 -30 417 -30 ct 
437 -30 454 -37 466 -51 ct 478 -65 483 -84 483 -109 ct p ef
pom
pum
12649 15380 t
25 0 m  25 -31 l  33 -49 43 -66 55 -80 ct 67 -95 79 -108 92 -119 ct 105 -131 118 -142 131 -152 ct 
143 -162 155 -171 165 -181 ct 175 -191 184 -202 190 -213 ct 196 -224 200 -236 200 -250 ct 
200 -268 194 -283 183 -293 ct 172 -303 157 -308 138 -308 ct 119 -308 104 -303 92 -293 ct 
80 -283 73 -269 71 -251 ct 27 -255 l  30 -282 41 -304 61 -320 ct 81 -336 107 -344 138 -344 ct 
172 -344 198 -336 217 -320 ct 235 -304 244 -281 244 -251 ct 244 -238 241 -225 235 -212 ct 
229 -199 220 -186 208 -173 ct 196 -160 174 -140 140 -113 ct 122 -97 107 -84 96 -72 ct 
85 -60 77 -48 72 -37 ct 249 -37 l  249 0 l  25 0 l  p ef
530 -170 m  530 -113 520 -70 500 -40 ct 480 -10 450 5 411 5 ct 373 5 343 -10 324 -40 ct 
304 -69 294 -113 294 -170 ct 294 -228 304 -271 323 -300 ct 342 -329 372 -344 413 -344 ct 
453 -344 482 -329 501 -300 ct 520 -271 530 -227 530 -170 ct p
486 -170 m  486 -218 480 -254 469 -276 ct 458 -298 439 -309 413 -309 ct 386 -309 367 -298 356 -276 ct 
344 -255 338 -219 338 -170 ct 338 -121 344 -86 356 -64 ct 368 -42 386 -30 412 -30 ct 
437 -30 456 -42 468 -65 ct 480 -87 486 -122 486 -170 ct p ef
pom
pum
2298 10171 t
38 0 m  38 -37 l  124 -37 l  124 -298 l  47 -243 l  47 -284 l  128 -339 l 
168 -339 l  168 -37 l  250 -37 l  250 0 l  38 0 l  p ef
530 -170 m  530 -113 520 -70 500 -40 ct 480 -10 450 5 411 5 ct 373 5 343 -10 324 -40 ct 
304 -69 294 -113 294 -170 ct 294 -228 304 -271 323 -300 ct 342 -329 372 -344 413 -344 ct 
453 -344 482 -329 501 -300 ct 520 -271 530 -227 530 -170 ct p
486 -170 m  486 -218 480 -254 469 -276 ct 458 -298 439 -309 413 -309 ct 386 -309 367 -298 356 -276 ct 
344 -255 338 -219 338 -170 ct 338 -121 344 -86 356 -64 ct 368 -42 386 -30 412 -30 ct 
437 -30 456 -42 468 -65 ct 480 -87 486 -122 486 -170 ct p ef
pom
pum
6250 11380 t
46 0 m  46 -339 l  91 -339 l  91 0 l  46 0 l  p ef
181 0 m  181 -339 l  226 -339 l  226 0 l  181 0 l  p ef
pom
pum
2914 5872 t
268 0 m  166 -148 l  62 0 l  11 0 l  140 -176 l  21 -339 l  72 -339 l 
166 -206 l  258 -339 l  309 -339 l  193 -178 l  318 0 l  268 0 l  p ef
pom
pum
3240 6079 t
14 0 m  14 -18 l  19 -29 25 -38 32 -47 ct 39 -55 46 -63 53 -69 ct 61 -76 68 -82 76 -88 ct 
83 -94 90 -100 96 -105 ct 102 -111 107 -117 110 -124 ct 114 -130 116 -137 116 -145 ct 
116 -156 113 -164 106 -170 ct 100 -176 91 -179 80 -179 ct 69 -179 60 -176 53 -171 ct 
46 -165 42 -157 41 -146 ct 16 -148 l  17 -164 24 -177 36 -186 ct 47 -195 62 -200 80 -200 ct 
100 -200 115 -195 126 -186 ct 136 -177 142 -163 142 -146 ct 142 -138 140 -131 136 -123 ct 
133 -116 128 -108 121 -101 ct 114 -93 101 -81 81 -65 ct 71 -57 62 -49 56 -42 ct 
49 -35 45 -28 42 -21 ct 145 -21 l  145 0 l  14 0 l  p ef
pom
pum
14149 15080 t
268 0 m  166 -148 l  62 0 l  11 0 l  140 -176 l  21 -339 l  72 -339 l 
166 -206 l  258 -339 l  309 -339 l  193 -178 l  318 0 l  268 0 l  p ef
pom
pum
14475 15287 t
22 0 m  22 -21 l  72 -21 l  72 -173 l  28 -141 l  28 -165 l  74 -197 l 
97 -197 l  97 -21 l  145 -21 l  145 0 l  22 0 l  p ef
pom
0.003 0.003 1.000 c 3683 11111 m  4126 11252 4242 11744 4639 11986 ct 4929 12163 4992 12556 5067 12882 ct 
5137 13188 5243 13488 5250 13818 ct 5260 14261 4759 14157 4538 14205 ct 4205 14277 3990 13914 3907 13635 ct 
3816 13329 3728 13016 3724 12698 ct 3720 12422 3552 12179 3561 11905 ct 3569 11639 3411 11281 3642 11111 ct 
3878 10938 4202 11119 4477 11172 ct 4797 11233 4888 11580 5026 11823 ct 5192 12116 5485 12285 5637 12597 ct 
5768 12867 5907 13137 5962 13431 ct 6015 13712 6139 13967 6288 14205 ct 6520 14575 6002 14663 5779 14693 ct 
5519 14728 5263 14729 5006 14734 ct 4776 14739 4541 14766 4314 14734 ct 4069 14700 3840 14751 3601 14734 ct 
3232 14708 3356 14323 3317 14103 ct 3267 13822 3362 13525 3255 13248 ct 3128 12918 3386 12643 3337 12312 ct 
3294 12023 3315 11730 3317 11437 ct 3318 11189 3264 10959 3174 10745 ct 3035 10415 3487 10454 3622 10541 ct 
3865 10698 4205 10630 4416 10846 ct 4612 11047 4859 11178 5006 11437 ct 5156 11700 5166 12002 5331 12251 ct 
5484 12482 5570 12750 5677 13004 ct 5775 13238 5847 13481 5942 13716 ct 6052 13989 6288 14119 6430 14408 ct 
6639 14834 6076 14637 5962 14591 ct 5725 14494 5459 14534 5209 14571 ct 4981 14605 4748 14572 4517 14591 ct 
4270 14612 4023 14632 3785 14693 ct 3544 14755 3170 14768 3133 14428 ct 3101 14137 3331 13918 3398 13655 ct 
3462 13403 3520 13144 3520 12882 ct 3521 12616 3370 12250 3581 12088 ct 3863 11871 4232 12284 4436 12515 ct 
4728 12845 5123 13139 5209 13574 ct 5274 13906 4714 13921 4558 13757 ct 4246 13429 4341 12909 4192 12495 ct 
3980 11906 4635 12336 4721 12515 ct 4868 12823 4868 13123 4843 13431 ct 4816 13767 4310 13920 4110 13594 ct 
3959 13347 3801 12611 4314 12882 ct 4746 13110 4803 13743 4802 14225 ct 4802 14680 4201 14723 3968 14510 ct 
3753 14314 3614 13936 3764 13675 ct 4087 13115 4713 13662 4538 14001 ct 4397 14274 3972 14422 3703 14286 ct 
3482 14174 3457 13499 3825 13594 ct 4088 13662 4512 14106 4131 14408 ct 3711 14741 3841 14170 3907 13960 ct 
4043 13525 4404 13803 4497 14123 ct 4636 14602 4020 15233 4009 14123 ct 4005 13660 4155 13201 4619 13228 ct 
4967 13248 5156 13619 5433 13736 ct 6106 14020 5117 14687 5128 14021 ct 5134 13662 5629 13369 5800 13757 ct 
5882 13943 6484 14729 5779 14591 ct 5605 14557 5251 13927 5840 14123 ct 6635 14388 5091 14678 5881 14205 ct 
6247 13986 6164 14557 6573 14469 ct 6826 14415 6182 15341 6410 14795 ct 6689 14128 6022 15109 6207 14632 ct 
6273 14461 5055 15078 5840 14632 ct 6477 14270 6241 14454 5861 14734 ct 5523 14983 4201 14937 4538 14428 ct 
4978 13764 4195 14487 4456 13940 ct 4552 13738 4550 13270 4924 13431 ct 5642 13741 4461 14120 4578 13268 ct 
4634 12857 4071 12392 4355 12129 ct 4579 11921 5219 12581 4985 12821 ct 4648 13167 4462 12271 4314 12027 ct 
4109 11689 4330 11236 4171 10887 ct 4118 10770 4534 10894 4070 11376 ct 3376 12097 3438 9876 3927 12088 ct 
4085 12802 3579 11946 3581 11681 ct 3587 11051 4086 12087 3866 12027 ct 3520 11932 3718 10734 3642 11050 ct 
3516 11571 3279 11061 3317 10826 ct 3412 10242 3597 10786 3764 10928 ct 4058 11180 4446 11263 4721 11518 ct 
5155 11920 4833 12804 5535 13065 ct 5678 13118 5869 14063 5372 13309 ct 5096 12890 4957 12436 4884 11966 ct 
4879 11932 6016 12865 5108 12698 ct 4611 12607 4095 11150 4843 12068 ct 5487 12858 4682 12673 4538 12149 ct 
4316 11342 5049 12190 4823 12434 ct 4493 12790 4354 12066 4355 11864 ct 4364 10595 4068 12810 4314 12963 ct 
4943 13355 3718 14465 3744 13126 ct 3764 12100 4283 12899 4070 13248 ct 3663 13912 3632 12618 3744 12698 ct 
4366 13144 3190 13069 3479 12678 ct 3900 12107 3839 13737 3378 12495 ct 3267 12196 3379 12087 3154 11742 ct 
3006 11516 3344 11219 3276 10968 ct 3059 10175 4018 11339 4049 11416 ct 4380 12227 5221 12860 5291 13736 ct 
5393 15016 5406 14035 5861 14306 ct 6187 14500 6147 14827 6573 14693 ct 6910 14587 5918 14677 5576 14713 ct 
5252 14747 4924 14714 4599 14693 ct 4348 14677 4095 14703 3846 14693 ct 3746 14689 2921 14879 3642 14652 ct 
4281 14451 3498 14200 3357 14388 ct 3326 14429 4504 14470 3764 14551 ct 3372 14594 4283 14471 4538 14306 ct 
5088 13950 4300 14678 4945 14469 ct 5708 14221 4334 14530 5108 14245 ct 5823 13982 4897 14517 4741 14469 ct 
4343 14346 3841 14443 3561 14082 ct 3165 13570 4466 13375 4314 13574 ct 3908 14107 3604 13062 3744 12821 ct 
4094 12217 4402 13522 3846 12902 ct 3688 12726 3746 12456 3703 12230 ct 3623 11804 4347 12000 4090 12271 ct 
3663 12722 3619 11653 3561 11437 ct 3302 10475 3830 11976 3479 11314 ct 3346 11064 3444 10314 3439 10582 ct 
3423 11354 3005 10074 3724 10582 ct 4117 10860 4219 11116 4660 11355 ct 5191 11643 5313 12376 5494 12963 ct 
5585 13259 5687 13585 5515 13818 ct 5368 14018 5140 12825 5474 13635 ct 5745 14291 5095 13341 5331 13329 ct 
5624 13314 5511 13898 5738 14082 ct 6376 14601 5062 13895 5230 14001 ct 5768 14339 5061 14856 4741 14693 ct 
4123 14379 4798 14945 4293 14917 ct 4000 14901 3773 14687 3520 14754 ct 3054 14878 3168 14345 3174 14164 ct 
3187 13767 3294 13401 3255 13004 ct 3219 12631 3252 12269 3235 11884 ct 3192 10911 3948 12666 3825 12800 ct 
3644 12998 3858 14136 3744 13146 ct 3629 12149 4029 12958 3846 13126 ct 3498 13445 3551 12127 3500 12882 ct 
3487 13080 3658 14277 3703 13350 ct 3739 12592 3868 11853 3968 11091 ct 4115 9974 3794 11086 3540 10643 ct 
3357 10439 l  3133 10378 l  3194 10399 l  ps
0 10273 t 
pom
count op_count sub {pop} repeat countdictstack dict_count sub {end} repeat b4_inc_state restore
%%PageTrailer
%%Trailer
%%EOF
