%!PS-Adobe-3.0 EPSF-3.0 
%%BoundingBox: 0 0 350 297
%%Pages: 0
%%Creator: LibreOffice 5.4
%%Title: none
%%CreationDate: none
%%LanguageLevel: 2
%%EndComments
%%BeginProlog
%%BeginResource: procset SDRes-Prolog 1.0 0
/b4_inc_state save def
/dict_count countdictstack def
/op_count count 1 sub def
userdict begin
0 setgray 0 setlinecap 1 setlinewidth 0 setlinejoin 10 setmiterlimit[] 0 setdash newpath
/languagelevel where {pop languagelevel 1 ne {false setstrokeadjust false setoverprint} if} if
/bdef {bind def} bind def
/c {setgray} bdef
/l {neg lineto} bdef
/rl {neg rlineto} bdef
/lc {setlinecap} bdef
/lj {setlinejoin} bdef
/lw {setlinewidth} bdef
/ml {setmiterlimit} bdef
/ld {setdash} bdef
/m {neg moveto} bdef
/ct {6 2 roll neg 6 2 roll neg 6 2 roll neg curveto} bdef
/r {rotate} bdef
/t {neg translate} bdef
/s {scale} bdef
/sw {show} bdef
/gs {gsave} bdef
/gr {grestore} bdef
/f {findfont dup length dict begin
{1 index /FID ne {def} {pop pop} ifelse} forall /Encoding ISOLatin1Encoding def
currentdict end /NFont exch definefont pop /NFont findfont} bdef
/p {closepath} bdef
/sf {scalefont setfont} bdef
/ef {eofill}bdef
/pc {closepath stroke}bdef
/ps {stroke}bdef
/pum {matrix currentmatrix}bdef
/pom {setmatrix}bdef
/bs {/aString exch def /nXOfs exch def /nWidth exch def currentpoint nXOfs 0 rmoveto pum nWidth aString stringwidth pop div 1 scale aString show pom moveto} bdef
%%EndResource
%%EndProlog
%%BeginSetup
%%EndSetup
%%Page: 1 1
%%BeginPageSetup
%%EndPageSetup
pum
0.02837 0.02833 s 
0 -10481 t
/tm matrix currentmatrix def
tm setmatrix
-1964 -5391 t 
1 1 s 
0 lw 1 lj 0.000 c 2991 6003 m  2999 14998 l  ps
14000 14998 m  2999 14998 l  ps
pum
2214 5876 t
87 -302 m  87 -176 l  276 -176 l  276 -138 l  87 -138 l  87 0 l  41 0 l 
41 -340 l  282 -340 l  282 -302 l  87 -302 l  p ef
377 -261 m  377 -95 l  377 -78 378 -65 382 -55 ct 385 -46 391 -39 398 -35 ct 
405 -31 416 -29 431 -29 ct 451 -29 468 -36 480 -50 ct 492 -64 498 -84 498 -110 ct 
498 -261 l  541 -261 l  541 -56 l  541 -25 542 -7 543 0 ct 502 0 l  502 -1 502 -3 501 -6 ct 
501 -10 501 -14 501 -19 ct 501 -23 500 -32 500 -44 ct 499 -44 l  489 -26 478 -14 465 -6 ct 
452 1 435 5 416 5 ct 387 5 366 -2 353 -16 ct 340 -31 333 -54 333 -87 ct 333 -261 l 
377 -261 l  p ef
775 0 m  775 -166 l  775 -183 773 -196 770 -206 ct 767 -215 761 -222 754 -226 ct 
746 -230 736 -232 721 -232 ct 700 -232 684 -225 672 -211 ct 660 -197 654 -177 654 -151 ct 
654 0 l  610 0 l  610 -205 l  610 -236 610 -254 609 -261 ct 650 -261 l  650 -260 650 -258 650 -255 ct 
650 -251 651 -247 651 -242 ct 651 -238 651 -229 652 -217 ct 652 -217 l  662 -235 674 -247 687 -255 ct 
700 -262 716 -266 736 -266 ct 765 -266 785 -259 799 -245 ct 812 -230 819 -207 819 -174 ct 
819 0 l  775 0 l  p ef
917 -132 m  917 -97 923 -71 934 -54 ct 945 -38 961 -29 983 -29 ct 999 -29 1012 -33 1022 -42 ct 
1032 -50 1039 -63 1041 -81 ct 1085 -78 l  1082 -52 1071 -32 1053 -17 ct 1035 -2 1012 5 984 5 ct 
948 5 920 -7 901 -30 ct 882 -53 872 -86 872 -131 ct 872 -175 882 -208 901 -231 ct 
920 -254 948 -266 984 -266 ct 1011 -266 1033 -259 1050 -245 ct 1068 -231 1079 -212 1084 -188 ct 
1039 -185 l  1037 -199 1031 -211 1022 -219 ct 1013 -228 1000 -232 983 -232 ct 
960 -232 943 -224 933 -209 ct 922 -194 917 -168 917 -132 ct p
1032 61 m  1032 90 1010 105 966 105 ct 957 105 950 105 944 104 ct 944 80 l  952 81 959 82 965 82 ct 
989 82 1001 75 1001 62 ct 1001 50 990 44 968 44 ct 962 44 957 44 955 44 ct 970 0 l 
996 0 l  987 25 l  1002 25 1013 28 1021 35 ct 1028 41 1032 50 1032 61 ct p ef
1201 5 m  1175 5 1155 -2 1142 -16 ct 1129 -30 1122 -49 1122 -73 ct 1122 -100 1131 -121 1149 -135 ct 
1166 -150 1195 -157 1235 -158 ct 1293 -159 l  1293 -174 l  1293 -195 1289 -210 1280 -219 ct 
1271 -228 1257 -233 1237 -233 ct 1218 -233 1204 -230 1195 -223 ct 1186 -216 1181 -206 1179 -191 ct 
1134 -196 l  1141 -243 1176 -266 1238 -266 ct 1271 -266 1296 -258 1312 -243 ct 
1329 -228 1337 -207 1337 -178 ct 1337 -66 l  1337 -53 1339 -43 1342 -37 ct 1346 -30 1352 -27 1362 -27 ct 
1366 -27 1370 -27 1376 -28 ct 1376 -2 l  1365 1 1354 2 1342 2 ct 1326 2 1314 -2 1307 -10 ct 
1300 -19 1296 -32 1295 -50 ct 1293 -50 l  1282 -30 1269 -16 1255 -7 ct 1240 1 1222 5 1201 5 ct 
p
1211 -28 m  1227 -28 1241 -31 1253 -38 ct 1266 -46 1275 -56 1283 -68 ct 1290 -81 1293 -94 1293 -107 ct 
1293 -129 l  1246 -128 l  1225 -128 1210 -125 1199 -122 ct 1189 -118 1181 -112 1175 -104 ct 
1169 -96 1167 -85 1167 -72 ct 1167 -58 1170 -47 1178 -39 ct 1186 -31 1197 -28 1211 -28 ct 
p
1279 -290 m  1272 -290 1265 -291 1259 -294 ct 1252 -297 1245 -300 1239 -304 ct 
1233 -308 1227 -311 1221 -314 ct 1215 -317 1210 -318 1205 -318 ct 1196 -318 1190 -316 1185 -311 ct 
1181 -306 1178 -299 1177 -290 ct 1155 -290 l  1156 -306 1159 -319 1163 -327 ct 
1167 -335 1172 -342 1179 -347 ct 1185 -352 1193 -354 1204 -354 ct 1211 -354 1218 -353 1224 -350 ct 
1231 -347 1238 -344 1244 -340 ct 1250 -336 1256 -333 1262 -330 ct 1267 -327 1272 -326 1277 -326 ct 
1293 -326 1303 -335 1305 -354 ct 1328 -354 l  1325 -330 1319 -314 1311 -304 ct 
1303 -295 1292 -290 1279 -290 ct p ef
1630 -131 m  1630 -85 1620 -51 1600 -29 ct 1580 -6 1551 5 1512 5 ct 1474 5 1445 -7 1426 -30 ct 
1406 -53 1397 -87 1397 -131 ct 1397 -221 1436 -266 1514 -266 ct 1554 -266 1583 -255 1602 -233 ct 
1621 -211 1630 -177 1630 -131 ct p
1584 -131 m  1584 -167 1579 -193 1568 -209 ct 1558 -226 1540 -234 1514 -234 ct 
1489 -234 1471 -226 1459 -209 ct 1448 -192 1442 -166 1442 -131 ct 1442 -96 1448 -70 1459 -53 ct 
1470 -36 1488 -27 1512 -27 ct 1538 -27 1556 -35 1568 -52 ct 1579 -69 1584 -95 1584 -131 ct 
p ef
2152 -171 m  2152 -136 2145 -105 2131 -78 ct 2118 -51 2098 -31 2073 -16 ct 2047 -2 2017 5 1983 5 ct 
1948 5 1918 -2 1892 -16 ct 1867 -30 1848 -51 1834 -78 ct 1821 -104 1814 -136 1814 -171 ct 
1814 -226 1829 -268 1859 -299 ct 1889 -330 1930 -345 1983 -345 ct 2018 -345 2048 -338 2073 -324 ct 
2099 -311 2118 -291 2131 -264 ct 2145 -238 2152 -207 2152 -171 ct p
2105 -171 m  2105 -214 2094 -247 2073 -271 ct 2052 -295 2022 -307 1983 -307 ct 
1944 -307 1914 -295 1893 -272 ct 1872 -248 1861 -214 1861 -171 ct 1861 -129 1872 -95 1893 -70 ct 
1915 -45 1945 -32 1983 -32 ct 2022 -32 2052 -45 2073 -69 ct 2094 -93 2105 -127 2105 -171 ct 
p ef
2430 -132 m  2430 -41 2398 5 2334 5 ct 2314 5 2298 1 2285 -6 ct 2272 -13 2261 -24 2253 -40 ct 
2252 -40 l  2252 -35 2252 -28 2251 -18 ct 2251 -7 2250 -1 2250 0 ct 2208 0 l 
2209 -9 2209 -26 2209 -54 ct 2209 -358 l  2253 -358 l  2253 -256 l  2253 -246 2252 -233 2252 -219 ct 
2253 -219 l  2261 -236 2271 -248 2285 -255 ct 2298 -262 2314 -266 2334 -266 ct 
2367 -266 2391 -255 2407 -233 ct 2422 -210 2430 -177 2430 -132 ct p
2384 -130 m  2384 -167 2380 -193 2370 -209 ct 2360 -225 2345 -232 2323 -232 ct 
2298 -232 2281 -224 2269 -207 ct 2258 -191 2253 -164 2253 -128 ct 2253 -93 2258 -68 2269 -52 ct 
2280 -35 2298 -27 2322 -27 ct 2344 -27 2360 -35 2370 -51 ct 2380 -68 2384 -94 2384 -130 ct 
p ef
2484 -316 m  2484 -358 l  2527 -358 l  2527 -316 l  2484 -316 l  p
2527 33 m  2527 57 2523 75 2513 86 ct 2503 97 2489 103 2470 103 ct 2457 103 2447 102 2439 101 ct 
2439 67 l  2454 69 l  2465 69 2473 66 2477 60 ct 2482 54 2484 43 2484 26 ct 
2484 -261 l  2527 -261 l  2527 33 l  p ef
2628 -121 m  2628 -91 2634 -68 2646 -52 ct 2659 -36 2677 -28 2700 -28 ct 2719 -28 2734 -31 2746 -39 ct 
2757 -46 2765 -56 2769 -68 ct 2807 -57 l  2791 -16 2756 5 2700 5 ct 2662 5 2632 -7 2612 -30 ct 
2592 -53 2582 -87 2582 -132 ct 2582 -175 2592 -208 2612 -231 ct 2632 -254 2661 -266 2699 -266 ct 
2775 -266 2814 -220 2814 -127 ct 2814 -121 l  2628 -121 l  p
2769 -154 m  2767 -182 2760 -202 2748 -215 ct 2736 -228 2720 -234 2698 -234 ct 
2677 -234 2660 -227 2648 -213 ct 2636 -199 2629 -179 2628 -154 ct 2769 -154 l 
p ef
2970 -2 m  2955 2 2941 4 2926 4 ct 2891 4 2874 -16 2874 -55 ct 2874 -229 l  2843 -229 l 
2843 -261 l  2875 -261 l  2888 -320 l  2917 -320 l  2917 -261 l  2965 -261 l 
2965 -229 l  2917 -229 l  2917 -65 l  2917 -52 2919 -43 2923 -38 ct 2927 -33 2934 -31 2945 -31 ct 
2950 -31 2959 -32 2970 -34 ct 2970 -2 l  p ef
3009 -316 m  3009 -358 l  3052 -358 l  3052 -316 l  3009 -316 l  p
3009 0 m  3009 -261 l  3052 -261 l  3052 0 l  3009 0 l  p ef
3234 0 m  3182 0 l  3088 -261 l  3134 -261 l  3191 -91 l  3194 -85 3199 -66 3208 -34 ct 
3217 -62 l  3226 -91 l  3285 -261 l  3331 -261 l  3234 0 l  p ef
3590 -131 m  3590 -85 3580 -51 3560 -29 ct 3540 -6 3511 5 3472 5 ct 3434 5 3405 -7 3386 -30 ct 
3366 -53 3357 -87 3357 -131 ct 3357 -221 3396 -266 3474 -266 ct 3514 -266 3543 -255 3562 -233 ct 
3581 -211 3590 -177 3590 -131 ct p
3544 -131 m  3544 -167 3539 -193 3528 -209 ct 3518 -226 3500 -234 3474 -234 ct 
3449 -234 3431 -226 3419 -209 ct 3408 -192 3402 -166 3402 -131 ct 3402 -96 3408 -70 3419 -53 ct 
3430 -36 3448 -27 3472 -27 ct 3498 -27 3516 -35 3528 -52 ct 3539 -69 3544 -95 3544 -131 ct 
p ef
pom
pum
12249 15484 t
41 0 m  41 -340 l  298 -340 l  298 -302 l  87 -302 l  87 -193 l  284 -193 l 
284 -156 l  87 -156 l  87 -38 l  308 -38 l  308 0 l  41 0 l  p ef
559 -72 m  559 -47 550 -28 531 -15 ct 513 -2 487 5 453 5 ct 421 5 396 0 378 -11 ct 
361 -22 349 -38 344 -61 ct 382 -69 l  386 -55 393 -44 405 -38 ct 417 -31 433 -28 453 -28 ct 
475 -28 491 -31 502 -38 ct 512 -45 517 -55 517 -69 ct 517 -79 513 -87 506 -94 ct 
499 -100 488 -105 472 -110 ct 441 -118 l  416 -124 398 -131 388 -137 ct 377 -143 369 -150 363 -159 ct 
357 -168 354 -179 354 -192 ct 354 -216 363 -234 380 -246 ct 397 -259 421 -265 454 -265 ct 
483 -265 505 -260 522 -250 ct 539 -240 550 -223 555 -201 ct 515 -196 l  513 -208 507 -217 496 -223 ct 
486 -229 471 -232 454 -232 ct 434 -232 420 -229 410 -223 ct 401 -217 396 -208 396 -196 ct 
396 -189 398 -183 402 -178 ct 406 -173 412 -169 419 -166 ct 427 -162 443 -158 467 -152 ct 
490 -146 507 -140 517 -136 ct 527 -131 535 -125 541 -119 ct 547 -113 551 -106 554 -99 ct 
558 -91 559 -82 559 -72 ct p ef
714 -2 m  699 2 685 4 670 4 ct 635 4 618 -16 618 -55 ct 618 -229 l  587 -229 l 
587 -261 l  619 -261 l  632 -320 l  661 -320 l  661 -261 l  709 -261 l 
709 -229 l  661 -229 l  661 -65 l  661 -52 663 -43 667 -38 ct 671 -33 678 -31 689 -31 ct 
694 -31 703 -32 714 -34 ct 714 -2 l  p ef
820 5 m  794 5 774 -2 761 -16 ct 748 -30 741 -49 741 -73 ct 741 -100 750 -121 768 -135 ct 
785 -150 814 -157 854 -158 ct 912 -159 l  912 -174 l  912 -195 908 -210 899 -219 ct 
890 -228 876 -233 856 -233 ct 837 -233 823 -230 814 -223 ct 805 -216 800 -206 798 -191 ct 
753 -196 l  760 -243 795 -266 857 -266 ct 890 -266 915 -258 931 -243 ct 948 -228 956 -207 956 -178 ct 
956 -66 l  956 -53 958 -43 961 -37 ct 965 -30 971 -27 981 -27 ct 985 -27 989 -27 995 -28 ct 
995 -2 l  984 1 973 2 961 2 ct 945 2 933 -2 926 -10 ct 919 -19 915 -32 914 -50 ct 
912 -50 l  901 -30 888 -16 874 -7 ct 859 1 841 5 820 5 ct p
830 -28 m  846 -28 860 -31 872 -38 ct 885 -46 894 -56 902 -68 ct 909 -81 912 -94 912 -107 ct 
912 -129 l  865 -128 l  844 -128 829 -125 818 -122 ct 808 -118 800 -112 794 -104 ct 
788 -96 786 -85 786 -72 ct 786 -58 789 -47 797 -39 ct 805 -31 816 -28 830 -28 ct 
p ef
1193 -42 m  1185 -25 1174 -13 1161 -6 ct 1148 1 1131 5 1112 5 ct 1079 5 1055 -6 1039 -28 ct 
1024 -51 1016 -84 1016 -129 ct 1016 -220 1048 -266 1112 -266 ct 1132 -266 1148 -262 1161 -255 ct 
1174 -248 1185 -236 1193 -221 ct 1194 -221 l  1193 -250 l  1193 -358 l  1236 -358 l 
1236 -54 l  1236 -26 1237 -9 1238 0 ct 1196 0 l  1196 -2 1195 -8 1195 -18 ct 
1194 -27 1194 -35 1194 -42 ct 1193 -42 l  p
1061 -131 m  1061 -94 1066 -68 1076 -52 ct 1085 -36 1101 -29 1123 -29 ct 1147 -29 1165 -37 1176 -54 ct 
1187 -71 1193 -98 1193 -134 ct 1193 -168 1187 -194 1176 -210 ct 1165 -226 1148 -234 1123 -234 ct 
1101 -234 1086 -226 1076 -210 ct 1066 -193 1061 -167 1061 -131 ct p ef
1524 -131 m  1524 -85 1514 -51 1494 -29 ct 1474 -6 1445 5 1406 5 ct 1368 5 1339 -7 1320 -30 ct 
1300 -53 1291 -87 1291 -131 ct 1291 -221 1330 -266 1408 -266 ct 1448 -266 1477 -255 1496 -233 ct 
1515 -211 1524 -177 1524 -131 ct p
1478 -131 m  1478 -167 1473 -193 1462 -209 ct 1452 -226 1434 -234 1408 -234 ct 
1383 -234 1365 -226 1353 -209 ct 1342 -192 1336 -166 1336 -131 ct 1336 -96 1342 -70 1353 -53 ct 
1364 -36 1382 -27 1406 -27 ct 1432 -27 1450 -35 1462 -52 ct 1473 -69 1478 -95 1478 -131 ct 
p ef
1774 -72 m  1774 -47 1765 -28 1746 -15 ct 1728 -2 1702 5 1668 5 ct 1636 5 1611 0 1593 -11 ct 
1576 -22 1564 -38 1559 -61 ct 1597 -69 l  1601 -55 1608 -44 1620 -38 ct 1632 -31 1648 -28 1668 -28 ct 
1690 -28 1706 -31 1717 -38 ct 1727 -45 1732 -55 1732 -69 ct 1732 -79 1728 -87 1721 -94 ct 
1714 -100 1703 -105 1687 -110 ct 1656 -118 l  1631 -124 1613 -131 1603 -137 ct 
1592 -143 1584 -150 1578 -159 ct 1572 -168 1569 -179 1569 -192 ct 1569 -216 1578 -234 1595 -246 ct 
1612 -259 1636 -265 1669 -265 ct 1698 -265 1720 -260 1737 -250 ct 1754 -240 1765 -223 1770 -201 ct 
1730 -196 l  1728 -208 1722 -217 1711 -223 ct 1701 -229 1686 -232 1669 -232 ct 
1649 -232 1635 -229 1625 -223 ct 1616 -217 1611 -208 1611 -196 ct 1611 -189 1613 -183 1617 -178 ct 
1621 -173 1627 -169 1634 -166 ct 1642 -162 1658 -158 1682 -152 ct 1705 -146 1722 -140 1732 -136 ct 
1742 -131 1750 -125 1756 -119 ct 1762 -113 1766 -106 1769 -99 ct 1773 -91 1774 -82 1774 -72 ct 
p ef
pom
3479 12248 m  3593 11833 3815 11461 4012 11082 ct 4131 10853 4200 10592 4361 10395 ct 
4531 10186 4854 10202 5058 10312 ct 5288 10437 5402 10759 5386 11040 ct 5372 11278 5412 11509 5406 11748 ct 
5401 11976 5450 12246 5673 12373 ct 5895 12499 6213 12438 6349 12186 ct 6482 11942 6725 11773 6822 11498 ct 
6910 11247 6933 10985 6924 10727 ct 6916 10464 6906 10024 7314 10062 ct 7549 10084 7854 9945 8011 10208 ct 
8139 10422 8205 10674 8216 10936 ct 8225 11159 8255 11381 8236 11602 ct 8216 11845 8304 12059 8339 12290 ct 
8383 12588 8709 12735 8852 12977 ct 9000 13228 9262 13330 9508 13311 ct 9765 13291 9977 13049 10041 12790 ct 
10102 12541 10036 12285 10082 12040 ct 10132 11778 9984 11600 9938 11352 ct 
9891 11095 9794 10855 9775 10602 ct 9752 10291 9738 9975 9775 9666 ct 9803 9437 9604 9085 10000 9020 ct 
10261 8977 10526 9126 10616 9374 ct 10698 9603 10765 9857 10697 10083 ct 10573 10496 10976 10325 11129 10333 ct 
11440 10350 11319 9902 11477 9749 ct 11633 9599 11912 9631 12092 9937 ct 12250 10206 12268 10431 12358 10686 ct 
12431 10892 12455 11219 12747 11248 ct 12965 11270 13231 11450 13403 11311 ct 
13622 11134 13853 11031 13937 10748 ct 13937 10498 l  13958 10270 l  13998 10270 l 
ps
5399 11599 m  5455 11599 5499 11642 5499 11698 ct 5499 11754 5455 11798 5399 11798 ct 
5343 11798 5300 11754 5300 11698 ct 5300 11642 5343 11599 5399 11599 ct p
5300 11599 m  5300 11599 l  p
5501 11800 m  5501 11800 l  p ef
5398 11598 m  5454 11598 5498 11641 5498 11697 ct 5498 11753 5454 11797 5398 11797 ct 
5342 11797 5299 11753 5299 11697 ct 5299 11641 5342 11598 5398 11598 ct pc
5299 11598 m  5299 11598 l  pc
5500 11799 m  5500 11799 l  pc
4497 12898 m  4248 12898 3999 13047 3999 13197 ct 3999 13421 l  3999 13645 l 
3999 13951 l  3999 14175 l  3999 14399 l  3999 14548 4248 14698 4497 14698 ct 
4871 14698 l  5245 14698 l  5753 14698 l  6127 14698 l  6501 14698 l  6750 14698 7000 14548 7000 14399 ct 
7000 14175 l  7000 13951 l  7000 13645 l  7000 13421 l  7000 13197 l  7000 13047 6750 12898 6501 12898 ct 
6127 12898 l  5753 12898 l  5245 12898 l  5166 11959 l  4497 12898 l  pc
3999 12898 m  3999 12898 l  pc
7000 14699 m  7000 14699 l  pc
pum
4732 13316 t
263 -81 m  263 -54 252 -33 231 -18 ct 210 -3 181 4 143 4 ct 72 4 31 -21 19 -70 ct 
57 -78 l  62 -60 71 -47 86 -39 ct 100 -31 119 -27 144 -27 ct 169 -27 189 -31 203 -40 ct 
217 -49 224 -62 224 -79 ct 224 -88 222 -96 217 -102 ct 213 -108 207 -113 199 -116 ct 
191 -120 182 -124 171 -126 ct 160 -129 148 -132 135 -135 ct 112 -140 94 -145 82 -150 ct 
70 -155 61 -161 54 -167 ct 47 -173 42 -181 38 -189 ct 35 -197 33 -207 33 -218 ct 
33 -243 42 -262 61 -276 ct 81 -289 108 -296 143 -296 ct 176 -296 202 -291 219 -281 ct 
237 -271 249 -253 256 -229 ct 217 -222 l  213 -238 205 -249 193 -256 ct 181 -263 164 -266 143 -266 ct 
120 -266 102 -262 90 -255 ct 77 -247 71 -235 71 -220 ct 71 -211 74 -204 78 -198 ct 
83 -192 90 -187 99 -183 ct 108 -179 126 -174 152 -168 ct 161 -166 170 -164 179 -162 ct 
188 -159 197 -157 205 -154 ct 213 -151 220 -148 228 -144 ct 235 -140 241 -135 246 -129 ct 
251 -123 255 -116 258 -108 ct 261 -100 263 -91 263 -81 ct p ef
501 -112 m  501 -73 493 -44 476 -25 ct 458 -6 433 4 401 4 ct 368 4 343 -6 327 -26 ct 
310 -46 302 -75 302 -112 ct 302 -189 335 -228 402 -228 ct 436 -228 461 -219 477 -200 ct 
493 -181 501 -152 501 -112 ct p
462 -112 m  462 -143 458 -166 449 -180 ct 440 -193 424 -200 403 -200 ct 381 -200 365 -193 355 -179 ct 
346 -165 341 -143 341 -112 ct 341 -83 346 -61 355 -46 ct 365 -31 380 -24 400 -24 ct 
423 -24 439 -31 448 -45 ct 458 -59 462 -82 462 -112 ct p ef
550 0 m  550 -307 l  587 -307 l  587 0 l  550 0 l  p ef
679 -224 m  679 -82 l  679 -67 680 -56 683 -48 ct 686 -40 691 -34 697 -30 ct 
703 -27 713 -25 725 -25 ct 743 -25 757 -31 767 -43 ct 778 -55 783 -72 783 -94 ct 
783 -224 l  820 -224 l  820 -48 l  820 -22 820 -6 821 0 ct 786 0 l  786 -1 786 -3 786 -6 ct 
786 -9 785 -12 785 -16 ct 785 -20 785 -28 784 -38 ct 784 -38 l  775 -23 765 -12 754 -6 ct 
743 1 729 4 712 4 ct 688 4 670 -2 659 -14 ct 647 -27 641 -47 641 -75 ct 641 -224 l 
679 -224 l  p ef
908 -113 m  908 -83 912 -61 922 -47 ct 931 -32 945 -25 964 -25 ct 977 -25 988 -29 997 -36 ct 
1006 -43 1012 -54 1014 -69 ct 1051 -66 l  1048 -45 1039 -28 1024 -15 ct 1008 -2 989 4 965 4 ct 
934 4 910 -6 894 -25 ct 877 -45 869 -74 869 -112 ct 869 -150 877 -178 894 -198 ct 
910 -218 934 -228 965 -228 ct 988 -228 1007 -222 1022 -210 ct 1037 -198 1046 -182 1050 -161 ct 
1012 -158 l  1010 -171 1005 -181 997 -188 ct 989 -195 978 -199 964 -199 ct 944 -199 930 -192 921 -179 ct 
912 -166 908 -144 908 -113 ct p
1006 52 m  1006 77 987 90 950 90 ct 942 90 935 90 931 89 ct 931 69 l  938 70 944 70 949 70 ct 
969 70 979 65 979 53 ct 979 43 970 37 952 37 ct 946 37 942 38 940 38 ct 953 0 l 
975 0 l  967 21 l  980 21 990 24 996 30 ct 1003 35 1006 43 1006 52 ct p ef
1149 4 m  1126 4 1109 -2 1098 -14 ct 1087 -26 1081 -42 1081 -63 ct 1081 -86 1089 -104 1104 -116 ct 
1119 -128 1144 -135 1177 -136 ct 1228 -137 l  1228 -149 l  1228 -167 1224 -180 1216 -188 ct 
1208 -196 1196 -200 1180 -200 ct 1163 -200 1151 -197 1143 -191 ct 1136 -186 1131 -177 1130 -164 ct 
1091 -168 l  1097 -208 1127 -228 1181 -228 ct 1209 -228 1230 -222 1244 -209 ct 
1258 -196 1265 -177 1265 -153 ct 1265 -56 l  1265 -45 1267 -37 1270 -31 ct 1272 -26 1278 -23 1286 -23 ct 
1290 -23 1294 -24 1298 -25 ct 1298 -1 l  1289 1 1279 2 1270 2 ct 1256 2 1246 -2 1239 -9 ct 
1233 -16 1230 -27 1229 -43 ct 1228 -43 l  1218 -26 1207 -14 1194 -7 ct 1182 0 1167 4 1149 4 ct 
p
1157 -24 m  1171 -24 1183 -27 1193 -33 ct 1204 -39 1212 -48 1218 -59 ct 1225 -70 1228 -81 1228 -92 ct 
1228 -111 l  1187 -110 l  1169 -109 1156 -108 1147 -104 ct 1138 -101 1131 -96 1126 -89 ct 
1122 -82 1119 -73 1119 -62 ct 1119 -50 1122 -40 1129 -34 ct 1136 -27 1145 -24 1157 -24 ct 
p
1215 -249 m  1209 -249 1204 -250 1198 -253 ct 1192 -255 1187 -258 1181 -261 ct 
1176 -264 1171 -267 1166 -269 ct 1161 -272 1156 -273 1152 -273 ct 1144 -273 1139 -271 1135 -267 ct 
1131 -263 1129 -257 1128 -249 ct 1109 -249 l  1110 -263 1113 -274 1116 -281 ct 
1119 -288 1124 -294 1129 -298 ct 1135 -302 1142 -304 1151 -304 ct 1157 -304 1163 -303 1169 -300 ct 
1174 -298 1180 -295 1185 -292 ct 1191 -289 1196 -286 1200 -284 ct 1205 -281 1210 -280 1214 -280 ct 
1228 -280 1236 -288 1238 -304 ct 1257 -304 l  1255 -284 1250 -270 1243 -261 ct 
1236 -253 1227 -249 1215 -249 ct p ef
1517 -112 m  1517 -73 1509 -44 1492 -25 ct 1474 -6 1449 4 1417 4 ct 1384 4 1359 -6 1343 -26 ct 
1326 -46 1318 -75 1318 -112 ct 1318 -189 1351 -228 1418 -228 ct 1452 -228 1477 -219 1493 -200 ct 
1509 -181 1517 -152 1517 -112 ct p
1478 -112 m  1478 -143 1474 -166 1465 -180 ct 1456 -193 1440 -200 1419 -200 ct 
1397 -200 1381 -193 1371 -179 ct 1362 -165 1357 -143 1357 -112 ct 1357 -83 1362 -61 1371 -46 ct 
1381 -31 1396 -24 1416 -24 ct 1439 -24 1455 -31 1464 -45 ct 1474 -59 1478 -82 1478 -112 ct 
p ef
pom
pum
4958 13710 t
39 0 m  39 -292 l  78 -292 l  78 0 l  39 0 l  p ef
289 0 m  289 -142 l  289 -157 288 -168 285 -176 ct 282 -184 278 -190 271 -194 ct 
265 -197 256 -199 243 -199 ct 225 -199 211 -193 201 -181 ct 191 -169 186 -152 186 -130 ct 
186 0 l  148 0 l  148 -176 l  148 -202 148 -218 147 -224 ct 182 -224 l  182 -223 182 -221 183 -218 ct 
183 -215 183 -212 183 -208 ct 183 -204 184 -196 184 -186 ct 184 -186 l  193 -201 203 -212 214 -218 ct 
225 -225 239 -228 256 -228 ct 280 -228 298 -222 310 -210 ct 321 -197 327 -177 327 -149 ct 
327 0 l  289 0 l  p ef
384 -271 m  384 -307 l  421 -307 l  421 -271 l  384 -271 l  p
384 0 m  384 -224 l  421 -224 l  421 0 l  384 0 l  p ef
506 -113 m  506 -83 510 -61 520 -47 ct 529 -33 543 -25 562 -25 ct 575 -25 586 -29 595 -36 ct 
604 -43 610 -54 612 -69 ct 649 -67 l  646 -45 637 -28 622 -15 ct 606 -2 587 4 563 4 ct 
532 4 508 -6 492 -26 ct 475 -45 467 -74 467 -112 ct 467 -150 475 -179 492 -198 ct 
508 -218 532 -228 563 -228 ct 586 -228 605 -222 620 -210 ct 635 -199 644 -182 648 -161 ct 
610 -158 l  608 -171 603 -181 595 -188 ct 587 -195 576 -199 562 -199 ct 542 -199 528 -192 519 -179 ct 
510 -166 506 -144 506 -113 ct p ef
688 -271 m  688 -307 l  725 -307 l  725 -271 l  688 -271 l  p
688 0 m  688 -224 l  725 -224 l  725 0 l  688 0 l  p ef
840 4 m  817 4 800 -2 789 -14 ct 778 -26 772 -42 772 -63 ct 772 -86 780 -104 795 -116 ct 
810 -128 835 -135 868 -136 ct 919 -137 l  919 -149 l  919 -167 915 -180 907 -188 ct 
899 -196 887 -200 871 -200 ct 854 -200 842 -197 834 -191 ct 827 -186 822 -177 821 -164 ct 
782 -168 l  788 -208 818 -228 872 -228 ct 900 -228 921 -222 935 -209 ct 949 -196 956 -177 956 -153 ct 
956 -56 l  956 -45 958 -37 961 -31 ct 963 -26 969 -23 977 -23 ct 981 -23 985 -24 989 -25 ct 
989 -1 l  980 1 970 2 961 2 ct 947 2 937 -2 930 -9 ct 924 -16 921 -27 920 -43 ct 
919 -43 l  909 -26 898 -14 885 -7 ct 873 0 858 4 840 4 ct p
848 -24 m  862 -24 874 -27 884 -33 ct 895 -39 903 -48 909 -59 ct 916 -70 919 -81 919 -92 ct 
919 -111 l  878 -110 l  860 -109 847 -108 838 -104 ct 829 -101 822 -96 817 -89 ct 
813 -82 810 -73 810 -62 ct 810 -50 813 -40 820 -34 ct 827 -27 836 -24 848 -24 ct 
p ef
1020 0 m  1020 -307 l  1057 -307 l  1057 0 l  1020 0 l  p ef
pom
pum
4368 14104 t
232 0 m  232 -135 l  74 -135 l  74 0 l  35 0 l  35 -292 l  74 -292 l  74 -168 l 
232 -168 l  232 -292 l  271 -292 l  271 0 l  232 0 l  p ef
362 -104 m  362 -78 367 -59 378 -45 ct 389 -31 404 -24 424 -24 ct 440 -24 453 -27 463 -34 ct 
473 -40 479 -48 483 -58 ct 515 -49 l  502 -14 472 4 424 4 ct 391 4 366 -6 349 -26 ct 
332 -45 323 -75 323 -113 ct 323 -150 332 -179 349 -198 ct 366 -218 391 -228 423 -228 ct 
489 -228 521 -188 521 -109 ct 521 -104 l  362 -104 l  p
483 -133 m  481 -156 475 -173 465 -184 ct 455 -195 441 -200 422 -200 ct 404 -200 390 -194 379 -182 ct 
369 -170 363 -154 362 -133 ct 483 -133 l  p ef
607 -224 m  607 -82 l  607 -67 608 -56 611 -48 ct 614 -40 619 -34 625 -30 ct 
631 -27 641 -25 653 -25 ct 671 -25 685 -31 695 -43 ct 706 -55 711 -72 711 -94 ct 
711 -224 l  748 -224 l  748 -48 l  748 -22 748 -6 749 0 ct 714 0 l  714 -1 714 -3 714 -6 ct 
714 -9 713 -12 713 -16 ct 713 -20 713 -28 712 -38 ct 712 -38 l  703 -23 693 -12 682 -6 ct 
671 1 657 4 640 4 ct 616 4 598 -2 587 -14 ct 575 -27 569 -47 569 -75 ct 569 -224 l 
607 -224 l  p ef
808 0 m  808 -172 l  808 -187 808 -205 807 -224 ct 842 -224 l  843 -198 844 -183 844 -178 ct 
845 -178 l  851 -197 857 -210 865 -217 ct 873 -224 884 -228 898 -228 ct 903 -228 908 -227 913 -226 ct 
913 -192 l  908 -193 901 -194 893 -194 ct 878 -194 866 -187 858 -174 ct 850 -161 846 -142 846 -117 ct 
846 0 l  808 0 l  p ef
959 0 m  959 -224 l  996 -224 l  996 0 l  959 0 l  p
947 -249 m  947 -253 l  992 -312 l  1034 -312 l  1034 -306 l  966 -249 l 
947 -249 l  p ef
1233 -62 m  1233 -41 1225 -25 1209 -13 ct 1193 -2 1171 4 1143 4 ct 1115 4 1093 -1 1078 -10 ct 
1063 -19 1053 -33 1049 -53 ct 1082 -59 l  1085 -47 1091 -38 1101 -33 ct 1111 -27 1125 -24 1143 -24 ct 
1161 -24 1175 -27 1184 -33 ct 1193 -39 1197 -47 1197 -59 ct 1197 -68 1194 -75 1188 -81 ct 
1182 -86 1172 -91 1159 -94 ct 1132 -101 l  1111 -107 1095 -112 1086 -117 ct 
1077 -123 1070 -129 1065 -137 ct 1060 -144 1058 -154 1058 -165 ct 1058 -185 1065 -200 1079 -211 ct 
1094 -222 1115 -227 1143 -227 ct 1168 -227 1187 -223 1202 -214 ct 1216 -205 1225 -192 1229 -172 ct 
1196 -168 l  1194 -178 1188 -186 1179 -191 ct 1170 -196 1158 -199 1143 -199 ct 
1126 -199 1114 -196 1106 -191 ct 1098 -186 1094 -179 1094 -168 ct 1094 -162 1095 -157 1099 -153 ct 
1102 -148 1107 -145 1113 -142 ct 1120 -139 1134 -135 1154 -130 ct 1174 -125 1188 -120 1197 -116 ct 
1206 -112 1212 -107 1217 -102 ct 1222 -97 1226 -91 1229 -85 ct 1232 -78 1233 -70 1233 -62 ct 
p ef
1363 -2 m  1351 1 1339 3 1326 3 ct 1296 3 1281 -14 1281 -48 ct 1281 -197 l  1255 -197 l 
1255 -224 l  1283 -224 l  1294 -275 l  1318 -275 l  1318 -224 l  1360 -224 l 
1360 -197 l  1318 -197 l  1318 -56 l  1318 -45 1320 -37 1324 -33 ct 1327 -29 1333 -27 1342 -27 ct 
1347 -27 1354 -28 1363 -29 ct 1363 -2 l  p ef
1395 -271 m  1395 -307 l  1432 -307 l  1432 -271 l  1395 -271 l  p
1395 0 m  1395 -224 l  1432 -224 l  1432 0 l  1395 0 l  p ef
1518 -113 m  1518 -83 1522 -61 1532 -47 ct 1541 -33 1555 -25 1574 -25 ct 1587 -25 1598 -29 1607 -36 ct 
1616 -43 1622 -54 1624 -69 ct 1661 -67 l  1658 -45 1649 -28 1634 -15 ct 1618 -2 1599 4 1575 4 ct 
1544 4 1520 -6 1504 -26 ct 1487 -45 1479 -74 1479 -112 ct 1479 -150 1487 -179 1504 -198 ct 
1520 -218 1544 -228 1575 -228 ct 1598 -228 1617 -222 1632 -210 ct 1647 -199 1656 -182 1660 -161 ct 
1622 -158 l  1620 -171 1615 -181 1607 -188 ct 1599 -195 1588 -199 1574 -199 ct 
1554 -199 1540 -192 1531 -179 ct 1522 -166 1518 -144 1518 -113 ct p ef
1758 4 m  1735 4 1718 -2 1707 -14 ct 1696 -26 1690 -42 1690 -63 ct 1690 -86 1698 -104 1713 -116 ct 
1728 -128 1753 -135 1786 -136 ct 1837 -137 l  1837 -149 l  1837 -167 1833 -180 1825 -188 ct 
1817 -196 1805 -200 1789 -200 ct 1772 -200 1760 -197 1752 -191 ct 1745 -186 1740 -177 1739 -164 ct 
1700 -168 l  1706 -208 1736 -228 1790 -228 ct 1818 -228 1839 -222 1853 -209 ct 
1867 -196 1874 -177 1874 -153 ct 1874 -56 l  1874 -45 1876 -37 1879 -31 ct 1881 -26 1887 -23 1895 -23 ct 
1899 -23 1903 -24 1907 -25 ct 1907 -1 l  1898 1 1888 2 1879 2 ct 1865 2 1855 -2 1848 -9 ct 
1842 -16 1839 -27 1838 -43 ct 1837 -43 l  1827 -26 1816 -14 1803 -7 ct 1791 0 1776 4 1758 4 ct 
p
1766 -24 m  1780 -24 1792 -27 1802 -33 ct 1813 -39 1821 -48 1827 -59 ct 1834 -70 1837 -81 1837 -92 ct 
1837 -111 l  1796 -110 l  1778 -109 1765 -108 1756 -104 ct 1747 -101 1740 -96 1735 -89 ct 
1731 -82 1728 -73 1728 -62 ct 1728 -50 1731 -40 1738 -34 ct 1745 -27 1754 -24 1766 -24 ct 
p ef
2085 -104 m  2085 -78 2090 -59 2101 -45 ct 2112 -31 2127 -24 2147 -24 ct 2163 -24 2176 -27 2186 -34 ct 
2196 -40 2202 -48 2206 -58 ct 2238 -49 l  2225 -14 2195 4 2147 4 ct 2114 4 2089 -6 2072 -26 ct 
2055 -45 2046 -75 2046 -113 ct 2046 -150 2055 -179 2072 -198 ct 2089 -218 2114 -228 2146 -228 ct 
2212 -228 2244 -188 2244 -109 ct 2244 -104 l  2085 -104 l  p
2206 -133 m  2204 -156 2198 -173 2188 -184 ct 2178 -195 2164 -200 2145 -200 ct 
2127 -200 2113 -194 2102 -182 ct 2092 -170 2086 -154 2085 -133 ct 2206 -133 l 
p ef
pom
pum
4107 14498 t
282 0 m  282 -194 l  282 -216 283 -237 284 -257 ct 277 -232 271 -213 266 -199 ct 
191 0 l  163 0 l  87 -199 l  75 -234 l  68 -257 l  69 -234 l  70 -194 l 
70 0 l  35 0 l  35 -292 l  87 -292 l  164 -89 l  167 -81 169 -73 172 -63 ct 
174 -54 176 -47 177 -43 ct 178 -49 180 -57 184 -68 ct 187 -79 190 -86 191 -89 ct 
267 -292 l  318 -292 l  318 0 l  282 0 l  p ef
408 -104 m  408 -78 413 -59 424 -45 ct 435 -31 450 -24 470 -24 ct 486 -24 499 -27 509 -34 ct 
519 -40 525 -48 529 -58 ct 561 -49 l  548 -14 518 4 470 4 ct 437 4 412 -6 395 -26 ct 
378 -45 369 -75 369 -113 ct 369 -150 378 -179 395 -198 ct 412 -218 437 -228 469 -228 ct 
535 -228 567 -188 567 -109 ct 567 -104 l  408 -104 l  p
529 -133 m  527 -156 521 -173 511 -184 ct 501 -195 487 -200 468 -200 ct 450 -200 436 -194 425 -182 ct 
415 -170 409 -154 408 -133 ct 529 -133 l  p ef
702 -2 m  690 1 678 3 665 3 ct 635 3 620 -14 620 -48 ct 620 -197 l  594 -197 l 
594 -224 l  622 -224 l  633 -275 l  657 -275 l  657 -224 l  699 -224 l 
699 -197 l  657 -197 l  657 -56 l  657 -45 659 -37 663 -33 ct 666 -29 672 -27 681 -27 ct 
686 -27 693 -28 702 -29 ct 702 -2 l  p ef
793 4 m  770 4 753 -2 742 -14 ct 731 -26 725 -42 725 -63 ct 725 -86 733 -104 748 -116 ct 
763 -128 788 -135 821 -136 ct 872 -137 l  872 -149 l  872 -167 868 -180 860 -188 ct 
852 -196 840 -200 824 -200 ct 807 -200 795 -197 787 -191 ct 780 -186 775 -177 774 -164 ct 
735 -168 l  741 -208 771 -228 825 -228 ct 853 -228 874 -222 888 -209 ct 902 -196 909 -177 909 -153 ct 
909 -56 l  909 -45 911 -37 914 -31 ct 916 -26 922 -23 930 -23 ct 934 -23 938 -24 942 -25 ct 
942 -1 l  933 1 923 2 914 2 ct 900 2 890 -2 883 -9 ct 877 -16 874 -27 873 -43 ct 
872 -43 l  862 -26 851 -14 838 -7 ct 826 0 811 4 793 4 ct p
801 -24 m  815 -24 827 -27 837 -33 ct 848 -39 856 -48 862 -59 ct 869 -70 872 -81 872 -92 ct 
872 -111 l  831 -110 l  813 -109 800 -108 791 -104 ct 782 -101 775 -96 770 -89 ct 
766 -82 763 -73 763 -62 ct 763 -50 766 -40 773 -34 ct 780 -27 789 -24 801 -24 ct 
p ef
1009 -186 m  1017 -200 1027 -211 1038 -218 ct 1050 -225 1064 -228 1081 -228 ct 
1105 -228 1123 -222 1135 -210 ct 1146 -198 1152 -178 1152 -149 ct 1152 0 l  1114 0 l 
1114 -142 l  1114 -158 1113 -169 1110 -177 ct 1107 -185 1102 -190 1096 -194 ct 
1089 -197 1080 -199 1068 -199 ct 1051 -199 1037 -193 1026 -181 ct 1016 -169 1011 -153 1011 -132 ct 
1011 0 l  973 0 l  973 -307 l  1011 -307 l  1011 -227 l  1011 -219 1010 -210 1010 -201 ct 
1009 -192 1009 -187 1009 -186 ct 1009 -186 l  p ef
1238 -104 m  1238 -78 1243 -59 1254 -45 ct 1265 -31 1280 -24 1300 -24 ct 1316 -24 1329 -27 1339 -34 ct 
1349 -40 1355 -48 1359 -58 ct 1391 -49 l  1378 -14 1348 4 1300 4 ct 1267 4 1242 -6 1225 -26 ct 
1208 -45 1199 -75 1199 -113 ct 1199 -150 1208 -179 1225 -198 ct 1242 -218 1267 -228 1299 -228 ct 
1365 -228 1397 -188 1397 -109 ct 1397 -104 l  1238 -104 l  p
1359 -133 m  1357 -156 1351 -173 1341 -184 ct 1331 -195 1317 -200 1298 -200 ct 
1280 -200 1266 -194 1255 -182 ct 1245 -170 1239 -154 1238 -133 ct 1359 -133 l 
p ef
1483 -224 m  1483 -82 l  1483 -67 1484 -56 1487 -48 ct 1490 -40 1495 -34 1501 -30 ct 
1507 -27 1517 -25 1529 -25 ct 1547 -25 1561 -31 1571 -43 ct 1582 -55 1587 -72 1587 -94 ct 
1587 -224 l  1624 -224 l  1624 -48 l  1624 -22 1624 -6 1625 0 ct 1590 0 l 
1590 -1 1590 -3 1590 -6 ct 1590 -9 1589 -12 1589 -16 ct 1589 -20 1589 -28 1588 -38 ct 
1588 -38 l  1579 -23 1569 -12 1558 -6 ct 1547 1 1533 4 1516 4 ct 1492 4 1474 -2 1463 -14 ct 
1451 -27 1445 -47 1445 -75 ct 1445 -224 l  1483 -224 l  p ef
1684 0 m  1684 -172 l  1684 -187 1684 -205 1683 -224 ct 1718 -224 l  1719 -198 1720 -183 1720 -178 ct 
1721 -178 l  1727 -197 1733 -210 1741 -217 ct 1749 -224 1760 -228 1774 -228 ct 
1779 -228 1784 -227 1789 -226 ct 1789 -192 l  1784 -193 1777 -194 1769 -194 ct 
1754 -194 1742 -187 1734 -174 ct 1726 -161 1722 -142 1722 -117 ct 1722 0 l  1684 0 l 
p ef
1835 0 m  1835 -224 l  1872 -224 l  1872 0 l  1835 0 l  p
1823 -249 m  1823 -253 l  1868 -312 l  1910 -312 l  1910 -306 l  1842 -249 l 
1823 -249 l  p ef
2109 -62 m  2109 -41 2101 -25 2085 -13 ct 2069 -2 2047 4 2019 4 ct 1991 4 1969 -1 1954 -10 ct 
1939 -19 1929 -33 1925 -53 ct 1958 -59 l  1961 -47 1967 -38 1977 -33 ct 1987 -27 2001 -24 2019 -24 ct 
2037 -24 2051 -27 2060 -33 ct 2069 -39 2073 -47 2073 -59 ct 2073 -68 2070 -75 2064 -81 ct 
2058 -86 2048 -91 2035 -94 ct 2008 -101 l  1987 -107 1971 -112 1962 -117 ct 
1953 -123 1946 -129 1941 -137 ct 1936 -144 1934 -154 1934 -165 ct 1934 -185 1941 -200 1955 -211 ct 
1970 -222 1991 -227 2019 -227 ct 2044 -227 2063 -223 2078 -214 ct 2092 -205 2101 -192 2105 -172 ct 
2072 -168 l  2070 -178 2064 -186 2055 -191 ct 2046 -196 2034 -199 2019 -199 ct 
2002 -199 1990 -196 1982 -191 ct 1974 -186 1970 -179 1970 -168 ct 1970 -162 1971 -157 1975 -153 ct 
1978 -148 1983 -145 1989 -142 ct 1996 -139 2010 -135 2030 -130 ct 2050 -125 2064 -120 2073 -116 ct 
2082 -112 2088 -107 2093 -102 ct 2098 -97 2102 -91 2105 -85 ct 2108 -78 2109 -70 2109 -62 ct 
p ef
2239 -2 m  2227 1 2215 3 2202 3 ct 2172 3 2157 -14 2157 -48 ct 2157 -197 l  2131 -197 l 
2131 -224 l  2159 -224 l  2170 -275 l  2194 -275 l  2194 -224 l  2236 -224 l 
2236 -197 l  2194 -197 l  2194 -56 l  2194 -45 2196 -37 2200 -33 ct 2203 -29 2209 -27 2218 -27 ct 
2223 -27 2230 -28 2239 -29 ct 2239 -2 l  p ef
2272 -271 m  2272 -307 l  2309 -307 l  2309 -271 l  2272 -271 l  p
2272 0 m  2272 -224 l  2309 -224 l  2309 0 l  2272 0 l  p ef
2394 -113 m  2394 -83 2398 -61 2408 -47 ct 2417 -33 2431 -25 2450 -25 ct 2463 -25 2474 -29 2483 -36 ct 
2492 -43 2498 -54 2500 -69 ct 2537 -67 l  2534 -45 2525 -28 2510 -15 ct 2494 -2 2475 4 2451 4 ct 
2420 4 2396 -6 2380 -26 ct 2363 -45 2355 -74 2355 -112 ct 2355 -150 2363 -179 2380 -198 ct 
2396 -218 2420 -228 2451 -228 ct 2474 -228 2493 -222 2508 -210 ct 2523 -199 2532 -182 2536 -161 ct 
2498 -158 l  2496 -171 2491 -181 2483 -188 ct 2475 -195 2464 -199 2450 -199 ct 
2430 -199 2416 -192 2407 -179 ct 2398 -166 2394 -144 2394 -113 ct p ef
2634 4 m  2611 4 2594 -2 2583 -14 ct 2572 -26 2566 -42 2566 -63 ct 2566 -86 2574 -104 2589 -116 ct 
2604 -128 2629 -135 2662 -136 ct 2713 -137 l  2713 -149 l  2713 -167 2709 -180 2701 -188 ct 
2693 -196 2681 -200 2665 -200 ct 2648 -200 2636 -197 2628 -191 ct 2621 -186 2616 -177 2615 -164 ct 
2576 -168 l  2582 -208 2612 -228 2666 -228 ct 2694 -228 2715 -222 2729 -209 ct 
2743 -196 2750 -177 2750 -153 ct 2750 -56 l  2750 -45 2752 -37 2755 -31 ct 2757 -26 2763 -23 2771 -23 ct 
2775 -23 2779 -24 2783 -25 ct 2783 -1 l  2774 1 2764 2 2755 2 ct 2741 2 2731 -2 2724 -9 ct 
2718 -16 2715 -27 2714 -43 ct 2713 -43 l  2703 -26 2692 -14 2679 -7 ct 2667 0 2652 4 2634 4 ct 
p
2642 -24 m  2656 -24 2668 -27 2678 -33 ct 2689 -39 2697 -48 2703 -59 ct 2710 -70 2713 -81 2713 -92 ct 
2713 -111 l  2672 -110 l  2654 -109 2641 -108 2632 -104 ct 2623 -101 2616 -96 2611 -89 ct 
2607 -82 2604 -73 2604 -62 ct 2604 -50 2607 -40 2614 -34 ct 2621 -27 2630 -24 2642 -24 ct 
p ef
pom
1 lw 5600 11399 m  5761 11641 l  ps
6000 11999 m  5875 11541 l  5626 11708 l  6000 11999 l  p ef
0 lw 4898 8099 m  4698 8099 4499 8198 4499 8298 ct 4499 8448 l  4499 8597 l 
4499 8801 l  4499 8950 l  4499 9100 l  4499 9200 4698 9300 4898 9300 ct 5197 9300 l 
5496 9300 l  5902 9300 l  5875 11227 l  6500 9300 l  6700 9300 6900 9200 6900 9100 ct 
6900 8950 l  6900 8801 l  6900 8597 l  6900 8448 l  6900 8298 l  6900 8198 6700 8099 6500 8099 ct 
6201 8099 l  5902 8099 l  5496 8099 l  5197 8099 l  4898 8099 l  pc
4499 8099 m  4499 8099 l  pc
6900 9300 m  6900 9300 l  pc
pum
4673 8610 t
285 -149 m  285 -119 279 -92 268 -70 ct 256 -47 239 -30 218 -18 ct 196 -6 172 0 144 0 ct 
35 0 l  35 -292 l  131 -292 l  180 -292 218 -279 245 -255 ct 272 -230 285 -195 285 -149 ct 
p
246 -149 m  246 -185 236 -213 216 -232 ct 196 -251 168 -260 130 -260 ct 74 -260 l 
74 -32 l  139 -32 l  160 -32 179 -36 195 -46 ct 211 -55 224 -69 233 -86 ct 241 -104 246 -125 246 -149 ct 
p ef
333 -271 m  333 -307 l  370 -307 l  370 -271 l  333 -271 l  p
333 0 m  333 -224 l  370 -224 l  370 0 l  333 0 l  p ef
427 0 m  427 -172 l  427 -187 427 -205 426 -224 ct 461 -224 l  462 -198 463 -183 463 -178 ct 
464 -178 l  470 -197 476 -210 484 -217 ct 492 -224 503 -228 517 -228 ct 522 -228 527 -227 532 -226 ct 
532 -192 l  527 -193 520 -194 512 -194 ct 497 -194 485 -187 477 -174 ct 469 -161 465 -142 465 -117 ct 
465 0 l  427 0 l  p ef
595 -104 m  595 -78 600 -59 611 -45 ct 622 -31 637 -24 657 -24 ct 673 -24 686 -27 696 -34 ct 
706 -40 712 -48 716 -58 ct 748 -49 l  735 -14 705 4 657 4 ct 624 4 599 -6 582 -26 ct 
565 -45 556 -75 556 -113 ct 556 -150 565 -179 582 -198 ct 599 -218 624 -228 656 -228 ct 
722 -228 754 -188 754 -109 ct 754 -104 l  595 -104 l  p
716 -133 m  714 -156 708 -173 698 -184 ct 688 -195 674 -200 655 -200 ct 637 -200 623 -194 612 -182 ct 
602 -170 596 -154 595 -133 ct 716 -133 l  p ef
832 -113 m  832 -83 836 -61 846 -47 ct 855 -32 869 -25 888 -25 ct 901 -25 912 -29 921 -36 ct 
930 -43 936 -54 938 -69 ct 975 -66 l  972 -45 963 -28 948 -15 ct 932 -2 913 4 889 4 ct 
858 4 834 -6 818 -25 ct 801 -45 793 -74 793 -112 ct 793 -150 801 -178 818 -198 ct 
834 -218 858 -228 889 -228 ct 912 -228 931 -222 946 -210 ct 961 -198 970 -182 974 -161 ct 
936 -158 l  934 -171 929 -181 921 -188 ct 913 -195 902 -199 888 -199 ct 868 -199 854 -192 845 -179 ct 
836 -166 832 -144 832 -113 ct p
930 52 m  930 77 911 90 874 90 ct 866 90 859 90 855 89 ct 855 69 l  862 70 868 70 873 70 ct 
893 70 903 65 903 53 ct 903 43 894 37 876 37 ct 870 37 866 38 864 38 ct 877 0 l 
899 0 l  891 21 l  904 21 914 24 920 30 ct 927 35 930 43 930 52 ct p ef
1072 4 m  1049 4 1032 -2 1021 -14 ct 1010 -26 1004 -42 1004 -63 ct 1004 -86 1012 -104 1027 -116 ct 
1042 -128 1067 -135 1100 -136 ct 1151 -137 l  1151 -149 l  1151 -167 1147 -180 1139 -188 ct 
1131 -196 1119 -200 1103 -200 ct 1086 -200 1074 -197 1066 -191 ct 1059 -186 1054 -177 1053 -164 ct 
1014 -168 l  1020 -208 1050 -228 1104 -228 ct 1132 -228 1153 -222 1167 -209 ct 
1181 -196 1188 -177 1188 -153 ct 1188 -56 l  1188 -45 1190 -37 1193 -31 ct 1195 -26 1201 -23 1209 -23 ct 
1213 -23 1217 -24 1221 -25 ct 1221 -1 l  1212 1 1202 2 1193 2 ct 1179 2 1169 -2 1162 -9 ct 
1156 -16 1153 -27 1152 -43 ct 1151 -43 l  1141 -26 1130 -14 1117 -7 ct 1105 0 1090 4 1072 4 ct 
p
1080 -24 m  1094 -24 1106 -27 1116 -33 ct 1127 -39 1135 -48 1141 -59 ct 1148 -70 1151 -81 1151 -92 ct 
1151 -111 l  1110 -110 l  1092 -109 1079 -108 1070 -104 ct 1061 -101 1054 -96 1049 -89 ct 
1045 -82 1042 -73 1042 -62 ct 1042 -50 1045 -40 1052 -34 ct 1059 -27 1068 -24 1080 -24 ct 
p
1138 -249 m  1132 -249 1127 -250 1121 -253 ct 1115 -255 1110 -258 1104 -261 ct 
1099 -264 1094 -267 1089 -269 ct 1084 -272 1079 -273 1075 -273 ct 1067 -273 1062 -271 1058 -267 ct 
1054 -263 1052 -257 1051 -249 ct 1032 -249 l  1033 -263 1036 -274 1039 -281 ct 
1042 -288 1047 -294 1052 -298 ct 1058 -302 1065 -304 1074 -304 ct 1080 -304 1086 -303 1092 -300 ct 
1097 -298 1103 -295 1108 -292 ct 1114 -289 1119 -286 1123 -284 ct 1128 -281 1133 -280 1137 -280 ct 
1151 -280 1159 -288 1161 -304 ct 1180 -304 l  1178 -284 1173 -270 1166 -261 ct 
1159 -253 1150 -249 1138 -249 ct p ef
1440 -112 m  1440 -73 1432 -44 1415 -25 ct 1397 -6 1372 4 1340 4 ct 1307 4 1282 -6 1266 -26 ct 
1249 -46 1241 -75 1241 -112 ct 1241 -189 1274 -228 1341 -228 ct 1375 -228 1400 -219 1416 -200 ct 
1432 -181 1440 -152 1440 -112 ct p
1401 -112 m  1401 -143 1397 -166 1388 -180 ct 1379 -193 1363 -200 1342 -200 ct 
1320 -200 1304 -193 1294 -179 ct 1285 -165 1280 -143 1280 -112 ct 1280 -83 1285 -61 1294 -46 ct 
1304 -31 1319 -24 1339 -24 ct 1362 -24 1378 -31 1387 -45 ct 1397 -59 1401 -82 1401 -112 ct 
p ef
1749 -36 m  1742 -22 1733 -12 1721 -5 ct 1710 1 1696 4 1679 4 ct 1651 4 1630 -6 1617 -25 ct 
1603 -44 1597 -72 1597 -111 ct 1597 -189 1624 -228 1679 -228 ct 1696 -228 1710 -225 1721 -219 ct 
1733 -212 1742 -203 1749 -189 ct 1749 -189 l  1749 -214 l  1749 -307 l  1786 -307 l 
1786 -46 l  1786 -23 1786 -8 1787 0 ct 1751 0 l  1751 -2 1751 -7 1750 -15 ct 
1750 -23 1749 -30 1749 -36 ct 1749 -36 l  p
1636 -112 m  1636 -81 1640 -59 1648 -45 ct 1656 -32 1670 -25 1688 -25 ct 1710 -25 1725 -32 1734 -47 ct 
1744 -61 1749 -84 1749 -115 ct 1749 -144 1744 -166 1734 -180 ct 1725 -194 1710 -200 1689 -200 ct 
1670 -200 1657 -194 1648 -180 ct 1640 -166 1636 -143 1636 -112 ct p ef
1873 -104 m  1873 -78 1878 -59 1889 -45 ct 1900 -31 1915 -24 1935 -24 ct 1951 -24 1964 -27 1974 -34 ct 
1984 -40 1990 -48 1994 -58 ct 2026 -49 l  2013 -14 1983 4 1935 4 ct 1902 4 1877 -6 1860 -26 ct 
1843 -45 1834 -75 1834 -113 ct 1834 -150 1843 -179 1860 -198 ct 1877 -218 1902 -228 1934 -228 ct 
2000 -228 2032 -188 2032 -109 ct 2032 -104 l  1873 -104 l  p
1994 -133 m  1992 -156 1986 -173 1976 -184 ct 1966 -195 1952 -200 1933 -200 ct 
1915 -200 1901 -194 1890 -182 ct 1880 -170 1874 -154 1873 -133 ct 1994 -133 l 
p ef
pom
pum
4686 9004 t
217 -112 m  217 -73 209 -44 192 -25 ct 174 -6 149 4 117 4 ct 84 4 59 -6 43 -26 ct 
26 -46 18 -75 18 -112 ct 18 -189 51 -228 118 -228 ct 152 -228 177 -219 193 -200 ct 
209 -181 217 -152 217 -112 ct p
178 -112 m  178 -143 174 -166 165 -180 ct 156 -193 140 -200 119 -200 ct 97 -200 81 -193 71 -179 ct 
62 -165 57 -143 57 -112 ct 57 -83 62 -61 71 -46 ct 81 -31 96 -24 116 -24 ct 139 -24 155 -31 164 -45 ct 
174 -59 178 -82 178 -112 ct p ef
351 -2 m  339 1 327 3 314 3 ct 284 3 269 -14 269 -48 ct 269 -197 l  243 -197 l 
243 -224 l  271 -224 l  282 -275 l  306 -275 l  306 -224 l  348 -224 l 
348 -197 l  306 -197 l  306 -56 l  306 -45 308 -37 312 -33 ct 315 -29 321 -27 330 -27 ct 
335 -27 342 -28 351 -29 ct 351 -2 l  p ef
384 -271 m  384 -307 l  421 -307 l  421 -271 l  384 -271 l  p
384 0 m  384 -224 l  421 -224 l  421 0 l  384 0 l  p ef
608 0 m  608 -142 l  608 -164 605 -179 599 -187 ct 593 -195 582 -199 567 -199 ct 
551 -199 538 -193 529 -181 ct 520 -169 515 -152 515 -130 ct 515 0 l  478 0 l 
478 -176 l  478 -202 478 -218 477 -224 ct 512 -224 l  512 -223 512 -221 513 -218 ct 
513 -215 513 -212 513 -208 ct 513 -204 514 -196 514 -186 ct 514 -186 l  522 -201 532 -212 542 -219 ct 
552 -225 565 -228 580 -228 ct 597 -228 610 -225 620 -218 ct 630 -211 637 -200 640 -186 ct 
641 -186 l  649 -201 658 -211 669 -218 ct 680 -225 693 -228 709 -228 ct 731 -228 748 -222 758 -210 ct 
768 -197 773 -177 773 -149 ct 773 0 l  737 0 l  737 -142 l  737 -164 734 -179 728 -187 ct 
722 -195 711 -199 696 -199 ct 680 -199 667 -193 658 -181 ct 649 -169 644 -152 644 -130 ct 
644 0 l  608 0 l  p ef
828 -271 m  828 -307 l  865 -307 l  865 -271 l  828 -271 l  p
828 0 m  828 -224 l  865 -224 l  865 0 l  828 0 l  p ef
910 0 m  910 -28 l  1035 -195 l  917 -195 l  917 -224 l  1079 -224 l  1079 -195 l 
954 -29 l  1083 -29 l  1083 0 l  910 0 l  p ef
1191 4 m  1168 4 1151 -2 1140 -14 ct 1129 -26 1123 -42 1123 -63 ct 1123 -86 1131 -104 1146 -116 ct 
1161 -128 1186 -135 1219 -136 ct 1270 -137 l  1270 -149 l  1270 -167 1266 -180 1258 -188 ct 
1250 -196 1238 -200 1222 -200 ct 1205 -200 1193 -197 1185 -191 ct 1178 -186 1173 -177 1172 -164 ct 
1133 -168 l  1139 -208 1169 -228 1223 -228 ct 1251 -228 1272 -222 1286 -209 ct 
1300 -196 1307 -177 1307 -153 ct 1307 -56 l  1307 -45 1309 -37 1312 -31 ct 1314 -26 1320 -23 1328 -23 ct 
1332 -23 1336 -24 1340 -25 ct 1340 -1 l  1331 1 1321 2 1312 2 ct 1298 2 1288 -2 1281 -9 ct 
1275 -16 1272 -27 1271 -43 ct 1270 -43 l  1260 -26 1249 -14 1236 -7 ct 1224 0 1209 4 1191 4 ct 
p
1199 -24 m  1213 -24 1225 -27 1235 -33 ct 1246 -39 1254 -48 1260 -59 ct 1267 -70 1270 -81 1270 -92 ct 
1270 -111 l  1229 -110 l  1211 -109 1198 -108 1189 -104 ct 1180 -101 1173 -96 1168 -89 ct 
1164 -82 1161 -73 1161 -62 ct 1161 -50 1164 -40 1171 -34 ct 1178 -27 1187 -24 1199 -24 ct 
p ef
1399 -113 m  1399 -83 1403 -61 1413 -47 ct 1422 -32 1436 -25 1455 -25 ct 1468 -25 1479 -29 1488 -36 ct 
1497 -43 1503 -54 1505 -69 ct 1542 -66 l  1539 -45 1530 -28 1515 -15 ct 1499 -2 1480 4 1456 4 ct 
1425 4 1401 -6 1385 -25 ct 1368 -45 1360 -74 1360 -112 ct 1360 -150 1368 -178 1385 -198 ct 
1401 -218 1425 -228 1456 -228 ct 1479 -228 1498 -222 1513 -210 ct 1528 -198 1537 -182 1541 -161 ct 
1503 -158 l  1501 -171 1496 -181 1488 -188 ct 1480 -195 1469 -199 1455 -199 ct 
1435 -199 1421 -192 1412 -179 ct 1403 -166 1399 -144 1399 -113 ct p
1497 52 m  1497 77 1478 90 1441 90 ct 1433 90 1426 90 1422 89 ct 1422 69 l  1429 70 1435 70 1440 70 ct 
1460 70 1470 65 1470 53 ct 1470 43 1461 37 1443 37 ct 1437 37 1433 38 1431 38 ct 
1444 0 l  1466 0 l  1458 21 l  1471 21 1481 24 1487 30 ct 1494 35 1497 43 1497 52 ct 
p ef
1640 4 m  1617 4 1600 -2 1589 -14 ct 1578 -26 1572 -42 1572 -63 ct 1572 -86 1580 -104 1595 -116 ct 
1610 -128 1635 -135 1668 -136 ct 1719 -137 l  1719 -149 l  1719 -167 1715 -180 1707 -188 ct 
1699 -196 1687 -200 1671 -200 ct 1654 -200 1642 -197 1634 -191 ct 1627 -186 1622 -177 1621 -164 ct 
1582 -168 l  1588 -208 1618 -228 1672 -228 ct 1700 -228 1721 -222 1735 -209 ct 
1749 -196 1756 -177 1756 -153 ct 1756 -56 l  1756 -45 1758 -37 1761 -31 ct 1763 -26 1769 -23 1777 -23 ct 
1781 -23 1785 -24 1789 -25 ct 1789 -1 l  1780 1 1770 2 1761 2 ct 1747 2 1737 -2 1730 -9 ct 
1724 -16 1721 -27 1720 -43 ct 1719 -43 l  1709 -26 1698 -14 1685 -7 ct 1673 0 1658 4 1640 4 ct 
p
1648 -24 m  1662 -24 1674 -27 1684 -33 ct 1695 -39 1703 -48 1709 -59 ct 1716 -70 1719 -81 1719 -92 ct 
1719 -111 l  1678 -110 l  1660 -109 1647 -108 1638 -104 ct 1629 -101 1622 -96 1617 -89 ct 
1613 -82 1610 -73 1610 -62 ct 1610 -50 1613 -40 1620 -34 ct 1627 -27 1636 -24 1648 -24 ct 
p
1706 -249 m  1700 -249 1695 -250 1689 -253 ct 1683 -255 1678 -258 1672 -261 ct 
1667 -264 1662 -267 1657 -269 ct 1652 -272 1647 -273 1643 -273 ct 1635 -273 1630 -271 1626 -267 ct 
1622 -263 1620 -257 1619 -249 ct 1600 -249 l  1601 -263 1604 -274 1607 -281 ct 
1610 -288 1615 -294 1620 -298 ct 1626 -302 1633 -304 1642 -304 ct 1648 -304 1654 -303 1660 -300 ct 
1665 -298 1671 -295 1676 -292 ct 1682 -289 1687 -286 1691 -284 ct 1696 -281 1701 -280 1705 -280 ct 
1719 -280 1727 -288 1729 -304 ct 1748 -304 l  1746 -284 1741 -270 1734 -261 ct 
1727 -253 1718 -249 1706 -249 ct p ef
2008 -112 m  2008 -73 2000 -44 1983 -25 ct 1965 -6 1940 4 1908 4 ct 1875 4 1850 -6 1834 -26 ct 
1817 -46 1809 -75 1809 -112 ct 1809 -189 1842 -228 1909 -228 ct 1943 -228 1968 -219 1984 -200 ct 
2000 -181 2008 -152 2008 -112 ct p
1969 -112 m  1969 -143 1965 -166 1956 -180 ct 1947 -193 1931 -200 1910 -200 ct 
1888 -200 1872 -193 1862 -179 ct 1853 -165 1848 -143 1848 -112 ct 1848 -83 1853 -61 1862 -46 ct 
1872 -31 1887 -24 1907 -24 ct 1930 -24 1946 -31 1955 -45 ct 1965 -59 1969 -82 1969 -112 ct 
p ef
pom
0 10481 t 
pom
count op_count sub {pop} repeat countdictstack dict_count sub {end} repeat b4_inc_state restore
%%PageTrailer
%%Trailer
%%EOF
