%!PS-Adobe-3.0 EPSF-3.0 
%%BoundingBox: 0 0 204 130
%%Pages: 0
%%Creator: LibreOffice 5.2
%%Title: none
%%CreationDate: none
%%LanguageLevel: 2
%%EndComments
%%BeginProlog
%%BeginResource: procset SDRes-Prolog 1.0 0
/b4_inc_state save def
/dict_count countdictstack def
/op_count count 1 sub def
userdict begin
0 setgray 0 setlinecap 1 setlinewidth 0 setlinejoin 10 setmiterlimit[] 0 setdash newpath
/languagelevel where {pop languagelevel 1 ne {false setstrokeadjust false setoverprint} if} if
/bdef {bind def} bind def
/c {setgray} bdef
/l {neg lineto} bdef
/rl {neg rlineto} bdef
/lc {setlinecap} bdef
/lj {setlinejoin} bdef
/lw {setlinewidth} bdef
/ml {setmiterlimit} bdef
/ld {setdash} bdef
/m {neg moveto} bdef
/ct {6 2 roll neg 6 2 roll neg 6 2 roll neg curveto} bdef
/r {rotate} bdef
/t {neg translate} bdef
/s {scale} bdef
/sw {show} bdef
/gs {gsave} bdef
/gr {grestore} bdef
/f {findfont dup length dict begin
{1 index /FID ne {def} {pop pop} ifelse} forall /Encoding ISOLatin1Encoding def
currentdict end /NFont exch definefont pop /NFont findfont} bdef
/p {closepath} bdef
/sf {scalefont setfont} bdef
/ef {eofill}bdef
/pc {closepath stroke}bdef
/ps {stroke}bdef
/pum {matrix currentmatrix}bdef
/pom {setmatrix}bdef
/bs {/aString exch def /nXOfs exch def /nWidth exch def currentpoint nXOfs 0 rmoveto pum nWidth aString stringwidth pop div 1 scale aString show pom moveto} bdef
%%EndResource
%%EndProlog
%%BeginSetup
%%EndSetup
%%Page: 1 1
%%BeginPageSetup
%%EndPageSetup
pum
0.02832 0.02825 s 
0 -4601 t
/tm matrix currentmatrix def
tm setmatrix
-7197 -11791 t 
1 1 s 
0.996 c 8998 13191 m  9337 13191 9597 13451 9597 13791 ct 9597 14131 9337 14391 8998 14391 ct 
8658 14391 8398 14131 8398 13791 ct 8398 13451 8658 13191 8998 13191 ct p
8398 13191 m  8398 13191 l  p
9598 14392 m  9598 14392 l  p ef
0 lw 1 lj 0.000 c 8997 13191 m  9337 13191 9597 13451 9597 13791 ct 9597 14130 9337 14390 8997 14390 ct 
8657 14390 8397 14130 8397 13791 ct 8397 13451 8657 13191 8997 13191 ct pc
8397 13191 m  8397 13191 l  pc
9598 14391 m  9598 14391 l  pc
pum
8721 13907 t
150 6 m  107 6 76 -8 56 -37 ct 37 -66 27 -109 27 -166 ct 27 -283 68 -342 150 -342 ct 
175 -342 196 -338 213 -329 ct 230 -320 243 -305 255 -284 ct 255 -284 l  255 -290 256 -301 256 -316 ct 
257 -332 258 -339 259 -339 ct 313 -339 l  311 -327 310 -297 310 -248 ct 310 132 l 
255 132 l  255 -4 l  256 -55 l  255 -55 l  244 -33 230 -17 214 -8 ct 198 1 176 6 150 6 ct 
p
255 -172 m  255 -216 247 -248 233 -269 ct 219 -290 196 -301 165 -301 ct 137 -301 116 -290 104 -269 ct 
91 -248 85 -214 85 -168 ct 85 -121 92 -88 104 -67 ct 117 -47 137 -37 164 -37 ct 
196 -37 219 -48 233 -71 ct 247 -93 255 -127 255 -172 ct p ef
pom
pum
9071 14174 t
190 -126 m  190 -84 183 -52 168 -29 ct 153 -7 131 4 102 4 ct 73 4 51 -7 36 -29 ct 
22 -51 14 -84 14 -126 ct 14 -170 21 -202 36 -224 ct 50 -245 72 -256 103 -256 ct 
133 -256 155 -245 169 -223 ct 183 -202 190 -169 190 -126 ct p
157 -126 m  157 -163 153 -189 145 -205 ct 136 -222 122 -230 103 -230 ct 83 -230 69 -222 60 -206 ct 
51 -190 47 -163 47 -126 ct 47 -90 51 -64 60 -47 ct 69 -31 83 -22 102 -22 ct 121 -22 135 -31 144 -48 ct 
153 -65 157 -91 157 -126 ct p ef
pom
0.996 c 12598 13192 m  12937 13192 13197 13452 13197 13792 ct 13197 14132 12937 14392 12598 14392 ct 
12258 14392 11998 14132 11998 13792 ct 11998 13452 12258 13192 12598 13192 ct 
p
11998 13192 m  11998 13192 l  p
13198 14393 m  13198 14393 l  p ef
105.95074 lw 0.000 c 12597 13192 m  12937 13192 13197 13452 13197 13792 ct 
13197 14131 12937 14391 12597 14391 ct 12257 14391 11997 14131 11997 13792 ct 
11997 13452 12257 13192 12597 13192 ct pc
11997 13192 m  11997 13192 l  pc
13198 14392 m  13198 14392 l  pc
pum
12371 13908 t
150 6 m  107 6 76 -8 56 -37 ct 37 -66 27 -109 27 -166 ct 27 -283 68 -342 150 -342 ct 
175 -342 196 -338 213 -329 ct 230 -320 243 -305 255 -284 ct 255 -284 l  255 -290 256 -301 256 -316 ct 
257 -332 258 -339 259 -339 ct 313 -339 l  311 -327 310 -297 310 -248 ct 310 132 l 
255 132 l  255 -4 l  256 -55 l  255 -55 l  244 -33 230 -17 214 -8 ct 198 1 176 6 150 6 ct 
p
255 -172 m  255 -216 247 -248 233 -269 ct 219 -290 196 -301 165 -301 ct 137 -301 116 -290 104 -269 ct 
91 -248 85 -214 85 -168 ct 85 -121 92 -88 104 -67 ct 117 -47 137 -37 164 -37 ct 
196 -37 219 -48 233 -71 ct 247 -93 255 -127 255 -172 ct p ef
pom
pum
12721 14175 t
65 -170 m  65 0 l  33 0 l  33 -170 l  5 -170 l  5 -194 l  33 -194 l  33 -216 l 
33 -234 36 -247 44 -254 ct 52 -262 64 -266 80 -266 ct 89 -266 97 -265 103 -264 ct 
103 -239 l  97 -240 93 -241 88 -241 ct 80 -241 74 -239 70 -234 ct 67 -230 65 -223 65 -211 ct 
65 -194 l  103 -194 l  103 -170 l  65 -170 l  p ef
pom
1 lw 9597 13791 m  11567 13791 l  ps
11997 13791 m  11547 13641 l  11547 13941 l  11997 13791 l  p ef
7198 13791 m  7968 13791 l  ps
8398 13791 m  7948 13641 l  7948 13941 l  8398 13791 l  p ef
pum
10447 13692 t
128 6 m  95 6 69 -3 52 -21 ct 35 -38 27 -63 27 -94 ct 27 -129 38 -155 61 -174 ct 
84 -192 121 -202 172 -204 ct 247 -205 l  247 -223 l  247 -250 241 -270 230 -282 ct 
218 -294 200 -299 175 -299 ct 150 -299 132 -295 121 -287 ct 109 -278 102 -265 100 -246 ct 
42 -251 l  51 -312 96 -342 176 -342 ct 219 -342 250 -332 272 -313 ct 293 -294 304 -266 304 -229 ct 
304 -85 l  304 -68 306 -55 310 -47 ct 314 -39 323 -35 335 -35 ct 340 -35 346 -35 353 -37 ct 
353 -2 l  339 1 325 3 310 3 ct 289 3 274 -2 265 -13 ct 256 -24 250 -41 249 -64 ct 
247 -64 l  233 -39 216 -21 197 -10 ct 178 1 155 6 128 6 ct p
141 -36 m  162 -36 180 -41 196 -50 ct 212 -59 224 -72 233 -88 ct 243 -104 247 -121 247 -138 ct 
247 -166 l  186 -165 l  160 -164 140 -161 126 -157 ct 113 -152 102 -144 95 -134 ct 
88 -123 84 -110 84 -93 ct 84 -75 89 -61 99 -51 ct 109 -41 123 -36 141 -36 ct p ef
pom
0.996 c 8013 15090 m  7855 15090 7698 15198 7698 15306 ct 7698 15468 l  7698 15630 l 
7698 15850 l  7698 16012 l  7698 16173 l  7698 16281 7855 16390 8013 16390 ct 
8250 16390 l  8487 16390 l  8809 16390 l  9045 16390 l  9282 16390 l  9440 16390 9598 16281 9598 16173 ct 
9598 16012 l  9598 15850 l  9598 15630 l  9598 15468 l  9598 15306 l  9598 15198 9440 15090 9282 15090 ct 
8835 14420 l  8809 15090 l  8487 15090 l  8250 15090 l  8013 15090 l  p
7698 15090 m  7698 15090 l  p
9598 16390 m  9598 16390 l  p ef
0 lw 0.000 c 8012 15090 m  7854 15090 7697 15198 7697 15306 ct 7697 15467 l 
7697 15629 l  7697 15849 l  7697 16011 l  7697 16173 l  7697 16281 7854 16390 8012 16390 ct 
8249 16390 l  8486 16390 l  8808 16390 l  9045 16390 l  9282 16390 l  9440 16390 9598 16281 9598 16173 ct 
9598 16011 l  9598 15849 l  9598 15629 l  9598 15467 l  9598 15306 l  9598 15198 9440 15090 9282 15090 ct 
8834 14419 l  8808 15090 l  8486 15090 l  8249 15090 l  8012 15090 l  pc
7697 15090 m  7697 15090 l  pc
9598 16390 m  9598 16390 l  pc
pum
7875 15634 t
41 0 m  41 -340 l  298 -340 l  298 -302 l  87 -302 l  87 -193 l  284 -193 l 
284 -156 l  87 -156 l  87 -38 l  308 -38 l  308 0 l  41 0 l  p ef
559 -72 m  559 -47 550 -28 531 -15 ct 513 -2 487 5 453 5 ct 421 5 396 0 378 -11 ct 
361 -22 349 -38 344 -61 ct 382 -69 l  386 -55 393 -44 405 -38 ct 417 -31 433 -28 453 -28 ct 
475 -28 491 -31 502 -38 ct 512 -45 517 -55 517 -69 ct 517 -79 513 -87 506 -94 ct 
499 -100 488 -105 472 -110 ct 441 -118 l  416 -124 398 -131 388 -137 ct 377 -143 369 -150 363 -159 ct 
357 -168 354 -179 354 -192 ct 354 -216 363 -234 380 -246 ct 397 -259 421 -265 454 -265 ct 
483 -265 505 -260 522 -250 ct 539 -240 550 -223 555 -201 ct 515 -196 l  513 -208 507 -217 496 -223 ct 
486 -229 471 -232 454 -232 ct 434 -232 420 -229 410 -223 ct 401 -217 396 -208 396 -196 ct 
396 -189 398 -183 402 -178 ct 406 -173 412 -169 419 -166 ct 427 -162 443 -158 467 -152 ct 
490 -146 507 -140 517 -136 ct 527 -131 535 -125 541 -119 ct 547 -113 551 -106 554 -99 ct 
558 -91 559 -82 559 -72 ct p ef
714 -2 m  699 2 685 4 670 4 ct 635 4 618 -16 618 -55 ct 618 -229 l  587 -229 l 
587 -261 l  619 -261 l  632 -320 l  661 -320 l  661 -261 l  709 -261 l 
709 -229 l  661 -229 l  661 -65 l  661 -52 663 -43 667 -38 ct 671 -33 678 -31 689 -31 ct 
694 -31 703 -32 714 -34 ct 714 -2 l  p ef
820 5 m  794 5 774 -2 761 -16 ct 748 -30 741 -49 741 -73 ct 741 -100 750 -121 768 -135 ct 
785 -150 814 -157 854 -158 ct 912 -159 l  912 -174 l  912 -195 908 -210 899 -219 ct 
890 -228 876 -233 856 -233 ct 837 -233 823 -230 814 -223 ct 805 -216 800 -206 798 -191 ct 
753 -196 l  760 -243 795 -266 857 -266 ct 890 -266 915 -258 931 -243 ct 948 -228 956 -207 956 -178 ct 
956 -66 l  956 -53 958 -43 961 -37 ct 965 -30 971 -27 981 -27 ct 985 -27 989 -27 995 -28 ct 
995 -2 l  984 1 973 2 961 2 ct 945 2 933 -2 926 -10 ct 919 -19 915 -32 914 -50 ct 
912 -50 l  901 -30 888 -16 874 -7 ct 859 1 841 5 820 5 ct p
830 -28 m  846 -28 860 -31 872 -38 ct 885 -46 894 -56 902 -68 ct 909 -81 912 -94 912 -107 ct 
912 -129 l  865 -128 l  844 -128 829 -125 818 -122 ct 808 -118 800 -112 794 -104 ct 
788 -96 786 -85 786 -72 ct 786 -58 789 -47 797 -39 ct 805 -31 816 -28 830 -28 ct 
p ef
1193 -42 m  1185 -25 1174 -13 1161 -6 ct 1148 1 1131 5 1112 5 ct 1079 5 1055 -6 1039 -28 ct 
1024 -51 1016 -84 1016 -129 ct 1016 -220 1048 -266 1112 -266 ct 1132 -266 1148 -262 1161 -255 ct 
1174 -248 1185 -236 1193 -221 ct 1194 -221 l  1193 -250 l  1193 -358 l  1236 -358 l 
1236 -54 l  1236 -26 1237 -9 1238 0 ct 1196 0 l  1196 -2 1195 -8 1195 -18 ct 
1194 -27 1194 -35 1194 -42 ct 1193 -42 l  p
1061 -131 m  1061 -94 1066 -68 1076 -52 ct 1085 -36 1101 -29 1123 -29 ct 1147 -29 1165 -37 1176 -54 ct 
1187 -71 1193 -98 1193 -134 ct 1193 -168 1187 -194 1176 -210 ct 1165 -226 1148 -234 1123 -234 ct 
1101 -234 1086 -226 1076 -210 ct 1066 -193 1061 -167 1061 -131 ct p ef
1524 -131 m  1524 -85 1514 -51 1494 -29 ct 1474 -6 1445 5 1406 5 ct 1368 5 1339 -7 1320 -30 ct 
1300 -53 1291 -87 1291 -131 ct 1291 -221 1330 -266 1408 -266 ct 1448 -266 1477 -255 1496 -233 ct 
1515 -211 1524 -177 1524 -131 ct p
1478 -131 m  1478 -167 1473 -193 1462 -209 ct 1452 -226 1434 -234 1408 -234 ct 
1383 -234 1365 -226 1353 -209 ct 1342 -192 1336 -166 1336 -131 ct 1336 -96 1342 -70 1353 -53 ct 
1364 -36 1382 -27 1406 -27 ct 1432 -27 1450 -35 1462 -52 ct 1473 -69 1478 -95 1478 -131 ct 
p ef
pom
pum
8013 16188 t
46 0 m  46 -340 l  92 -340 l  92 0 l  46 0 l  p ef
339 0 m  339 -166 l  339 -183 337 -196 334 -206 ct 331 -215 325 -222 318 -226 ct 
310 -230 300 -232 285 -232 ct 264 -232 248 -225 236 -211 ct 224 -197 218 -177 218 -151 ct 
218 0 l  174 0 l  174 -205 l  174 -236 174 -254 173 -261 ct 214 -261 l  214 -260 214 -258 214 -255 ct 
214 -251 215 -247 215 -242 ct 215 -238 215 -229 216 -217 ct 216 -217 l  226 -235 238 -247 251 -255 ct 
264 -262 280 -266 300 -266 ct 329 -266 349 -259 363 -245 ct 376 -230 383 -207 383 -174 ct 
383 0 l  339 0 l  p ef
448 -316 m  448 -358 l  491 -358 l  491 -316 l  448 -316 l  p
448 0 m  448 -261 l  491 -261 l  491 0 l  448 0 l  p ef
591 -132 m  591 -97 597 -71 608 -54 ct 619 -38 635 -29 657 -29 ct 673 -29 686 -33 696 -42 ct 
706 -50 713 -63 715 -81 ct 759 -78 l  756 -52 745 -32 727 -17 ct 709 -2 686 5 658 5 ct 
622 5 594 -7 575 -30 ct 556 -53 546 -86 546 -131 ct 546 -175 556 -208 575 -231 ct 
594 -254 622 -266 658 -266 ct 685 -266 707 -259 724 -245 ct 742 -231 753 -212 758 -188 ct 
713 -185 l  711 -199 705 -211 696 -219 ct 687 -228 674 -232 657 -232 ct 634 -232 617 -224 607 -209 ct 
596 -194 591 -168 591 -132 ct p ef
808 -316 m  808 -358 l  851 -358 l  851 -316 l  808 -316 l  p
808 0 m  808 -261 l  851 -261 l  851 0 l  808 0 l  p ef
985 5 m  959 5 939 -2 926 -16 ct 913 -30 906 -49 906 -73 ct 906 -100 915 -121 933 -135 ct 
950 -150 979 -157 1019 -158 ct 1077 -159 l  1077 -174 l  1077 -195 1073 -210 1064 -219 ct 
1055 -228 1041 -233 1021 -233 ct 1002 -233 988 -230 979 -223 ct 970 -216 965 -206 963 -191 ct 
918 -196 l  925 -243 960 -266 1022 -266 ct 1055 -266 1080 -258 1096 -243 ct 
1113 -228 1121 -207 1121 -178 ct 1121 -66 l  1121 -53 1123 -43 1126 -37 ct 1130 -30 1136 -27 1146 -27 ct 
1150 -27 1154 -27 1160 -28 ct 1160 -2 l  1149 1 1138 2 1126 2 ct 1110 2 1098 -2 1091 -10 ct 
1084 -19 1080 -32 1079 -50 ct 1077 -50 l  1066 -30 1053 -16 1039 -7 ct 1024 1 1006 5 985 5 ct 
p
995 -28 m  1011 -28 1025 -31 1037 -38 ct 1050 -46 1059 -56 1067 -68 ct 1074 -81 1077 -94 1077 -107 ct 
1077 -129 l  1030 -128 l  1009 -128 994 -125 983 -122 ct 973 -118 965 -112 959 -104 ct 
953 -96 951 -85 951 -72 ct 951 -58 954 -47 962 -39 ct 970 -31 981 -28 995 -28 ct 
p ef
1193 0 m  1193 -358 l  1237 -358 l  1237 0 l  1193 0 l  p ef
pom
0.996 c 12811 14990 m  12653 14990 12497 15098 12497 15206 ct 12497 15368 l 
12497 15530 l  12497 15750 l  12497 15912 l  12497 16074 l  12497 16181 12653 16290 12811 16290 ct 
13048 16290 l  13285 16290 l  13607 16290 l  13844 16290 l  14081 16290 l 
14239 16290 14397 16181 14397 16074 ct 14397 15912 l  14397 15750 l  14397 15530 l 
14397 15368 l  14397 15206 l  14397 15098 14239 14990 14081 14990 ct 13844 14990 l 
13607 14990 l  13285 14990 l  12872 14437 l  12811 14990 l  p
12497 14990 m  12497 14990 l  p
14397 16290 m  14397 16290 l  p ef
0.000 c 12811 14990 m  12653 14990 12496 15098 12496 15206 ct 12496 15367 l 
12496 15529 l  12496 15749 l  12496 15911 l  12496 16073 l  12496 16181 12653 16290 12811 16290 ct 
13048 16290 l  13285 16290 l  13607 16290 l  13844 16290 l  14081 16290 l 
14239 16290 14397 16181 14397 16073 ct 14397 15911 l  14397 15749 l  14397 15529 l 
14397 15367 l  14397 15206 l  14397 15098 14239 14990 14081 14990 ct 13844 14990 l 
13607 14990 l  13285 14990 l  12872 14436 l  12811 14990 l  pc
12496 14990 m  12496 14990 l  pc
14397 16290 m  14397 16290 l  pc
pum
12673 15534 t
41 0 m  41 -340 l  298 -340 l  298 -302 l  87 -302 l  87 -193 l  284 -193 l 
284 -156 l  87 -156 l  87 -38 l  308 -38 l  308 0 l  41 0 l  p ef
559 -72 m  559 -47 550 -28 531 -15 ct 513 -2 487 5 453 5 ct 421 5 396 0 378 -11 ct 
361 -22 349 -38 344 -61 ct 382 -69 l  386 -55 393 -44 405 -38 ct 417 -31 433 -28 453 -28 ct 
475 -28 491 -31 502 -38 ct 512 -45 517 -55 517 -69 ct 517 -79 513 -87 506 -94 ct 
499 -100 488 -105 472 -110 ct 441 -118 l  416 -124 398 -131 388 -137 ct 377 -143 369 -150 363 -159 ct 
357 -168 354 -179 354 -192 ct 354 -216 363 -234 380 -246 ct 397 -259 421 -265 454 -265 ct 
483 -265 505 -260 522 -250 ct 539 -240 550 -223 555 -201 ct 515 -196 l  513 -208 507 -217 496 -223 ct 
486 -229 471 -232 454 -232 ct 434 -232 420 -229 410 -223 ct 401 -217 396 -208 396 -196 ct 
396 -189 398 -183 402 -178 ct 406 -173 412 -169 419 -166 ct 427 -162 443 -158 467 -152 ct 
490 -146 507 -140 517 -136 ct 527 -131 535 -125 541 -119 ct 547 -113 551 -106 554 -99 ct 
558 -91 559 -82 559 -72 ct p ef
714 -2 m  699 2 685 4 670 4 ct 635 4 618 -16 618 -55 ct 618 -229 l  587 -229 l 
587 -261 l  619 -261 l  632 -320 l  661 -320 l  661 -261 l  709 -261 l 
709 -229 l  661 -229 l  661 -65 l  661 -52 663 -43 667 -38 ct 671 -33 678 -31 689 -31 ct 
694 -31 703 -32 714 -34 ct 714 -2 l  p ef
820 5 m  794 5 774 -2 761 -16 ct 748 -30 741 -49 741 -73 ct 741 -100 750 -121 768 -135 ct 
785 -150 814 -157 854 -158 ct 912 -159 l  912 -174 l  912 -195 908 -210 899 -219 ct 
890 -228 876 -233 856 -233 ct 837 -233 823 -230 814 -223 ct 805 -216 800 -206 798 -191 ct 
753 -196 l  760 -243 795 -266 857 -266 ct 890 -266 915 -258 931 -243 ct 948 -228 956 -207 956 -178 ct 
956 -66 l  956 -53 958 -43 961 -37 ct 965 -30 971 -27 981 -27 ct 985 -27 989 -27 995 -28 ct 
995 -2 l  984 1 973 2 961 2 ct 945 2 933 -2 926 -10 ct 919 -19 915 -32 914 -50 ct 
912 -50 l  901 -30 888 -16 874 -7 ct 859 1 841 5 820 5 ct p
830 -28 m  846 -28 860 -31 872 -38 ct 885 -46 894 -56 902 -68 ct 909 -81 912 -94 912 -107 ct 
912 -129 l  865 -128 l  844 -128 829 -125 818 -122 ct 808 -118 800 -112 794 -104 ct 
788 -96 786 -85 786 -72 ct 786 -58 789 -47 797 -39 ct 805 -31 816 -28 830 -28 ct 
p ef
1193 -42 m  1185 -25 1174 -13 1161 -6 ct 1148 1 1131 5 1112 5 ct 1079 5 1055 -6 1039 -28 ct 
1024 -51 1016 -84 1016 -129 ct 1016 -220 1048 -266 1112 -266 ct 1132 -266 1148 -262 1161 -255 ct 
1174 -248 1185 -236 1193 -221 ct 1194 -221 l  1193 -250 l  1193 -358 l  1236 -358 l 
1236 -54 l  1236 -26 1237 -9 1238 0 ct 1196 0 l  1196 -2 1195 -8 1195 -18 ct 
1194 -27 1194 -35 1194 -42 ct 1193 -42 l  p
1061 -131 m  1061 -94 1066 -68 1076 -52 ct 1085 -36 1101 -29 1123 -29 ct 1147 -29 1165 -37 1176 -54 ct 
1187 -71 1193 -98 1193 -134 ct 1193 -168 1187 -194 1176 -210 ct 1165 -226 1148 -234 1123 -234 ct 
1101 -234 1086 -226 1076 -210 ct 1066 -193 1061 -167 1061 -131 ct p ef
1524 -131 m  1524 -85 1514 -51 1494 -29 ct 1474 -6 1445 5 1406 5 ct 1368 5 1339 -7 1320 -30 ct 
1300 -53 1291 -87 1291 -131 ct 1291 -221 1330 -266 1408 -266 ct 1448 -266 1477 -255 1496 -233 ct 
1515 -211 1524 -177 1524 -131 ct p
1478 -131 m  1478 -167 1473 -193 1462 -209 ct 1452 -226 1434 -234 1408 -234 ct 
1383 -234 1365 -226 1353 -209 ct 1342 -192 1336 -166 1336 -131 ct 1336 -96 1342 -70 1353 -53 ct 
1364 -36 1382 -27 1406 -27 ct 1432 -27 1450 -35 1462 -52 ct 1473 -69 1478 -95 1478 -131 ct 
p ef
pom
pum
12910 16089 t
87 -302 m  87 -176 l  276 -176 l  276 -138 l  87 -138 l  87 0 l  41 0 l 
41 -340 l  282 -340 l  282 -302 l  87 -302 l  p ef
334 -316 m  334 -358 l  377 -358 l  377 -316 l  334 -316 l  p
334 0 m  334 -261 l  377 -261 l  377 0 l  334 0 l  p ef
610 0 m  610 -166 l  610 -183 608 -196 605 -206 ct 602 -215 596 -222 589 -226 ct 
581 -230 571 -232 556 -232 ct 535 -232 519 -225 507 -211 ct 495 -197 489 -177 489 -151 ct 
489 0 l  445 0 l  445 -205 l  445 -236 445 -254 444 -261 ct 485 -261 l  485 -260 485 -258 485 -255 ct 
485 -251 486 -247 486 -242 ct 486 -238 486 -229 487 -217 ct 487 -217 l  497 -235 509 -247 522 -255 ct 
535 -262 551 -266 571 -266 ct 600 -266 620 -259 634 -245 ct 647 -230 654 -207 654 -174 ct 
654 0 l  610 0 l  p ef
786 5 m  760 5 740 -2 727 -16 ct 714 -30 707 -49 707 -73 ct 707 -100 716 -121 734 -135 ct 
751 -150 780 -157 820 -158 ct 878 -159 l  878 -174 l  878 -195 874 -210 865 -219 ct 
856 -228 842 -233 822 -233 ct 803 -233 789 -230 780 -223 ct 771 -216 766 -206 764 -191 ct 
719 -196 l  726 -243 761 -266 823 -266 ct 856 -266 881 -258 897 -243 ct 914 -228 922 -207 922 -178 ct 
922 -66 l  922 -53 924 -43 927 -37 ct 931 -30 937 -27 947 -27 ct 951 -27 955 -27 961 -28 ct 
961 -2 l  950 1 939 2 927 2 ct 911 2 899 -2 892 -10 ct 885 -19 881 -32 880 -50 ct 
878 -50 l  867 -30 854 -16 840 -7 ct 825 1 807 5 786 5 ct p
796 -28 m  812 -28 826 -31 838 -38 ct 851 -46 860 -56 868 -68 ct 875 -81 878 -94 878 -107 ct 
878 -129 l  831 -128 l  810 -128 795 -125 784 -122 ct 774 -118 766 -112 760 -104 ct 
754 -96 752 -85 752 -72 ct 752 -58 755 -47 763 -39 ct 771 -31 782 -28 796 -28 ct 
p ef
994 0 m  994 -358 l  1038 -358 l  1038 0 l  994 0 l  p ef
pom
0.996 c 10579 11792 m  10388 11792 10197 11866 10197 11941 ct 10197 12053 l 
10197 12166 l  10197 12318 l  10197 12431 l  10197 12543 l  10197 12618 10388 12693 10579 12693 ct 
10685 13279 l  11152 12693 l  11542 12693 l  11829 12693 l  12115 12693 l 
12306 12693 12498 12618 12498 12543 ct 12498 12431 l  12498 12318 l  12498 12166 l 
12498 12053 l  12498 11941 l  12498 11866 12306 11792 12115 11792 ct 11829 11792 l 
11542 11792 l  11152 11792 l  10865 11792 l  10579 11792 l  p
10197 11792 m  10197 11792 l  p
12498 12693 m  12498 12693 l  p ef
0.000 c 10579 11792 m  10388 11792 10197 11866 10197 11941 ct 10197 12053 l 
10197 12166 l  10197 12317 l  10197 12430 l  10197 12542 l  10197 12617 10388 12692 10579 12692 ct 
10685 13279 l  11151 12692 l  11541 12692 l  11828 12692 l  12114 12692 l 
12305 12692 12497 12617 12497 12542 ct 12497 12430 l  12497 12317 l  12497 12166 l 
12497 12053 l  12497 11941 l  12497 11866 12305 11792 12114 11792 ct 11828 11792 l 
11541 11792 l  11151 11792 l  10864 11792 l  10579 11792 l  pc
10197 11792 m  10197 11792 l  pc
12497 12692 m  12497 12692 l  pc
pum
10269 12414 t
174 -302 m  174 1 l  128 1 l  128 -302 l  11 -302 l  11 -340 l  290 -340 l 
290 -302 l  174 -302 l  p ef
313 0 m  313 -200 l  313 -219 313 -239 312 -261 ct 353 -261 l  354 -232 355 -214 355 -208 ct 
356 -208 l  363 -230 371 -245 380 -254 ct 389 -262 401 -266 418 -266 ct 423 -266 429 -265 435 -264 ct 
435 -224 l  430 -225 422 -226 412 -226 ct 394 -226 380 -218 371 -203 ct 361 -187 357 -165 357 -136 ct 
357 0 l  313 0 l  p ef
545 5 m  519 5 499 -2 486 -16 ct 473 -30 466 -49 466 -73 ct 466 -100 475 -121 493 -135 ct 
510 -150 539 -157 579 -158 ct 637 -159 l  637 -174 l  637 -195 633 -210 624 -219 ct 
615 -228 601 -233 581 -233 ct 562 -233 548 -230 539 -223 ct 530 -216 525 -206 523 -191 ct 
478 -196 l  485 -243 520 -266 582 -266 ct 615 -266 640 -258 656 -243 ct 673 -228 681 -207 681 -178 ct 
681 -66 l  681 -53 683 -43 686 -37 ct 690 -30 696 -27 706 -27 ct 710 -27 714 -27 720 -28 ct 
720 -2 l  709 1 698 2 686 2 ct 670 2 658 -2 651 -10 ct 644 -19 640 -32 639 -50 ct 
637 -50 l  626 -30 613 -16 599 -7 ct 584 1 566 5 545 5 ct p
555 -28 m  571 -28 585 -31 597 -38 ct 610 -46 619 -56 627 -68 ct 634 -81 637 -94 637 -107 ct 
637 -129 l  590 -128 l  569 -128 554 -125 543 -122 ct 533 -118 525 -112 519 -104 ct 
513 -96 511 -85 511 -72 ct 511 -58 514 -47 522 -39 ct 530 -31 541 -28 555 -28 ct 
p ef
919 0 m  919 -166 l  919 -183 917 -196 914 -206 ct 911 -215 905 -222 898 -226 ct 
890 -230 880 -232 865 -232 ct 844 -232 828 -225 816 -211 ct 804 -197 798 -177 798 -151 ct 
798 0 l  754 0 l  754 -205 l  754 -236 754 -254 753 -261 ct 794 -261 l  794 -260 794 -258 794 -255 ct 
794 -251 795 -247 795 -242 ct 795 -238 795 -229 796 -217 ct 796 -217 l  806 -235 818 -247 831 -255 ct 
844 -262 860 -266 880 -266 ct 909 -266 929 -259 943 -245 ct 956 -230 963 -207 963 -174 ct 
963 0 l  919 0 l  p ef
1224 -72 m  1224 -47 1215 -28 1196 -15 ct 1178 -2 1152 5 1118 5 ct 1086 5 1061 0 1043 -11 ct 
1026 -22 1014 -38 1009 -61 ct 1047 -69 l  1051 -55 1058 -44 1070 -38 ct 1082 -31 1098 -28 1118 -28 ct 
1140 -28 1156 -31 1167 -38 ct 1177 -45 1182 -55 1182 -69 ct 1182 -79 1178 -87 1171 -94 ct 
1164 -100 1153 -105 1137 -110 ct 1106 -118 l  1081 -124 1063 -131 1053 -137 ct 
1042 -143 1034 -150 1028 -159 ct 1022 -168 1019 -179 1019 -192 ct 1019 -216 1028 -234 1045 -246 ct 
1062 -259 1086 -265 1119 -265 ct 1148 -265 1170 -260 1187 -250 ct 1204 -240 1215 -223 1220 -201 ct 
1180 -196 l  1178 -208 1172 -217 1161 -223 ct 1151 -229 1136 -232 1119 -232 ct 
1099 -232 1085 -229 1075 -223 ct 1066 -217 1061 -208 1061 -196 ct 1061 -189 1063 -183 1067 -178 ct 
1071 -173 1077 -169 1084 -166 ct 1092 -162 1108 -158 1132 -152 ct 1155 -146 1172 -140 1182 -136 ct 
1192 -131 1200 -125 1206 -119 ct 1212 -113 1216 -106 1219 -99 ct 1223 -91 1224 -82 1224 -72 ct 
p ef
1278 -316 m  1278 -358 l  1321 -358 l  1321 -316 l  1278 -316 l  p
1278 0 m  1278 -261 l  1321 -261 l  1321 0 l  1278 0 l  p ef
1421 -132 m  1421 -97 1427 -71 1438 -54 ct 1449 -38 1465 -29 1487 -29 ct 1503 -29 1516 -33 1526 -42 ct 
1536 -50 1543 -63 1545 -81 ct 1589 -78 l  1586 -52 1575 -32 1557 -17 ct 1539 -2 1516 5 1488 5 ct 
1452 5 1424 -7 1405 -30 ct 1386 -53 1376 -86 1376 -131 ct 1376 -175 1386 -208 1405 -231 ct 
1424 -254 1452 -266 1488 -266 ct 1515 -266 1537 -259 1554 -245 ct 1572 -231 1583 -212 1588 -188 ct 
1543 -185 l  1541 -199 1535 -211 1526 -219 ct 1517 -228 1504 -232 1487 -232 ct 
1464 -232 1447 -224 1437 -209 ct 1426 -194 1421 -168 1421 -132 ct p
1536 61 m  1536 90 1514 105 1470 105 ct 1461 105 1454 105 1448 104 ct 1448 80 l 
1456 81 1463 82 1469 82 ct 1493 82 1505 75 1505 62 ct 1505 50 1494 44 1472 44 ct 
1466 44 1461 44 1459 44 ct 1474 0 l  1500 0 l  1491 25 l  1506 25 1517 28 1525 35 ct 
1532 41 1536 50 1536 61 ct p ef
1704 5 m  1678 5 1658 -2 1645 -16 ct 1632 -30 1625 -49 1625 -73 ct 1625 -100 1634 -121 1652 -135 ct 
1669 -150 1698 -157 1738 -158 ct 1796 -159 l  1796 -174 l  1796 -195 1792 -210 1783 -219 ct 
1774 -228 1760 -233 1740 -233 ct 1721 -233 1707 -230 1698 -223 ct 1689 -216 1684 -206 1682 -191 ct 
1637 -196 l  1644 -243 1679 -266 1741 -266 ct 1774 -266 1799 -258 1815 -243 ct 
1832 -228 1840 -207 1840 -178 ct 1840 -66 l  1840 -53 1842 -43 1845 -37 ct 1849 -30 1855 -27 1865 -27 ct 
1869 -27 1873 -27 1879 -28 ct 1879 -2 l  1868 1 1857 2 1845 2 ct 1829 2 1817 -2 1810 -10 ct 
1803 -19 1799 -32 1798 -50 ct 1796 -50 l  1785 -30 1772 -16 1758 -7 ct 1743 1 1725 5 1704 5 ct 
p
1714 -28 m  1730 -28 1744 -31 1756 -38 ct 1769 -46 1778 -56 1786 -68 ct 1793 -81 1796 -94 1796 -107 ct 
1796 -129 l  1749 -128 l  1728 -128 1713 -125 1702 -122 ct 1692 -118 1684 -112 1678 -104 ct 
1672 -96 1670 -85 1670 -72 ct 1670 -58 1673 -47 1681 -39 ct 1689 -31 1700 -28 1714 -28 ct 
p
1782 -290 m  1775 -290 1768 -291 1762 -294 ct 1755 -297 1748 -300 1742 -304 ct 
1736 -308 1730 -311 1724 -314 ct 1718 -317 1713 -318 1708 -318 ct 1699 -318 1693 -316 1688 -311 ct 
1684 -306 1681 -299 1680 -290 ct 1658 -290 l  1659 -306 1662 -319 1666 -327 ct 
1670 -335 1675 -342 1682 -347 ct 1688 -352 1696 -354 1707 -354 ct 1714 -354 1721 -353 1727 -350 ct 
1734 -347 1741 -344 1747 -340 ct 1753 -336 1759 -333 1765 -330 ct 1770 -327 1775 -326 1780 -326 ct 
1796 -326 1806 -335 1808 -354 ct 1831 -354 l  1828 -330 1822 -314 1814 -304 ct 
1806 -295 1795 -290 1782 -290 ct p ef
2133 -131 m  2133 -85 2123 -51 2103 -29 ct 2083 -6 2054 5 2015 5 ct 1977 5 1948 -7 1929 -30 ct 
1909 -53 1900 -87 1900 -131 ct 1900 -221 1939 -266 2017 -266 ct 2057 -266 2086 -255 2105 -233 ct 
2124 -211 2133 -177 2133 -131 ct p
2087 -131 m  2087 -167 2082 -193 2071 -209 ct 2061 -226 2043 -234 2017 -234 ct 
1992 -234 1974 -226 1962 -209 ct 1951 -192 1945 -166 1945 -131 ct 1945 -96 1951 -70 1962 -53 ct 
1973 -36 1991 -27 2015 -27 ct 2041 -27 2059 -35 2071 -52 ct 2082 -69 2087 -95 2087 -131 ct 
p ef
pom
0 4601 t 
pom
count op_count sub {pop} repeat countdictstack dict_count sub {end} repeat b4_inc_state restore
%%PageTrailer
%%Trailer
%%EOF
