%!PS-Adobe-3.0 EPSF-3.0 
%%BoundingBox: 0 0 370 223
%%Pages: 0
%%Creator: LibreOffice 5.2
%%Title: none
%%CreationDate: none
%%LanguageLevel: 2
%%EndComments
%%BeginProlog
%%BeginResource: procset SDRes-Prolog 1.0 0
/b4_inc_state save def
/dict_count countdictstack def
/op_count count 1 sub def
userdict begin
0 setgray 0 setlinecap 1 setlinewidth 0 setlinejoin 10 setmiterlimit[] 0 setdash newpath
/languagelevel where {pop languagelevel 1 ne {false setstrokeadjust false setoverprint} if} if
/bdef {bind def} bind def
/c {setgray} bdef
/l {neg lineto} bdef
/rl {neg rlineto} bdef
/lc {setlinecap} bdef
/lj {setlinejoin} bdef
/lw {setlinewidth} bdef
/ml {setmiterlimit} bdef
/ld {setdash} bdef
/m {neg moveto} bdef
/ct {6 2 roll neg 6 2 roll neg 6 2 roll neg curveto} bdef
/r {rotate} bdef
/t {neg translate} bdef
/s {scale} bdef
/sw {show} bdef
/gs {gsave} bdef
/gr {grestore} bdef
/f {findfont dup length dict begin
{1 index /FID ne {def} {pop pop} ifelse} forall /Encoding ISOLatin1Encoding def
currentdict end /NFont exch definefont pop /NFont findfont} bdef
/p {closepath} bdef
/sf {scalefont setfont} bdef
/ef {eofill}bdef
/pc {closepath stroke}bdef
/ps {stroke}bdef
/pum {matrix currentmatrix}bdef
/pom {setmatrix}bdef
/bs {/aString exch def /nXOfs exch def /nWidth exch def currentpoint nXOfs 0 rmoveto pum nWidth aString stringwidth pop div 1 scale aString show pom moveto} bdef
%%EndResource
%%EndProlog
%%BeginSetup
%%EndSetup
%%Page: 1 1
%%BeginPageSetup
%%EndPageSetup
pum
0.02834 0.02835 s 
0 -7865 t
/tm matrix currentmatrix def
tm setmatrix
-4298 -10435 t 
1 1 s 
0.996 c 6199 14096 m  6539 14096 6799 14356 6799 14696 ct 6799 15036 6539 15296 6199 15296 ct 
5859 15296 5599 15036 5599 14696 ct 5599 14356 5859 14096 6199 14096 ct p
5599 14096 m  5599 14096 l  p
6800 15297 m  6800 15297 l  p ef
0 lw 1 lj 0.000 c 6199 14096 m  6538 14096 6798 14356 6798 14696 ct 6798 15036 6538 15296 6199 15296 ct 
5859 15296 5599 15036 5599 14696 ct 5599 14356 5859 14096 6199 14096 ct pc
5599 14096 m  5599 14096 l  pc
6799 15297 m  6799 15297 l  pc
pum
5922 14812 t
150 6 m  107 6 76 -8 56 -37 ct 37 -66 27 -109 27 -166 ct 27 -283 68 -342 150 -342 ct 
175 -342 196 -338 213 -329 ct 230 -320 243 -305 255 -284 ct 255 -284 l  255 -290 256 -301 256 -316 ct 
257 -332 258 -339 259 -339 ct 313 -339 l  311 -327 310 -297 310 -248 ct 310 132 l 
255 132 l  255 -4 l  256 -55 l  255 -55 l  244 -33 230 -17 214 -8 ct 198 1 176 6 150 6 ct 
p
255 -172 m  255 -216 247 -248 233 -269 ct 219 -290 196 -301 165 -301 ct 137 -301 116 -290 104 -269 ct 
91 -248 85 -214 85 -168 ct 85 -121 92 -88 104 -67 ct 117 -47 137 -37 164 -37 ct 
196 -37 219 -48 233 -71 ct 247 -93 255 -127 255 -172 ct p ef
pom
pum
6273 15079 t
190 -126 m  190 -84 183 -52 168 -29 ct 153 -7 131 4 102 4 ct 73 4 51 -7 36 -29 ct 
22 -51 14 -84 14 -126 ct 14 -170 21 -202 36 -224 ct 50 -245 72 -256 103 -256 ct 
133 -256 155 -245 169 -223 ct 183 -202 190 -169 190 -126 ct p
157 -126 m  157 -163 153 -189 145 -205 ct 136 -222 122 -230 103 -230 ct 83 -230 69 -222 60 -206 ct 
51 -190 47 -163 47 -126 ct 47 -90 51 -64 60 -47 ct 69 -31 83 -22 102 -22 ct 121 -22 135 -31 144 -48 ct 
153 -65 157 -91 157 -126 ct p ef
pom
0.996 c 16697 14096 m  17037 14096 17297 14356 17297 14696 ct 17297 15036 17037 15296 16697 15296 ct 
16357 15296 16098 15036 16098 14696 ct 16098 14356 16357 14096 16697 14096 ct 
p
16098 14096 m  16098 14096 l  p
17298 15297 m  17298 15297 l  p ef
105.9784 lw 0.000 c 16697 14096 m  17037 14096 17297 14356 17297 14696 ct 
17297 15036 17037 15296 16697 15296 ct 16357 15296 16097 15036 16097 14696 ct 
16097 14356 16357 14096 16697 14096 ct pc
16097 14096 m  16097 14096 l  pc
17298 15297 m  17298 15297 l  pc
pum
16470 14812 t
150 6 m  107 6 76 -8 56 -37 ct 37 -66 27 -109 27 -166 ct 27 -283 68 -342 150 -342 ct 
175 -342 196 -338 213 -329 ct 230 -320 243 -305 255 -284 ct 255 -284 l  255 -290 256 -301 256 -316 ct 
257 -332 258 -339 259 -339 ct 313 -339 l  311 -327 310 -297 310 -248 ct 310 132 l 
255 132 l  255 -4 l  256 -55 l  255 -55 l  244 -33 230 -17 214 -8 ct 198 1 176 6 150 6 ct 
p
255 -172 m  255 -216 247 -248 233 -269 ct 219 -290 196 -301 165 -301 ct 137 -301 116 -290 104 -269 ct 
91 -248 85 -214 85 -168 ct 85 -121 92 -88 104 -67 ct 117 -47 137 -37 164 -37 ct 
196 -37 219 -48 233 -71 ct 247 -93 255 -127 255 -172 ct p ef
pom
pum
16821 15079 t
65 -170 m  65 0 l  33 0 l  33 -170 l  5 -170 l  5 -194 l  33 -194 l  33 -216 l 
33 -234 36 -247 44 -254 ct 52 -262 64 -266 80 -266 ct 89 -266 97 -265 103 -264 ct 
103 -239 l  97 -240 93 -241 88 -241 ct 80 -241 74 -239 70 -234 ct 67 -230 65 -223 65 -211 ct 
65 -194 l  103 -194 l  103 -170 l  65 -170 l  p ef
pom
pum
5349 13398 t
128 6 m  95 6 69 -3 52 -21 ct 35 -38 27 -63 27 -94 ct 27 -129 38 -155 61 -174 ct 
84 -192 121 -202 172 -204 ct 247 -205 l  247 -223 l  247 -250 241 -270 230 -282 ct 
218 -294 200 -299 175 -299 ct 150 -299 132 -295 121 -287 ct 109 -278 102 -265 100 -246 ct 
42 -251 l  51 -312 96 -342 176 -342 ct 219 -342 250 -332 272 -313 ct 293 -294 304 -266 304 -229 ct 
304 -85 l  304 -68 306 -55 310 -47 ct 314 -39 323 -35 335 -35 ct 340 -35 346 -35 353 -37 ct 
353 -2 l  339 1 325 3 310 3 ct 289 3 274 -2 265 -13 ct 256 -24 250 -41 249 -64 ct 
247 -64 l  233 -39 216 -21 197 -10 ct 178 1 155 6 128 6 ct p
141 -36 m  162 -36 180 -41 196 -50 ct 212 -59 224 -72 233 -88 ct 243 -104 247 -121 247 -138 ct 
247 -166 l  186 -165 l  160 -164 140 -161 126 -157 ct 113 -152 102 -144 95 -134 ct 
88 -123 84 -110 84 -93 ct 84 -75 89 -61 99 -51 ct 109 -41 123 -36 141 -36 ct p ef
470 -68 m  470 -16 l  470 6 468 25 464 39 ct 461 54 454 68 446 82 ct 408 82 l 
427 53 437 26 437 0 ct 410 0 l  410 -68 l  470 -68 l  p ef
855 -169 m  855 -52 814 7 732 7 ct 707 7 686 2 669 -7 ct 652 -16 638 -31 628 -51 ct 
627 -51 l  627 -45 627 -35 626 -22 ct 625 -9 624 -1 624 1 ct 570 1 l  571 -10 572 -33 572 -68 ct 
572 -460 l  628 -460 l  628 -328 l  628 -315 627 -299 626 -281 ct 628 -281 l 
638 -302 652 -318 669 -327 ct 686 -336 707 -341 732 -341 ct 774 -341 806 -327 826 -298 ct 
846 -270 855 -227 855 -169 ct p
797 -167 m  797 -214 791 -247 778 -268 ct 766 -288 746 -298 718 -298 ct 686 -298 664 -287 649 -266 ct 
635 -244 628 -210 628 -163 ct 628 -119 635 -87 649 -66 ct 663 -45 686 -34 717 -34 ct 
745 -34 766 -45 778 -65 ct 791 -86 797 -120 797 -167 ct p ef
1000 -68 m  1000 -16 l  1000 6 998 25 994 39 ct 991 54 984 68 976 82 ct 938 82 l 
957 53 967 26 967 0 ct 940 0 l  940 -68 l  1000 -68 l  p ef
1143 -170 m  1143 -125 1150 -92 1164 -70 ct 1178 -49 1200 -38 1228 -38 ct 1248 -38 1264 -43 1278 -54 ct 
1291 -65 1299 -81 1302 -104 ct 1359 -100 l  1354 -68 1341 -42 1318 -23 ct 1294 -4 1265 6 1229 6 ct 
1183 6 1147 -9 1122 -39 ct 1097 -68 1085 -111 1085 -168 ct 1085 -225 1097 -268 1122 -297 ct 
1147 -327 1183 -342 1229 -342 ct 1263 -342 1292 -333 1314 -315 ct 1337 -298 1351 -273 1357 -242 ct 
1300 -237 l  1297 -256 1289 -271 1278 -282 ct 1266 -293 1249 -298 1227 -298 ct 
1198 -298 1176 -288 1163 -269 ct 1150 -249 1143 -216 1143 -170 ct p ef
pom
1 lw 6199 14096 m  6199 13596 l  5774 13596 l  5774 13841 l  ps
5774 14271 m  5924 13821 l  5624 13821 l  5774 14271 l  p ef
pum
7349 13236 t
141 -36 m  159 -36 177 -40 194 -49 ct 212 -59 226 -71 238 -86 ct 271 -55 l  254 -34 235 -19 212 -9 ct 
190 1 165 6 138 6 ct 100 6 72 -3 52 -20 ct 32 -37 22 -61 22 -92 ct 22 -115 29 -134 45 -149 ct 
60 -164 80 -173 104 -175 ct 104 -176 l  82 -179 64 -187 51 -201 ct 38 -215 32 -232 32 -253 ct 
32 -279 42 -301 63 -317 ct 84 -334 112 -342 146 -342 ct 198 -342 237 -323 263 -285 ct 
223 -257 l  204 -286 178 -300 146 -300 ct 128 -300 113 -296 103 -287 ct 93 -279 88 -267 88 -251 ct 
88 -233 96 -219 113 -210 ct 129 -201 158 -197 199 -197 ct 199 -155 l  168 -155 144 -153 128 -149 ct 
113 -145 101 -138 92 -130 ct 84 -121 80 -108 80 -93 ct 80 -75 85 -61 96 -51 ct 
107 -41 122 -36 141 -36 ct p ef
pom
4299 14696 m  5169 14696 l  ps
5599 14696 m  5149 14546 l  5149 14846 l  5599 14696 l  p ef
0.996 c 9000 14097 m  9340 14097 9600 14357 9600 14697 ct 9600 15037 9340 15297 9000 15297 ct 
8660 15297 8400 15037 8400 14697 ct 8400 14357 8660 14097 9000 14097 ct p
8400 14097 m  8400 14097 l  p
9601 15298 m  9601 15298 l  p ef
0 lw 0.000 c 8999 14097 m  9339 14097 9599 14357 9599 14697 ct 9599 15037 9339 15297 8999 15297 ct 
8659 15297 8399 15037 8399 14697 ct 8399 14357 8659 14097 8999 14097 ct pc
8399 14097 m  8399 14097 l  pc
9600 15298 m  9600 15298 l  pc
pum
8723 14813 t
150 6 m  107 6 76 -8 56 -37 ct 37 -66 27 -109 27 -166 ct 27 -283 68 -342 150 -342 ct 
175 -342 196 -338 213 -329 ct 230 -320 243 -305 255 -284 ct 255 -284 l  255 -290 256 -301 256 -316 ct 
257 -332 258 -339 259 -339 ct 313 -339 l  311 -327 310 -297 310 -248 ct 310 132 l 
255 132 l  255 -4 l  256 -55 l  255 -55 l  244 -33 230 -17 214 -8 ct 198 1 176 6 150 6 ct 
p
255 -172 m  255 -216 247 -248 233 -269 ct 219 -290 196 -301 165 -301 ct 137 -301 116 -290 104 -269 ct 
91 -248 85 -214 85 -168 ct 85 -121 92 -88 104 -67 ct 117 -47 137 -37 164 -37 ct 
196 -37 219 -48 233 -71 ct 247 -93 255 -127 255 -172 ct p ef
pom
pum
9074 15080 t
19 0 m  19 -23 l  25 -37 32 -49 41 -60 ct 50 -71 59 -80 69 -89 ct 78 -98 88 -106 97 -113 ct 
107 -121 116 -128 123 -136 ct 131 -143 137 -151 142 -159 ct 147 -167 149 -176 149 -187 ct 
149 -200 145 -211 137 -219 ct 129 -227 117 -230 103 -230 ct 89 -230 78 -227 69 -219 ct 
60 -212 55 -201 53 -188 ct 20 -191 l  22 -211 31 -227 46 -239 ct 61 -251 80 -257 103 -257 ct 
128 -257 148 -251 162 -239 ct 175 -227 182 -210 182 -188 ct 182 -178 180 -168 175 -158 ct 
171 -149 164 -139 155 -129 ct 147 -120 130 -104 105 -84 ct 91 -73 80 -63 72 -54 ct 
64 -45 58 -36 54 -27 ct 186 -27 l  186 0 l  19 0 l  p ef
pom
0.996 c 13899 14097 m  14239 14097 14499 14357 14499 14697 ct 14499 15037 14239 15297 13899 15297 ct 
13559 15297 13299 15037 13299 14697 ct 13299 14357 13559 14097 13899 14097 ct 
p
13299 14097 m  13299 14097 l  p
14500 15298 m  14500 15298 l  p ef
0.000 c 13898 14097 m  14238 14097 14498 14357 14498 14697 ct 14498 15037 14238 15297 13898 15297 ct 
13558 15297 13298 15037 13298 14697 ct 13298 14357 13558 14097 13898 14097 ct 
pc
13298 14097 m  13298 14097 l  pc
14499 15298 m  14499 15298 l  pc
pum
13622 14813 t
150 6 m  107 6 76 -8 56 -37 ct 37 -66 27 -109 27 -166 ct 27 -283 68 -342 150 -342 ct 
175 -342 196 -338 213 -329 ct 230 -320 243 -305 255 -284 ct 255 -284 l  255 -290 256 -301 256 -316 ct 
257 -332 258 -339 259 -339 ct 313 -339 l  311 -327 310 -297 310 -248 ct 310 132 l 
255 132 l  255 -4 l  256 -55 l  255 -55 l  244 -33 230 -17 214 -8 ct 198 1 176 6 150 6 ct 
p
255 -172 m  255 -216 247 -248 233 -269 ct 219 -290 196 -301 165 -301 ct 137 -301 116 -290 104 -269 ct 
91 -248 85 -214 85 -168 ct 85 -121 92 -88 104 -67 ct 117 -47 137 -37 164 -37 ct 
196 -37 219 -48 233 -71 ct 247 -93 255 -127 255 -172 ct p ef
pom
pum
13973 15080 t
189 -69 m  189 -46 181 -28 166 -15 ct 151 -2 130 4 103 4 ct 77 4 57 -2 41 -13 ct 
26 -25 17 -42 14 -64 ct 47 -67 l  52 -38 70 -23 103 -23 ct 119 -23 132 -27 141 -35 ct 
150 -43 155 -55 155 -70 ct 155 -84 150 -95 139 -102 ct 128 -110 113 -114 93 -114 ct 
75 -114 l  75 -142 l  92 -142 l  110 -142 124 -146 134 -154 ct 143 -161 148 -172 148 -186 ct 
148 -200 144 -210 136 -218 ct 128 -226 117 -230 101 -230 ct 87 -230 75 -226 66 -219 ct 
57 -212 52 -201 51 -188 ct 18 -190 l  21 -211 29 -227 44 -239 ct 59 -251 78 -257 101 -257 ct 
127 -257 146 -251 160 -239 ct 174 -227 181 -210 181 -189 ct 181 -173 177 -160 168 -150 ct 
159 -140 146 -133 128 -129 ct 128 -128 l  147 -126 162 -120 173 -109 ct 183 -99 189 -85 189 -69 ct 
p ef
pom
0.996 c 9001 17098 m  9341 17098 9601 17358 9601 17697 ct 9601 18037 9341 18297 9001 18297 ct 
8661 18297 8401 18037 8401 17697 ct 8401 17358 8661 17098 9001 17098 ct p
8401 17098 m  8401 17098 l  p
9602 18298 m  9602 18298 l  p ef
0.000 c 9000 17097 m  9340 17097 9600 17357 9600 17697 ct 9600 18037 9340 18297 9000 18297 ct 
8660 18297 8400 18037 8400 17697 ct 8400 17357 8660 17097 9000 17097 ct pc
8400 17097 m  8400 17097 l  pc
9601 18298 m  9601 18298 l  pc
pum
8724 17813 t
150 6 m  107 6 76 -8 56 -37 ct 37 -66 27 -109 27 -166 ct 27 -283 68 -342 150 -342 ct 
175 -342 196 -338 213 -329 ct 230 -320 243 -305 255 -284 ct 255 -284 l  255 -290 256 -301 256 -316 ct 
257 -332 258 -339 259 -339 ct 313 -339 l  311 -327 310 -297 310 -248 ct 310 132 l 
255 132 l  255 -4 l  256 -55 l  255 -55 l  244 -33 230 -17 214 -8 ct 198 1 176 6 150 6 ct 
p
255 -172 m  255 -216 247 -248 233 -269 ct 219 -290 196 -301 165 -301 ct 137 -301 116 -290 104 -269 ct 
91 -248 85 -214 85 -168 ct 85 -121 92 -88 104 -67 ct 117 -47 137 -37 164 -37 ct 
196 -37 219 -48 233 -71 ct 247 -93 255 -127 255 -172 ct p ef
pom
pum
9075 18080 t
158 -57 m  158 1 l  128 1 l  128 -57 l  8 -57 l  8 -82 l  124 -253 l  158 -253 l 
158 -83 l  194 -83 l  194 -57 l  158 -57 l  p
128 -217 m  128 -216 126 -213 123 -207 ct 120 -201 117 -197 116 -195 ct 51 -99 l 
41 -86 l  38 -83 l  128 -83 l  128 -217 l  p ef
pom
0.996 c 14900 17098 m  15240 17098 15500 17358 15500 17697 ct 15500 18037 15240 18297 14900 18297 ct 
14560 18297 14300 18037 14300 17697 ct 14300 17358 14560 17098 14900 17098 ct 
p
14300 17098 m  14300 17098 l  p
15501 18298 m  15501 18298 l  p ef
0.000 c 14899 17097 m  15239 17097 15499 17357 15499 17697 ct 15499 18037 15239 18297 14899 18297 ct 
14559 18297 14299 18037 14299 17697 ct 14299 17357 14559 17097 14899 17097 ct 
pc
14299 17097 m  14299 17097 l  pc
15500 18298 m  15500 18298 l  pc
pum
14623 17813 t
150 6 m  107 6 76 -8 56 -37 ct 37 -66 27 -109 27 -166 ct 27 -283 68 -342 150 -342 ct 
175 -342 196 -338 213 -329 ct 230 -320 243 -305 255 -284 ct 255 -284 l  255 -290 256 -301 256 -316 ct 
257 -332 258 -339 259 -339 ct 313 -339 l  311 -327 310 -297 310 -248 ct 310 132 l 
255 132 l  255 -4 l  256 -55 l  255 -55 l  244 -33 230 -17 214 -8 ct 198 1 176 6 150 6 ct 
p
255 -172 m  255 -216 247 -248 233 -269 ct 219 -290 196 -301 165 -301 ct 137 -301 116 -290 104 -269 ct 
91 -248 85 -214 85 -168 ct 85 -121 92 -88 104 -67 ct 117 -47 137 -37 164 -37 ct 
196 -37 219 -48 233 -71 ct 247 -93 255 -127 255 -172 ct p ef
pom
pum
14974 18080 t
189 -82 m  189 -56 181 -35 167 -19 ct 152 -4 132 4 107 4 ct 78 4 56 -7 41 -28 ct 
26 -49 19 -80 19 -120 ct 19 -164 27 -198 42 -221 ct 58 -245 80 -256 109 -256 ct 
147 -256 172 -239 181 -205 ct 151 -199 l  144 -220 130 -230 109 -230 ct 90 -230 76 -221 66 -204 ct 
56 -187 51 -162 51 -130 ct 57 -140 65 -149 76 -154 ct 86 -160 99 -163 112 -163 ct 
136 -163 154 -156 168 -141 ct 182 -127 189 -107 189 -82 ct p
156 -81 m  156 -99 151 -113 142 -123 ct 133 -133 121 -138 105 -138 ct 89 -138 77 -134 68 -125 ct 
59 -116 54 -104 54 -89 ct 54 -69 59 -53 69 -41 ct 78 -28 91 -22 106 -22 ct 121 -22 133 -27 142 -38 ct 
151 -48 156 -63 156 -81 ct p ef
pom
0.996 c 12000 17098 m  12340 17098 12600 17358 12600 17697 ct 12600 18037 12340 18297 12000 18297 ct 
11660 18297 11400 18037 11400 17697 ct 11400 17358 11660 17098 12000 17098 ct 
p
11400 17098 m  11400 17098 l  p
12601 18298 m  12601 18298 l  p ef
0.000 c 12000 17097 m  12340 17097 12600 17357 12600 17697 ct 12600 18037 12340 18297 12000 18297 ct 
11660 18297 11400 18037 11400 17697 ct 11400 17357 11660 17097 12000 17097 ct 
pc
11400 17097 m  11400 17097 l  pc
12601 18298 m  12601 18298 l  pc
pum
11723 17813 t
150 6 m  107 6 76 -8 56 -37 ct 37 -66 27 -109 27 -166 ct 27 -283 68 -342 150 -342 ct 
175 -342 196 -338 213 -329 ct 230 -320 243 -305 255 -284 ct 255 -284 l  255 -290 256 -301 256 -316 ct 
257 -332 258 -339 259 -339 ct 313 -339 l  311 -327 310 -297 310 -248 ct 310 132 l 
255 132 l  255 -4 l  256 -55 l  255 -55 l  244 -33 230 -17 214 -8 ct 198 1 176 6 150 6 ct 
p
255 -172 m  255 -216 247 -248 233 -269 ct 219 -290 196 -301 165 -301 ct 137 -301 116 -290 104 -269 ct 
91 -248 85 -214 85 -168 ct 85 -121 92 -88 104 -67 ct 117 -47 137 -37 164 -37 ct 
196 -37 219 -48 233 -71 ct 247 -93 255 -127 255 -172 ct p ef
pom
pum
12074 18080 t
189 -82 m  189 -55 181 -34 165 -19 ct 150 -4 128 4 99 4 ct 76 4 57 -1 42 -11 ct 
28 -22 19 -37 15 -56 ct 47 -60 l  54 -35 72 -22 100 -22 ct 117 -22 131 -28 141 -38 ct 
151 -49 156 -63 156 -81 ct 156 -97 151 -110 141 -120 ct 131 -130 118 -135 101 -135 ct 
92 -135 84 -133 76 -130 ct 69 -128 61 -123 54 -116 ct 22 -116 l  31 -253 l  174 -253 l 
174 -226 l  60 -226 l  55 -145 l  69 -156 87 -161 107 -161 ct 132 -161 152 -154 167 -139 ct 
182 -124 189 -105 189 -82 ct p ef
pom
0.996 c 11500 10599 m  11840 10599 12100 10859 12100 11199 ct 12100 11539 11840 11799 11500 11799 ct 
11160 11799 10900 11539 10900 11199 ct 10900 10859 11160 10599 11500 10599 ct 
p
10900 10599 m  10900 10599 l  p
12101 11800 m  12101 11800 l  p ef
0.000 c 11500 10599 m  11840 10599 12100 10859 12100 11199 ct 12100 11539 11840 11798 11500 11798 ct 
11160 11798 10900 11539 10900 11199 ct 10900 10859 11160 10599 11500 10599 ct 
pc
10900 10599 m  10900 10599 l  pc
12101 11799 m  12101 11799 l  pc
pum
11223 11315 t
150 6 m  107 6 76 -8 56 -37 ct 37 -66 27 -109 27 -166 ct 27 -283 68 -342 150 -342 ct 
175 -342 196 -338 213 -329 ct 230 -320 243 -305 255 -284 ct 255 -284 l  255 -290 256 -301 256 -316 ct 
257 -332 258 -339 259 -339 ct 313 -339 l  311 -327 310 -297 310 -248 ct 310 132 l 
255 132 l  255 -4 l  256 -55 l  255 -55 l  244 -33 230 -17 214 -8 ct 198 1 176 6 150 6 ct 
p
255 -172 m  255 -216 247 -248 233 -269 ct 219 -290 196 -301 165 -301 ct 137 -301 116 -290 104 -269 ct 
91 -248 85 -214 85 -168 ct 85 -121 92 -88 104 -67 ct 117 -47 137 -37 164 -37 ct 
196 -37 219 -48 233 -71 ct 247 -93 255 -127 255 -172 ct p ef
pom
pum
11574 11582 t
28 0 m  28 -27 l  93 -27 l  93 -222 l  35 -181 l  35 -212 l  95 -253 l 
125 -253 l  125 -27 l  187 -27 l  187 0 l  28 0 l  p ef
pom
1 lw 6799 14696 m  7970 14697 l  ps
8400 14697 m  7950 14547 l  7950 14847 l  8400 14697 l  p ef
9600 14697 m  12869 14697 l  ps
13299 14697 m  12849 14547 l  12849 14847 l  13299 14697 l  p ef
14499 14697 m  15668 14696 l  ps
16098 14696 m  15648 14546 l  15648 14846 l  16098 14696 l  p ef
9601 17697 m  10970 17697 l  ps
11400 17697 m  10950 17548 l  10950 17847 l  11400 17697 l  p ef
12600 17697 m  13870 17697 l  ps
14300 17697 m  13850 17548 l  13850 17847 l  14300 17697 l  p ef
6624 14271 m  7799 14271 l  7799 11199 l  10470 11199 l  ps
10900 11199 m  10450 11049 l  10450 11349 l  10900 11199 l  p ef
6624 15121 m  7601 15121 l  7601 17697 l  7971 17697 l  ps
8401 17697 m  7951 17548 l  7951 17847 l  8401 17697 l  p ef
12100 11199 m  16697 11199 l  16697 13667 l  ps
16697 14096 m  16847 13647 l  16547 13647 l  16697 14096 l  p ef
15500 17697 m  16697 17697 l  16697 15726 l  ps
16697 15296 m  16547 15746 l  16847 15746 l  16697 15296 l  p ef
pum
7150 16435 t
141 -36 m  159 -36 177 -40 194 -49 ct 212 -59 226 -71 238 -86 ct 271 -55 l  254 -34 235 -19 212 -9 ct 
190 1 165 6 138 6 ct 100 6 72 -3 52 -20 ct 32 -37 22 -61 22 -92 ct 22 -115 29 -134 45 -149 ct 
60 -164 80 -173 104 -175 ct 104 -176 l  82 -179 64 -187 51 -201 ct 38 -215 32 -232 32 -253 ct 
32 -279 42 -301 63 -317 ct 84 -334 112 -342 146 -342 ct 198 -342 237 -323 263 -285 ct 
223 -257 l  204 -286 178 -300 146 -300 ct 128 -300 113 -296 103 -287 ct 93 -279 88 -267 88 -251 ct 
88 -233 96 -219 113 -210 ct 129 -201 158 -197 199 -197 ct 199 -155 l  168 -155 144 -153 128 -149 ct 
113 -145 101 -138 92 -130 ct 84 -121 80 -108 80 -93 ct 80 -75 85 -61 96 -51 ct 
107 -41 122 -36 141 -36 ct p ef
pom
pum
7350 14735 t
141 -36 m  159 -36 177 -40 194 -49 ct 212 -59 226 -71 238 -86 ct 271 -55 l  254 -34 235 -19 212 -9 ct 
190 1 165 6 138 6 ct 100 6 72 -3 52 -20 ct 32 -37 22 -61 22 -92 ct 22 -115 29 -134 45 -149 ct 
60 -164 80 -173 104 -175 ct 104 -176 l  82 -179 64 -187 51 -201 ct 38 -215 32 -232 32 -253 ct 
32 -279 42 -301 63 -317 ct 84 -334 112 -342 146 -342 ct 198 -342 237 -323 263 -285 ct 
223 -257 l  204 -286 178 -300 146 -300 ct 128 -300 113 -296 103 -287 ct 93 -279 88 -267 88 -251 ct 
88 -233 96 -219 113 -210 ct 129 -201 158 -197 199 -197 ct 199 -155 l  168 -155 144 -153 128 -149 ct 
113 -145 101 -138 92 -130 ct 84 -121 80 -108 80 -93 ct 80 -75 85 -61 96 -51 ct 
107 -41 122 -36 141 -36 ct p ef
pom
pum
13049 11136 t
128 6 m  95 6 69 -3 52 -21 ct 35 -38 27 -63 27 -94 ct 27 -129 38 -155 61 -174 ct 
84 -192 121 -202 172 -204 ct 247 -205 l  247 -223 l  247 -250 241 -270 230 -282 ct 
218 -294 200 -299 175 -299 ct 150 -299 132 -295 121 -287 ct 109 -278 102 -265 100 -246 ct 
42 -251 l  51 -312 96 -342 176 -342 ct 219 -342 250 -332 272 -313 ct 293 -294 304 -266 304 -229 ct 
304 -85 l  304 -68 306 -55 310 -47 ct 314 -39 323 -35 335 -35 ct 340 -35 346 -35 353 -37 ct 
353 -2 l  339 1 325 3 310 3 ct 289 3 274 -2 265 -13 ct 256 -24 250 -41 249 -64 ct 
247 -64 l  233 -39 216 -21 197 -10 ct 178 1 155 6 128 6 ct p
141 -36 m  162 -36 180 -41 196 -50 ct 212 -59 224 -72 233 -88 ct 243 -104 247 -121 247 -138 ct 
247 -166 l  186 -165 l  160 -164 140 -161 126 -157 ct 113 -152 102 -144 95 -134 ct 
88 -123 84 -110 84 -93 ct 84 -75 89 -61 99 -51 ct 109 -41 123 -36 141 -36 ct p ef
pom
pum
10950 14535 t
326 -169 m  326 -52 285 7 203 7 ct 178 7 157 2 140 -7 ct 123 -16 109 -31 99 -51 ct 
98 -51 l  98 -45 98 -35 97 -22 ct 96 -9 95 -1 95 1 ct 41 1 l  42 -10 43 -33 43 -68 ct 
43 -460 l  99 -460 l  99 -328 l  99 -315 98 -299 97 -281 ct 99 -281 l  109 -302 123 -318 140 -327 ct 
157 -336 178 -341 203 -341 ct 245 -341 277 -327 297 -298 ct 317 -270 326 -227 326 -169 ct 
p
268 -167 m  268 -214 262 -247 249 -268 ct 237 -288 217 -298 189 -298 ct 157 -298 135 -287 120 -266 ct 
106 -244 99 -210 99 -163 ct 99 -119 106 -87 120 -66 ct 134 -45 157 -34 188 -34 ct 
216 -34 237 -45 249 -65 ct 262 -86 268 -120 268 -167 ct p ef
pom
pum
13050 11136 t
128 6 m  95 6 69 -3 52 -21 ct 35 -38 27 -63 27 -94 ct 27 -129 38 -155 61 -174 ct 
84 -192 121 -202 172 -204 ct 247 -205 l  247 -223 l  247 -250 241 -270 230 -282 ct 
218 -294 200 -299 175 -299 ct 150 -299 132 -295 121 -287 ct 109 -278 102 -265 100 -246 ct 
42 -251 l  51 -312 96 -342 176 -342 ct 219 -342 250 -332 272 -313 ct 293 -294 304 -266 304 -229 ct 
304 -85 l  304 -68 306 -55 310 -47 ct 314 -39 323 -35 335 -35 ct 340 -35 346 -35 353 -37 ct 
353 -2 l  339 1 325 3 310 3 ct 289 3 274 -2 265 -13 ct 256 -24 250 -41 249 -64 ct 
247 -64 l  233 -39 216 -21 197 -10 ct 178 1 155 6 128 6 ct p
141 -36 m  162 -36 180 -41 196 -50 ct 212 -59 224 -72 233 -88 ct 243 -104 247 -121 247 -138 ct 
247 -166 l  186 -165 l  160 -164 140 -161 126 -157 ct 113 -152 102 -144 95 -134 ct 
88 -123 84 -110 84 -93 ct 84 -75 89 -61 99 -51 ct 109 -41 123 -36 141 -36 ct p ef
pom
pum
15050 14535 t
326 -169 m  326 -52 285 7 203 7 ct 178 7 157 2 140 -7 ct 123 -16 109 -31 99 -51 ct 
98 -51 l  98 -45 98 -35 97 -22 ct 96 -9 95 -1 95 1 ct 41 1 l  42 -10 43 -33 43 -68 ct 
43 -460 l  99 -460 l  99 -328 l  99 -315 98 -299 97 -281 ct 99 -281 l  109 -302 123 -318 140 -327 ct 
157 -336 178 -341 203 -341 ct 245 -341 277 -327 297 -298 ct 317 -270 326 -227 326 -169 ct 
p
268 -167 m  268 -214 262 -247 249 -268 ct 237 -288 217 -298 189 -298 ct 157 -298 135 -287 120 -266 ct 
106 -244 99 -210 99 -163 ct 99 -119 106 -87 120 -66 ct 134 -45 157 -34 188 -34 ct 
216 -34 237 -45 249 -65 ct 262 -86 268 -120 268 -167 ct p ef
pom
pum
10250 17535 t
85 -170 m  85 -125 92 -92 106 -70 ct 120 -49 142 -38 170 -38 ct 190 -38 206 -43 220 -54 ct 
233 -65 241 -81 244 -104 ct 301 -100 l  296 -68 283 -42 260 -23 ct 236 -4 207 6 171 6 ct 
125 6 89 -9 64 -39 ct 39 -68 27 -111 27 -168 ct 27 -225 39 -268 64 -297 ct 89 -327 125 -342 171 -342 ct 
205 -342 234 -333 256 -315 ct 279 -298 293 -273 299 -242 ct 242 -237 l  239 -256 231 -271 220 -282 ct 
208 -293 191 -298 169 -298 ct 140 -298 118 -288 105 -269 ct 92 -249 85 -216 85 -170 ct 
p ef
pom
pum
13051 17535 t
85 -170 m  85 -125 92 -92 106 -70 ct 120 -49 142 -38 170 -38 ct 190 -38 206 -43 220 -54 ct 
233 -65 241 -81 244 -104 ct 301 -100 l  296 -68 283 -42 260 -23 ct 236 -4 207 6 171 6 ct 
125 6 89 -9 64 -39 ct 39 -68 27 -111 27 -168 ct 27 -225 39 -268 64 -297 ct 89 -327 125 -342 171 -342 ct 
205 -342 234 -333 256 -315 ct 279 -298 293 -273 299 -242 ct 242 -237 l  239 -256 231 -271 220 -282 ct 
208 -293 191 -298 169 -298 ct 140 -298 118 -288 105 -269 ct 92 -249 85 -216 85 -170 ct 
p ef
pom
pum
15951 17535 t
85 -170 m  85 -125 92 -92 106 -70 ct 120 -49 142 -38 170 -38 ct 190 -38 206 -43 220 -54 ct 
233 -65 241 -81 244 -104 ct 301 -100 l  296 -68 283 -42 260 -23 ct 236 -4 207 6 171 6 ct 
125 6 89 -9 64 -39 ct 39 -68 27 -111 27 -168 ct 27 -225 39 -268 64 -297 ct 89 -327 125 -342 171 -342 ct 
205 -342 234 -333 256 -315 ct 279 -298 293 -273 299 -242 ct 242 -237 l  239 -256 231 -271 220 -282 ct 
208 -293 191 -298 169 -298 ct 140 -298 118 -288 105 -269 ct 92 -249 85 -216 85 -170 ct 
p ef
pom
0 7865 t 
pom
count op_count sub {pop} repeat countdictstack dict_count sub {end} repeat b4_inc_state restore
%%PageTrailer
%%Trailer
%%EOF
