%!PS-Adobe-3.0 EPSF-3.0 
%%BoundingBox: 0 0 254 124
%%Pages: 0
%%Creator: LibreOffice 5.2
%%Title: none
%%CreationDate: none
%%LanguageLevel: 2
%%EndComments
%%BeginProlog
%%BeginResource: procset SDRes-Prolog 1.0 0
/b4_inc_state save def
/dict_count countdictstack def
/op_count count 1 sub def
userdict begin
0 setgray 0 setlinecap 1 setlinewidth 0 setlinejoin 10 setmiterlimit[] 0 setdash newpath
/languagelevel where {pop languagelevel 1 ne {false setstrokeadjust false setoverprint} if} if
/bdef {bind def} bind def
/c {setgray} bdef
/l {neg lineto} bdef
/rl {neg rlineto} bdef
/lc {setlinecap} bdef
/lj {setlinejoin} bdef
/lw {setlinewidth} bdef
/ml {setmiterlimit} bdef
/ld {setdash} bdef
/m {neg moveto} bdef
/ct {6 2 roll neg 6 2 roll neg 6 2 roll neg curveto} bdef
/r {rotate} bdef
/t {neg translate} bdef
/s {scale} bdef
/sw {show} bdef
/gs {gsave} bdef
/gr {grestore} bdef
/f {findfont dup length dict begin
{1 index /FID ne {def} {pop pop} ifelse} forall /Encoding ISOLatin1Encoding def
currentdict end /NFont exch definefont pop /NFont findfont} bdef
/p {closepath} bdef
/sf {scalefont setfont} bdef
/ef {eofill}bdef
/pc {closepath stroke}bdef
/ps {stroke}bdef
/pum {matrix currentmatrix}bdef
/pom {setmatrix}bdef
/bs {/aString exch def /nXOfs exch def /nWidth exch def currentpoint nXOfs 0 rmoveto pum nWidth aString stringwidth pop div 1 scale aString show pom moveto} bdef
%%EndResource
%%EndProlog
%%BeginSetup
%%EndSetup
%%Page: 1 1
%%BeginPageSetup
%%EndPageSetup
pum
0.02836 0.02842 s 
0 -4362 t
/tm matrix currentmatrix def
tm setmatrix
-5798 -11535 t 
1 1 s 
0.996 c 7598 13297 m  7938 13297 8198 13557 8198 13897 ct 8198 14237 7938 14497 7598 14497 ct 
7258 14497 6998 14237 6998 13897 ct 6998 13557 7258 13297 7598 13297 ct p
6998 13297 m  6998 13297 l  p
8199 14498 m  8199 14498 l  p ef
105.97601 lw 1 lj 0.000 c 7598 13296 m  7938 13296 8198 13556 8198 13896 ct 
8198 14236 7938 14496 7598 14496 ct 7258 14496 6998 14236 6998 13896 ct 6998 13556 7258 13296 7598 13296 ct 
pc
6998 13296 m  6998 13296 l  pc
8199 14497 m  8199 14497 l  pc
pum
7321 14013 t
150 6 m  107 6 76 -8 56 -37 ct 37 -66 27 -109 27 -166 ct 27 -283 68 -342 150 -342 ct 
175 -342 196 -338 213 -329 ct 230 -320 243 -305 255 -284 ct 255 -284 l  255 -290 256 -301 256 -316 ct 
257 -332 258 -339 259 -339 ct 313 -339 l  311 -327 310 -297 310 -248 ct 310 132 l 
255 132 l  255 -4 l  256 -55 l  255 -55 l  244 -33 230 -17 214 -8 ct 198 1 176 6 150 6 ct 
p
255 -172 m  255 -216 247 -248 233 -269 ct 219 -290 196 -301 165 -301 ct 137 -301 116 -290 104 -269 ct 
91 -248 85 -214 85 -168 ct 85 -121 92 -88 104 -67 ct 117 -47 137 -37 164 -37 ct 
196 -37 219 -48 233 -71 ct 247 -93 255 -127 255 -172 ct p ef
pom
pum
7672 14280 t
190 -126 m  190 -84 183 -52 168 -29 ct 153 -7 131 4 102 4 ct 73 4 51 -7 36 -29 ct 
22 -51 14 -84 14 -126 ct 14 -170 21 -202 36 -224 ct 50 -245 72 -256 103 -256 ct 
133 -256 155 -245 169 -223 ct 183 -202 190 -169 190 -126 ct p
157 -126 m  157 -163 153 -189 145 -205 ct 136 -222 122 -230 103 -230 ct 83 -230 69 -222 60 -206 ct 
51 -190 47 -163 47 -126 ct 47 -90 51 -64 60 -47 ct 69 -31 83 -22 102 -22 ct 121 -22 135 -31 144 -48 ct 
153 -65 157 -91 157 -126 ct p ef
pom
0.996 c 10798 13297 m  11138 13297 11397 13557 11397 13897 ct 11397 14237 11138 14497 10798 14497 ct 
10458 14497 10198 14237 10198 13897 ct 10198 13557 10458 13297 10798 13297 ct 
p
10198 13297 m  10198 13297 l  p
11398 14498 m  11398 14498 l  p ef
0.000 c 10797 13296 m  11137 13296 11397 13556 11397 13896 ct 11397 14236 11137 14496 10797 14496 ct 
10457 14496 10197 14236 10197 13896 ct 10197 13556 10457 13296 10797 13296 ct 
pc
10197 13296 m  10197 13296 l  pc
11398 14497 m  11398 14497 l  pc
pum
10521 14013 t
150 6 m  107 6 76 -8 56 -37 ct 37 -66 27 -109 27 -166 ct 27 -283 68 -342 150 -342 ct 
175 -342 196 -338 213 -329 ct 230 -320 243 -305 255 -284 ct 255 -284 l  255 -290 256 -301 256 -316 ct 
257 -332 258 -339 259 -339 ct 313 -339 l  311 -327 310 -297 310 -248 ct 310 132 l 
255 132 l  255 -4 l  256 -55 l  255 -55 l  244 -33 230 -17 214 -8 ct 198 1 176 6 150 6 ct 
p
255 -172 m  255 -216 247 -248 233 -269 ct 219 -290 196 -301 165 -301 ct 137 -301 116 -290 104 -269 ct 
91 -248 85 -214 85 -168 ct 85 -121 92 -88 104 -67 ct 117 -47 137 -37 164 -37 ct 
196 -37 219 -48 233 -71 ct 247 -93 255 -127 255 -172 ct p ef
pom
pum
10872 14280 t
28 0 m  28 -27 l  93 -27 l  93 -222 l  35 -181 l  35 -212 l  95 -253 l 
125 -253 l  125 -27 l  187 -27 l  187 0 l  28 0 l  p ef
pom
0.996 c 14097 13297 m  14437 13297 14697 13557 14697 13897 ct 14697 14237 14437 14497 14097 14497 ct 
13757 14497 13497 14237 13497 13897 ct 13497 13557 13757 13297 14097 13297 ct 
p
13497 13297 m  13497 13297 l  p
14698 14498 m  14698 14498 l  p ef
0.000 c 14096 13296 m  14436 13296 14696 13556 14696 13896 ct 14696 14236 14436 14496 14096 14496 ct 
13756 14496 13496 14236 13496 13896 ct 13496 13556 13756 13296 14096 13296 ct 
pc
13496 13296 m  13496 13296 l  pc
14697 14497 m  14697 14497 l  pc
pum
13870 14013 t
150 6 m  107 6 76 -8 56 -37 ct 37 -66 27 -109 27 -166 ct 27 -283 68 -342 150 -342 ct 
175 -342 196 -338 213 -329 ct 230 -320 243 -305 255 -284 ct 255 -284 l  255 -290 256 -301 256 -316 ct 
257 -332 258 -339 259 -339 ct 313 -339 l  311 -327 310 -297 310 -248 ct 310 132 l 
255 132 l  255 -4 l  256 -55 l  255 -55 l  244 -33 230 -17 214 -8 ct 198 1 176 6 150 6 ct 
p
255 -172 m  255 -216 247 -248 233 -269 ct 219 -290 196 -301 165 -301 ct 137 -301 116 -290 104 -269 ct 
91 -248 85 -214 85 -168 ct 85 -121 92 -88 104 -67 ct 117 -47 137 -37 164 -37 ct 
196 -37 219 -48 233 -71 ct 247 -93 255 -127 255 -172 ct p ef
pom
pum
14221 14280 t
65 -170 m  65 0 l  33 0 l  33 -170 l  5 -170 l  5 -194 l  33 -194 l  33 -216 l 
33 -234 36 -247 44 -254 ct 52 -262 64 -266 80 -266 ct 89 -266 97 -265 103 -264 ct 
103 -239 l  97 -240 93 -241 88 -241 ct 80 -241 74 -239 70 -234 ct 67 -230 65 -223 65 -211 ct 
65 -194 l  103 -194 l  103 -170 l  65 -170 l  p ef
pom
1 lw 5799 13897 m  6569 13897 l  ps
6998 13897 m  6549 13747 l  6549 14047 l  6998 13897 l  p ef
8198 13897 m  9768 13897 l  ps
10198 13897 m  9748 13747 l  9748 14047 l  10198 13897 l  p ef
pum
8588 13836 t
128 6 m  95 6 69 -3 52 -21 ct 35 -38 27 -63 27 -94 ct 27 -129 38 -155 61 -174 ct 
84 -192 121 -202 172 -204 ct 247 -205 l  247 -223 l  247 -250 241 -270 230 -282 ct 
218 -294 200 -299 175 -299 ct 150 -299 132 -295 121 -287 ct 109 -278 102 -265 100 -246 ct 
42 -251 l  51 -312 96 -342 176 -342 ct 219 -342 250 -332 272 -313 ct 293 -294 304 -266 304 -229 ct 
304 -85 l  304 -68 306 -55 310 -47 ct 314 -39 323 -35 335 -35 ct 340 -35 346 -35 353 -37 ct 
353 -2 l  339 1 325 3 310 3 ct 289 3 274 -2 265 -13 ct 256 -24 250 -41 249 -64 ct 
247 -64 l  233 -39 216 -21 197 -10 ct 178 1 155 6 128 6 ct p
141 -36 m  162 -36 180 -41 196 -50 ct 212 -59 224 -72 233 -88 ct 243 -104 247 -121 247 -138 ct 
247 -166 l  186 -165 l  160 -164 140 -161 126 -157 ct 113 -152 102 -144 95 -134 ct 
88 -123 84 -110 84 -93 ct 84 -75 89 -61 99 -51 ct 109 -41 123 -36 141 -36 ct p ef
470 -68 m  470 -16 l  470 6 468 25 464 39 ct 461 54 454 68 446 82 ct 408 82 l 
427 53 437 26 437 0 ct 410 0 l  410 -68 l  470 -68 l  p ef
855 -169 m  855 -52 814 7 732 7 ct 707 7 686 2 669 -7 ct 652 -16 638 -31 628 -51 ct 
627 -51 l  627 -45 627 -35 626 -22 ct 625 -9 624 -1 624 1 ct 570 1 l  571 -10 572 -33 572 -68 ct 
572 -460 l  628 -460 l  628 -328 l  628 -315 627 -299 626 -281 ct 628 -281 l 
638 -302 652 -318 669 -327 ct 686 -336 707 -341 732 -341 ct 774 -341 806 -327 826 -298 ct 
846 -270 855 -227 855 -169 ct p
797 -167 m  797 -214 791 -247 778 -268 ct 766 -288 746 -298 718 -298 ct 686 -298 664 -287 649 -266 ct 
635 -244 628 -210 628 -163 ct 628 -119 635 -87 649 -66 ct 663 -45 686 -34 717 -34 ct 
745 -34 766 -45 778 -65 ct 791 -86 797 -120 797 -167 ct p ef
pom
pum
11788 13836 t
128 6 m  95 6 69 -3 52 -21 ct 35 -38 27 -63 27 -94 ct 27 -129 38 -155 61 -174 ct 
84 -192 121 -202 172 -204 ct 247 -205 l  247 -223 l  247 -250 241 -270 230 -282 ct 
218 -294 200 -299 175 -299 ct 150 -299 132 -295 121 -287 ct 109 -278 102 -265 100 -246 ct 
42 -251 l  51 -312 96 -342 176 -342 ct 219 -342 250 -332 272 -313 ct 293 -294 304 -266 304 -229 ct 
304 -85 l  304 -68 306 -55 310 -47 ct 314 -39 323 -35 335 -35 ct 340 -35 346 -35 353 -37 ct 
353 -2 l  339 1 325 3 310 3 ct 289 3 274 -2 265 -13 ct 256 -24 250 -41 249 -64 ct 
247 -64 l  233 -39 216 -21 197 -10 ct 178 1 155 6 128 6 ct p
141 -36 m  162 -36 180 -41 196 -50 ct 212 -59 224 -72 233 -88 ct 243 -104 247 -121 247 -138 ct 
247 -166 l  186 -165 l  160 -164 140 -161 126 -157 ct 113 -152 102 -144 95 -134 ct 
88 -123 84 -110 84 -93 ct 84 -75 89 -61 99 -51 ct 109 -41 123 -36 141 -36 ct p ef
470 -68 m  470 -16 l  470 6 468 25 464 39 ct 461 54 454 68 446 82 ct 408 82 l 
427 53 437 26 437 0 ct 410 0 l  410 -68 l  470 -68 l  p ef
855 -169 m  855 -52 814 7 732 7 ct 707 7 686 2 669 -7 ct 652 -16 638 -31 628 -51 ct 
627 -51 l  627 -45 627 -35 626 -22 ct 625 -9 624 -1 624 1 ct 570 1 l  571 -10 572 -33 572 -68 ct 
572 -460 l  628 -460 l  628 -328 l  628 -315 627 -299 626 -281 ct 628 -281 l 
638 -302 652 -318 669 -327 ct 686 -336 707 -341 732 -341 ct 774 -341 806 -327 826 -298 ct 
846 -270 855 -227 855 -169 ct p
797 -167 m  797 -214 791 -247 778 -268 ct 766 -288 746 -298 718 -298 ct 686 -298 664 -287 649 -266 ct 
635 -244 628 -210 628 -163 ct 628 -119 635 -87 649 -66 ct 663 -45 686 -34 717 -34 ct 
745 -34 766 -45 778 -65 ct 791 -86 797 -120 797 -167 ct p ef
pom
11397 13897 m  13067 13897 l  ps
13497 13897 m  13047 13747 l  13047 14047 l  13497 13897 l  p ef
8023 14322 m  8023 15051 l  7173 15051 l  7173 14752 l  ps
7173 14322 m  7023 14772 l  7323 14772 l  7173 14322 l  p ef
7598 13297 m  7598 12397 l  14097 12397 l  14097 12867 l  ps
14097 13297 m  14247 12847 l  13947 12847 l  14097 13297 l  p ef
11222 14322 m  11222 15051 l  10373 15051 l  10373 14752 l  ps
10373 14322 m  10223 14772 l  10523 14772 l  10373 14322 l  p ef
14522 14322 m  14522 15051 l  13672 15051 l  13672 14752 l  ps
13672 14322 m  13522 14772 l  13822 14772 l  13672 14322 l  p ef
pum
10490 12236 t
128 6 m  95 6 69 -3 52 -21 ct 35 -38 27 -63 27 -94 ct 27 -129 38 -155 61 -174 ct 
84 -192 121 -202 172 -204 ct 247 -205 l  247 -223 l  247 -250 241 -270 230 -282 ct 
218 -294 200 -299 175 -299 ct 150 -299 132 -295 121 -287 ct 109 -278 102 -265 100 -246 ct 
42 -251 l  51 -312 96 -342 176 -342 ct 219 -342 250 -332 272 -313 ct 293 -294 304 -266 304 -229 ct 
304 -85 l  304 -68 306 -55 310 -47 ct 314 -39 323 -35 335 -35 ct 340 -35 346 -35 353 -37 ct 
353 -2 l  339 1 325 3 310 3 ct 289 3 274 -2 265 -13 ct 256 -24 250 -41 249 -64 ct 
247 -64 l  233 -39 216 -21 197 -10 ct 178 1 155 6 128 6 ct p
141 -36 m  162 -36 180 -41 196 -50 ct 212 -59 224 -72 233 -88 ct 243 -104 247 -121 247 -138 ct 
247 -166 l  186 -165 l  160 -164 140 -161 126 -157 ct 113 -152 102 -144 95 -134 ct 
88 -123 84 -110 84 -93 ct 84 -75 89 -61 99 -51 ct 109 -41 123 -36 141 -36 ct p ef
470 -68 m  470 -16 l  470 6 468 25 464 39 ct 461 54 454 68 446 82 ct 408 82 l 
427 53 437 26 437 0 ct 410 0 l  410 -68 l  470 -68 l  p ef
855 -169 m  855 -52 814 7 732 7 ct 707 7 686 2 669 -7 ct 652 -16 638 -31 628 -51 ct 
627 -51 l  627 -45 627 -35 626 -22 ct 625 -9 624 -1 624 1 ct 570 1 l  571 -10 572 -33 572 -68 ct 
572 -460 l  628 -460 l  628 -328 l  628 -315 627 -299 626 -281 ct 628 -281 l 
638 -302 652 -318 669 -327 ct 686 -336 707 -341 732 -341 ct 774 -341 806 -327 826 -298 ct 
846 -270 855 -227 855 -169 ct p
797 -167 m  797 -214 791 -247 778 -268 ct 766 -288 746 -298 718 -298 ct 686 -298 664 -287 649 -266 ct 
635 -244 628 -210 628 -163 ct 628 -119 635 -87 649 -66 ct 663 -45 686 -34 717 -34 ct 
745 -34 766 -45 778 -65 ct 791 -86 797 -120 797 -167 ct p ef
pom
pum
7390 15535 t
128 6 m  95 6 69 -3 52 -21 ct 35 -38 27 -63 27 -94 ct 27 -129 38 -155 61 -174 ct 
84 -192 121 -202 172 -204 ct 247 -205 l  247 -223 l  247 -250 241 -270 230 -282 ct 
218 -294 200 -299 175 -299 ct 150 -299 132 -295 121 -287 ct 109 -278 102 -265 100 -246 ct 
42 -251 l  51 -312 96 -342 176 -342 ct 219 -342 250 -332 272 -313 ct 293 -294 304 -266 304 -229 ct 
304 -85 l  304 -68 306 -55 310 -47 ct 314 -39 323 -35 335 -35 ct 340 -35 346 -35 353 -37 ct 
353 -2 l  339 1 325 3 310 3 ct 289 3 274 -2 265 -13 ct 256 -24 250 -41 249 -64 ct 
247 -64 l  233 -39 216 -21 197 -10 ct 178 1 155 6 128 6 ct p
141 -36 m  162 -36 180 -41 196 -50 ct 212 -59 224 -72 233 -88 ct 243 -104 247 -121 247 -138 ct 
247 -166 l  186 -165 l  160 -164 140 -161 126 -157 ct 113 -152 102 -144 95 -134 ct 
88 -123 84 -110 84 -93 ct 84 -75 89 -61 99 -51 ct 109 -41 123 -36 141 -36 ct p ef
pom
pum
13990 15535 t
128 6 m  95 6 69 -3 52 -21 ct 35 -38 27 -63 27 -94 ct 27 -129 38 -155 61 -174 ct 
84 -192 121 -202 172 -204 ct 247 -205 l  247 -223 l  247 -250 241 -270 230 -282 ct 
218 -294 200 -299 175 -299 ct 150 -299 132 -295 121 -287 ct 109 -278 102 -265 100 -246 ct 
42 -251 l  51 -312 96 -342 176 -342 ct 219 -342 250 -332 272 -313 ct 293 -294 304 -266 304 -229 ct 
304 -85 l  304 -68 306 -55 310 -47 ct 314 -39 323 -35 335 -35 ct 340 -35 346 -35 353 -37 ct 
353 -2 l  339 1 325 3 310 3 ct 289 3 274 -2 265 -13 ct 256 -24 250 -41 249 -64 ct 
247 -64 l  233 -39 216 -21 197 -10 ct 178 1 155 6 128 6 ct p
141 -36 m  162 -36 180 -41 196 -50 ct 212 -59 224 -72 233 -88 ct 243 -104 247 -121 247 -138 ct 
247 -166 l  186 -165 l  160 -164 140 -161 126 -157 ct 113 -152 102 -144 95 -134 ct 
88 -123 84 -110 84 -93 ct 84 -75 89 -61 99 -51 ct 109 -41 123 -36 141 -36 ct p ef
pom
pum
10591 15635 t
326 -169 m  326 -52 285 7 203 7 ct 178 7 157 2 140 -7 ct 123 -16 109 -31 99 -51 ct 
98 -51 l  98 -45 98 -35 97 -22 ct 96 -9 95 -1 95 1 ct 41 1 l  42 -10 43 -33 43 -68 ct 
43 -460 l  99 -460 l  99 -328 l  99 -315 98 -299 97 -281 ct 99 -281 l  109 -302 123 -318 140 -327 ct 
157 -336 178 -341 203 -341 ct 245 -341 277 -327 297 -298 ct 317 -270 326 -227 326 -169 ct 
p
268 -167 m  268 -214 262 -247 249 -268 ct 237 -288 217 -298 189 -298 ct 157 -298 135 -287 120 -266 ct 
106 -244 99 -210 99 -163 ct 99 -119 106 -87 120 -66 ct 134 -45 157 -34 188 -34 ct 
216 -34 237 -45 249 -65 ct 262 -86 268 -120 268 -167 ct p ef
pom
0 4362 t 
pom
count op_count sub {pop} repeat countdictstack dict_count sub {end} repeat b4_inc_state restore
%%PageTrailer
%%Trailer
%%EOF
